%!PS-Adobe-2.0 EPSF-2.0
%%BoundingBox: 0 0 567 454
%%Title: bbnlimit.eps
%%Creator: HIGZ Version 1.26/04
%%CreationDate: 2000/07/14   12.08
%%EndComments
%%BeginProlog
80 dict begin
/s {stroke} def /l {lineto} def /m {moveto} def /t {translate} def
/sw {stringwidth} def /r {rotate} def /rl {roll}  def /R {repeat} def
/d {rlineto} def /rm {rmoveto} def /gr {grestore} def /f {eofill} def
/c {setrgbcolor} def /lw {setlinewidth} def /sd {setdash} def
/cl {closepath} def /sf {scalefont setfont} def /black {0 setgray} def
/box {m dup 0 exch d exch 0 d 0 exch neg d cl} def
/NC{systemdict begin initclip end}def/C{NC box clip newpath}def
/bl {box s} def /bf {box f} def /Y { 0 exch d} def /X { 0 d} def 
/mp {newpath /y exch def /x exch def} def
/side {[w .77 mul w .23 mul] .385 w mul sd w 0 l currentpoint t -144 r} def
/mr {mp x y w2 0 360 arc} def /m24 {mr s} def /m20 {mr f} def
/mb {mp x y w2 add m w2 neg 0 d 0 w neg d w 0 d 0 w d cl} def
/mt {mp x y w2 add m w2 neg w neg d w 0 d cl} def
/m21 {mb f} def /m25 {mb s} def /m22 {mt f} def /m26 {mt s} def
/m23 {mp x y w2 sub m w2 w d w neg 0 d cl f} def
/m27 {mp x y w2 add m w3 neg w2 neg d w3 w2 neg d w3  w2 d cl s} def
/m28 {mp x w2 sub y w2 sub w3 add m w3 0 d 0 w3 neg d w3 0 d 0 w3 d w3 0 d
 0 w3 d w3 neg 0 d 0 w3 d w3 neg 0 d
 0 w3 neg d w3 neg 0 d cl s } def
/m29 {mp gsave x w2 sub y w2 add w3 sub m currentpoint t
 4 {side} repeat cl fill gr} def
/m30 {mp gsave x w2 sub y w2 add w3 sub m currentpoint t
 5 {side} repeat s gr} def
/m31 {mp x y w2 sub m 0 w d x w2 sub y m w 0 d
 x w2 sub y w2 add m w w neg d x w2 sub y w2
 sub m w w d s} def
/m2 {mp x y w2 sub m 0 w d x w2 sub y m w 0 d s} def
/m5 {mp x w2 sub y w2 sub m w w d x w2 sub y w2 add m w w neg d s} def
/reencdict 24 dict def /ReEncode {reencdict begin /nco&na exch def
/nfnam exch def /basefontname exch def /basefontdict basefontname findfont def
/newfont basefontdict maxlength dict def basefontdict {exch dup /FID ne
{dup /Encoding eq {exch dup length array copy newfont 3 1 roll put} {exch
newfont 3 1 roll put} ifelse} {pop pop} ifelse } forall newfont
/FontName nfnam put nco&na aload pop nco&na length 2 idiv {newfont
/Encoding get 3 1 roll put} repeat nfnam newfont definefont pop end } def
/accvec [ 176 /agrave 181 /Agrave 190 /acircumflex 192 /Acircumflex
201 /adieresis 204 /Adieresis 209 /ccedilla 210 /Ccedilla 211 /eacute
212 /Eacute 213 /egrave 214 /Egrave 215 /ecircumflex 216 /Ecircumflex
217 /edieresis 218 /Edieresis 219 /icircumflex 220 /Icircumflex
221 /idieresis 222 /Idieresis 223 /ntilde 224 /Ntilde 226 /ocircumflex
228 /Ocircumflex 229 /odieresis 230 /Odieresis 231 /ucircumflex 236 /Ucircumflex
237 /udieresis 238 /Udieresis 239 /aring 242 /Aring 243 /ydieresis
244 /Ydieresis 246 /aacute 247 /Aacute 252 /ugrave 253 /Ugrave] def
/Times-Roman /Times-Roman accvec ReEncode
/Times-Italic /Times-Italic accvec ReEncode
/Times-Bold /Times-Bold accvec ReEncode
/Times-BoldItalic /Times-BoldItalic accvec ReEncode
/Helvetica /Helvetica accvec ReEncode
/Helvetica-Oblique /Helvetica-Oblique accvec ReEncode
/Helvetica-Bold /Helvetica-Bold accvec ReEncode
/Helvetica-BoldOblique /Helvetica-BoldOblique  accvec ReEncode
/Courier /Courier accvec ReEncode
/Courier-Oblique /Courier-Oblique accvec ReEncode
/Courier-Bold /Courier-Bold accvec ReEncode
/Courier-BoldOblique /Courier-BoldOblique accvec ReEncode
/oshow {gsave [] 0 sd true charpath stroke gr} def
/stwn { /fs exch def /fn exch def /text exch def fn findfont fs sf
 text sw pop xs add /xs exch def} def
/stwb { /fs exch def /fn exch def /nbas exch def /textf exch def
textf length /tlen exch def nbas tlen gt {/nbas tlen def} if
fn findfont fs sf textf dup length nbas sub nbas getinterval sw
pop neg xs add /xs exch def} def
/accspe [ 65 /plusminus 66 /bar 67 /existential 68 /universal
69 /exclam 70 /numbersign 71 /greater 72 /question 73 /integral
74 /colon 75 /semicolon 76 /less 77 /bracketleft 78 /bracketright
79 /greaterequal 80 /braceleft 81 /braceright 82 /radical
83 /spade 84 /heart 85 /diamond 86 /club 87 /lessequal
88 /multiply 89 /percent 90 /infinity 48 /circlemultiply 49 /circleplus
50 /emptyset 51 /lozenge 52 /bullet 53 /arrowright 54 /arrowup
55 /arrowleft 56 /arrowdown 57 /arrowboth 48 /degree 44 /comma 43 /plus
 45 /angle 42 /angleleft 47 /divide 61 /notequal 40 /equivalence 41 /second
 97 /approxequal 98 /congruent 99 /perpendicular 100 /partialdiff 101 /florin
 102 /intersection 103 /union 104 /propersuperset 105 /reflexsuperset
 106 /notsubset 107 /propersubset 108 /reflexsubset 109 /element 110 /notelement
 111 /gradient 112 /logicaland 113 /logicalor 114 /arrowdblboth
 115 /arrowdblleft 116 /arrowdblup 117 /arrowdblright 118 /arrowdbldown
 119 /ampersand 120 /omega1 121 /similar 122 /aleph ] def
/Symbol /Special accspe ReEncode
%%EndProlog
 gsave  .25 .25 scale  gsave 0 0 t black [] 0 sd 1 lw 2 lw 1417 1417 397 227 bl
 2268 1814 0 0 C 1417 1417 397 227 C NC 1 lw 397 227 m 1417 Y s 2 lw 431 227 m
 -34 X s
 /xs 0 def 
(10)
 /Helvetica-Bold     62 stwn 
 gsave  312 204
 t   0 r  xs neg 0 t 0 0 m
 /Helvetica-Bold findfont   62 sf 0    0 m 
(10)
 show 
 gr 
 /xs 0 def 
(-6)
 /Helvetica-Bold     50 stwn 
 gsave  380 260
 t   0 r  xs neg 0 t 0 0 m
 /Helvetica-Bold findfont   50 sf 0    0 m 
(-6)
 show 
 gr  414 302 m -17 X s 414 345 m -17 X s 414 377 m -17 X s 414 401 m -17 X s 414
 420 m -17 X s 414 437 m -17 X s 414 451 m -17 X s 414 464 m -17 X s 431 476 m
 -34 X s
 /xs 0 def 
(10)
 /Helvetica-Bold     62 stwn 
 gsave  312 453
 t   0 r  xs neg 0 t 0 0 m
 /Helvetica-Bold findfont   62 sf 0    0 m 
(10)
 show 
 gr 
 /xs 0 def 
(-5)
 /Helvetica-Bold     50 stwn 
 gsave  380 508
 t   0 r  xs neg 0 t 0 0 m
 /Helvetica-Bold findfont   50 sf 0    0 m 
(-5)
 show 
 gr  414 550 m -17 X s 414 594 m -17 X s 414 625 m -17 X s 414 649 m -17 X s 414
 669 m -17 X s 414 686 m -17 X s 414 700 m -17 X s 414 713 m -17 X s 431 724 m
 -34 X s
 /xs 0 def 
(10)
 /Helvetica-Bold     62 stwn 
 gsave  312 702
 t   0 r  xs neg 0 t 0 0 m
 /Helvetica-Bold findfont   62 sf 0    0 m 
(10)
 show 
 gr 
 /xs 0 def 
(-4)
 /Helvetica-Bold     50 stwn 
 gsave  380 757
 t   0 r  xs neg 0 t 0 0 m
 /Helvetica-Bold findfont   50 sf 0    0 m 
(-4)
 show 
 gr  414 799 m -17 X s 414 843 m -17 X s 414 874 m -17 X s 414 898 m -17 X s 414
 918 m -17 X s 414 934 m -17 X s 414 949 m -17 X s 414 962 m -17 X s 431 973 m
 -34 X s
 /xs 0 def 
(10)
 /Helvetica-Bold     62 stwn 
 gsave  312 950
 t   0 r  xs neg 0 t 0 0 m
 /Helvetica-Bold findfont   62 sf 0    0 m 
(10)
 show 
 gr 
 /xs 0 def 
(-3)
 /Helvetica-Bold     50 stwn 
 gsave  380 1006
 t   0 r  xs neg 0 t 0 0 m
 /Helvetica-Bold findfont   50 sf 0    0 m 
(-3)
 show 
 gr  414 1048 m -17 X s 414 1092 m -17 X s 414 1123 m -17 X s 414 1147 m -17 X s
 414 1167 m -17 X s 414 1183 m -17 X s 414 1198 m -17 X s 414 1210 m -17 X s 431
 1222 m -34 X s
 /xs 0 def 
(10)
 /Helvetica-Bold     62 stwn 
 gsave  312 1199
 t   0 r  xs neg 0 t 0 0 m
 /Helvetica-Bold findfont   62 sf 0    0 m 
(10)
 show 
 gr 
 /xs 0 def 
(-2)
 /Helvetica-Bold     50 stwn 
 gsave  380 1255
 t   0 r  xs neg 0 t 0 0 m
 /Helvetica-Bold findfont   50 sf 0    0 m 
(-2)
 show 
 gr  414 1297 m -17 X s 414 1340 m -17 X s 414 1371 m -17 X s 414 1396 m -17 X s
 414 1415 m -17 X s 414 1432 m -17 X s 414 1446 m -17 X s 414 1459 m -17 X s 431
 1470 m -34 X s
 /xs 0 def 
(10)
 /Helvetica-Bold     62 stwn 
 gsave  312 1448
 t   0 r  xs neg 0 t 0 0 m
 /Helvetica-Bold findfont   62 sf 0    0 m 
(10)
 show 
 gr 
 /xs 0 def 
(-1)
 /Helvetica-Bold     50 stwn 
 gsave  380 1503
 t   0 r  xs neg 0 t 0 0 m
 /Helvetica-Bold findfont   50 sf 0    0 m 
(-1)
 show 
 gr  414 1545 m -17 X s 414 1589 m -17 X s 414 1620 m -17 X s 414 1644 m -17 X s
 1 lw 397 227 m 1417 X s 2 lw 397 261 m -34 Y s 432 244 m -17 Y s 468 244 m -17
 Y s 503 244 m -17 Y s 539 261 m -34 Y s 574 244 m -17 Y s 610 244 m -17 Y s 645
 244 m -17 Y s 680 261 m -34 Y s 716 244 m -17 Y s 751 244 m -17 Y s 787 244 m
 -17 Y s 822 261 m -34 Y s 858 244 m -17 Y s 893 244 m -17 Y s 928 244 m -17 Y s
 964 261 m -34 Y s 999 244 m -17 Y s 1035 244 m -17 Y s 1070 244 m -17 Y s 1106
 261 m -34 Y s 1141 244 m -17 Y s 1177 244 m -17 Y s 1212 244 m -17 Y s 1247 261
 m -34 Y s 1283 244 m -17 Y s 1318 244 m -17 Y s 1354 244 m -17 Y s 1389 261 m
 -34 Y s 1425 244 m -17 Y s 1460 244 m -17 Y s 1495 244 m -17 Y s 1531 261 m -34
 Y s 1566 244 m -17 Y s 1602 244 m -17 Y s 1637 244 m -17 Y s 1673 261 m -34 Y s
 1708 244 m -17 Y s 1744 244 m -17 Y s 1779 244 m -17 Y s 1814 261 m -34 Y s
 /xs 0 def 
(0)
 /Helvetica-Bold     62 stwn 
 gsave  397 136
 t   0 r  xs 2 div neg 0 t 0 0 m
 /Helvetica-Bold findfont   62 sf 0    0 m 
(0)
 show 
 gr 
 /xs 0 def 
(20)
 /Helvetica-Bold     62 stwn 
 gsave  539 136
 t   0 r  xs 2 div neg 0 t 0 0 m
 /Helvetica-Bold findfont   62 sf 0    0 m 
(20)
 show 
 gr 
 /xs 0 def 
(40)
 /Helvetica-Bold     62 stwn 
 gsave  680 136
 t   0 r  xs 2 div neg 0 t 0 0 m
 /Helvetica-Bold findfont   62 sf 0    0 m 
(40)
 show 
 gr 
 /xs 0 def 
(60)
 /Helvetica-Bold     62 stwn 
 gsave  822 136
 t   0 r  xs 2 div neg 0 t 0 0 m
 /Helvetica-Bold findfont   62 sf 0    0 m 
(60)
 show 
 gr 
 /xs 0 def 
(80)
 /Helvetica-Bold     62 stwn 
 gsave  964 136
 t   0 r  xs 2 div neg 0 t 0 0 m
 /Helvetica-Bold findfont   62 sf 0    0 m 
(80)
 show 
 gr 
 /xs 0 def 
(100)
 /Helvetica-Bold     62 stwn 
 gsave  1106 136
 t   0 r  xs 2 div neg 0 t 0 0 m
 /Helvetica-Bold findfont   62 sf 0    0 m 
(100)
 show 
 gr 
 /xs 0 def 
(120)
 /Helvetica-Bold     62 stwn 
 gsave  1247 136
 t   0 r  xs 2 div neg 0 t 0 0 m
 /Helvetica-Bold findfont   62 sf 0    0 m 
(120)
 show 
 gr 
 /xs 0 def 
(140)
 /Helvetica-Bold     62 stwn 
 gsave  1389 136
 t   0 r  xs 2 div neg 0 t 0 0 m
 /Helvetica-Bold findfont   62 sf 0    0 m 
(140)
 show 
 gr 
 /xs 0 def 
(160)
 /Helvetica-Bold     62 stwn 
 gsave  1531 136
 t   0 r  xs 2 div neg 0 t 0 0 m
 /Helvetica-Bold findfont   62 sf 0    0 m 
(160)
 show 
 gr 
 /xs 0 def 
(180)
 /Helvetica-Bold     62 stwn 
 gsave  1673 136
 t   0 r  xs 2 div neg 0 t 0 0 m
 /Helvetica-Bold findfont   62 sf 0    0 m 
(180)
 show 
 gr 
 /xs 0 def 
(200)
 /Helvetica-Bold     62 stwn 
 gsave  1814 136
 t   0 r  xs 2 div neg 0 t 0 0 m
 /Helvetica-Bold findfont   62 sf 0    0 m 
(200)
 show 
 gr  1417 1417 397 227 C 552 1655 m 7 -47 d 5 -30 d 9 -44 d 4 -24 d 10 -44 d 3
 -16 d 11 -44 d 2 -10 d 13 -49 d 13 -45 d 13 -42 d 13 -38 d 13 -36 d 13 -34 d 12
 -32 d 13 -30 d 13 -28 d 13 -27 d 13 -26 d 13 -25 d 13 -23 d 13 -23 d 13 -21 d
 13 -21 d 12 -20 d 13 -19 d 13 -19 d 13 -18 d 13 -18 d 13 -16 d 13 -17 d 13 -16
 d 13 -15 d 12 -15 d 13 -15 d 13 -14 d 13 -14 d 13 -13 d 13 -13 d 13 -13 d 13
 -13 d 13 -12 d 13 -12 d 12 -12 d 13 -11 d 13 -12 d 13 -11 d 13 -10 d 13 -11 d
 13 -10 d 13 -11 d 13 -10 d 12 -9 d s 1183 497 m 13 -10 d 13 -10 d 13 -9 d 13 -9
 d 13 -9 d 13 -9 d 13 -9 d 13 -8 d 13 -9 d 12 -8 d 13 -8 d 13 -8 d 13 -8 d 13 -8
 d 13 -8 d 13 -7 d 13 -8 d 13 -7 d 13 -7 d 12 -8 d 13 -7 d 13 -7 d 13 -7 d 13 -7
 d 13 -6 d 13 -7 d 13 -7 d 13 -6 d 12 -6 d 13 -7 d 13 -6 d 13 -6 d 13 -6 d 13 -7
 d 13 -6 d 13 -5 d s 472 1671 m 7 -24 d 6 -21 d 8 -22 d 6 -16 d 9 -23 d 5 -11 d
 10 -23 d 3 -7 d 11 -22 d 3 -5 d 13 -25 d 14 -22 d 14 -21 d 13 -19 d 14 -18 d 13
 -17 d 14 -16 d 14 -15 d 13 -14 d 14 -13 d 13 -13 d 14 -12 d 14 -12 d 13 -11 d
 14 -11 d 13 -10 d 14 -10 d 14 -9 d 13 -9 d 14 -9 d 13 -9 d 14 -8 d 14 -8 d 13
 -8 d 14 -8 d 13 -7 d 14 -7 d 14 -7 d 13 -7 d 14 -6 d 13 -7 d 14 -6 d 14 -6 d 13
 -6 d 14 -6 d 14 -5 d 13 -6 d 14 -5 d 13 -5 d 14 -6 d 14 -5 d 13 -4 d 14 -5 d 13
 -5 d s 1138 1059 m 14 -4 d 14 -5 d 13 -4 d 14 -5 d 13 -4 d 14 -4 d 14 -4 d 13
 -4 d 14 -4 d 13 -3 d 14 -4 d 14 -4 d 13 -3 d 14 -3 d 13 -4 d 14 -3 d 14 -3 d 13
 -3 d 14 -3 d 13 -3 d 14 -3 d 14 -2 d 13 -3 d 14 -2 d 13 -3 d 14 -2 d 14 -2 d 13
 -2 d 14 -2 d 13 -2 d 14 -1 d 14 -2 d 13 -1 d 14 -1 d 13 -1 d 41 X 14 1 d 10 1 d
 4 1 d 9 2 d 4 1 d 8 2 d 6 2 d 7 4 d 3 2 d 3 2 d 3 2 d 4 3 d 2 1 d 2 2 d 1 3 d 1
 2 d 1 3 d 1 4 d 2 5 d 1 5 d 1 5 d 1 6 d 1 6 d 1 7 d 1 6 d 1 8 d 7 Y 1 8 d 1 8 d
 10 Y 1 8 d 17 Y 1 10 d 20 Y s 2268 1814 0 0 C 1417 1417 397 227 C 2268 1814 0 0
 C
 gsave  964 1297
 t   0 r 0 0 m
 /Helvetica-Bold findfont   62 sf 0    0 m 
(NOMAD excluded)
 show 
 gr  1417 1417 397 227 C 2268 1814 0 0 C 1417 1417 397 227 C 2268 1814 0 0 C
 gsave  539 476
 t   0 r 0 0 m
 /Helvetica-Bold findfont   62 sf 0    0 m 
(BBN excluded)
 show 
 gr  1417 1417 397 227 C 2268 1814 0 0 C
 /xs 0 def 
(n)
 /Symbol     62 stwn 
(s)
 /Helvetica-Bold     43 stwn 
( mass, MeV)
 /Helvetica-Bold     62 stwn 
 gsave  1814 34
 t   0 r  xs neg 0 t 0 0 m
 /Symbol findfont   62 sf 0    0 m 
(n)
 show 
 currentpoint pop 0 t 
 /Helvetica-Bold findfont   43 sf 0  -21 m 
(s)
 show 
 currentpoint pop 0 t 
 /Helvetica-Bold findfont   62 sf 0    0 m 
( mass, MeV)
 show 
 gr 
 /xs 0 def 
(Coupling U)
 /Helvetica-Bold     62 stwn 
 /s1 0 def 
 /Symbol findfont   43 sf
 (t) sw pop s1 add /s1 exch def
 /Helvetica-Bold findfont   43 sf
 (s) sw pop s1 add /s1 exch def
 /s2 0 def 
 /Helvetica-Bold findfont   43 sf
 (2) sw pop s2 add /s2 exch def
 s1 s2 ge { xs s1 add /xs exch def} { xs s2 add /xs exch def} ifelse 
 gsave  170 1644
 t  90 r  xs neg 0 t 0 0 m
 /Helvetica-Bold findfont   62 sf 0    0 m 
(Coupling U)
 show 
 currentpoint pop 0 t 
 0  -21 rm 
 /Symbol findfont   43 sf
(t)
 show currentpoint pop /s1 exch def
 /Helvetica-Bold findfont   43 sf
(s)
 show currentpoint pop /s1 exch def
 0   31 rm 
 /Helvetica-Bold findfont   43 sf
(2)
 show currentpoint pop /s2 exch def
 s1 s2 ge {s1 0 t} {s2 0 t} ifelse 
 gsave  gsave  gr  gr  gr  1417 1417 397 227 C
 gr  gr 
showpage
end
%%EOF
