%!PS-Adobe-2.0 EPSF-2.0
%%Title: biplot.eps
%%Creator: fig2dev Version 3.2 Patchlevel 3d
%%CreationDate: Wed Feb  4 14:22:08 2004
%%For: sgninenk@pccms164 (sergei Gninenko)
%%BoundingBox: 0 0 282 309
%%Magnification: 1.0000
%%EndComments
/$F2psDict 200 dict def
$F2psDict begin
$F2psDict /mtrx matrix put
/col-1 {0 setgray} bind def
/col0 {0.000 0.000 0.000 srgb} bind def
/col1 {0.000 0.000 1.000 srgb} bind def
/col2 {0.000 1.000 0.000 srgb} bind def
/col3 {0.000 1.000 1.000 srgb} bind def
/col4 {1.000 0.000 0.000 srgb} bind def
/col5 {1.000 0.000 1.000 srgb} bind def
/col6 {1.000 1.000 0.000 srgb} bind def
/col7 {1.000 1.000 1.000 srgb} bind def
/col8 {0.000 0.000 0.560 srgb} bind def
/col9 {0.000 0.000 0.690 srgb} bind def
/col10 {0.000 0.000 0.820 srgb} bind def
/col11 {0.530 0.810 1.000 srgb} bind def
/col12 {0.000 0.560 0.000 srgb} bind def
/col13 {0.000 0.690 0.000 srgb} bind def
/col14 {0.000 0.820 0.000 srgb} bind def
/col15 {0.000 0.560 0.560 srgb} bind def
/col16 {0.000 0.690 0.690 srgb} bind def
/col17 {0.000 0.820 0.820 srgb} bind def
/col18 {0.560 0.000 0.000 srgb} bind def
/col19 {0.690 0.000 0.000 srgb} bind def
/col20 {0.820 0.000 0.000 srgb} bind def
/col21 {0.560 0.000 0.560 srgb} bind def
/col22 {0.690 0.000 0.690 srgb} bind def
/col23 {0.820 0.000 0.820 srgb} bind def
/col24 {0.500 0.190 0.000 srgb} bind def
/col25 {0.630 0.250 0.000 srgb} bind def
/col26 {0.750 0.380 0.000 srgb} bind def
/col27 {1.000 0.500 0.500 srgb} bind def
/col28 {1.000 0.630 0.630 srgb} bind def
/col29 {1.000 0.750 0.750 srgb} bind def
/col30 {1.000 0.880 0.880 srgb} bind def
/col31 {1.000 0.840 0.000 srgb} bind def

end
save
newpath 0 309 moveto 0 0 lineto 282 0 lineto 282 309 lineto closepath clip newpath
-225.3 412.7 translate
1 -1 scale

/cp {closepath} bind def
/ef {eofill} bind def
/gr {grestore} bind def
/gs {gsave} bind def
/sa {save} bind def
/rs {restore} bind def
/l {lineto} bind def
/m {moveto} bind def
/rm {rmoveto} bind def
/n {newpath} bind def
/s {stroke} bind def
/sh {show} bind def
/slc {setlinecap} bind def
/slj {setlinejoin} bind def
/slw {setlinewidth} bind def
/srgb {setrgbcolor} bind def
/rot {rotate} bind def
/sc {scale} bind def
/sd {setdash} bind def
/ff {findfont} bind def
/sf {setfont} bind def
/scf {scalefont} bind def
/sw {stringwidth} bind def
/tr {translate} bind def
/tnt {dup dup currentrgbcolor
  4 -2 roll dup 1 exch sub 3 -1 roll mul add
  4 -2 roll dup 1 exch sub 3 -1 roll mul add
  4 -2 roll dup 1 exch sub 3 -1 roll mul add srgb}
  bind def
/shd {dup dup currentrgbcolor 4 -2 roll mul 4 -2 roll mul
  4 -2 roll mul srgb} bind def
/$F2psBegin {$F2psDict begin /$F2psEnteredState save def} def
/$F2psEnd {$F2psEnteredState restore end} def

$F2psBegin
10 setmiterlimit
 0.06000 0.06000 sc
%
% Fig objects follow
%
% Polyline
7.500 slw
n 4125 1875 m 8400 1875 l 8400 6300 l 4125 6300 l
 cp gs col0 s gr 
% Polyline
2 slj
n 4425 5700 m 4426 5699 l 4427 5696 l 4429 5691 l 4433 5684 l 4437 5674 l
 4444 5661 l 4451 5645 l 4460 5627 l 4470 5607 l 4481 5585 l
 4493 5562 l 4506 5537 l 4519 5511 l 4534 5484 l 4549 5456 l
 4566 5427 l 4584 5396 l 4603 5364 l 4624 5330 l 4646 5294 l
 4671 5255 l 4697 5216 l 4725 5175 l 4753 5135 l 4780 5098 l
 4804 5064 l 4826 5036 l 4844 5012 l 4858 4993 l 4869 4979 l
 4878 4968 l 4884 4961 l 4888 4956 l 4891 4953 l 4894 4950 l
 4897 4947 l 4900 4944 l 4905 4939 l 4912 4932 l 4922 4921 l
 4935 4907 l 4952 4888 l 4973 4864 l 4999 4836 l 5029 4802 l
 5063 4765 l 5100 4725 l 5135 4688 l 5168 4652 l 5200 4618 l
 5228 4588 l 5252 4562 l 5273 4539 l 5290 4521 l 5303 4506 l
 5314 4493 l 5322 4484 l 5328 4476 l 5333 4469 l 5338 4462 l
 5342 4456 l 5348 4449 l 5355 4441 l 5364 4432 l 5376 4419 l
 5391 4404 l 5411 4386 l 5435 4363 l 5464 4337 l 5498 4307 l
 5537 4273 l 5580 4237 l 5625 4200 l 5668 4166 l 5710 4133 l
 5750 4102 l 5786 4075 l 5819 4051 l 5848 4030 l 5873 4012 l
 5895 3998 l 5914 3986 l 5929 3976 l 5943 3968 l 5954 3961 l
 5965 3955 l 5975 3950 l 5985 3945 l 5995 3940 l 6007 3933 l
 6020 3926 l 6035 3918 l 6052 3907 l 6073 3895 l 6097 3880 l
 6124 3863 l 6154 3844 l 6188 3822 l 6224 3799 l 6262 3774 l
 6300 3750 l 6350 3718 l 6395 3689 l 6431 3666 l 6458 3648 l
 6478 3635 l 6490 3627 l 6496 3621 l 6498 3619 l 6497 3618 l
 6494 3619 l 6491 3619 l 6489 3619 l 6491 3618 l 6497 3614 l
 6508 3608 l 6526 3598 l 6552 3584 l 6587 3567 l 6628 3547 l
 6675 3525 l 6716 3506 l 6756 3489 l 6793 3472 l 6827 3457 l
 6856 3444 l 6881 3432 l 6901 3422 l 6918 3413 l 6932 3406 l
 6943 3399 l 6953 3393 l 6963 3387 l 6972 3382 l 6982 3376 l
 6994 3371 l 7008 3364 l 7026 3358 l 7048 3350 l 7074 3342 l
 7106 3333 l 7142 3324 l 7184 3316 l 7228 3307 l 7275 3300 l
 7325 3294 l 7372 3291 l 7415 3288 l 7451 3287 l 7481 3286 l
 7506 3286 l 7526 3286 l 7542 3286 l 7555 3287 l 7566 3287 l
 7575 3288 l 7584 3288 l 7594 3290 l 7605 3292 l 7619 3296 l
 7635 3300 l 7655 3307 l 7679 3315 l 7706 3326 l 7736 3340 l
 7768 3356 l 7800 3375 l 7832 3399 l 7858 3423 l 7879 3446 l
 7895 3467 l 7906 3486 l 7912 3502 l 7915 3516 l 7916 3528 l
 7915 3540 l 7912 3550 l 7910 3561 l 7908 3572 l 7906 3585 l
 7906 3600 l 7908 3618 l 7913 3639 l 7919 3663 l 7928 3690 l
 7939 3720 l 7950 3750 l 7965 3790 l 7977 3822 l 7986 3843 l
 7992 3854 l 7996 3857 l 7999 3855 l 8000 3850 l 8001 3845 l
 8003 3844 l 8005 3848 l 8009 3862 l 8013 3887 l 8019 3926 l
 8025 3975 l 8028 4010 l 8031 4044 l 8032 4076 l 8033 4105 l
 8034 4129 l 8034 4149 l 8034 4166 l 8034 4179 l 8033 4189 l
 8032 4198 l 8031 4206 l 8030 4215 l 8029 4224 l 8028 4236 l
 8028 4251 l 8027 4270 l 8026 4295 l 8026 4325 l 8025 4361 l
 8025 4403 l 8025 4450 l 8025 4500 l 8025 4547 l 8025 4592 l
 8025 4633 l 8025 4670 l 8025 4702 l 8025 4729 l 8025 4751 l
 8025 4770 l 8025 4785 l 8025 4798 l 8025 4809 l 8025 4819 l
 8025 4829 l 8025 4839 l 8025 4851 l 8025 4866 l 8025 4883 l
 8025 4903 l 8025 4928 l 8025 4956 l 8025 4989 l 8025 5024 l
 8025 5062 l 8025 5100 l 8025 5153 l 8025 5197 l 8026 5231 l
 8026 5254 l 8027 5269 l 8029 5277 l 8030 5280 l 8031 5281 l
 8032 5282 l 8034 5284 l 8034 5289 l 8034 5299 l 8034 5315 l
 8032 5338 l 8029 5367 l 8025 5400 l 8019 5436 l 8013 5466 l
 8007 5489 l 8001 5505 l 7996 5515 l 7992 5521 l 7987 5525 l
 7983 5529 l 7979 5534 l 7974 5543 l 7968 5556 l 7962 5575 l
 7956 5598 l 7950 5625 l 7945 5654 l 7943 5677 l 7944 5692 l
 7947 5701 l 7951 5705 l 7956 5706 l 7961 5708 l 7965 5711 l
 7967 5718 l 7966 5732 l 7960 5751 l 7950 5775 l 7938 5796 l
 7926 5815 l 7916 5830 l 7908 5841 l 7902 5850 l 7898 5857 l
 7894 5863 l 7890 5868 l 7884 5874 l 7876 5881 l 7864 5890 l
 7847 5901 l 7826 5913 l 7800 5925 l 7773 5934 l 7750 5940 l
 7732 5943 l 7720 5944 l 7712 5942 l 7708 5940 l 7706 5937 l
 7704 5934 l 7699 5932 l 7689 5929 l 7673 5927 l 7649 5926 l
 7615 5925 l 7575 5925 l 7541 5925 l 7509 5925 l 7481 5925 l
 7458 5925 l 7440 5925 l 7426 5925 l 7415 5925 l 7407 5925 l
 7400 5925 l 7393 5925 l 7384 5925 l 7373 5925 l 7357 5925 l
 7337 5925 l 7311 5925 l 7279 5925 l 7241 5925 l 7200 5925 l
 7159 5925 l 7122 5925 l 7090 5925 l 7065 5925 l 7046 5925 l
 7033 5925 l 7024 5925 l 7017 5925 l 7012 5925 l 7008 5925 l
 7001 5925 l 6992 5925 l 6979 5925 l 6960 5925 l 6935 5925 l
 6903 5925 l 6866 5925 l 6825 5925 l 6784 5925 l 6747 5925 l
 6715 5925 l 6690 5925 l 6671 5925 l 6658 5925 l 6649 5925 l
 6642 5925 l 6637 5925 l 6633 5925 l 6626 5925 l 6617 5925 l
 6604 5925 l 6585 5925 l 6560 5925 l 6528 5925 l 6491 5925 l
 6450 5925 l 6409 5925 l 6372 5925 l 6342 5926 l 6319 5927 l
 6304 5929 l 6294 5931 l 6289 5933 l 6288 5935 l 6288 5938 l
 6287 5940 l 6285 5942 l 6278 5943 l 6266 5944 l 6246 5943 l
 6217 5941 l 6179 5938 l 6131 5932 l 6075 5925 l 6034 5919 l
 5993 5912 l 5955 5905 l 5918 5899 l 5886 5892 l 5857 5886 l
 5831 5880 l 5809 5874 l 5790 5869 l 5773 5864 l 5758 5859 l
 5744 5855 l 5731 5850 l 5718 5845 l 5705 5841 l 5690 5836 l
 5673 5831 l 5654 5826 l 5633 5820 l 5608 5814 l 5580 5808 l
 5548 5801 l 5514 5795 l 5477 5788 l 5438 5781 l 5400 5775 l
 5343 5767 l 5296 5761 l 5261 5759 l 5238 5758 l 5224 5759 l
 5218 5762 l 5217 5765 l 5219 5769 l 5221 5773 l 5221 5776 l
 5218 5779 l 5209 5781 l 5193 5782 l 5168 5781 l 5137 5779 l
 5100 5775 l 5063 5770 l 5030 5764 l 5003 5759 l 4983 5754 l
 4967 5749 l 4957 5745 l 4950 5741 l 4944 5738 l 4938 5734 l
 4931 5730 l 4921 5726 l 4907 5721 l 4887 5716 l 4863 5711 l
 4833 5705 l 4800 5700 l 4764 5695 l 4734 5693 l 4710 5691 l
 4693 5691 l 4682 5691 l 4674 5692 l 4669 5694 l 4664 5695 l
 4657 5697 l 4648 5698 l 4635 5699 l 4618 5700 l 4597 5700 l
 4575 5700 l 4543 5700 l 4523 5700 l 4511 5700 l 4505 5700 l
 4502 5700 l
 4500 5700 l gs col0 s gr 
/Times-Roman ff 180.00 scf sf
3900 2925 m
gs 1 -1 sc  90.0 rot (M\(ej1j2\)\(TeV\)) col0 sh gr
/Times-Roman ff 180.00 scf sf
6975 6825 m
gs 1 -1 sc (M\(e1e2j1j2\)) col0 sh gr
/Times-Roman ff 180.00 scf sf
7950 6825 m
gs 1 -1 sc (\(TeV\)) col0 sh gr
$F2psEnd
rs
