#FIG 3.2
Landscape
Center
Inches
Letter  
100.00
Single
-2
1200 2
2 2 0 1 0 7 50 0 -1 0.000 0 0 -1 0 0 5
	 4125 1875 8400 1875 8400 6300 4125 6300 4125 1875
3 2 0 1 0 7 50 0 -1 0.000 0 0 0 26
	 4425 5700 4725 5175 5100 4725 5625 4200 6300 3750 6675 3525
	 7275 3300 7800 3375 7950 3750 8025 3975 8025 4500 8025 5100
	 8025 5400 7950 5625 7950 5775 7800 5925 7575 5925 7200 5925
	 6825 5925 6450 5925 6075 5925 5400 5775 5100 5775 4800 5700
	 4575 5700 4500 5700
	 0.000 -1.000 -1.000 -1.000 -1.000 -1.000 -1.000 -1.000
	 -1.000 -1.000 -1.000 -1.000 -1.000 -1.000 -1.000 -1.000
	 -1.000 -1.000 -1.000 -1.000 -1.000 -1.000 -1.000 -1.000
	 -1.000 0.000
4 0 0 50 0 0 12 1.5708 4 180 1155 3900 2925 M(ej1j2)(TeV)\001
4 0 0 50 0 0 12 0.0000 4 180 945 6975 6825 M(e1e2j1j2)\001
4 0 0 50 0 0 12 0.0000 4 180 480 7950 6825 (TeV)\001
