#FIG 3.2  Produced by xfig version 3.2.5
Portrait
Flush left
Inches
Letter  
100.00
Single
0
1200 2
1 4 0 1 0 0 50 0 20 0.000 1 0.0000 2667 3900 192 192 2475 3900 2859 3900
1 4 0 1 0 0 50 0 20 0.000 1 0.0000 2610 5939 192 192 2418 5939 2802 5939
# polyline
2 1 0 1 0 0 498 0 -1 4.000 0 0 0 0 0 2
	 2837 3983 4254 4929
# polyline
2 1 0 1 0 0 497 0 -1 4.000 0 0 0 0 0 2
	 2837 5875 4254 4929
# polyline
2 1 0 1 0 0 496 0 -1 4.000 0 0 0 0 0 44
	 4258 4929 4262 4929 4266 4933 4270 4933 4270 4937 4274 4941
	 4279 4945 4283 4950 4287 4954 4291 4962 4295 4966 4299 4970
	 4304 4979 4308 4983 4312 4991 4312 4995 4316 5000 4320 5004
	 4324 5008 4329 5012 4333 5016 4337 5020 4358 5020 4362 5016
	 4366 5012 4370 5008 4374 5004 4379 5000 4383 4995 4387 4991
	 4391 4983 4395 4979 4395 4970 4399 4966 4404 4962 4408 4954
	 4412 4950 4416 4945 4420 4941 4424 4937 4429 4933 4433 4933
	 4437 4929 4441 4929
# polyline
2 1 0 1 0 0 495 0 -1 4.000 0 0 0 0 0 44
	 4441 4929 4449 4929 4454 4933 4458 4933 4462 4937 4466 4941
	 4470 4945 4474 4950 4479 4954 4479 4962 4483 4966 4487 4970
	 4491 4979 4495 4983 4499 4991 4504 4995 4508 5000 4512 5004
	 4516 5008 4516 5012 4520 5016 4524 5020 4549 5020 4554 5016
	 4558 5012 4558 5008 4562 5004 4566 5000 4570 4995 4574 4991
	 4579 4983 4583 4979 4587 4970 4591 4966 4595 4962 4599 4954
	 4599 4950 4604 4945 4608 4941 4612 4937 4616 4933 4620 4933
	 4624 4929 4633 4929
# polyline
2 1 0 1 0 0 494 0 -1 4.000 0 0 0 0 0 44
	 4633 4929 4641 4929 4641 4933 4645 4933 4649 4937 4654 4941
	 4658 4945 4662 4950 4666 4954 4670 4962 4674 4966 4679 4970
	 4683 4979 4683 4983 4687 4991 4691 4995 4695 5000 4699 5004
	 4704 5008 4708 5012 4712 5016 4716 5020 4737 5020 4741 5016
	 4745 5012 4749 5008 4754 5004 4758 5000 4762 4995 4762 4991
	 4766 4983 4770 4979 4774 4970 4779 4966 4783 4962 4787 4954
	 4791 4950 4795 4945 4799 4941 4804 4937 4804 4933 4808 4933
	 4812 4929 4820 4929
# polyline
2 1 0 1 0 0 493 0 -1 4.000 0 0 0 0 0 44
	 4820 4929 4829 4929 4833 4933 4837 4933 4841 4937 4845 4941
	 4845 4945 4849 4950 4854 4954 4858 4962 4862 4966 4866 4970
	 4870 4979 4874 4983 4879 4991 4883 4995 4887 5000 4887 5004
	 4891 5008 4895 5012 4899 5016 4904 5020 4924 5020 4929 5016
	 4933 5012 4937 5008 4941 5004 4945 5000 4949 4995 4954 4991
	 4958 4983 4962 4979 4966 4970 4966 4966 4970 4962 4974 4954
	 4979 4950 4983 4945 4987 4941 4991 4937 4995 4933 4999 4933
	 5004 4929 5008 4929
# polyline
2 1 0 1 0 0 492 0 -1 4.000 0 0 0 0 0 44
	 5008 4929 5016 4929 5020 4933 5024 4933 5029 4937 5033 4941
	 5037 4945 5041 4950 5045 4954 5049 4962 5049 4966 5054 4970
	 5058 4979 5062 4983 5066 4991 5070 4995 5074 5000 5079 5004
	 5083 5008 5087 5012 5091 5016 5091 5020 5116 5020 5120 5016
	 5124 5012 5129 5008 5133 5004 5133 5000 5137 4995 5141 4991
	 5145 4983 5149 4979 5154 4970 5158 4966 5162 4962 5166 4954
	 5170 4950 5170 4945 5174 4941 5179 4937 5183 4933 5187 4933
	 5191 4929 5199 4929
# polyline
2 1 0 1 0 0 491 0 -1 4.000 0 0 0 0 0 2
	 5199 4929 6616 3983
# polyline
2 1 0 1 0 0 488 0 -1 4.000 0 0 0 0 0 2
	 6616 5875 8508 6108
# polyline
2 1 0 1 0 0 487 0 -1 4.000 0 0 0 0 0 33
	 6620 5879 6624 5883 6624 5891 6629 5895 6629 5966 6624 5975
	 6624 6020 6629 6029 6629 6033 6633 6041 6633 6045 6637 6050
	 6641 6054 6645 6058 6649 6062 6658 6066 6662 6070 6670 6070
	 6679 6075 6691 6075 6699 6079 6724 6079 6733 6083 6749 6083
	 6758 6087 6766 6087 6774 6091 6779 6091 6787 6095 6791 6095
	 6795 6100 6804 6104 6808 6108
# polyline
2 1 0 1 0 0 486 0 -1 4.000 0 0 0 0 0 37
	 6808 6108 6808 6116 6812 6120 6816 6125 6816 6137 6820 6145
	 6820 6170 6816 6179 6816 6220 6812 6229 6812 6250 6816 6258
	 6816 6270 6820 6275 6824 6283 6829 6287 6829 6291 6837 6295
	 6841 6300 6845 6304 6854 6304 6858 6308 6866 6308 6874 6312
	 6891 6312 6899 6316 6924 6316 6933 6320 6949 6320 6954 6325
	 6962 6325 6970 6329 6974 6329 6983 6333 6987 6337 6991 6341
	 6995 6345
# polyline
2 1 0 1 0 0 485 0 -1 4.000 0 0 0 0 0 33
	 6995 6345 6999 6350 6999 6358 7004 6362 7004 6370 7008 6375
	 7008 6429 7004 6437 7004 6500 7008 6508 7008 6512 7012 6516
	 7016 6525 7020 6529 7024 6533 7029 6537 7037 6537 7041 6541
	 7049 6545 7062 6545 7070 6550 7087 6550 7095 6554 7120 6554
	 7129 6558 7145 6558 7149 6562 7158 6566 7166 6566 7170 6570
	 7174 6575 7179 6579 7183 6583
# polyline
2 1 0 1 0 0 484 0 -1 4.000 0 0 0 0 0 34
	 7183 6583 7187 6587 7191 6591 7191 6600 7195 6604 7195 6675
	 7191 6683 7191 6729 7195 6737 7195 6741 7199 6750 7199 6754
	 7204 6758 7208 6762 7212 6766 7220 6770 7224 6775 7229 6779
	 7237 6779 7245 6783 7254 6783 7262 6787 7283 6787 7291 6791
	 7316 6791 7324 6795 7333 6795 7341 6800 7345 6800 7354 6804
	 7358 6808 7366 6812 7370 6812 7374 6820
# polyline
2 1 0 1 0 0 483 0 -1 4.000 0 0 0 0 0 38
	 7374 6820 7379 6825 7379 6829 7383 6833 7383 6841 7387 6850
	 7387 6887 7383 6895 7383 6937 7379 6945 7379 6954 7383 6958
	 7383 6975 7387 6979 7387 6987 7391 6991 7395 6995 7399 7000
	 7404 7004 7408 7008 7412 7012 7420 7012 7424 7016 7433 7016
	 7441 7020 7449 7020 7458 7025 7483 7025 7491 7029 7516 7029
	 7520 7033 7529 7033 7537 7037 7541 7041 7549 7041 7554 7045
	 7558 7050 7562 7054
# polyline
2 1 0 1 0 0 482 0 -1 4.000 0 0 0 0 0 2
	 7562 7054 8508 7529
# polyline
2 1 0 1 0 0 481 0 -1 4.000 0 0 0 0 0 2
	 7562 7054 8033 8000
# polyline
2 1 0 1 0 0 490 0 -1 4.000 0 0 0 0 0 2
	 5194 4937 6611 5883
2 1 0 1 0 7 50 0 -1 0.000 0 0 -1 0 0 2
	 2775 3825 3900 2925
2 1 0 1 0 7 50 0 -1 0.000 0 0 -1 0 0 2
	 2835 3882 3960 2982
2 1 0 1 0 7 50 0 -1 0.000 0 0 -1 0 0 2
	 2685 3807 3810 2907
2 1 0 1 0 7 50 0 -1 0.000 0 0 -1 0 0 2
	 2775 5925 3900 6825
2 1 0 1 0 7 50 0 -1 0.000 0 0 -1 0 0 2
	 2632 6066 3757 6966
2 1 0 1 0 7 50 0 -1 0.000 0 0 -1 0 0 2
	 2700 6000 3825 6900
2 1 0 1 0 7 50 0 -1 0.000 0 0 -1 1 0 2
	1 1 1.00 60.00 120.00
	 1125 5925 2400 5925
2 1 0 1 0 7 50 0 -1 0.000 0 0 -1 1 0 2
	1 1 1.00 60.00 120.00
	 1200 3900 2475 3900
2 1 0 2 0 7 50 -1 -1 0.000 0 0 -1 0 0 2
	 3525 4050 3675 4050
# text
4 0 0 480 -1 2 17 0.0000 4 195 195 4583 4737 Z\001
# text
4 0 0 469 -1 2 17 0.0000 4 195 285 7324 6679 W\001
# text
4 0 0 466 -1 2 17 0.0000 4 255 300 7891 8379 jet\001
4 0 0 50 0 0 12 0.0000 4 135 135 4800 4800 R\001
4 0 0 50 0 18 12 0.0000 4 135 135 1800 3750 P\001
4 0 0 50 0 18 12 0.0000 4 135 135 1800 5850 P\001
# text
4 0 0 467 -1 2 17 0.0000 4 255 300 8625 7725 jet\001
4 0 0 50 0 18 12 0.0000 4 135 135 6225 3900 N\001
4 0 0 50 0 18 12 0.0000 4 135 135 6075 5325 N\001
4 0 0 50 0 0 12 0.0000 4 135 135 7575 6750 R\001
4 0 0 50 0 18 15 0.0000 4 180 150 3525 4275 q\001
4 0 0 50 0 18 15 0.0000 4 180 150 3525 5700 q\001
# text
4 0 0 479 -1 2 21 0.0000 4 315 300 4650 7425 a)\001
4 0 0 50 0 18 12 0.0000 4 135 60 6375 3975 l\001
4 0 0 50 0 18 12 0.0000 4 135 60 7875 5925 l\001
4 0 0 50 0 18 12 0.0000 4 135 60 6225 5400 l\001
