%!PS-Adobe-2.0 EPSF-2.0
%%Title: d4.fig
%%Creator: fig2dev Version 3.2 Patchlevel 5
%%CreationDate: Wed Apr 28 15:50:17 2010
%%For: kirsanov@localhost.localdomain (Mikhail Kirsanov)
%%BoundingBox: 0 0 457 341
%Magnification: 1.0000
%%EndComments
/$F2psDict 200 dict def
$F2psDict begin
$F2psDict /mtrx matrix put
/col-1 {0 setgray} bind def
/col0 {0.000 0.000 0.000 srgb} bind def
/col1 {0.000 0.000 1.000 srgb} bind def
/col2 {0.000 1.000 0.000 srgb} bind def
/col3 {0.000 1.000 1.000 srgb} bind def
/col4 {1.000 0.000 0.000 srgb} bind def
/col5 {1.000 0.000 1.000 srgb} bind def
/col6 {1.000 1.000 0.000 srgb} bind def
/col7 {1.000 1.000 1.000 srgb} bind def
/col8 {0.000 0.000 0.560 srgb} bind def
/col9 {0.000 0.000 0.690 srgb} bind def
/col10 {0.000 0.000 0.820 srgb} bind def
/col11 {0.530 0.810 1.000 srgb} bind def
/col12 {0.000 0.560 0.000 srgb} bind def
/col13 {0.000 0.690 0.000 srgb} bind def
/col14 {0.000 0.820 0.000 srgb} bind def
/col15 {0.000 0.560 0.560 srgb} bind def
/col16 {0.000 0.690 0.690 srgb} bind def
/col17 {0.000 0.820 0.820 srgb} bind def
/col18 {0.560 0.000 0.000 srgb} bind def
/col19 {0.690 0.000 0.000 srgb} bind def
/col20 {0.820 0.000 0.000 srgb} bind def
/col21 {0.560 0.000 0.560 srgb} bind def
/col22 {0.690 0.000 0.690 srgb} bind def
/col23 {0.820 0.000 0.820 srgb} bind def
/col24 {0.500 0.190 0.000 srgb} bind def
/col25 {0.630 0.250 0.000 srgb} bind def
/col26 {0.750 0.380 0.000 srgb} bind def
/col27 {1.000 0.500 0.500 srgb} bind def
/col28 {1.000 0.630 0.630 srgb} bind def
/col29 {1.000 0.750 0.750 srgb} bind def
/col30 {1.000 0.880 0.880 srgb} bind def
/col31 {1.000 0.840 0.000 srgb} bind def

end
save
newpath 0 341 moveto 0 0 lineto 457 0 lineto 457 341 lineto closepath clip newpath
-75.8 508.2 translate
1 -1 scale

/cp {closepath} bind def
/ef {eofill} bind def
/gr {grestore} bind def
/gs {gsave} bind def
/sa {save} bind def
/rs {restore} bind def
/l {lineto} bind def
/m {moveto} bind def
/rm {rmoveto} bind def
/n {newpath} bind def
/s {stroke} bind def
/sh {show} bind def
/slc {setlinecap} bind def
/slj {setlinejoin} bind def
/slw {setlinewidth} bind def
/srgb {setrgbcolor} bind def
/rot {rotate} bind def
/sc {scale} bind def
/sd {setdash} bind def
/ff {findfont} bind def
/sf {setfont} bind def
/scf {scalefont} bind def
/sw {stringwidth} bind def
/tr {translate} bind def
/tnt {dup dup currentrgbcolor
  4 -2 roll dup 1 exch sub 3 -1 roll mul add
  4 -2 roll dup 1 exch sub 3 -1 roll mul add
  4 -2 roll dup 1 exch sub 3 -1 roll mul add srgb}
  bind def
/shd {dup dup currentrgbcolor 4 -2 roll mul 4 -2 roll mul
  4 -2 roll mul srgb} bind def
 /DrawEllipse {
	/endangle exch def
	/startangle exch def
	/yrad exch def
	/xrad exch def
	/y exch def
	/x exch def
	/savematrix mtrx currentmatrix def
	x y tr xrad yrad sc 0 0 1 startangle endangle arc
	closepath
	savematrix setmatrix
	} def

/$F2psBegin {$F2psDict begin /$F2psEnteredState save def} def
/$F2psEnd {$F2psEnteredState restore end} def

$F2psBegin
10 setmiterlimit
0 slj 0 slc
 0.06000 0.06000 sc
%
% Fig objects follow
%
% 
% here starts figure with depth 498
%  polyline 
% Polyline
0 slj
0 slc
7.500 slw
n 2837 3983 m
 4254 4929 l gs col0 s gr 
%  polyline 
% Polyline
n 2837 5875 m
 4254 4929 l gs col0 s gr 
%  polyline 
% Polyline
n 4258 4929 m 4262 4929 l 4266 4933 l 4270 4933 l 4270 4937 l 4274 4941 l
 4279 4945 l 4283 4950 l 4287 4954 l 4291 4962 l 4295 4966 l
 4299 4970 l 4304 4979 l 4308 4983 l 4312 4991 l 4312 4995 l
 4316 5000 l 4320 5004 l 4324 5008 l 4329 5012 l 4333 5016 l
 4337 5020 l 4358 5020 l 4362 5016 l 4366 5012 l 4370 5008 l
 4374 5004 l 4379 5000 l 4383 4995 l 4387 4991 l 4391 4983 l
 4395 4979 l 4395 4970 l 4399 4966 l 4404 4962 l 4408 4954 l
 4412 4950 l 4416 4945 l 4420 4941 l 4424 4937 l 4429 4933 l
 4433 4933 l 4437 4929 l
 4441 4929 l gs col0 s gr 
%  polyline 
% Polyline
n 4441 4929 m 4449 4929 l 4454 4933 l 4458 4933 l 4462 4937 l 4466 4941 l
 4470 4945 l 4474 4950 l 4479 4954 l 4479 4962 l 4483 4966 l
 4487 4970 l 4491 4979 l 4495 4983 l 4499 4991 l 4504 4995 l
 4508 5000 l 4512 5004 l 4516 5008 l 4516 5012 l 4520 5016 l
 4524 5020 l 4549 5020 l 4554 5016 l 4558 5012 l 4558 5008 l
 4562 5004 l 4566 5000 l 4570 4995 l 4574 4991 l 4579 4983 l
 4583 4979 l 4587 4970 l 4591 4966 l 4595 4962 l 4599 4954 l
 4599 4950 l 4604 4945 l 4608 4941 l 4612 4937 l 4616 4933 l
 4620 4933 l 4624 4929 l
 4633 4929 l gs col0 s gr 
%  polyline 
% Polyline
n 4633 4929 m 4641 4929 l 4641 4933 l 4645 4933 l 4649 4937 l 4654 4941 l
 4658 4945 l 4662 4950 l 4666 4954 l 4670 4962 l 4674 4966 l
 4679 4970 l 4683 4979 l 4683 4983 l 4687 4991 l 4691 4995 l
 4695 5000 l 4699 5004 l 4704 5008 l 4708 5012 l 4712 5016 l
 4716 5020 l 4737 5020 l 4741 5016 l 4745 5012 l 4749 5008 l
 4754 5004 l 4758 5000 l 4762 4995 l 4762 4991 l 4766 4983 l
 4770 4979 l 4774 4970 l 4779 4966 l 4783 4962 l 4787 4954 l
 4791 4950 l 4795 4945 l 4799 4941 l 4804 4937 l 4804 4933 l
 4808 4933 l 4812 4929 l
 4820 4929 l gs col0 s gr 
%  polyline 
% Polyline
n 4820 4929 m 4829 4929 l 4833 4933 l 4837 4933 l 4841 4937 l 4845 4941 l
 4845 4945 l 4849 4950 l 4854 4954 l 4858 4962 l 4862 4966 l
 4866 4970 l 4870 4979 l 4874 4983 l 4879 4991 l 4883 4995 l
 4887 5000 l 4887 5004 l 4891 5008 l 4895 5012 l 4899 5016 l
 4904 5020 l 4924 5020 l 4929 5016 l 4933 5012 l 4937 5008 l
 4941 5004 l 4945 5000 l 4949 4995 l 4954 4991 l 4958 4983 l
 4962 4979 l 4966 4970 l 4966 4966 l 4970 4962 l 4974 4954 l
 4979 4950 l 4983 4945 l 4987 4941 l 4991 4937 l 4995 4933 l
 4999 4933 l 5004 4929 l
 5008 4929 l gs col0 s gr 
%  polyline 
% Polyline
n 5008 4929 m 5016 4929 l 5020 4933 l 5024 4933 l 5029 4937 l 5033 4941 l
 5037 4945 l 5041 4950 l 5045 4954 l 5049 4962 l 5049 4966 l
 5054 4970 l 5058 4979 l 5062 4983 l 5066 4991 l 5070 4995 l
 5074 5000 l 5079 5004 l 5083 5008 l 5087 5012 l 5091 5016 l
 5091 5020 l 5116 5020 l 5120 5016 l 5124 5012 l 5129 5008 l
 5133 5004 l 5133 5000 l 5137 4995 l 5141 4991 l 5145 4983 l
 5149 4979 l 5154 4970 l 5158 4966 l 5162 4962 l 5166 4954 l
 5170 4950 l 5170 4945 l 5174 4941 l 5179 4937 l 5183 4933 l
 5187 4933 l 5191 4929 l
 5199 4929 l gs col0 s gr 
%  polyline 
% Polyline
n 5199 4929 m
 6616 3983 l gs col0 s gr 
% here ends figure;
% 
% here starts figure with depth 488
%  polyline 
% Polyline
0 slj
0 slc
7.500 slw
n 6616 5875 m
 8508 6108 l gs col0 s gr 
%  polyline 
% Polyline
n 6620 5879 m 6624 5883 l 6624 5891 l 6629 5895 l 6629 5966 l 6624 5975 l
 6624 6020 l 6629 6029 l 6629 6033 l 6633 6041 l 6633 6045 l
 6637 6050 l 6641 6054 l 6645 6058 l 6649 6062 l 6658 6066 l
 6662 6070 l 6670 6070 l 6679 6075 l 6691 6075 l 6699 6079 l
 6724 6079 l 6733 6083 l 6749 6083 l 6758 6087 l 6766 6087 l
 6774 6091 l 6779 6091 l 6787 6095 l 6791 6095 l 6795 6100 l
 6804 6104 l
 6808 6108 l gs col0 s gr 
%  polyline 
% Polyline
n 6808 6108 m 6808 6116 l 6812 6120 l 6816 6125 l 6816 6137 l 6820 6145 l
 6820 6170 l 6816 6179 l 6816 6220 l 6812 6229 l 6812 6250 l
 6816 6258 l 6816 6270 l 6820 6275 l 6824 6283 l 6829 6287 l
 6829 6291 l 6837 6295 l 6841 6300 l 6845 6304 l 6854 6304 l
 6858 6308 l 6866 6308 l 6874 6312 l 6891 6312 l 6899 6316 l
 6924 6316 l 6933 6320 l 6949 6320 l 6954 6325 l 6962 6325 l
 6970 6329 l 6974 6329 l 6983 6333 l 6987 6337 l 6991 6341 l

 6995 6345 l gs col0 s gr 
%  polyline 
% Polyline
n 6995 6345 m 6999 6350 l 6999 6358 l 7004 6362 l 7004 6370 l 7008 6375 l
 7008 6429 l 7004 6437 l 7004 6500 l 7008 6508 l 7008 6512 l
 7012 6516 l 7016 6525 l 7020 6529 l 7024 6533 l 7029 6537 l
 7037 6537 l 7041 6541 l 7049 6545 l 7062 6545 l 7070 6550 l
 7087 6550 l 7095 6554 l 7120 6554 l 7129 6558 l 7145 6558 l
 7149 6562 l 7158 6566 l 7166 6566 l 7170 6570 l 7174 6575 l
 7179 6579 l
 7183 6583 l gs col0 s gr 
%  polyline 
% Polyline
n 7183 6583 m 7187 6587 l 7191 6591 l 7191 6600 l 7195 6604 l 7195 6675 l
 7191 6683 l 7191 6729 l 7195 6737 l 7195 6741 l 7199 6750 l
 7199 6754 l 7204 6758 l 7208 6762 l 7212 6766 l 7220 6770 l
 7224 6775 l 7229 6779 l 7237 6779 l 7245 6783 l 7254 6783 l
 7262 6787 l 7283 6787 l 7291 6791 l 7316 6791 l 7324 6795 l
 7333 6795 l 7341 6800 l 7345 6800 l 7354 6804 l 7358 6808 l
 7366 6812 l 7370 6812 l
 7374 6820 l gs col0 s gr 
%  polyline 
% Polyline
n 7374 6820 m 7379 6825 l 7379 6829 l 7383 6833 l 7383 6841 l 7387 6850 l
 7387 6887 l 7383 6895 l 7383 6937 l 7379 6945 l 7379 6954 l
 7383 6958 l 7383 6975 l 7387 6979 l 7387 6987 l 7391 6991 l
 7395 6995 l 7399 7000 l 7404 7004 l 7408 7008 l 7412 7012 l
 7420 7012 l 7424 7016 l 7433 7016 l 7441 7020 l 7449 7020 l
 7458 7025 l 7483 7025 l 7491 7029 l 7516 7029 l 7520 7033 l
 7529 7033 l 7537 7037 l 7541 7041 l 7549 7041 l 7554 7045 l
 7558 7050 l
 7562 7054 l gs col0 s gr 
%  polyline 
% Polyline
n 7562 7054 m
 8508 7529 l gs col0 s gr 
%  polyline 
% Polyline
n 7562 7054 m
 8033 8000 l gs col0 s gr 
%  text 
/Times-Bold ff 283.33 scf sf
4583 4737 m
gs 1 -1 sc (W) col0 sh gr
%  text 
/Times-Bold ff 283.33 scf sf
7125 6450 m
gs 1 -1 sc (W) col0 sh gr
%  text 
/Times-Bold ff 350.00 scf sf
4800 7500 m
gs 1 -1 sc (b\)) col0 sh gr
% here ends figure;
% 
% here starts figure with depth 467
%  text 
/Times-Bold ff 283.33 scf sf
8550 7800 m
gs 1 -1 sc (jet) col0 sh gr
%  text 
/Times-Bold ff 283.33 scf sf
7891 8379 m
gs 1 -1 sc (jet) col0 sh gr
% here ends figure;
% 
% here starts figure with depth 50
% Ellipse
7.500 slw
n 2639 3876 192 192 0 360 DrawEllipse gs 0.00 setgray ef gr gs col0 s gr

% Ellipse
n 2603 5932 192 192 0 360 DrawEllipse gs 0.00 setgray ef gr gs col0 s gr

% Polyline
0 slj
0 slc
n 5175 4950 m
 6600 5850 l gs col0 s gr 
% Polyline
n 2850 3900 m
 3975 3000 l gs col0 s gr 
% Polyline
n 2821 3788 m
 3946 2888 l gs col0 s gr 
% Polyline
n 2746 3713 m
 3871 2813 l gs col0 s gr 
% Polyline
n 3725 7113 m
 2825 5988 l gs col0 s gr 
% Polyline
n 3678 7166 m
 2778 6041 l gs col0 s gr 
% Polyline
n 3603 7241 m
 2703 6116 l gs col0 s gr 
% Polyline
gs  clippath
2264 5955 m 2415 5955 l 2415 5895 l 2264 5895 l 2264 5895 l 2384 5925 l 2264 5955 l cp
eoclip
n 2400 5925 m
 1275 5925 l gs col0 s gr gr

% arrowhead
n 2264 5955 m 2384 5925 l 2264 5895 l 2264 5955 l  cp gs 0.00 setgray ef gr  col0 s
% Polyline
gs  clippath
2264 3930 m 2415 3930 l 2415 3870 l 2264 3870 l 2264 3870 l 2384 3900 l 2264 3930 l cp
eoclip
n 2400 3900 m
 1275 3900 l gs col0 s gr gr

% arrowhead
n 2264 3930 m 2384 3900 l 2264 3870 l 2264 3930 l  cp gs 0.00 setgray ef gr  col0 s
% Polyline
15.000 slw
n 3600 4050 m
 3750 4050 l gs col0 s gr 
/Times-Roman ff 200.00 scf sf
4875 4800 m
gs 1 -1 sc (R) col0 sh gr
/Helvetica-Bold ff 200.00 scf sf
6000 5325 m
gs 1 -1 sc (N) col0 sh gr
/Times-Roman ff 200.00 scf sf
7350 6525 m
gs 1 -1 sc (R) col0 sh gr
/Helvetica-Bold ff 250.00 scf sf
3600 4275 m
gs 1 -1 sc (q) col0 sh gr
/Helvetica-Bold ff 250.00 scf sf
3600 5625 m
gs 1 -1 sc (q) col0 sh gr
/Helvetica-Bold ff 200.00 scf sf
1650 3825 m
gs 1 -1 sc (P) col0 sh gr
/Helvetica-Bold ff 200.00 scf sf
1725 6150 m
gs 1 -1 sc (P) col0 sh gr
/Helvetica-Bold ff 200.00 scf sf
7950 5925 m
gs 1 -1 sc (l) col0 sh gr
/Helvetica-Bold ff 200.00 scf sf
6150 5400 m
gs 1 -1 sc (l) col0 sh gr
/Helvetica-Bold ff 200.00 scf sf
6225 4050 m
gs 1 -1 sc (l) col0 sh gr
% here ends figure;
$F2psEnd
rs
showpage
%%Trailer
%EOF
