%!PS-Adobe-2.0 EPSF-2.0
%%BoundingBox: 150 300 609 567
%%Title: diagr4.eps
%%Creator: HIGZ Version 1.26/04
%%CreationDate: 2000/11/19   18.04
%%EndComments
%%BeginProlog
80 dict begin
/s {stroke} def /l {lineto} def /m {moveto} def /t {translate} def
/sw {stringwidth} def /r {rotate} def /rl {roll}  def /R {repeat} def
/d {rlineto} def /rm {rmoveto} def /gr {grestore} def /f {eofill} def
/c {setrgbcolor} def /lw {setlinewidth} def /sd {setdash} def
/cl {closepath} def /sf {scalefont setfont} def /black {0 setgray} def
/box {m dup 0 exch d exch 0 d 0 exch neg d cl} def
/NC{systemdict begin initclip end}def/C{NC box clip newpath}def
/bl {box s} def /bf {box f} def /Y { 0 exch d} def /X { 0 d} def 
/mp {newpath /y exch def /x exch def} def
/side {[w .77 mul w .23 mul] .385 w mul sd w 0 l currentpoint t -144 r} def
/mr {mp x y w2 0 360 arc} def /m24 {mr s} def /m20 {mr f} def
/mb {mp x y w2 add m w2 neg 0 d 0 w neg d w 0 d 0 w d cl} def
/mt {mp x y w2 add m w2 neg w neg d w 0 d cl} def
/m21 {mb f} def /m25 {mb s} def /m22 {mt f} def /m26 {mt s} def
/m23 {mp x y w2 sub m w2 w d w neg 0 d cl f} def
/m27 {mp x y w2 add m w3 neg w2 neg d w3 w2 neg d w3  w2 d cl s} def
/m28 {mp x w2 sub y w2 sub w3 add m w3 0 d 0 w3 neg d w3 0 d 0 w3 d w3 0 d
 0 w3 d w3 neg 0 d 0 w3 d w3 neg 0 d
 0 w3 neg d w3 neg 0 d cl s } def
/m29 {mp gsave x w2 sub y w2 add w3 sub m currentpoint t
 4 {side} repeat cl fill gr} def
/m30 {mp gsave x w2 sub y w2 add w3 sub m currentpoint t
 5 {side} repeat s gr} def
/m31 {mp x y w2 sub m 0 w d x w2 sub y m w 0 d
 x w2 sub y w2 add m w w neg d x w2 sub y w2
 sub m w w d s} def
/m2 {mp x y w2 sub m 0 w d x w2 sub y m w 0 d s} def
/m5 {mp x w2 sub y w2 sub m w w d x w2 sub y w2 add m w w neg d s} def
/reencdict 24 dict def /ReEncode {reencdict begin /nco&na exch def
/nfnam exch def /basefontname exch def /basefontdict basefontname findfont def
/newfont basefontdict maxlength dict def basefontdict {exch dup /FID ne
{dup /Encoding eq {exch dup length array copy newfont 3 1 roll put} {exch
newfont 3 1 roll put} ifelse} {pop pop} ifelse } forall newfont
/FontName nfnam put nco&na aload pop nco&na length 2 idiv {newfont
/Encoding get 3 1 roll put} repeat nfnam newfont definefont pop end } def
/accvec [ 176 /agrave 181 /Agrave 190 /acircumflex 192 /Acircumflex
201 /adieresis 204 /Adieresis 209 /ccedilla 210 /Ccedilla 211 /eacute
212 /Eacute 213 /egrave 214 /Egrave 215 /ecircumflex 216 /Ecircumflex
217 /edieresis 218 /Edieresis 219 /icircumflex 220 /Icircumflex
221 /idieresis 222 /Idieresis 223 /ntilde 224 /Ntilde 226 /ocircumflex
228 /Ocircumflex 229 /odieresis 230 /Odieresis 231 /ucircumflex 236 /Ucircumflex
237 /udieresis 238 /Udieresis 239 /aring 242 /Aring 243 /ydieresis
244 /Ydieresis 246 /aacute 247 /Aacute 252 /ugrave 253 /Ugrave] def
/Times-Roman /Times-Roman accvec ReEncode
/Times-Italic /Times-Italic accvec ReEncode
/Times-Bold /Times-Bold accvec ReEncode
/Times-BoldItalic /Times-BoldItalic accvec ReEncode
/Helvetica /Helvetica accvec ReEncode
/Helvetica-Oblique /Helvetica-Oblique accvec ReEncode
/Helvetica-Bold /Helvetica-Bold accvec ReEncode
/Helvetica-BoldOblique /Helvetica-BoldOblique  accvec ReEncode
/Courier /Courier accvec ReEncode
/Courier-Oblique /Courier-Oblique accvec ReEncode
/Courier-Bold /Courier-Bold accvec ReEncode
/Courier-BoldOblique /Courier-BoldOblique accvec ReEncode
/oshow {gsave [] 0 sd true charpath stroke gr} def
/stwn { /fs exch def /fn exch def /text exch def fn findfont fs sf
 text sw pop xs add /xs exch def} def
/stwb { /fs exch def /fn exch def /nbas exch def /textf exch def
textf length /tlen exch def nbas tlen gt {/nbas tlen def} if
fn findfont fs sf textf dup length nbas sub nbas getinterval sw
pop neg xs add /xs exch def} def
/accspe [ 65 /plusminus 66 /bar 67 /existential 68 /universal
69 /exclam 70 /numbersign 71 /greater 72 /question 73 /integral
74 /colon 75 /semicolon 76 /less 77 /bracketleft 78 /bracketright
79 /greaterequal 80 /braceleft 81 /braceright 82 /radical
83 /spade 84 /heart 85 /diamond 86 /club 87 /lessequal
88 /multiply 89 /percent 90 /infinity 48 /circlemultiply 49 /circleplus
50 /emptyset 51 /lozenge 52 /bullet 53 /arrowright 54 /arrowup
55 /arrowleft 56 /arrowdown 57 /arrowboth 48 /degree 44 /comma 43 /plus
 45 /angle 42 /angleleft 47 /divide 61 /notequal 40 /equivalence 41 /second
 97 /approxequal 98 /congruent 99 /perpendicular 100 /partialdiff 101 /florin
 102 /intersection 103 /union 104 /propersuperset 105 /reflexsuperset
 106 /notsubset 107 /propersubset 108 /reflexsubset 109 /element 110 /notelement
 111 /gradient 112 /logicaland 113 /logicalor 114 /arrowdblboth
 115 /arrowdblleft 116 /arrowdblup 117 /arrowdblright 118 /arrowdbldown
 119 /ampersand 120 /omega1 121 /similar 122 /aleph ] def
/Symbol /Special accspe ReEncode
%%EndProlog
 gsave  .25 .25 scale  gsave 0 0 t black [] 0 sd 1 lw 2836 2268 0 284 C 6 lw 681
 2212 m 340 -227 d s 681 1758 m 340 227 d s 1022 1985 m 1 X 1 -1 d 1 X -1 Y 1 -1
 d 1 -1 d 1 -1 d 1 -1 d 1 -2 d 1 -1 d 1 -1 d 1 -2 d 1 -1 d 1 -2 d -1 Y 1 -1 d 1
 -1 d 1 -1 d 1 -1 d 1 -1 d 1 -1 d 5 X 1 1 d 1 1 d 1 1 d 1 1 d 1 1 d 1 1 d 1 1 d
 1 2 d 1 1 d 2 Y 1 1 d 1 1 d 1 2 d 1 1 d 1 1 d 1 1 d 1 1 d 1 1 d 1 X 1 1 d 1 X s
 1066 1985 m 2 X 1 -1 d 1 X 1 -1 d 1 -1 d 1 -1 d 1 -1 d 1 -1 d -2 Y 1 -1 d 1 -1
 d 1 -2 d 1 -1 d 1 -2 d 1 -1 d 1 -1 d 1 -1 d 1 -1 d -1 Y 1 -1 d 1 -1 d 6 X 1 1 d
 1 1 d 1 Y 1 1 d 1 1 d 1 1 d 1 1 d 1 2 d 1 1 d 1 2 d 1 1 d 1 1 d 1 2 d 1 Y 1 1 d
 1 1 d 1 1 d 1 1 d 1 X 1 1 d 2 X s 1112 1985 m 2 X -1 Y 1 X 1 -1 d 1 -1 d 1 -1 d
 1 -1 d 1 -1 d 1 -2 d 1 -1 d 1 -1 d 1 -2 d -1 Y 1 -2 d 1 -1 d 1 -1 d 1 -1 d 1 -1
 d 1 -1 d 1 -1 d 1 -1 d 5 X 1 1 d 1 1 d 1 1 d 1 1 d 1 1 d 1 1 d 1 Y 1 2 d 1 1 d
 1 2 d 1 1 d 1 1 d 1 2 d 1 1 d 1 1 d 1 1 d 1 1 d 1 Y 1 X 1 1 d 2 X s 1157 1985 m
 2 X 1 -1 d 1 X 1 -1 d 1 -1 d -1 Y 1 -1 d 1 -1 d 1 -2 d 1 -1 d 1 -1 d 1 -2 d 1
 -1 d 1 -2 d 1 -1 d 1 -1 d -1 Y 1 -1 d 1 -1 d 1 -1 d 1 -1 d 5 X 1 1 d 1 1 d 1 1
 d 1 1 d 1 1 d 1 1 d 1 1 d 1 2 d 1 1 d 1 2 d 1 Y 1 1 d 1 2 d 1 1 d 1 1 d 1 1 d 1
 1 d 1 1 d 1 X 1 1 d 1 X s 1202 1985 m 2 X 1 -1 d 1 X 1 -1 d 1 -1 d 1 -1 d 1 -1
 d 1 -1 d 1 -2 d -1 Y 1 -1 d 1 -2 d 1 -1 d 1 -2 d 1 -1 d 1 -1 d 1 -1 d 1 -1 d 1
 -1 d 1 -1 d -1 Y 6 X 1 1 d 1 1 d 1 1 d 1 1 d 1 Y 1 1 d 1 1 d 1 2 d 1 1 d 1 2 d
 1 1 d 1 1 d 1 2 d 1 1 d 1 Y 1 1 d 1 1 d 1 1 d 1 X 1 1 d 2 X s 1248 1985 m 340
 227 d s 1248 1985 m 340 -227 d s
 gsave  1407 1849
 t   0 r 0 0 m
 /Times-Bold findfont   66 sf 0    0 m 
(\267)
 show 
 gr  1588 1758 m 454 -56 d s 1589 1757 m 1 -1 d -2 Y 1 -1 d -17 Y -1 -2 d -11 Y
 1 -2 d -1 Y 1 -2 d -1 Y 1 -1 d 1 -1 d 1 -1 d 1 -1 d 2 -1 d 1 -1 d 2 X 2 -1 d 3
 X 2 -1 d 6 X 2 -1 d 4 X 2 -1 d 2 X 2 -1 d 1 X 2 -1 d 1 X 1 -1 d 2 -1 d 1 -1 d s
 1634 1702 m -2 Y 1 -1 d 1 -1 d -3 Y 1 -2 d -6 Y -1 -2 d -10 Y -1 -2 d -5 Y 1 -2
 d -3 Y 1 -1 d 1 -2 d 1 -1 d -1 Y 2 -1 d 1 -1 d 1 -1 d 2 X 1 -1 d 2 X 2 -1 d 4 X
 2 -1 d 6 X 2 -1 d 4 X 1 -1 d 2 X 2 -1 d 1 X 2 -1 d 1 -1 d 1 -1 d 1 -1 d s 1679
 1645 m 1 -1 d -2 Y 1 -1 d -2 Y 1 -1 d -13 Y -1 -2 d -15 Y 1 -2 d -1 Y 1 -1 d 1
 -2 d 1 -1 d 1 -1 d 1 -1 d 2 X 1 -1 d 2 -1 d 3 X 2 -1 d 4 X 2 -1 d 6 X 2 -1 d 4
 X 1 -1 d 2 -1 d 2 X 1 -1 d 1 -1 d 1 -1 d 1 -1 d s 1724 1588 m 1 -1 d 1 -1 d -2
 Y 1 -1 d -17 Y -1 -2 d -11 Y 1 -2 d -1 Y 1 -2 d -1 Y 1 -1 d 1 -1 d 1 -1 d 2 -1
 d 1 -1 d 1 -1 d 2 X 2 -1 d 2 X 2 -1 d 5 X 2 -1 d 6 X 2 -1 d 2 X 2 -1 d 1 X 2 -1
 d 1 -1 d 2 -1 d 1 X 1 -2 d s 1770 1531 m 1 -1 d -1 Y 1 -1 d -2 Y 1 -2 d -9 Y -1
 -2 d -10 Y -1 -2 d -2 Y 1 -1 d -4 Y 1 -1 d -2 Y 1 -1 d 1 -1 d 1 -1 d 1 -1 d 1
 -1 d 1 -1 d 2 X 1 -1 d 2 X 2 -1 d 2 X 2 -1 d 6 X 2 -1 d 6 X 1 -1 d 2 X 2 -1 d 1
 -1 d 2 X 1 -1 d 1 -1 d 1 -1 d s 1815 1475 m 227 -114 d s 1815 1475 m 113 -227 d
 s
 gsave  1100 2031
 t   0 r 0 0 m
 /Times-Bold findfont   66 sf 0    0 m 
(W)
 show 
 gr 
 gsave  238 1826
 t   0 r 0 0 m
 /Times-Bold findfont   66 sf 0    0 m 
(b\))
 show 
 gr 
 gsave  760 2212
 t   0 r 0 0 m
 /Times-Bold findfont   66 sf 0    0 m 
(f)
 show 
 gr 
 gsave  760 1713
 t   0 r 0 0 m
 /Times-Bold findfont   66 sf 0    0 m 
(f)
 show 
 gr 
 gsave  760 1758
 t   0 r 0 0 m
 /Times-Bold findfont   66 sf 0    0 m 
(\261)
 show 
 gr 
 gsave  1531 1849
 t   0 r 0 0 m
 /Symbol findfont   66 sf 0    0 m 
(n)
 show 
 currentpoint pop 0 t 
 /Times-Bold findfont   46 sf 0  -22 m 
(s)
 show 
 gr 
 gsave  1418 2212
 t   0 r 0 0 m
 /Times-Bold findfont   66 sf 0    0 m 
(e)
 show 
 currentpoint pop 0 t 
 /Times-Bold findfont   46 sf 0   33 m 
(+)
 show 
 gr 
 gsave  1894 1758
 t   0 r 0 0 m
 /Times-Bold findfont   66 sf 0    0 m 
(e)
 show 
 currentpoint pop 0 t 
 /Times-Bold findfont   46 sf 0   33 m 
(-)
 show 
 gr 
 gsave  1758 1565
 t   0 r 0 0 m
 /Times-Bold findfont   66 sf 0    0 m 
(W)
 show 
 currentpoint pop 0 t 
 /Times-Bold findfont   46 sf 0   33 m 
(+)
 show 
 gr 
 gsave  1974 1282
 t   0 r 0 0 m
 /Times-Bold findfont   66 sf 0    0 m 
(jet)
 show 
 gr 
 gsave  1894 1157
 t   0 r 0 0 m
 /Times-Bold findfont   66 sf 0    0 m 
(jet)
 show 
 gr 
 gr  gr 
showpage
end
%%EOF
