#FIG 3.2
Landscape
Center
Inches
Letter  
100.00
Single
-2
1200 2
2 2 0 1 0 7 50 0 -1 0.000 0 0 -1 0 0 5
	 4050 1050 8625 1050 8625 7275 4050 7275 4050 1050
2 1 0 1 0 7 50 0 -1 0.000 0 0 -1 0 0 2
	 6225 1050 6225 7275
2 1 0 1 0 7 50 0 -1 0.000 0 0 -1 0 0 2
	 4050 2850 8625 2850
2 1 0 1 0 7 50 0 -1 0.000 0 0 -1 0 0 2
	 4050 4875 8625 4875
4 0 0 50 0 0 12 0.0000 4 135 180 5100 2100 e1\001
4 0 0 50 0 0 12 0.0000 4 135 180 7200 2025 e2\001
4 0 0 50 0 0 12 0.0000 4 180 135 5025 3825 j1\001
4 0 0 50 0 0 12 0.0000 4 180 135 7200 3825 j2\001
4 0 0 50 0 0 12 0.0000 4 135 165 4950 6150 M\001
4 0 0 50 0 0 12 0.0000 4 90 180 5175 6225 ee\001
4 0 0 50 0 0 12 0.0000 4 135 405 7050 6000 e1/e2\001
