%!PS-Adobe-2.0 EPSF-2.0
%%BoundingBox:  0 0 525 567
%%Title: ./eff2.eps:  
%%Creator: ROOT Version 4.04/02g
%%CreationDate: Fri Mar 17 12:32:23 2006
%%EndComments
%%BeginProlog
80 dict begin
/s {stroke} def /l {lineto} def /m {moveto} def /t {translate} def
/sw {stringwidth} def /r {rotate} def /rl {roll}  def /R {repeat} def
/d {rlineto} def /rm {rmoveto} def /gr {grestore} def /f {eofill} def
/c {setrgbcolor} def /lw {setlinewidth} def /sd {setdash} def
/cl {closepath} def /sf {scalefont setfont} def /black {0 setgray} def
/box {m dup 0 exch d exch 0 d 0 exch neg d cl} def
/NC{systemdict begin initclip end}def/C{NC box clip newpath}def
/bl {box s} def /bf {box f} def /Y { 0 exch d} def /X { 0 d} def 
/mp {newpath /y exch def /x exch def} def
/side {[w .77 mul w .23 mul] .385 w mul sd w 0 l currentpoint t -144 r} def
/mr {mp x y w2 0 360 arc} def /m24 {mr s} def /m20 {mr f} def
/mb {mp x y w2 add m w2 neg 0 d 0 w neg d w 0 d 0 w d cl} def
/mt {mp x y w2 add m w2 neg w neg d w 0 d cl} def
/m21 {mb f} def /m25 {mb s} def /m22 {mt f} def /m26{mt s} def
/m23 {mp x y w2 sub m w2 w d w neg 0 d cl f} def
/m27 {mp x y w2 add m w3 neg w2 neg d w3 w2 neg d w3 w2 d cl s} def
/m28 {mp x w2 sub y w2 sub w3 add m w3 0 d  0 w3 neg d w3 0 d 0 w3 d w3 0 d  0 w3 d w3 neg 0 d 0 w3 d w3 neg 0 d
 0 w3 neg d w3 neg 0 d cl s } def
/m29 {mp gsave x w2 sub y w2 add w3 sub m currentpoint t
 4 {side} repeat cl fill gr} def
/m30 {mp gsave x w2 sub y w2 add w3 sub m currentpoint t
 4 {side} repeat cl s gr} def
/m31 {mp x y w2 sub m 0 w d x w2 sub y m w 0 d x w2 sub y w2 add m w w neg d x w2 sub y w2
 sub m w w d s} def
/m2 {mp x y w2 sub m 0 w d x w2 sub y m w 0 d s} def
/m5 {mp x w2 sub y w2 sub m w w d x w2 sub y w2 add m w w neg d s} def
/reencdict 24 dict def /ReEncode {reencdict begin /nco&na exch def
/nfnam exch def /basefontname exch def /basefontdict basefontname findfont def
/newfont basefontdict maxlength dict def basefontdict {exch dup /FID ne
{dup /Encoding eq {exch dup length array copy newfont 3 1 roll put} {exch 
newfont 3 1 roll put} ifelse} {pop pop} ifelse } forall newfont
/FontName nfnam put nco&na aload pop nco&na length 2 idiv {newfont
/Encoding get 3 1 roll put} repeat nfnam newfont definefont pop end } def
/accvec [ 176 /agrave 181 /Agrave 190 /acircumflex 192 /Acircumflex
201 /adieresis 204 /Adieresis 209 /ccedilla 210 /Ccedilla 211 /eacute
212 /Eacute 213 /egrave 214 /Egrave 215 /ecircumflex 216 /Ecircumflex
217 /edieresis 218 /Edieresis 219 /icircumflex 220 /Icircumflex
221 /idieresis 222 /Idieresis 223 /ntilde 224 /Ntilde 226 /ocircumflex
228 /Ocircumflex 229 /odieresis 230 /Odieresis 231 /ucircumflex 236 /Ucircumflex
237 /udieresis 238 /Udieresis 239 /aring 242 /Aring 243 /ydieresis
244 /Ydieresis 246 /aacute 247 /Aacute 252 /ugrave 253 /Ugrave] def
/Times-Roman /Times-Roman accvec ReEncode
/Times-Italic /Times-Italic accvec ReEncode
/Times-Bold /Times-Bold accvec ReEncode
/Times-BoldItalic /Times-BoldItalic accvec ReEncode
/Helvetica /Helvetica accvec ReEncode
/Helvetica-Oblique /Helvetica-Oblique accvec ReEncode
/Helvetica-Bold /Helvetica-Bold accvec ReEncode
/Helvetica-BoldOblique /Helvetica-BoldOblique  accvec ReEncode
/Courier /Courier accvec ReEncode
/Courier-Oblique /Courier-Oblique accvec ReEncode
/Courier-Bold /Courier-Bold accvec ReEncode
/Courier-BoldOblique /Courier-BoldOblique accvec ReEncode
/oshow {gsave [] 0 sd true charpath stroke gr} def
/stwn { /fs exch def /fn exch def /text exch def fn findfont fs sf
 text sw pop xs add /xs exch def} def
/stwb { /fs exch def /fn exch def /nbas exch def /textf exch deftextf length /tlen exch def nbas tlen gt {/nbas tlendef} iffn findfont fs sf textf dup length nbas sub nbas getinterval sw
pop neg xs add /xs exch def} def
/accspe [ 65 /plusminus  66 /bar  67 /existential  68 /universal 
69 /exclam  70 /numbersign 71 /greater  72 /question  73 /integral 
74 /colon  75 /semicolon  76 /less  77 /bracketleft  78 /bracketright
79 /greaterequal 80 /braceleft 81 /braceright 82 /radical
83 /spade 84 /heart 85 /diamond 86 /club 87 /lessequal
88 /multiply 89 /percent 90 /infinity 48 /circlemultiply 49 /circleplus
50 /emptyset  51 /lozenge 52 /bullet 53 /arrowright 54 /arrowup
55 /arrowleft 56 /arrowdown 57 /arrowboth 48 /degree 44 /comma 43 /plus 45 /angle 42 /angleleft 47 /divide 61 /notequal 40 /equivalence 41 /second 97 /approxequal 98 /congruent 99 /perpendicular 100 /partialdiff 101 /florin 102 /intersection
 103 /union 104 /propersuperset 105 /reflexsuperset 106 /notsubset 107 /propersubset 108 /reflexsubset 109 /element 110 /notelement 111 /gradient 112 /logicaland 113 /logicalor 114 /arrowdblboth 115 /arrowdblleft 116 /arrowdblup 117 /arrowdblright
 118 /arrowdbldown 119 /ampersand 120 /omega1 121 /similar 122 /aleph ] def
/Symbol /Special accspe ReEncode
%%EndProlog
%%BeginSetup
newpath  gsave  .25 .25 scale 
%%EndSetup
 gsave  0 0 t black[  ] 0 sd 3 lw 1 1 1 c 2099 2268 0 0 bf black 1 1 1 c 2099 756 0 1512 bf black 1 1 1 c black 1658 620 336 1610 bl 1658 620 336 1610 bl 1 1 1 c black 1658 620 336 1610 bl 1658 620 336 1610 bl 336 1610 m 1658 X s
 gsave  1520 1529
 t 0 r 0 0 m /Helvetica findfont 42.3265 sf 0 0 m (Mass window width, GeV) show  gr  336 1628 m -18 Y s 459 1619 m -9 Y s 581 1619 m -9 Y s 704 1619 m -9 Y s 827 1619 m -9 Y s 950 1628 m -18 Y s 1073 1619 m -9 Y s 1196 1619 m -9 Y s 1318 1619 m -9 Y
 s 1441 1619 m -9 Y s 1564 1628 m -18 Y s 1564 1628 m -18 Y s 1687 1619 m -9 Y s 1810 1619 m -9 Y s 1932 1619 m -9 Y s
 gsave  323 1577
 t 0 r 0 0 m /Helvetica findfont 36.2798 sf 0 0 m (0) show  gr 
 gsave  920 1577
 t 0 r 0 0 m /Helvetica findfont 36.2798 sf 0 0 m (100) show  gr 
 gsave  1532 1577
 t 0 r 0 0 m /Helvetica findfont 36.2798 sf 0 0 m (200) show  gr  336 2230 m 1658 X s 336 2212 m 18 Y s 459 2221 m 9 Y s 581 2221 m 9 Y s 704 2221 m 9 Y s 827 2221 m 9 Y s 950 2212 m 18 Y s 1073 2221 m 9 Y s 1196 2221 m 9 Y s 1318 2221 m 9 Y s 1441
 2221 m 9 Y s 1564 2212 m 18 Y s 1564 2212 m 18 Y s 1687 2221 m 9 Y s 1810 2221 m 9 Y s 1932 2221 m 9 Y s 336 1610 m 620 Y s
 gsave  96 2057
 t 90 r 0 0 m /Helvetica findfont 42.3265 sf 0 0 m (efficiency) show  gr  387 1610 m -51 X s 362 1623 m -26 X s 362 1635 m -26 X s 362 1647 m -26 X s 362 1660 m -26 X s 387 1672 m -51 X s 362 1685 m -26 X s 362 1697 m -26 X s 362 1709 m -26 X s 362
 1722 m -26 X s 387 1734 m -51 X s 362 1746 m -26 X s 362 1759 m -26 X s 362 1771 m -26 X s 362 1784 m -26 X s 387 1796 m -51 X s 362 1808 m -26 X s 362 1821 m -26 X s 362 1833 m -26 X s 362 1846 m -26 X s 387 1858 m -51 X s 362 1870 m -26 X s 362
 1883 m -26 X s 362 1895 m -26 X s 362 1908 m -26 X s 387 1920 m -51 X s 362 1932 m -26 X s 362 1945 m -26 X s 362 1957 m -26 X s 362 1970 m -26 X s 387 1982 m -51 X s 362 1994 m -26 X s 362 2007 m -26 X s 362 2019 m -26 X s 362 2032 m -26 X s 387
 2044 m -51 X s 362 2056 m -26 X s 362 2069 m -26 X s 362 2081 m -26 X s 362 2094 m -26 X s 387 2106 m -51 X s 362 2118 m -26 X s 362 2131 m -26 X s 362 2143 m -26 X s 362 2156 m -26 X s 387 2168 m -51 X s 362 2180 m -26 X s 362 2193 m -26 X s 362
 2205 m -26 X s 362 2218 m -26 X s 387 2230 m -51 X s
 gsave  299 1595
 t 0 r 0 0 m /Helvetica findfont 36.2798 sf 0 0 m (0) show  gr 
 gsave  250 1659
 t 0 r 0 0 m /Helvetica findfont 36.2798 sf 0 0 m (0.05) show  gr 
 gsave  274 1722
 t 0 r 0 0 m /Helvetica findfont 36.2798 sf 0 0 m (0.1) show  gr 
 gsave  250 1782
 t 0 r 0 0 m /Helvetica findfont 36.2798 sf 0 0 m (0.15) show  gr 
 gsave  268 1846
 t 0 r 0 0 m /Helvetica findfont 36.2798 sf 0 0 m (0.2) show  gr 
 gsave  250 1906
 t 0 r 0 0 m /Helvetica findfont 36.2798 sf 0 0 m (0.25) show  gr 
 gsave  268 1969
 t 0 r 0 0 m /Helvetica findfont 36.2798 sf 0 0 m (0.3) show  gr 
 gsave  250 2029
 t 0 r 0 0 m /Helvetica findfont 36.2798 sf 0 0 m (0.35) show  gr 
 gsave  268 2093
 t 0 r 0 0 m /Helvetica findfont 36.2798 sf 0 0 m (0.4) show  gr 
 gsave  250 2153
 t 0 r 0 0 m /Helvetica findfont 36.2798 sf 0 0 m (0.45) show  gr 
 gsave  268 2216
 t 0 r 0 0 m /Helvetica findfont 36.2798 sf 0 0 m (0.5) show  gr  1994 1610 m 620 Y s 1942 1610 m 52 X s 1968 1623 m 26 X s 1968 1635 m 26 X s 1968 1647 m 26 X s 1968 1660 m 26 X s 1942 1672 m 52 X s 1968 1685 m 26 X s 1968 1697 m 26 X s 1968 1709 m
 26 X s 1968 1722 m 26 X s 1942 1734 m 52 X s 1968 1746 m 26 X s 1968 1759 m 26 X s 1968 1771 m 26 X s 1968 1784 m 26 X s 1942 1796 m 52 X s 1968 1808 m 26 X s 1968 1821 m 26 X s 1968 1833 m 26 X s 1968 1846 m 26 X s 1942 1858 m 52 X s 1968 1870 m 26
 X s 1968 1883 m 26 X s 1968 1895 m 26 X s 1968 1908 m 26 X s 1942 1920 m 52 X s 1968 1932 m 26 X s 1968 1945 m 26 X s 1968 1957 m 26 X s 1968 1970 m 26 X s 1942 1982 m 52 X s 1968 1994 m 26 X s 1968 2007 m 26 X s 1968 2019 m 26 X s 1968 2032 m 26 X
 s 1942 2044 m 52 X s 1968 2056 m 26 X s 1968 2069 m 26 X s 1968 2081 m 26 X s 1968 2094 m 26 X s 1942 2106 m 52 X s 1968 2118 m 26 X s 1968 2131 m 26 X s 1968 2143 m 26 X s 1968 2156 m 26 X s 1942 2168 m 52 X s 1968 2180 m 26 X s 1968 2193 m 26 X s
 1968 2205 m 26 X s 1968 2218 m 26 X s 1942 2230 m 52 X s 6 lw 889 1817 m 30 7 d 32 8 d 30 6 d 30 6 d 22 4 d 32 6 d 69 12 d 64 11 d 35 5 d 24 4 d 41 5 d 36 5 d 38 4 d 8 1 d 28 3 d 33 3 d 184 14 d 246 20 d s 3 lw 1 1 1 c 2099 756 0 756 bf black 1 1 1
 c black 1658 620 336 854 bl 1658 620 336 854 bl 1 1 1 c black 1658 620 336 854 bl 1658 620 336 854 bl 336 854 m 1658 X s
 gsave  1520 772
 t 0 r 0 0 m /Helvetica findfont 42.3138 sf 0 0 m (Mass window width, GeV) show  gr  336 872 m -18 Y s 459 863 m -9 Y s 581 863 m -9 Y s 704 863 m -9 Y s 827 863 m -9 Y s 950 872 m -18 Y s 1073 863 m -9 Y s 1196 863 m -9 Y s 1318 863 m -9 Y s 1441
 863 m -9 Y s 1564 872 m -18 Y s 1564 872 m -18 Y s 1687 863 m -9 Y s 1810 863 m -9 Y s 1932 863 m -9 Y s
 gsave  323 820
 t 0 r 0 0 m /Helvetica findfont 36.269 sf 0 0 m (0) show  gr 
 gsave  920 820
 t 0 r 0 0 m /Helvetica findfont 36.269 sf 0 0 m (100) show  gr 
 gsave  1532 820
 t 0 r 0 0 m /Helvetica findfont 36.269 sf 0 0 m (200) show  gr  336 1474 m 1658 X s 336 1456 m 18 Y s 459 1465 m 9 Y s 581 1465 m 9 Y s 704 1465 m 9 Y s 827 1465 m 9 Y s 950 1456 m 18 Y s 1073 1465 m 9 Y s 1196 1465 m 9 Y s 1318 1465 m 9 Y s 1441
 1465 m 9 Y s 1564 1456 m 18 Y s 1564 1456 m 18 Y s 1687 1465 m 9 Y s 1810 1465 m 9 Y s 1932 1465 m 9 Y s 336 854 m 620 Y s
 gsave  96 1254
 t 90 r 0 0 m /Helvetica findfont 42.3138 sf 0 0 m (background) show  gr  387 854 m -51 X s 362 875 m -26 X s 362 896 m -26 X s 362 916 m -26 X s 362 937 m -26 X s 387 958 m -51 X s 362 978 m -26 X s 362 999 m -26 X s 362 1020 m -26 X s 362 1040 m
 -26 X s 387 1061 m -51 X s 362 1081 m -26 X s 362 1102 m -26 X s 362 1123 m -26 X s 362 1143 m -26 X s 387 1164 m -51 X s 362 1185 m -26 X s 362 1205 m -26 X s 362 1226 m -26 X s 362 1247 m -26 X s 387 1267 m -51 X s 362 1288 m -26 X s 362 1309 m
 -26 X s 362 1329 m -26 X s 362 1350 m -26 X s 387 1371 m -51 X s 362 1391 m -26 X s 362 1412 m -26 X s 362 1433 m -26 X s 362 1453 m -26 X s 387 1474 m -51 X s
 gsave  299 841
 t 0 r 0 0 m /Helvetica findfont 36.269 sf 0 0 m (0) show  gr 
 gsave  259 944
 t 0 r 0 0 m /Helvetica findfont 36.269 sf 0 0 m (100) show  gr 
 gsave  259 1046
 t 0 r 0 0 m /Helvetica findfont 36.269 sf 0 0 m (200) show  gr 
 gsave  259 1152
 t 0 r 0 0 m /Helvetica findfont 36.269 sf 0 0 m (300) show  gr 
 gsave  259 1254
 t 0 r 0 0 m /Helvetica findfont 36.269 sf 0 0 m (400) show  gr 
 gsave  259 1357
 t 0 r 0 0 m /Helvetica findfont 36.269 sf 0 0 m (500) show  gr 
 gsave  259 1460
 t 0 r 0 0 m /Helvetica findfont 36.269 sf 0 0 m (600) show  gr  1994 854 m 620 Y s 1942 854 m 52 X s 1968 875 m 26 X s 1968 896 m 26 X s 1968 916 m 26 X s 1968 937 m 26 X s 1942 958 m 52 X s 1968 978 m 26 X s 1968 999 m 26 X s 1968 1020 m 26 X s
 1968 1040 m 26 X s 1942 1061 m 52 X s 1968 1081 m 26 X s 1968 1102 m 26 X s 1968 1123 m 26 X s 1968 1143 m 26 X s 1942 1164 m 52 X s 1968 1185 m 26 X s 1968 1205 m 26 X s 1968 1226 m 26 X s 1968 1247 m 26 X s 1942 1267 m 52 X s 1968 1288 m 26 X s
 1968 1309 m 26 X s 1968 1329 m 26 X s 1968 1350 m 26 X s 1942 1371 m 52 X s 1968 1391 m 26 X s 1968 1412 m 26 X s 1968 1433 m 26 X s 1968 1453 m 26 X s 1942 1474 m 52 X s 6 lw 889 1140 m 82 19 d 40 9 d 22 4 d 61 11 d 16 4 d 15 4 d 9 3 d 14 5 d 15 7
 d 22 12 d 38 20 d 18 9 d 16 7 d 22 8 d 25 8 d 76 21 d 50 14 d 133 38 d 40 12 d 22 7 d 54 19 d 54 19 d 53 19 d 53 21 d 32 13 d s 3 lw 1 1 1 c 2099 756 0 0 bf black 1 1 1 c black 1658 620 336 98 bl 1658 620 336 98 bl 1 1 1 c black 1658 620 336 98 bl
 1658 620 336 98 bl 336 98 m 1658 X s
 gsave  1520 15
 t 0 r 0 0 m /Helvetica findfont 42.3265 sf 0 0 m (Mass window width, GeV) show  gr  336 116 m -18 Y s 459 107 m -9 Y s 581 107 m -9 Y s 704 107 m -9 Y s 827 107 m -9 Y s 950 116 m -18 Y s 1073 107 m -9 Y s 1196 107 m -9 Y s 1318 107 m -9 Y s 1441
 107 m -9 Y s 1564 116 m -18 Y s 1564 116 m -18 Y s 1687 107 m -9 Y s 1810 107 m -9 Y s 1932 107 m -9 Y s
 gsave  323 63
 t 0 r 0 0 m /Helvetica findfont 36.2798 sf 0 0 m (0) show  gr 
 gsave  920 63
 t 0 r 0 0 m /Helvetica findfont 36.2798 sf 0 0 m (100) show  gr 
 gsave  1532 63
 t 0 r 0 0 m /Helvetica findfont 36.2798 sf 0 0 m (200) show  gr  336 718 m 1658 X s 336 700 m 18 Y s 459 709 m 9 Y s 581 709 m 9 Y s 704 709 m 9 Y s 827 709 m 9 Y s 950 700 m 18 Y s 1073 709 m 9 Y s 1196 709 m 9 Y s 1318 709 m 9 Y s 1441 709 m 9 Y s
 1564 700 m 18 Y s 1564 700 m 18 Y s 1687 709 m 9 Y s 1810 709 m 9 Y s 1932 709 m 9 Y s 336 98 m 620 Y s
 gsave  96 501
 t 90 r 0 0 m /Helvetica findfont 42.3265 sf 0 0 m (significance) show  gr  387 98 m -51 X s 362 123 m -26 X s 362 148 m -26 X s 362 173 m -26 X s 362 197 m -26 X s 387 222 m -51 X s 362 247 m -26 X s 362 272 m -26 X s 362 297 m -26 X s 362 321 m -26
 X s 387 346 m -51 X s 362 371 m -26 X s 362 396 m -26 X s 362 421 m -26 X s 362 445 m -26 X s 387 470 m -51 X s 362 495 m -26 X s 362 520 m -26 X s 362 544 m -26 X s 362 569 m -26 X s 387 594 m -51 X s 362 619 m -26 X s 362 644 m -26 X s 362 668 m
 -26 X s 362 693 m -26 X s 387 718 m -51 X s
 gsave  299 84
 t 0 r 0 0 m /Helvetica findfont 36.2798 sf 0 0 m (0) show  gr 
 gsave  299 208
 t 0 r 0 0 m /Helvetica findfont 36.2798 sf 0 0 m (5) show  gr 
 gsave  280 332
 t 0 r 0 0 m /Helvetica findfont 36.2798 sf 0 0 m (10) show  gr 
 gsave  280 455
 t 0 r 0 0 m /Helvetica findfont 36.2798 sf 0 0 m (15) show  gr 
 gsave  280 582
 t 0 r 0 0 m /Helvetica findfont 36.2798 sf 0 0 m (20) show  gr 
 gsave  280 706
 t 0 r 0 0 m /Helvetica findfont 36.2798 sf 0 0 m (25) show  gr  1994 98 m 620 Y s 1942 98 m 52 X s 1968 123 m 26 X s 1968 148 m 26 X s 1968 173 m 26 X s 1968 197 m 26 X s 1942 222 m 52 X s 1968 247 m 26 X s 1968 272 m 26 X s 1968 297 m 26 X s 1968
 321 m 26 X s 1942 346 m 52 X s 1968 371 m 26 X s 1968 396 m 26 X s 1968 421 m 26 X s 1968 445 m 26 X s 1942 470 m 52 X s 1968 495 m 26 X s 1968 520 m 26 X s 1968 544 m 26 X s 1968 569 m 26 X s 1942 594 m 52 X s 1968 619 m 26 X s 1968 644 m 26 X s
 1968 668 m 26 X s 1968 693 m 26 X s 1942 718 m 52 X s 6 lw 889 577 m 23 4 d 24 4 d 26 3 d 22 3 d 24 3 d 3 X 19 2 d 32 4 d 17 2 d 11 X 11 1 d 11 X 8 -1 d 9 X 5 -1 d 7 -1 d 8 -2 d 8 -2 d 10 -3 d 10 -4 d 15 -6 d 29 -12 d 11 -5 d 9 -3 d 8 -2 d 8 -2 d 10
 -2 d 12 -2 d 12 -2 d 17 -1 d 26 -2 d 25 -2 d 15 -2 d 6 X 32 -4 d 36 -5 d 177 -28 d 139 -22 d 107 -17 d s
 gr  gr 
showpage
end
%%EOF
