%!PS-Adobe-2.0 EPSF-2.0
%%BoundingBox:  0 0 567 613
%%Title: etcut.eps:  
%%Creator: ROOT Version 3.05/07
%%CreationDate: Thu Feb 12 18:14:31 2004
%%EndComments
%%BeginProlog
80 dict begin
/s {stroke} def /l {lineto} def /m {moveto} def /t {translate} def
/sw {stringwidth} def /r {rotate} def /rl {roll}  def /R {repeat} def
/d {rlineto} def /rm {rmoveto} def /gr {grestore} def /f {eofill} def
/c {setrgbcolor} def /lw {setlinewidth} def /sd {setdash} def
/cl {closepath} def /sf {scalefont setfont} def /black {0 setgray} def
/box {m dup 0 exch d exch 0 d 0 exch neg d cl} def
/NC{systemdict begin initclip end}def/C{NC box clip newpath}def
/bl {box s} def /bf {box f} def /Y { 0 exch d} def /X { 0 d} def 
/mp {newpath /y exch def /x exch def} def
/side {[w .77 mul w .23 mul] .385 w mul sd w 0 l currentpoint t -144 r} def
/mr {mp x y w2 0 360 arc} def /m24 {mr s} def /m20 {mr f} def
/mb {mp x y w2 add m w2 neg 0 d 0 w neg d w 0 d 0 w d cl} def
/mt {mp x y w2 add m w2 neg w neg d w 0 d cl} def
/m21 {mb f} def /m25 {mb s} def /m22 {mt f} def /m26{mt s} def
/m23 {mp x y w2 sub m w2 w d w neg 0 d cl f} def
/m27 {mp x y w2 add m w3 neg w2 neg d w3 w2 neg d w3 w2 d cl s} def
/m28 {mp x w2 sub y w2 sub w3 add m w3 0 d  0 w3 neg d w3 0 d 0 w3 d w3 0 d  0 w3 d w3 neg 0 d 0 w3 d w3 neg 0 d
 0 w3 neg d w3 neg 0 d cl s } def
/m29 {mp gsave x w2 sub y w2 add w3 sub m currentpoint t
 4 {side} repeat cl fill gr} def
/m30 {mp gsave x w2 sub y w2 add w3 sub m currentpoint t
 4 {side} repeat cl s gr} def
/m31 {mp x y w2 sub m 0 w d x w2 sub y m w 0 d x w2 sub y w2 add m w w neg d x w2 sub y w2
 sub m w w d s} def
/m2 {mp x y w2 sub m 0 w d x w2 sub y m w 0 d s} def
/m5 {mp x w2 sub y w2 sub m w w d x w2 sub y w2 add m w w neg d s} def
/reencdict 24 dict def /ReEncode {reencdict begin /nco&na exch def
/nfnam exch def /basefontname exch def /basefontdict basefontname findfont def
/newfont basefontdict maxlength dict def basefontdict {exch dup /FID ne
{dup /Encoding eq {exch dup length array copy newfont 3 1 roll put} {exch 
newfont 3 1 roll put} ifelse} {pop pop} ifelse } forall newfont
/FontName nfnam put nco&na aload pop nco&na length 2 idiv {newfont
/Encoding get 3 1 roll put} repeat nfnam newfont definefont pop end } def
/accvec [ 176 /agrave 181 /Agrave 190 /acircumflex 192 /Acircumflex
201 /adieresis 204 /Adieresis 209 /ccedilla 210 /Ccedilla 211 /eacute
212 /Eacute 213 /egrave 214 /Egrave 215 /ecircumflex 216 /Ecircumflex
217 /edieresis 218 /Edieresis 219 /icircumflex 220 /Icircumflex
221 /idieresis 222 /Idieresis 223 /ntilde 224 /Ntilde 226 /ocircumflex
228 /Ocircumflex 229 /odieresis 230 /Odieresis 231 /ucircumflex 236 /Ucircumflex
237 /udieresis 238 /Udieresis 239 /aring 242 /Aring 243 /ydieresis
244 /Ydieresis 246 /aacute 247 /Aacute 252 /ugrave 253 /Ugrave] def
/Times-Roman /Times-Roman accvec ReEncode
/Times-Italic /Times-Italic accvec ReEncode
/Times-Bold /Times-Bold accvec ReEncode
/Times-BoldItalic /Times-BoldItalic accvec ReEncode
/Helvetica /Helvetica accvec ReEncode
/Helvetica-Oblique /Helvetica-Oblique accvec ReEncode
/Helvetica-Bold /Helvetica-Bold accvec ReEncode
/Helvetica-BoldOblique /Helvetica-BoldOblique  accvec ReEncode
/Courier /Courier accvec ReEncode
/Courier-Oblique /Courier-Oblique accvec ReEncode
/Courier-Bold /Courier-Bold accvec ReEncode
/Courier-BoldOblique /Courier-BoldOblique accvec ReEncode
/oshow {gsave [] 0 sd true charpath stroke gr} def
/stwn { /fs exch def /fn exch def /text exch def fn findfont fs sf
 text sw pop xs add /xs exch def} def
/stwb { /fs exch def /fn exch def /nbas exch def /textf exch deftextf length /tlen exch def nbas tlen gt {/nbas tlendef} iffn findfont fs sf textf dup length nbas sub nbas getinterval sw
pop neg xs add /xs exch def} def
/accspe [ 65 /plusminus  66 /bar  67 /existential  68 /universal 
69 /exclam  70 /numbersign 71 /greater  72 /question  73 /integral 
74 /colon  75 /semicolon  76 /less  77 /bracketleft  78 /bracketright
79 /greaterequal 80 /braceleft 81 /braceright 82 /radical
83 /spade 84 /heart 85 /diamond 86 /club 87 /lessequal
88 /multiply 89 /percent 90 /infinity 48 /circlemultiply 49 /circleplus
50 /emptyset  51 /lozenge 52 /bullet 53 /arrowright 54 /arrowup
55 /arrowleft 56 /arrowdown 57 /arrowboth 48 /degree 44 /comma 43 /plus 45 /angle 42 /angleleft 47 /divide 61 /notequal 40 /equivalence 41 /second 97 /approxequal 98 /congruent 99 /perpendicular 100 /partialdiff 101 /florin 102 /intersection
 103 /union 104 /propersuperset 105 /reflexsuperset 106 /notsubset 107 /propersubset 108 /reflexsubset 109 /element 110 /notelement 111 /gradient 112 /logicaland 113 /logicalor 114 /arrowdblboth 115 /arrowdblleft 116 /arrowdblup 117 /arrowdblright
 118 /arrowdbldown 119 /ampersand 120 /omega1 121 /similar 122 /aleph ] def
/Symbol /Special accspe ReEncode
%%EndProlog
%%BeginSetup
newpath  gsave  .25 .25 scale 
%%EndSetup
 gsave  0 0 t black [] 0 sd 3 lw 0.95 0.95 0.95 c 2268 2450 0 0 bf 1 1 1 c 0 0 m 2 2 d 2446 Y 2264 X 2 2 d -2268 X -2450 Y f 0.665 0.665 0.665 c 0 0 m 2 2 d 2264 X 2446 Y 2 2 d -2450 Y -2268 X f black 1 1 1 c 2268 2450 0 0 bf black 1 1 1 c 1701 1911
 340 294 bf 0.647667 0.183667 0.164333 c 340 294 m 1 1 d 1909 Y 1699 X 1 1 d -1701 X -1911 Y f 1 0 0 c 340 294 m 1 1 d 1699 X 1909 Y 1 1 d -1911 Y -1701 X f black 1701 1911 340 294 bl 1 1 1 c 1701 1911 340 294 bf 0.647667 0.183667 0.164333 c 340 294
 m 1 1 d 1909 Y 1699 X 1 1 d -1701 X -1911 Y f 1 0 0 c 340 294 m 1 1 d 1699 X 1909 Y 1 1 d -1911 Y -1701 X f black 1701 1911 340 294 bl 9 lw 1 1 1 c black 342 793 m 15 X 788 Y 17 X 442 Y 17 X 91 Y 17 X -151 Y 17 X -230 Y 17 X -247 Y 17 X -227 Y 17 X
 -206 Y 17 X -153 Y 17 X -101 Y 17 X -122 Y 17 X -55 Y 17 X -84 Y 17 X -46 Y 17 X -32 Y 17 X -27 Y 17 X -36 Y 17 X -14 Y 17 X -17 Y 17 X -11 Y 17 X -2 Y 17 X -9 Y 17 X -7 Y 17 X -5 Y 34 X -7 Y 17 X -1 Y 17 X -5 Y 17 X -4 Y 17 X 3 Y 17 X -8 Y 17 X 2 Y
 34 X 2 Y 17 X -8 Y 17 X 3 Y 34 X 2 Y 17 X -5 Y 17 X 1 Y 17 X -3 Y 17 X 3 Y 17 X -4 Y 35 X 2 Y 17 X -4 Y 17 X 3 Y 17 X 1 Y 17 X -2 Y 17 X 1 Y 17 X -3 Y 17 X 3 Y 34 X -1 Y 17 X -1 Y 17 X -3 Y 17 X -2 Y 17 X 2 Y 17 X 2 Y 17 X -2 Y 17 X 2 Y 17 X -1 Y 34
 X -2 Y 34 X 1 Y 17 X 1 Y 17 X -3 Y 17 X 1 Y 17 X -1 Y 17 X -2 Y 17 X 2 Y 17 X 1 Y 17 X -2 Y 17 X 3 Y 17 X -1 Y 17 X -2 Y 17 X 1 Y 17 X 1 Y 17 X -2 Y 51 X 1 Y 17 X -2 Y 17 X 1 Y 68 X -1 Y 17 X 1 Y 51 X -1 Y 17 X 1 Y 17 X 1 Y 17 X -1 Y 17 X -2 Y 17 X
 1 Y 32 X s 3 lw 340 294 m 1701 X s
 gsave  1772 78
 t 0 r 0 0 m /Helvetica-Bold findfont 104.263 sf 0 0 m (, GeV) show  gr 
 gsave  1746 42
 t 0 r 0 0 m /Helvetica-Bold findfont 71.6807 sf 0 0 m (t) show  gr 
 gsave  1681 78
 t 0 r 0 0 m /Helvetica-Bold findfont 104.263 sf 0 0 m (E) show  gr  340 349 m -55 Y s 383 322 m -28 Y s 425 322 m -28 Y s 468 322 m -28 Y s 510 322 m -28 Y s 553 349 m -55 Y s 595 322 m -28 Y s 638 322 m -28 Y s 680 322 m -28 Y s 723 322 m -28 Y s
 765 349 m -55 Y s 808 322 m -28 Y s 850 322 m -28 Y s 893 322 m -28 Y s 935 322 m -28 Y s 978 349 m -55 Y s 1020 322 m -28 Y s 1063 322 m -28 Y s 1106 322 m -28 Y s 1148 322 m -28 Y s 1191 349 m -55 Y s 1233 322 m -28 Y s 1276 322 m -28 Y s 1318 322
 m -28 Y s 1361 322 m -28 Y s 1403 349 m -55 Y s 1446 322 m -28 Y s 1488 322 m -28 Y s 1531 322 m -28 Y s 1573 322 m -28 Y s 1616 349 m -55 Y s 1658 322 m -28 Y s 1701 322 m -28 Y s 1743 322 m -28 Y s 1786 322 m -28 Y s 1828 349 m -55 Y s 1871 322 m
 -28 Y s 1913 322 m -28 Y s 1956 322 m -28 Y s 1998 322 m -28 Y s 2041 349 m -55 Y s
 gsave  316 205
 t 0 r 0 0 m /Helvetica-Bold findfont 84.7136 sf 0 0 m (0) show  gr 
 gsave  505 205
 t 0 r 0 0 m /Helvetica-Bold findfont 84.7136 sf 0 0 m (50) show  gr 
 gsave  691 205
 t 0 r 0 0 m /Helvetica-Bold findfont 84.7136 sf 0 0 m (100) show  gr 
 gsave  906 205
 t 0 r 0 0 m /Helvetica-Bold findfont 84.7136 sf 0 0 m (150) show  gr 
 gsave  1118 205
 t 0 r 0 0 m /Helvetica-Bold findfont 84.7136 sf 0 0 m (200) show  gr 
 gsave  1329 205
 t 0 r 0 0 m /Helvetica-Bold findfont 84.7136 sf 0 0 m (250) show  gr 
 gsave  1541 205
 t 0 r 0 0 m /Helvetica-Bold findfont 84.7136 sf 0 0 m (300) show  gr 
 gsave  1756 205
 t 0 r 0 0 m /Helvetica-Bold findfont 84.7136 sf 0 0 m (350) show  gr 
 gsave  1968 205
 t 0 r 0 0 m /Helvetica-Bold findfont 84.7136 sf 0 0 m (400) show  gr  340 294 m 1911 Y s
 gsave  94 1567
 t 90 r 0 0 m /Helvetica-Bold findfont 104.263 sf 0 0 m (Events/4GeV) show  gr  393 294 m -53 X s 367 353 m -27 X s 367 411 m -27 X s 367 470 m -27 X s 367 528 m -27 X s 393 587 m -53 X s 367 645 m -27 X s 367 704 m -27 X s 367 762 m -27 X s 367 821
 m -27 X s 393 879 m -53 X s 367 938 m -27 X s 367 996 m -27 X s 367 1055 m -27 X s 367 1114 m -27 X s 393 1172 m -53 X s 367 1231 m -27 X s 367 1289 m -27 X s 367 1348 m -27 X s 367 1406 m -27 X s 393 1465 m -53 X s 367 1523 m -27 X s 367 1582 m -27
 X s 367 1640 m -27 X s 367 1699 m -27 X s 393 1757 m -53 X s 367 1816 m -27 X s 367 1874 m -27 X s 367 1933 m -27 X s 367 1992 m -27 X s 393 2050 m -53 X s 393 2050 m -53 X s 367 2109 m -27 X s 367 2167 m -27 X s
 gsave  280 270
 t 0 r 0 0 m /Helvetica-Bold findfont 84.7136 sf 0 0 m (0) show  gr 
 gsave  140 564
 t 0 r 0 0 m /Helvetica-Bold findfont 84.7136 sf 0 0 m (1000) show  gr 
 gsave  140 854
 t 0 r 0 0 m /Helvetica-Bold findfont 84.7136 sf 0 0 m (2000) show  gr 
 gsave  140 1147
 t 0 r 0 0 m /Helvetica-Bold findfont 84.7136 sf 0 0 m (3000) show  gr 
 gsave  140 1440
 t 0 r 0 0 m /Helvetica-Bold findfont 84.7136 sf 0 0 m (4000) show  gr 
 gsave  140 1733
 t 0 r 0 0 m /Helvetica-Bold findfont 84.7136 sf 0 0 m (5000) show  gr 
 gsave  140 2027
 t 0 r 0 0 m /Helvetica-Bold findfont 84.7136 sf 0 0 m (6000) show  gr  1 1 1 c black 342 385 m 15 X 201 Y 17 X 152 Y 17 X 170 Y 17 X 115 Y 17 X 142 Y 17 X 93 Y 17 X 63 Y 17 X 41 Y 17 X 40 Y 17 X 3 Y 17 X 16 Y 17 X -24 Y 17 X -46 Y 17 X -76 Y 17 X 9
 Y 17 X -90 Y 17 X -16 Y 17 X -58 Y 17 X -80 Y 17 X -47 Y 17 X -36 Y 17 X -105 Y 17 X -29 Y 17 X -44 Y 17 X -52 Y 17 X -59 Y 17 X -38 Y 17 X -35 Y 17 X -42 Y 17 X -19 Y 17 X -24 Y 17 X -29 Y 17 X -30 Y 17 X -8 Y 17 X -25 Y 17 X -7 Y 17 X -14 Y 17 X
 -15 Y 17 X -8 Y 17 X -14 Y 17 X -2 Y 17 X -6 Y 17 X -10 Y 18 X 1 Y 17 X -6 Y 17 X -6 Y 17 X -4 Y 17 X 1 Y 17 X -2 Y 17 X -4 Y 34 X -8 Y 17 X -3 Y 17 X 1 Y 17 X 1 Y 17 X -2 Y 34 X -2 Y 17 X 2 Y 17 X -7 Y 17 X 1 Y 17 X 2 Y 17 X -7 Y 17 X 4 Y 17 X -3 Y
 34 X -1 Y 51 X -1 Y 17 X -2 Y 17 X 1 Y 17 X 1 Y 17 X -2 Y 17 X 1 Y 17 X 1 Y 17 X -2 Y 34 X -2 Y 17 X 2 Y 34 X -2 Y 17 X 1 Y 85 X -1 Y 34 X 1 Y 17 X -2 Y 17 X 1 Y 17 X -1 Y 17 X 1 Y 51 X -1 Y 34 X 1 Y 15 X s
 gsave  508 1759
 t 0 r 0 0 m /Helvetica-Bold findfont 84.7136 sf 0 0 m (Signal) show  gr 
 gsave  772 1056
 t 0 r 0 0 m /Helvetica-Bold findfont 84.7136 sf 0 0 m ( t) show  gr  6 lw 772 1127 m 52 X s
 gsave  720 1056
 t 0 r 0 0 m /Helvetica-Bold findfont 84.7136 sf 0 0 m (t\040) show  gr  12 lw 508 378 m 98 Y s 3 lw 551 378 m -43 -72 d -39 72 d f 551 378 m -43 -72 d -39 72 d 82 X cl s
 gsave  378 482
 t 0 r 0 0 m /Helvetica-Bold findfont 104.263 sf 0 0 m (cut) show  gr  1 1 0 c
 gr  gr 
showpage
end
%%EOF
