%!PS-Adobe-2.0 EPSF-2.0
%%BoundingBox:  0 0 567 407
%%Title: fit-data=dstsign1500-mu.d-samples=10-2D.root-mc_fit.eps: fit-data=dstsign1500-mu.d-samples=10-2D.root
%%Creator: ROOT Version 5.20/00
%%CreationDate: Mon Sep 22 17:31:06 2008
%%EndComments
%%BeginProlog
80 dict begin
/s {stroke} def /l {lineto} def /m {moveto} def /t {translate} def
/sw {stringwidth} def /r {rotate} def /rl {roll}  def /R {repeat} def
/d {rlineto} def /rm {rmoveto} def /gr {grestore} def /f {eofill} def
/c {setrgbcolor} def /black {0 setgray} def /sd {setdash} def
/cl {closepath} def /sf {scalefont setfont} def /lw {setlinewidth} def
/box {m dup 0 exch d exch 0 d 0 exch neg d cl} def
/NC{systemdict begin initclip end}def/C{NC box clip newpath}def
/bl {box s} def /bf {box f} def /Y { 0 exch d} def /X { 0 d} def 
/mp {newpath /y exch def /x exch def} def
/side {[w .77 mul w .23 mul] .385 w mul sd w 0 l currentpoint t -144 r} def
/mr {mp x y w2 0 360 arc} def /m24 {mr s} def /m20 {mr f} def
/mb {mp x y w2 add m w2 neg 0 d 0 w neg d w 0 d 0 w d cl} def
/mt {mp x y w2 add m w2 neg w neg d w 0 d cl} def
/m21 {mb f} def /m25 {mb s} def /m22 {mt f} def /m26{mt s} def
/m23 {mp x y w2 sub m w2 w d w neg 0 d cl f} def
/m27 {mp x y w2 add m w3 neg w2 neg d w3 w2 neg d w3 w2 d cl s} def
/m28 {mp x w2 sub y w2 sub w3 add m w3 0 d  0 w3 neg d w3 0 d 0 w3 d w3 0 d  0 w3 d w3 neg 0 d 0 w3 d w3 neg 0 d
 0 w3 neg d w3 neg 0 d cl s } def
/m29 {mp gsave x w2 sub y w2 add w3 sub m currentpoint t
 4 {side} repeat cl fill gr} def
/m30 {mp gsave x w2 sub y w2 add w3 sub m currentpoint t
 4 {side} repeat cl s gr} def
/m31 {mp x y w2 sub m 0 w d x w2 sub y m w 0 d x w2 sub y w2 add m w w neg d x w2 sub y w2
 sub m w w d s} def
/m2 {mp x y w2 sub m 0 w d x w2 sub y m w 0 d s} def
/m5 {mp x w2 sub y w2 sub m w w d x w2 sub y w2 add m w w neg d s} def
/reEncode {exch findfont dup length dict begin {1 index /FID eq  {pop pop} {def} ifelse } forall /Encoding exch def currentdict end dup /FontName get exch definefont pop } def [/Times-Bold /Times-Italic /Times-BoldItalic /Helvetica
 /Helvetica-Oblique /Helvetica-Bold /Helvetica-BoldOblique /Courier /Courier-Oblique /Courier-Bold /Courier-BoldOblique /Times-Roman /AvantGarde-Book /AvantGarde-BookOblique /AvantGarde-Demi /AvantGarde-DemiOblique /Bookman-Demi
 /Bookman-DemiItalic /Bookman-Light /Bookman-LightItalic /Helvetica-Narrow /Helvetica-Narrow-Bold /Helvetica-Narrow-BoldOblique /Helvetica-Narrow-Oblique /NewCenturySchlbk-Roman /NewCenturySchlbk-Bold
 /NewCenturySchlbk-BoldItalic /NewCenturySchlbk-Italic /Palatino-Bold /Palatino-BoldItalic /Palatino-Italic /Palatino-Roman ] {ISOLatin1Encoding reEncode } forall
/oshow {gsave [] 0 sd true charpath stroke gr} def
/stwn { /fs exch def /fn exch def /text exch def fn findfont fs sf
 text sw pop xs add /xs exch def} def
/stwb { /fs exch def /fn exch def /nbas exch def /textf exch deftextf length /tlen exch def nbas tlen gt {/nbas tlendef} iffn findfont fs sf textf dup length nbas sub nbas getinterval sw
pop neg xs add /xs exch def} def
%%EndProlog
%%BeginSetup
%%EndSetup
newpath  gsave  .25 .25 scale  gsave  0 0 t black[  ] 0 sd 3 lw 1 1 1 c 2268 1630 0 0 bf black 1 1 1 c 1088 1597 23 16 bf black 1 1 1 c 816 1278 186 176 bf black 816 1278 186 176 bl 0.2 0 1 c 202 448 m 13 9 d 20 32 d 13 19 d 20 30 d 32 21 d 4 X 29 9
 d 19 42 d 5 51 d 9 14 d 23 38 d 9 13 d 17 -13 d 1 -52 d -18 -40 d -15 -11 d 15 -36 d 33 -3 d 8 -12 d 25 -13 d 32 12 d 6 1 d 23 51 d 4 11 d 7 -11 d 25 -29 d 24 -22 d 9 -19 d 15 -32 d -15 -9 d -27 -42 d -6 -11 d -32 -39 d -1 -1 d -32 -39 d -25 -12 d
 -7 -7 d -33 -26 d -33 -5 d -32 X -32 38 d 11 51 d -12 7 d -3 -7 d -3 -51 d -9 -51 d -18 -23 d -28 -28 d -4 -5 d -33 -6 d -33 -27 d f 599 713 m -5 -38 d -8 38 d 8 7 d 5 -7 d f 531 815 m -2 -4 d -5 4 d 5 3 d 2 -3 d f 0 0.0800001 1 c 202 439 m 25 18 d
 8 13 d 27 38 d 6 9 d 32 19 d 30 -28 d 3 -11 d 12 11 d 9 51 d 12 21 d 11 -21 d -4 -51 d -7 -24 d -11 -27 d -22 -15 d -15 -36 d -18 -32 d -10 -19 d -51 Y -22 -25 d -33 -15 d -12 -11 d -21 -22 d f 586 508 m -25 -38 d -10 -13 d -22 -31 d -27 -20 d -6
 -7 d -32 -28 d -33 -14 d -33 1 d -8 48 d 8 9 d 18 42 d 15 27 d 22 24 d 11 9 d 32 33 d 33 9 d 32 -11 d 25 -40 d f 0 0.266667 1 c 202 431 m 33 25 d 6 1 d 27 38 d 25 13 d 7 4 d 4 -4 d 21 -51 d -19 -51 d -6 -10 d -23 -41 d -9 -42 d -3 -9 d -30 -25 d
 -27 -26 d -6 -6 d f 576 508 m -15 -23 d -24 -28 d -8 -12 d -33 -34 d -15 -5 d -17 -16 d -33 -12 d -20 28 d 20 43 d 2 8 d 31 44 d 4 7 d 28 35 d 33 8 d 32 -19 d 15 -24 d f 0 0.546667 1 c 202 422 m 33 31 d 22 4 d 11 15 d 32 6 d 9 -21 d -9 -27 d -6 -24
 d -26 -46 d -2 -5 d -20 -51 d -11 -9 d -33 -38 d f 566 508 m -5 -8 d -32 -39 d -2 -4 d -31 -40 d -32 -9 d -11 -2 d -22 -6 d -5 6 d 5 10 d 9 41 d 24 33 d 10 18 d 22 27 d 33 9 d 32 -28 d 5 -8 d f 0 0.733333 1 c 202 413 m 33 37 d 33 -5 d 14 -39 d -14
 -24 d -6 -27 d -27 -48 d -2 -3 d -31 -39 d f 558 508 m -29 -38 d -7 -13 d -26 -34 d -32 1 d -16 33 d 16 22 d 16 29 d 16 19 d 33 10 d 29 -29 d f 0 1 0.986667 c 202 405 m 1 1 d 32 41 d 33 -36 d 1 -5 d -1 -3 d -11 -48 d -22 -39 d -8 -12 d -25 -32 d f
 550 508 m -21 -28 d -12 -23 d -21 -27 d -32 10 d -9 17 d 9 11 d 23 40 d 9 12 d 33 9 d 21 -21 d f 0 1 0.8 c 202 400 m 3 6 d 30 38 d 31 -38 d -14 -51 d -17 -31 d -14 -20 d -19 -24 d f 543 508 m -14 -18 d -16 -33 d -17 -21 d -32 20 d -1 1 d 1 1 d 29
 50 d 3 4 d 33 10 d 14 -14 d f 0 1 0.52 c 202 395 m 5 11 d 28 35 d 28 -35 d -15 -51 d -13 -23 d -20 -28 d -13 -17 d f 536 508 m -7 -9 d -21 -42 d -12 -15 d -23 15 d 23 43 d 11 8 d 22 7 d 7 -7 d f 0 1 0.333333 c 202 390 m 8 16 d 25 32 d 26 -32 d -18
 -51 d -8 -14 d -25 -37 d -8 -10 d f 503 457 m -7 -9 d -14 9 d 14 25 d 7 -25 d f 0 1 0.0533334 c 202 385 m 10 21 d 23 29 d 23 -29 d -20 -51 d -3 -6 d -31 -45 d -2 -2 d f 498 457 m -2 -3 d -4 3 d 4 7 d 2 -7 d f 0.133333 1 0 c 202 380 m 12 26 d 21 26
 d 21 -26 d -21 -49 d -2 -2 d -31 -45 d f 0.413333 1 0 c 202 375 m 15 31 d 18 24 d 19 -24 d -19 -44 d -8 -7 d -25 -36 d f 0.6 1 0 c 202 370 m 17 36 d 16 21 d 16 -21 d -16 -38 d -14 -13 d -19 -27 d f 0.88 1 0 c 202 365 m 19 41 d 14 18 d 14 -18 d -14
 -33 d -20 -18 d -13 -18 d f 1 0.933333 0 c 202 360 m 21 46 d 12 15 d 12 -15 d -12 -27 d -27 -24 d -6 -9 d f 1 0.653333 0 c 202 355 m 24 51 d 9 12 d 9 -12 d -9 -22 d -33 -29 d f 1 0.466667 0 c 242 406 m -7 -16 d -7 16 d 7 9 d 7 -9 d f 1 0.186667 0 c
 240 406 m -5 -11 d -5 11 d 5 6 d 5 -6 d f 1 7.94729e-008 0 c 237 406 m -2 -6 d -2 6 d 2 3 d 2 -3 d f black 186 176 m 816 X s
 gsave  1088 1597 23 16 C 980 71 t 0 r /Helvetica-Bold findfont 34.1938 sf 0 0 m (2) show NC gr 
 gsave  1088 1597 23 16 C 806 48 t 0 r /Helvetica-Bold findfont 51.2908 sf 0 0 m (, GeV/c) show NC gr 
 gsave  1088 1597 23 16 C 789 23 t 0 r /Helvetica-Bold findfont 22.7959 sf 0 0 m (R) show NC gr 
 gsave  1088 1597 23 16 C 755 31 t 0 r /Helvetica-Bold findfont 34.1938 sf 0 0 m (W) show NC gr 
 gsave  1088 1597 23 16 C 715 48 t 0 r /Helvetica-Bold findfont 51.2908 sf 0 0 m (M) show NC gr  186 212 m -36 Y s 219 194 m -18 Y s 251 194 m -18 Y s 284 194 m -18 Y s 317 194 m -18 Y s 349 212 m -36 Y s 382 194 m -18 Y s 415 194 m -18 Y s 447 194
 m -18 Y s 480 194 m -18 Y s 513 212 m -36 Y s 545 194 m -18 Y s 578 194 m -18 Y s 610 194 m -18 Y s 643 194 m -18 Y s 676 212 m -36 Y s 708 194 m -18 Y s 741 194 m -18 Y s 774 194 m -18 Y s 806 194 m -18 Y s 839 212 m -36 Y s 872 194 m -18 Y s 904
 194 m -18 Y s 937 194 m -18 Y s 970 194 m -18 Y s 1002 212 m -36 Y s
 gsave  1088 1597 23 16 C 151 120 t 0 r /Helvetica-Bold findfont 39.8928 sf 0 0 m (500) show NC gr 
 gsave  1088 1597 23 16 C 302 120 t 0 r /Helvetica-Bold findfont 39.8928 sf 0 0 m (1000) show NC gr 
 gsave  1088 1597 23 16 C 464 120 t 0 r /Helvetica-Bold findfont 39.8928 sf 0 0 m (1500) show NC gr 
 gsave  1088 1597 23 16 C 630 120 t 0 r /Helvetica-Bold findfont 39.8928 sf 0 0 m (2000) show NC gr 
 gsave  1088 1597 23 16 C 792 120 t 0 r /Helvetica-Bold findfont 39.8928 sf 0 0 m (2500) show NC gr 
 gsave  1088 1597 23 16 C 954 120 t 0 r /Helvetica-Bold findfont 39.8928 sf 0 0 m (3000) show NC gr  186 176 m 1278 Y s
 gsave  1088 1597 23 16 C 46 1436 t 90 r /Helvetica-Bold findfont 34.1938 sf 0 0 m (2) show NC gr 
 gsave  1088 1597 23 16 C 68 1262 t 90 r /Helvetica-Bold findfont 51.2908 sf 0 0 m (, GeV/c) show NC gr 
 gsave  1088 1597 23 16 C 94 1245 t 90 r /Helvetica-Bold findfont 22.7959 sf 0 0 m (R) show NC gr 
 gsave  1088 1597 23 16 C 80 1225 t 90 r /Symbol findfont 34.1938 sf 0 0 m (n) show NC gr 
 gsave  1088 1597 23 16 C 68 1185 t 90 r /Helvetica-Bold findfont 51.2908 sf 0 0 m (M) show NC gr  212 176 m -26 X s 199 227 m -13 X s 199 278 m -13 X s 199 329 m -13 X s 199 380 m -13 X s 212 432 m -26 X s 199 483 m -13 X s 199 534 m -13 X s 199
 585 m -13 X s 199 636 m -13 X s 212 687 m -26 X s 199 738 m -13 X s 199 789 m -13 X s 199 840 m -13 X s 199 891 m -13 X s 212 943 m -26 X s 199 994 m -13 X s 199 1045 m -13 X s 199 1096 m -13 X s 199 1147 m -13 X s 212 1198 m -26 X s 199 1249 m -13
 X s 199 1300 m -13 X s 199 1351 m -13 X s 199 1402 m -13 X s 212 1454 m -26 X s
 gsave  1088 1597 23 16 C 157 160 t 0 r /Helvetica-Bold findfont 39.8928 sf 0 0 m (0) show NC gr 
 gsave  1088 1597 23 16 C 114 416 t 0 r /Helvetica-Bold findfont 39.8928 sf 0 0 m (500) show NC gr 
 gsave  1088 1597 23 16 C 91 672 t 0 r /Helvetica-Bold findfont 39.8928 sf 0 0 m (1000) show NC gr 
 gsave  1088 1597 23 16 C 91 926 t 0 r /Helvetica-Bold findfont 39.8928 sf 0 0 m (1500) show NC gr 
 gsave  1088 1597 23 16 C 91 1182 t 0 r /Helvetica-Bold findfont 39.8928 sf 0 0 m (2000) show NC gr 
 gsave  1088 1597 23 16 C 91 1439 t 0 r /Helvetica-Bold findfont 39.8928 sf 0 0 m (2500) show NC gr  1 1 1 c 221 80 34 1525 bf black 34 1525 m 221 X s 255 1525 m 80 Y s 255 1605 m -221 X s 34 1605 m -80 Y s 1 1 1 c black
 gsave  1088 1597 23 16 C 60 1547 t 0 r /Helvetica-Bold findfont 42.7423 sf 0 0 m (MC data) show NC gr  0.386667 0 1 c 49 64 1008 176 bf 0.2 0 1 c 49 64 1008 240 bf 0 0.0800001 1 c 49 64 1008 304 bf 0 0.266667 1 c 49 64 1008 368 bf 0 0.546667 1 c 49
 63 1008 432 bf 0 0.733333 1 c 49 64 1008 495 bf 0 1 0.986667 c 49 64 1008 559 bf 0 1 0.8 c 49 64 1008 623 bf 0 1 0.52 c 49 64 1008 687 bf 0 1 0.333333 c 49 64 1008 751 bf 0 1 0.0533334 c 49 64 1008 815 bf 0.133333 1 0 c 49 64 1008 879 bf 0.413333 1
 0 c 49 63 1008 943 bf 0.6 1 0 c 49 64 1008 1006 bf 0.88 1 0 c 49 64 1008 1070 bf 1 0.933333 0 c 49 64 1008 1134 bf 1 0.653333 0 c 49 64 1008 1198 bf 1 0.466667 0 c 49 64 1008 1262 bf 1 0.186667 0 c 49 64 1008 1326 bf 1 7.94729e-008 0 c 49 64 1008
 1390 bf black 1057 176 m 1278 Y s 1031 176 m 26 X s 1031 382 m 26 X s 1031 588 m 26 X s 1031 794 m 26 X s 1031 1000 m 26 X s 1031 1206 m 26 X s 1031 1412 m 26 X s 1031 1412 m 26 X s
 gsave  1088 1597 23 16 C 1060 160 t 0 r /Helvetica-Bold findfont 39.8928 sf 0 0 m (0) show NC gr 
 gsave  1088 1597 23 16 C 1060 365 t 0 r /Helvetica-Bold findfont 39.8928 sf 0 0 m (1) show NC gr 
 gsave  1088 1597 23 16 C 1060 570 t 0 r /Helvetica-Bold findfont 39.8928 sf 0 0 m (2) show NC gr 
 gsave  1088 1597 23 16 C 1060 778 t 0 r /Helvetica-Bold findfont 39.8928 sf 0 0 m (3) show NC gr 
 gsave  1088 1597 23 16 C 1060 980 t 0 r /Helvetica-Bold findfont 39.8928 sf 0 0 m (4) show NC gr 
 gsave  1088 1597 23 16 C 1060 1191 t 0 r /Helvetica-Bold findfont 39.8928 sf 0 0 m (5) show NC gr 
 gsave  1088 1597 23 16 C 1060 1396 t 0 r /Helvetica-Bold findfont 39.8928 sf 0 0 m (6) show NC gr  0.8 0.8 0.8 c
 gsave  1088 1597 23 16 C 598 784 t 45 r  -404 0 t /Helvetica-Bold findfont 102.582 sf 0 0 m (CMS preliminary) show NC gr  black 1 1 1 c 221 80 34 1525 bf black 34 1525 m 221 X s 255 1525 m 80 Y s 255 1605 m -221 X s 34 1605 m -80 Y s 1 1 1 c black
 gsave  1088 1597 23 16 C 60 1547 t 0 r /Helvetica-Bold findfont 42.7423 sf 0 0 m (MC data) show NC gr  1 1 1 c 1088 1597 1157 16 bf black 1 1 1 c 816 1278 1320 176 bf black 816 1278 1320 176 bl 0.2 0 1 c 1336 449 m 12 8 d 21 33 d 14 18 d 18 27 d 25
 24 d 8 12 d 31 39 d 2 3 d 28 48 d 4 7 d 33 14 d 12 -21 d -12 -45 d -4 -6 d 4 -2 d 33 -21 d 32 10 d 16 13 d 17 17 d 13 -17 d 20 -19 d 19 -32 d 13 -12 d 33 -39 d -6 Y 7 -45 d -7 -6 d -33 -31 d -19 -14 d -13 -21 d -33 -30 d -33 27 d -24 24 d -8 4 d
 -33 5 d -6 -9 d -25 -51 d -2 -4 d -13 -47 d -19 -20 d -33 -24 d -9 -7 d -24 -20 d -32 -17 d -33 -8 d f 0 0.0800001 1 c 1336 441 m 26 16 d 7 11 d 32 40 d 33 38 d 33 6 d 32 -15 d 22 -29 d -22 -27 d -9 -24 d -23 -30 d -6 -21 d -4 -51 d -13 -51 d -10
 -10 d -33 -35 d -9 -6 d -23 -19 d -33 -17 d f 1644 559 m 19 -8 d 32 -43 d 6 -51 d -6 -5 d -32 -38 d -22 -8 d -11 -14 d -12 14 d -21 9 d -32 29 d -17 13 d 4 51 d 13 8 d 32 35 d 19 8 d 14 17 d 14 -17 d f 0 0.266667 1 c 1336 432 m 33 23 d 4 2 d 28 40
 d 17 11 d 16 19 d 33 -14 d 6 -5 d -6 -28 d -3 -23 d -11 -51 d -19 -41 d -8 -10 d -1 -51 d -24 -29 d -31 -22 d -1 -1 d -33 -26 d f 1685 508 m 2 -51 d -24 -30 d -33 -17 d -33 19 d -25 28 d 4 51 d 21 26 d 33 21 d 33 -18 d 22 -29 d f 0 0.546667 1 c
 1336 423 m 33 27 d 12 7 d 20 29 d 33 22 d 1 -51 d 10 -51 d -11 -23 d -23 -28 d 1 -51 d -11 -14 d -32 -30 d -11 -7 d -22 -18 d f 1674 508 m 3 -51 d -14 -18 d -33 -22 d -33 26 d -12 14 d 5 51 d 7 9 d 33 30 d 33 -24 d 11 -15 d f 0 0.733333 1 c 1336
 414 m 33 31 d 20 12 d 12 18 d 21 -18 d 12 -40 d 2 -11 d -2 -5 d -33 -37 d -1 -9 d 1 -51 d -32 -37 d -22 -14 d -11 -9 d f 1663 508 m 4 -51 d -4 -5 d -33 -28 d -33 33 d 4 Y 4 47 d 29 31 d 33 -30 d -1 Y f 0 1 0.986667 c 1336 406 m 33 34 d 28 17 d 4 7
 d 8 -7 d 10 -51 d -18 -19 d -4 -32 d -2 -51 d -26 -30 d -33 -21 d f 1655 508 m 3 -51 d -28 -26 d -26 26 d 4 51 d 22 24 d 25 -24 d f 0 1 0.8 c 1336 402 m 5 4 d 28 29 d 32 -29 d -8 -51 d -5 -51 d -19 -23 d -33 -23 d f 1647 508 m 4 -51 d -21 -19 d -19
 19 d 4 51 d 15 16 d 17 -16 d f 0 1 0.52 c 1336 398 m 10 8 d 23 25 d 26 -25 d -5 -51 d -8 -51 d -13 -16 d -33 -25 d f 1639 508 m 5 -51 d -14 -12 d -12 12 d 4 51 d 8 9 d 9 -9 d f 0 1 0.333333 c 1336 395 m 14 11 d 19 20 d 21 -20 d -3 -51 d -11 -51 d
 -7 -9 d -33 -27 d f 1631 508 m 5 -51 d -6 -6 d -6 6 d 5 51 d 1 1 d 1 -1 d f 0 1 0.0533334 c 1336 391 m 19 15 d 14 15 d 16 -15 d -2 -51 d -13 -51 d -1 -2 d -33 -29 d f 0.133333 1 0 c 1336 388 m 23 18 d 10 10 d 11 -10 d -51 Y -11 -41 d -5 -10 d -28
 -26 d f 0.413333 1 0 c 1336 384 m 28 22 d 5 5 d 6 -5 d 1 -51 d -7 -28 d -10 -23 d -23 -21 d f 0.6 1 0 c 1336 380 m 32 26 d 1 1 d -1 Y 4 -51 d -4 -15 d -16 -36 d -17 -15 d f 0.88 1 0 c 1336 377 m 33 -12 d 1 -10 d -1 -3 d -22 -48 d -11 -10 d f 1
 0.933333 0 c 1336 373 m 28 -18 d -22 -51 d -6 -5 d f 1 0.653333 0 c 1336 369 m 23 -14 d -23 -51 d f 1 0.466667 0 c 1336 366 m 17 -11 d -17 -39 d f 1 0.186667 0 c 1336 362 m 11 -7 d -11 -26 d f 1 7.94729e-008 0 c 1336 358 m 6 -3 d -6 -13 d f black
 1320 176 m 816 X s
 gsave  1088 1597 1157 16 C 2114 71 t 0 r /Helvetica-Bold findfont 34.1938 sf 0 0 m (2) show NC gr 
 gsave  1088 1597 1157 16 C 1940 48 t 0 r /Helvetica-Bold findfont 51.2908 sf 0 0 m (, GeV/c) show NC gr 
 gsave  1088 1597 1157 16 C 1923 23 t 0 r /Helvetica-Bold findfont 22.7959 sf 0 0 m (R) show NC gr 
 gsave  1088 1597 1157 16 C 1889 31 t 0 r /Helvetica-Bold findfont 34.1938 sf 0 0 m (W) show NC gr 
 gsave  1088 1597 1157 16 C 1849 48 t 0 r /Helvetica-Bold findfont 51.2908 sf 0 0 m (M) show NC gr  1320 212 m -36 Y s 1352 194 m -18 Y s 1385 194 m -18 Y s 1418 194 m -18 Y s 1450 194 m -18 Y s 1483 212 m -36 Y s 1516 194 m -18 Y s 1548 194 m -18 Y
 s 1581 194 m -18 Y s 1614 194 m -18 Y s 1646 212 m -36 Y s 1679 194 m -18 Y s 1712 194 m -18 Y s 1744 194 m -18 Y s 1777 194 m -18 Y s 1810 212 m -36 Y s 1842 194 m -18 Y s 1875 194 m -18 Y s 1908 194 m -18 Y s 1940 194 m -18 Y s 1973 212 m -36 Y s
 2006 194 m -18 Y s 2038 194 m -18 Y s 2071 194 m -18 Y s 2104 194 m -18 Y s 2136 212 m -36 Y s
 gsave  1088 1597 1157 16 C 1285 120 t 0 r /Helvetica-Bold findfont 39.8928 sf 0 0 m (500) show NC gr 
 gsave  1088 1597 1157 16 C 1436 120 t 0 r /Helvetica-Bold findfont 39.8928 sf 0 0 m (1000) show NC gr 
 gsave  1088 1597 1157 16 C 1598 120 t 0 r /Helvetica-Bold findfont 39.8928 sf 0 0 m (1500) show NC gr 
 gsave  1088 1597 1157 16 C 1763 120 t 0 r /Helvetica-Bold findfont 39.8928 sf 0 0 m (2000) show NC gr 
 gsave  1088 1597 1157 16 C 1926 120 t 0 r /Helvetica-Bold findfont 39.8928 sf 0 0 m (2500) show NC gr 
 gsave  1088 1597 1157 16 C 2088 120 t 0 r /Helvetica-Bold findfont 39.8928 sf 0 0 m (3000) show NC gr  1320 176 m 1278 Y s
 gsave  1088 1597 1157 16 C 1179 1436 t 90 r /Helvetica-Bold findfont 34.1938 sf 0 0 m (2) show NC gr 
 gsave  1088 1597 1157 16 C 1202 1262 t 90 r /Helvetica-Bold findfont 51.2908 sf 0 0 m (, GeV/c) show NC gr 
 gsave  1088 1597 1157 16 C 1228 1245 t 90 r /Helvetica-Bold findfont 22.7959 sf 0 0 m (R) show NC gr 
 gsave  1088 1597 1157 16 C 1214 1225 t 90 r /Symbol findfont 34.1938 sf 0 0 m (n) show NC gr 
 gsave  1088 1597 1157 16 C 1202 1185 t 90 r /Helvetica-Bold findfont 51.2908 sf 0 0 m (M) show NC gr  1346 176 m -26 X s 1333 227 m -13 X s 1333 278 m -13 X s 1333 329 m -13 X s 1333 380 m -13 X s 1346 432 m -26 X s 1333 483 m -13 X s 1333 534 m
 -13 X s 1333 585 m -13 X s 1333 636 m -13 X s 1346 687 m -26 X s 1333 738 m -13 X s 1333 789 m -13 X s 1333 840 m -13 X s 1333 891 m -13 X s 1346 943 m -26 X s 1333 994 m -13 X s 1333 1045 m -13 X s 1333 1096 m -13 X s 1333 1147 m -13 X s 1346 1198
 m -26 X s 1333 1249 m -13 X s 1333 1300 m -13 X s 1333 1351 m -13 X s 1333 1402 m -13 X s 1346 1454 m -26 X s
 gsave  1088 1597 1157 16 C 1291 160 t 0 r /Helvetica-Bold findfont 39.8928 sf 0 0 m (0) show NC gr 
 gsave  1088 1597 1157 16 C 1248 416 t 0 r /Helvetica-Bold findfont 39.8928 sf 0 0 m (500) show NC gr 
 gsave  1088 1597 1157 16 C 1225 672 t 0 r /Helvetica-Bold findfont 39.8928 sf 0 0 m (1000) show NC gr 
 gsave  1088 1597 1157 16 C 1225 926 t 0 r /Helvetica-Bold findfont 39.8928 sf 0 0 m (1500) show NC gr 
 gsave  1088 1597 1157 16 C 1225 1182 t 0 r /Helvetica-Bold findfont 39.8928 sf 0 0 m (2000) show NC gr 
 gsave  1088 1597 1157 16 C 1225 1439 t 0 r /Helvetica-Bold findfont 39.8928 sf 0 0 m (2500) show NC gr  1 1 1 c 85 80 1167 1525 bf black 1167 1525 m 85 X s 1252 1525 m 80 Y s 1252 1605 m -85 X s 1167 1605 m -80 Y s 1 1 1 c black
 gsave  1088 1597 1157 16 C 1179 1547 t 0 r /Helvetica-Bold findfont 42.7423 sf 0 0 m (Fit) show NC gr  0.386667 0 1 c 49 64 2142 176 bf 0.2 0 1 c 49 64 2142 240 bf 0 0.0800001 1 c 49 64 2142 304 bf 0 0.266667 1 c 49 64 2142 368 bf 0 0.546667 1 c 49
 63 2142 432 bf 0 0.733333 1 c 49 64 2142 495 bf 0 1 0.986667 c 49 64 2142 559 bf 0 1 0.8 c 49 64 2142 623 bf 0 1 0.52 c 49 64 2142 687 bf 0 1 0.333333 c 49 64 2142 751 bf 0 1 0.0533334 c 49 64 2142 815 bf 0.133333 1 0 c 49 64 2142 879 bf 0.413333 1
 0 c 49 63 2142 943 bf 0.6 1 0 c 49 64 2142 1006 bf 0.88 1 0 c 49 64 2142 1070 bf 1 0.933333 0 c 49 64 2142 1134 bf 1 0.653333 0 c 49 64 2142 1198 bf 1 0.466667 0 c 49 64 2142 1262 bf 1 0.186667 0 c 49 64 2142 1326 bf 1 7.94729e-008 0 c 49 64 2142
 1390 bf black 2191 176 m 1278 Y s
 gsave  1088 1597 1157 16 C 2279 1433 t 90 r /Helvetica-Bold findfont 39.8928 sf 0 0 m ( \)) show NC gr 
 gsave  1088 1597 1157 16 C 2262 1416 t 90 r /Helvetica-Bold findfont 28.4949 sf 0 0 m (2) show NC gr 
 gsave  1088 1597 1157 16 C 2279 1179 t 90 r /Helvetica-Bold findfont 39.8928 sf 0 0 m ( x 100 GeV/c) show NC gr 
 gsave  1088 1597 1157 16 C 2262 1162 t 90 r /Helvetica-Bold findfont 28.4949 sf 0 0 m (2) show NC gr 
 gsave  1088 1597 1157 16 C 2279 783 t 90 r /Helvetica-Bold findfont 39.8928 sf 0 0 m (Events / \( 100 GeV/c) show NC gr  2164 406 m 27 X s 2164 637 m 27 X s 2164 867 m 27 X s 2164 1097 m 27 X s 2164 1328 m 27 X s 2164 406 m 27 X s 2164 1328 m 27 X
 s
 gsave  1088 1597 1157 16 C 2194 387 t 0 r /Helvetica-Bold findfont 39.8928 sf 0 0 m (1) show NC gr 
 gsave  1088 1597 1157 16 C 2194 618 t 0 r /Helvetica-Bold findfont 39.8928 sf 0 0 m (2) show NC gr 
 gsave  1088 1597 1157 16 C 2194 852 t 0 r /Helvetica-Bold findfont 39.8928 sf 0 0 m (3) show NC gr 
 gsave  1088 1597 1157 16 C 2194 1080 t 0 r /Helvetica-Bold findfont 39.8928 sf 0 0 m (4) show NC gr 
 gsave  1088 1597 1157 16 C 2194 1313 t 0 r /Helvetica-Bold findfont 39.8928 sf 0 0 m (5) show NC gr  0.8 0.8 0.8 c
 gsave  1088 1597 1157 16 C 1731 784 t 45 r  -404 0 t /Helvetica-Bold findfont 102.582 sf 0 0 m (CMS preliminary) show NC gr  black 1 1 1 c 85 80 1167 1525 bf black 1167 1525 m 85 X s 1252 1525 m 80 Y s 1252 1605 m -85 X s 1167 1605 m -80 Y s 1 1 1
 c black
 gsave  1088 1597 1157 16 C 1179 1547 t 0 r /Helvetica-Bold findfont 42.7423 sf 0 0 m (Fit) show NC gr 
 gr  gr 
showpage
end
%%EOF
