%!PS-Adobe-2.0 EPSF-2.0
%%BoundingBox:  0 0 567 362
%%Title: ./isovalue-mu.eps:  
%%Creator: ROOT Version 5.22/00
%%CreationDate: Thu Aug 13 21:29:38 2009
%%EndComments
%%BeginProlog
80 dict begin
/s {stroke} def /l {lineto} def /m {moveto} def /t {translate} def
/sw {stringwidth} def /r {rotate} def /rl {roll}  def /R {repeat} def
/d {rlineto} def /rm {rmoveto} def /gr {grestore} def /f {eofill} def
/c {setrgbcolor} def /black {0 setgray} def /sd {setdash} def
/cl {closepath} def /sf {scalefont setfont} def /lw {setlinewidth} def
/box {m dup 0 exch d exch 0 d 0 exch neg d cl} def
/NC{systemdict begin initclip end}def/C{NC box clip newpath}def
/bl {box s} def /bf {box f} def /Y { 0 exch d} def /X { 0 d} def 
/mp {newpath /y exch def /x exch def} def
/side {[w .77 mul w .23 mul] .385 w mul sd w 0 l currentpoint t -144 r} def
/mr {mp x y w2 0 360 arc} def /m24 {mr s} def /m20 {mr f} def
/mb {mp x y w2 add m w2 neg 0 d 0 w neg d w 0 d 0 w d cl} def
/mt {mp x y w2 add m w2 neg w neg d w 0 d cl} def
/m21 {mb f} def /m25 {mb s} def /m22 {mt f} def /m26{mt s} def
/m23 {mp x y w2 sub m w2 w d w neg 0 d cl f} def
/m27 {mp x y w2 add m w3 neg w2 neg d w3 w2 neg d w3 w2 d cl s} def
/m28 {mp x w2 sub y w2 sub w3 add m w3 0 d  0 w3 neg d w3 0 d 0 w3 d w3 0 d  0 w3 d w3 neg 0 d 0 w3 d w3 neg 0 d
 0 w3 neg d w3 neg 0 d cl s } def
/m29 {mp gsave x w2 sub y w2 add w3 sub m currentpoint t
 4 {side} repeat cl fill gr} def
/m30 {mp gsave x w2 sub y w2 add w3 sub m currentpoint t
 4 {side} repeat cl s gr} def
/m31 {mp x y w2 sub m 0 w d x w2 sub y m w 0 d x w2 sub y w2 add m w w neg d x w2 sub y w2
 sub m w w d s} def
/m2 {mp x y w2 sub m 0 w d x w2 sub y m w 0 d s} def
/m5 {mp x w2 sub y w2 sub m w w d x w2 sub y w2 add m w w neg d s} def
/reEncode {exch findfont dup length dict begin {1 index /FID eq  {pop pop} {def} ifelse } forall /Encoding exch def currentdict end dup /FontName get exch definefont pop } def [/Times-Bold /Times-Italic /Times-BoldItalic /Helvetica
 /Helvetica-Oblique /Helvetica-Bold /Helvetica-BoldOblique /Courier /Courier-Oblique /Courier-Bold /Courier-BoldOblique /Times-Roman /AvantGarde-Book /AvantGarde-BookOblique /AvantGarde-Demi /AvantGarde-DemiOblique /Bookman-Demi
 /Bookman-DemiItalic /Bookman-Light /Bookman-LightItalic /Helvetica-Narrow /Helvetica-Narrow-Bold /Helvetica-Narrow-BoldOblique /Helvetica-Narrow-Oblique /NewCenturySchlbk-Roman /NewCenturySchlbk-Bold
 /NewCenturySchlbk-BoldItalic /NewCenturySchlbk-Italic /Palatino-Bold /Palatino-BoldItalic /Palatino-Italic /Palatino-Roman ] {ISOLatin1Encoding reEncode } forall
/oshow {gsave [] 0 sd true charpath stroke gr} def
/stwn { /fs exch def /fn exch def /text exch def fn findfont fs sf
 text sw pop xs add /xs exch def} def
/stwb { /fs exch def /fn exch def /nbas exch def /textf exch deftextf length /tlen exch def nbas tlen gt {/nbas tlendef} iffn findfont fs sf textf dup length nbas sub nbas getinterval sw
pop neg xs add /xs exch def} def
%%EndProlog
%%BeginSetup
%%EndSetup
newpath  gsave  .25 .25 scale  gsave  0 0 t black[  ] 0 sd 3 lw 0.95 0.95 0.95 c 2268 1448 0 0 bf 1 1 1 c 0 0 m 8 8 d 1432 Y 2252 X 8 8 d -2268 X -1448 Y f 0.665 0.665 0.665 c 0 0 m 8 8 d 2252 X 1432 Y 8 8 d -1448 Y -2268 X f black 1 1 1 c 2268 724
 0 724 bf black 0.95 0.95 0.95 c 1769 564 272 811 bf 1 1 1 c 272 811 m 4 4 d 556 Y 1761 X 4 4 d -1769 X -564 Y f 0.665 0.665 0.665 c 272 811 m 4 4 d 1761 X 556 Y 4 4 d -564 Y -1769 X f black 1769 564 272 811 bl 0.95 0.95 0.95 c 1769 564 272 811 bf 1
 1 1 c 272 811 m 4 4 d 556 Y 1761 X 4 4 d -1769 X -564 Y f 0.665 0.665 0.665 c 272 811 m 4 4 d 1761 X 556 Y 4 4 d -564 Y -1769 X f black 1769 564 272 811 bl 1 1 1 c black 272 1348 m 36 X -467 Y 35 X -30 Y 35 X -19 Y 36 X -8 Y 35 X -4 Y 35 X -3 Y 36
 X -1 Y 35 X -1 Y 36 X -1 Y 35 X -1 Y 35 X -1 Y 106 X -1 Y 36 X 1 Y 35 X -1 Y 1203 X s 0.95 0.95 0.95 c 600 291 1622 1154 bf black 1630 1154 m -5 Y 597 X 289 Y -5 X -284 Y f 1622 1154 m 291 Y 600 X -291 Y -600 X cl s 1 1 1 c black
 gsave  2268 724 0 724 C 1832 1387 t 0 r /Helvetica-Bold findfont 63.2733 sf 0 0 m (30075) show NC gr  1622 1372 m 600 X s
 gsave  2268 724 0 724 C 1650 1314 t 0 r /Helvetica-Bold findfont 63.2733 sf 0 0 m (Entries ) show NC gr 
 gsave  2268 724 0 724 C 1999 1314 t 0 r /Helvetica-Bold findfont 63.2733 sf 0 0 m ( 10648) show NC gr 
 gsave  2268 724 0 724 C 1650 1243 t 0 r /Helvetica-Bold findfont 63.2733 sf 0 0 m (Mean  ) show NC gr 
 gsave  2268 724 0 724 C 1946 1243 t 0 r /Helvetica-Bold findfont 63.2733 sf 0 0 m ( 0.01025) show NC gr 
 gsave  2268 724 0 724 C 1650 1167 t 0 r /Helvetica-Bold findfont 63.2733 sf 0 0 m (RMS   ) show NC gr 
 gsave  2268 724 0 724 C 1946 1169 t 0 r /Helvetica-Bold findfont 63.2733 sf 0 0 m ( 0.02348) show NC gr  272 811 m 1769 X s
 gsave  2268 724 0 724 C 1908 742 t 0 r /Helvetica-Bold findfont 32.9021 sf 0 0 m (isovalue) show NC gr  272 828 m -17 Y s 308 819 m -8 Y s 343 819 m -8 Y s 378 819 m -8 Y s 414 819 m -8 Y s 449 828 m -17 Y s 484 819 m -8 Y s 520 819 m -8 Y s 555
 819 m -8 Y s 591 819 m -8 Y s 626 828 m -17 Y s 661 819 m -8 Y s 697 819 m -8 Y s 732 819 m -8 Y s 767 819 m -8 Y s 803 828 m -17 Y s 838 819 m -8 Y s 874 819 m -8 Y s 909 819 m -8 Y s 944 819 m -8 Y s 980 828 m -17 Y s 1015 819 m -8 Y s 1050 819 m
 -8 Y s 1086 819 m -8 Y s 1121 819 m -8 Y s 1157 828 m -17 Y s 1192 819 m -8 Y s 1227 819 m -8 Y s 1263 819 m -8 Y s 1298 819 m -8 Y s 1333 828 m -17 Y s 1369 819 m -8 Y s 1404 819 m -8 Y s 1440 819 m -8 Y s 1475 819 m -8 Y s 1510 828 m -17 Y s 1546
 819 m -8 Y s 1581 819 m -8 Y s 1616 819 m -8 Y s 1652 819 m -8 Y s 1687 828 m -17 Y s 1723 819 m -8 Y s 1758 819 m -8 Y s 1793 819 m -8 Y s 1829 819 m -8 Y s 1864 828 m -17 Y s 1899 819 m -8 Y s 1935 819 m -8 Y s 1970 819 m -8 Y s 2006 819 m -8 Y s
 2041 828 m -17 Y s
 gsave  2268 724 0 724 C 263 785 t 0 r /Helvetica-Bold findfont 27.8403 sf 0 0 m (0) show NC gr 
 gsave  2268 724 0 724 C 420 785 t 0 r /Helvetica-Bold findfont 27.8403 sf 0 0 m (0.05) show NC gr 
 gsave  2268 724 0 724 C 607 785 t 0 r /Helvetica-Bold findfont 27.8403 sf 0 0 m (0.1) show NC gr 
 gsave  2268 724 0 724 C 774 785 t 0 r /Helvetica-Bold findfont 27.8403 sf 0 0 m (0.15) show NC gr 
 gsave  2268 724 0 724 C 959 785 t 0 r /Helvetica-Bold findfont 27.8403 sf 0 0 m (0.2) show NC gr 
 gsave  2268 724 0 724 C 1126 785 t 0 r /Helvetica-Bold findfont 27.8403 sf 0 0 m (0.25) show NC gr 
 gsave  2268 724 0 724 C 1311 785 t 0 r /Helvetica-Bold findfont 27.8403 sf 0 0 m (0.3) show NC gr 
 gsave  2268 724 0 724 C 1481 785 t 0 r /Helvetica-Bold findfont 27.8403 sf 0 0 m (0.35) show NC gr 
 gsave  2268 724 0 724 C 1665 785 t 0 r /Helvetica-Bold findfont 27.8403 sf 0 0 m (0.4) show NC gr 
 gsave  2268 724 0 724 C 1835 785 t 0 r /Helvetica-Bold findfont 27.8403 sf 0 0 m (0.45) show NC gr 
 gsave  2268 724 0 724 C 2020 785 t 0 r /Helvetica-Bold findfont 27.8403 sf 0 0 m (0.5) show NC gr  272 811 m 564 Y s
 gsave  2268 724 0 724 C 76 1278 t 90 r /Helvetica-Bold findfont 27.8403 sf 0 0 m (leptons) show NC gr  325 811 m -53 X s 299 825 m -27 X s 299 840 m -27 X s 299 854 m -27 X s 325 869 m -53 X s 299 884 m -27 X s 299 898 m -27 X s 299 913 m -27 X s
 325 927 m -53 X s 299 942 m -27 X s 299 957 m -27 X s 299 971 m -27 X s 325 986 m -53 X s 299 1000 m -27 X s 299 1015 m -27 X s 299 1029 m -27 X s 325 1044 m -53 X s 299 1059 m -27 X s 299 1073 m -27 X s 299 1088 m -27 X s 325 1102 m -53 X s 299
 1117 m -27 X s 299 1131 m -27 X s 299 1146 m -27 X s 325 1161 m -53 X s 299 1175 m -27 X s 299 1190 m -27 X s 299 1204 m -27 X s 325 1219 m -53 X s 299 1234 m -27 X s 299 1248 m -27 X s 299 1263 m -27 X s 325 1277 m -53 X s 299 1292 m -27 X s 299
 1306 m -27 X s 299 1321 m -27 X s 325 1336 m -53 X s 325 1336 m -53 X s 299 1350 m -27 X s 299 1365 m -27 X s
 gsave  2268 724 0 724 C 246 802 t 0 r /Helvetica-Bold findfont 27.8403 sf 0 0 m (0) show NC gr 
 gsave  2268 724 0 724 C 215 861 t 0 r /Helvetica-Bold findfont 27.8403 sf 0 0 m (200) show NC gr 
 gsave  2268 724 0 724 C 215 919 t 0 r /Helvetica-Bold findfont 27.8403 sf 0 0 m (400) show NC gr 
 gsave  2268 724 0 724 C 215 977 t 0 r /Helvetica-Bold findfont 27.8403 sf 0 0 m (600) show NC gr 
 gsave  2268 724 0 724 C 215 1035 t 0 r /Helvetica-Bold findfont 27.8403 sf 0 0 m (800) show NC gr 
 gsave  2268 724 0 724 C 200 1093 t 0 r /Helvetica-Bold findfont 27.8403 sf 0 0 m (1000) show NC gr 
 gsave  2268 724 0 724 C 200 1152 t 0 r /Helvetica-Bold findfont 27.8403 sf 0 0 m (1200) show NC gr 
 gsave  2268 724 0 724 C 200 1210 t 0 r /Helvetica-Bold findfont 27.8403 sf 0 0 m (1400) show NC gr 
 gsave  2268 724 0 724 C 200 1268 t 0 r /Helvetica-Bold findfont 27.8403 sf 0 0 m (1600) show NC gr 
 gsave  2268 724 0 724 C 200 1326 t 0 r /Helvetica-Bold findfont 27.8403 sf 0 0 m (1800) show NC gr  0.95 0.95 0.95 c 600 291 1622 1154 bf black 1630 1154 m -5 Y 597 X 289 Y -5 X -284 Y f 1622 1154 m 291 Y 600 X -291 Y -600 X cl s 1 1 1 c black
 gsave  2268 724 0 724 C 1832 1387 t 0 r /Helvetica-Bold findfont 63.2733 sf 0 0 m (30075) show NC gr  1622 1372 m 600 X s
 gsave  2268 724 0 724 C 1650 1314 t 0 r /Helvetica-Bold findfont 63.2733 sf 0 0 m (Entries ) show NC gr 
 gsave  2268 724 0 724 C 1999 1314 t 0 r /Helvetica-Bold findfont 63.2733 sf 0 0 m ( 10648) show NC gr 
 gsave  2268 724 0 724 C 1650 1243 t 0 r /Helvetica-Bold findfont 63.2733 sf 0 0 m (Mean  ) show NC gr 
 gsave  2268 724 0 724 C 1946 1243 t 0 r /Helvetica-Bold findfont 63.2733 sf 0 0 m ( 0.01025) show NC gr 
 gsave  2268 724 0 724 C 1650 1167 t 0 r /Helvetica-Bold findfont 63.2733 sf 0 0 m (RMS   ) show NC gr 
 gsave  2268 724 0 724 C 1946 1169 t 0 r /Helvetica-Bold findfont 63.2733 sf 0 0 m ( 0.02348) show NC gr  1 1 1 c 2268 724 0 0 bf black 0.95 0.95 0.95 c 1769 564 272 87 bf 1 1 1 c 272 87 m 4 4 d 556 Y 1761 X 4 4 d -1769 X -564 Y f 0.665 0.665 0.665
 c 272 87 m 4 4 d 1761 X 556 Y 4 4 d -564 Y -1769 X f black 1769 564 272 87 bl 0.95 0.95 0.95 c 1769 564 272 87 bf 1 1 1 c 272 87 m 4 4 d 556 Y 1761 X 4 4 d -1769 X -564 Y f 0.665 0.665 0.665 c 272 87 m 4 4 d 1761 X 556 Y 4 4 d -564 Y -1769 X f
 black 1769 564 272 87 bl 1 1 1 c black 272 625 m 36 X -411 Y 35 X -54 Y 35 X 8 Y 36 X -36 Y 35 X -20 Y 35 X -17 Y 36 X 25 Y 35 X -12 Y 71 X -9 Y 35 X -12 Y 71 X 4 Y 35 X -4 Y 36 X 4 Y 35 X -4 Y 142 X 4 Y 35 X -4 Y 142 X 4 Y 35 X -4 Y 849 X s 0.95
 0.95 0.95 c 595 276 1627 445 bf black 1635 445 m -5 Y 592 X 274 Y -5 X -269 Y f 1627 445 m 276 Y 595 X -276 Y -595 X cl s 1 1 1 c black
 gsave  2268 724 0 0 C 1843 666 t 0 r /Helvetica-Bold findfont 58.2115 sf 0 0 m (30076) show NC gr  1627 652 m 595 X s
 gsave  2268 724 0 0 C 1655 597 t 0 r /Helvetica-Bold findfont 58.2115 sf 0 0 m (Entries ) show NC gr 
 gsave  2268 724 0 0 C 2080 597 t 0 r /Helvetica-Bold findfont 58.2115 sf 0 0 m ( 298) show NC gr 
 gsave  2268 724 0 0 C 1655 526 t 0 r /Helvetica-Bold findfont 58.2115 sf 0 0 m (Mean  ) show NC gr 
 gsave  2268 724 0 0 C 1967 526 t 0 r /Helvetica-Bold findfont 58.2115 sf 0 0 m ( 0.02249) show NC gr 
 gsave  2268 724 0 0 C 1655 458 t 0 r /Helvetica-Bold findfont 58.2115 sf 0 0 m (RMS   ) show NC gr 
 gsave  2268 724 0 0 C 2004 458 t 0 r /Helvetica-Bold findfont 58.2115 sf 0 0 m ( 0.0341) show NC gr  272 87 m 1769 X s
 gsave  2268 724 0 0 C 1908 18 t 0 r /Helvetica-Bold findfont 32.9021 sf 0 0 m (isovalue) show NC gr  272 104 m -17 Y s 308 95 m -8 Y s 343 95 m -8 Y s 378 95 m -8 Y s 414 95 m -8 Y s 449 104 m -17 Y s 484 95 m -8 Y s 520 95 m -8 Y s 555 95 m -8 Y s
 591 95 m -8 Y s 626 104 m -17 Y s 661 95 m -8 Y s 697 95 m -8 Y s 732 95 m -8 Y s 767 95 m -8 Y s 803 104 m -17 Y s 838 95 m -8 Y s 874 95 m -8 Y s 909 95 m -8 Y s 944 95 m -8 Y s 980 104 m -17 Y s 1015 95 m -8 Y s 1050 95 m -8 Y s 1086 95 m -8 Y s
 1121 95 m -8 Y s 1157 104 m -17 Y s 1192 95 m -8 Y s 1227 95 m -8 Y s 1263 95 m -8 Y s 1298 95 m -8 Y s 1333 104 m -17 Y s 1369 95 m -8 Y s 1404 95 m -8 Y s 1440 95 m -8 Y s 1475 95 m -8 Y s 1510 104 m -17 Y s 1546 95 m -8 Y s 1581 95 m -8 Y s 1616
 95 m -8 Y s 1652 95 m -8 Y s 1687 104 m -17 Y s 1723 95 m -8 Y s 1758 95 m -8 Y s 1793 95 m -8 Y s 1829 95 m -8 Y s 1864 104 m -17 Y s 1899 95 m -8 Y s 1935 95 m -8 Y s 1970 95 m -8 Y s 2006 95 m -8 Y s 2041 104 m -17 Y s
 gsave  2268 724 0 0 C 263 61 t 0 r /Helvetica-Bold findfont 27.8403 sf 0 0 m (0) show NC gr 
 gsave  2268 724 0 0 C 420 61 t 0 r /Helvetica-Bold findfont 27.8403 sf 0 0 m (0.05) show NC gr 
 gsave  2268 724 0 0 C 607 61 t 0 r /Helvetica-Bold findfont 27.8403 sf 0 0 m (0.1) show NC gr 
 gsave  2268 724 0 0 C 774 61 t 0 r /Helvetica-Bold findfont 27.8403 sf 0 0 m (0.15) show NC gr 
 gsave  2268 724 0 0 C 959 61 t 0 r /Helvetica-Bold findfont 27.8403 sf 0 0 m (0.2) show NC gr 
 gsave  2268 724 0 0 C 1126 61 t 0 r /Helvetica-Bold findfont 27.8403 sf 0 0 m (0.25) show NC gr 
 gsave  2268 724 0 0 C 1311 61 t 0 r /Helvetica-Bold findfont 27.8403 sf 0 0 m (0.3) show NC gr 
 gsave  2268 724 0 0 C 1481 61 t 0 r /Helvetica-Bold findfont 27.8403 sf 0 0 m (0.35) show NC gr 
 gsave  2268 724 0 0 C 1665 61 t 0 r /Helvetica-Bold findfont 27.8403 sf 0 0 m (0.4) show NC gr 
 gsave  2268 724 0 0 C 1835 61 t 0 r /Helvetica-Bold findfont 27.8403 sf 0 0 m (0.45) show NC gr 
 gsave  2268 724 0 0 C 2020 61 t 0 r /Helvetica-Bold findfont 27.8403 sf 0 0 m (0.5) show NC gr  272 87 m 564 Y s
 gsave  2268 724 0 0 C 76 554 t 90 r /Helvetica-Bold findfont 27.8403 sf 0 0 m (leptons) show NC gr  325 87 m -53 X s 299 101 m -27 X s 299 115 m -27 X s 299 129 m -27 X s 299 143 m -27 X s 325 157 m -53 X s 299 171 m -27 X s 299 185 m -27 X s 299
 199 m -27 X s 299 213 m -27 X s 325 227 m -53 X s 299 241 m -27 X s 299 255 m -27 X s 299 269 m -27 X s 299 283 m -27 X s 325 297 m -53 X s 299 311 m -27 X s 299 325 m -27 X s 299 339 m -27 X s 299 353 m -27 X s 325 367 m -53 X s 299 381 m -27 X s
 299 395 m -27 X s 299 409 m -27 X s 299 424 m -27 X s 325 438 m -53 X s 299 452 m -27 X s 299 466 m -27 X s 299 480 m -27 X s 299 494 m -27 X s 325 508 m -53 X s 299 522 m -27 X s 299 536 m -27 X s 299 550 m -27 X s 299 564 m -27 X s 325 578 m -53
 X s 299 592 m -27 X s 299 606 m -27 X s 299 620 m -27 X s 299 634 m -27 X s 325 648 m -53 X s 325 648 m -53 X s
 gsave  2268 724 0 0 C 246 78 t 0 r /Helvetica-Bold findfont 27.8403 sf 0 0 m (0) show NC gr 
 gsave  2268 724 0 0 C 246 149 t 0 r /Helvetica-Bold findfont 27.8403 sf 0 0 m (5) show NC gr 
 gsave  2268 724 0 0 C 230 218 t 0 r /Helvetica-Bold findfont 27.8403 sf 0 0 m (10) show NC gr 
 gsave  2268 724 0 0 C 230 289 t 0 r /Helvetica-Bold findfont 27.8403 sf 0 0 m (15) show NC gr 
 gsave  2268 724 0 0 C 230 359 t 0 r /Helvetica-Bold findfont 27.8403 sf 0 0 m (20) show NC gr 
 gsave  2268 724 0 0 C 230 428 t 0 r /Helvetica-Bold findfont 27.8403 sf 0 0 m (25) show NC gr 
 gsave  2268 724 0 0 C 230 499 t 0 r /Helvetica-Bold findfont 27.8403 sf 0 0 m (30) show NC gr 
 gsave  2268 724 0 0 C 230 569 t 0 r /Helvetica-Bold findfont 27.8403 sf 0 0 m (35) show NC gr 
 gsave  2268 724 0 0 C 230 640 t 0 r /Helvetica-Bold findfont 27.8403 sf 0 0 m (40) show NC gr  0.95 0.95 0.95 c 595 276 1627 445 bf black 1635 445 m -5 Y 592 X 274 Y -5 X -269 Y f 1627 445 m 276 Y 595 X -276 Y -595 X cl s 1 1 1 c black
 gsave  2268 724 0 0 C 1843 666 t 0 r /Helvetica-Bold findfont 58.2115 sf 0 0 m (30076) show NC gr  1627 652 m 595 X s
 gsave  2268 724 0 0 C 1655 597 t 0 r /Helvetica-Bold findfont 58.2115 sf 0 0 m (Entries ) show NC gr 
 gsave  2268 724 0 0 C 2080 597 t 0 r /Helvetica-Bold findfont 58.2115 sf 0 0 m ( 298) show NC gr 
 gsave  2268 724 0 0 C 1655 526 t 0 r /Helvetica-Bold findfont 58.2115 sf 0 0 m (Mean  ) show NC gr 
 gsave  2268 724 0 0 C 1967 526 t 0 r /Helvetica-Bold findfont 58.2115 sf 0 0 m ( 0.02249) show NC gr 
 gsave  2268 724 0 0 C 1655 458 t 0 r /Helvetica-Bold findfont 58.2115 sf 0 0 m (RMS   ) show NC gr 
 gsave  2268 724 0 0 C 2004 458 t 0 r /Helvetica-Bold findfont 58.2115 sf 0 0 m ( 0.0341) show NC gr 
 gr  gr 
showpage
end
%%EOF
