%!PS-Adobe-2.0 EPSF-2.0
%%BoundingBox:  0 0 567 362
%%Title: ./isovalue.eps:  
%%Creator: ROOT Version 5.26/00b
%%CreationDate: Tue May 11 11:17:31 2010
%%EndComments
%%BeginProlog
80 dict begin
/s {stroke} def /l {lineto} def /m {moveto} def /t {translate} def
/sw {stringwidth} def /r {rotate} def /rl {roll}  def /R {repeat} def
/d {rlineto} def /rm {rmoveto} def /gr {grestore} def /f {eofill} def
/c {setrgbcolor} def /black {0 setgray} def /sd {setdash} def
/cl {closepath} def /sf {scalefont setfont} def /lw {setlinewidth} def
/box {m dup 0 exch d exch 0 d 0 exch neg d cl} def
/NC{systemdict begin initclip end}def/C{NC box clip newpath}def
/bl {box s} def /bf {box f} def /Y { 0 exch d} def /X { 0 d} def 
/mp {newpath /y exch def /x exch def} def
/side {[w .77 mul w .23 mul] .385 w mul sd w 0 l currentpoint t -144 r} def
/mr {mp x y w2 0 360 arc} def /m24 {mr s} def /m20 {mr f} def
/mb {mp x y w2 add m w2 neg 0 d 0 w neg d w 0 d 0 w d cl} def
/mt {mp x y w2 add m w2 neg w neg d w 0 d cl} def
/m21 {mb f} def /m25 {mb s} def /m22 {mt f} def /m26{mt s} def
/m23 {mp x y w2 sub m w2 w d w neg 0 d cl f} def
/m27 {mp x y w2 add m w3 neg w2 neg d w3 w2 neg d w3 w2 d cl s} def
/m28 {mp x w2 sub y w2 sub w3 add m w3 0 d  0 w3 neg d w3 0 d 0 w3 d w3 0 d  0 w3 d w3 neg 0 d 0 w3 d w3 neg 0 d
 0 w3 neg d w3 neg 0 d cl s } def
/m29 {mp gsave x w2 sub y w2 add w3 sub m currentpoint t
 4 {side} repeat cl fill gr} def
/m30 {mp gsave x w2 sub y w2 add w3 sub m currentpoint t
 4 {side} repeat cl s gr} def
/m31 {mp x y w2 sub m 0 w d x w2 sub y m w 0 d x w2 sub y w2 add m w w neg d x w2 sub y w2
 sub m w w d s} def
/m2 {mp x y w2 sub m 0 w d x w2 sub y m w 0 d s} def
/m5 {mp x w2 sub y w2 sub m w w d x w2 sub y w2 add m w w neg d s} def
/reEncode {exch findfont dup length dict begin {1 index /FID eq  {pop pop} {def} ifelse } forall /Encoding exch def currentdict end dup /FontName get exch definefont pop } def [/Times-Bold /Times-Italic /Times-BoldItalic /Helvetica
 /Helvetica-Oblique /Helvetica-Bold /Helvetica-BoldOblique /Courier /Courier-Oblique /Courier-Bold /Courier-BoldOblique /Times-Roman /AvantGarde-Book /AvantGarde-BookOblique /AvantGarde-Demi /AvantGarde-DemiOblique /Bookman-Demi
 /Bookman-DemiItalic /Bookman-Light /Bookman-LightItalic /Helvetica-Narrow /Helvetica-Narrow-Bold /Helvetica-Narrow-BoldOblique /Helvetica-Narrow-Oblique /NewCenturySchlbk-Roman /NewCenturySchlbk-Bold
 /NewCenturySchlbk-BoldItalic /NewCenturySchlbk-Italic /Palatino-Bold /Palatino-BoldItalic /Palatino-Italic /Palatino-Roman ] {ISOLatin1Encoding reEncode } forall
/oshow {gsave [] 0 sd true charpath stroke gr} def
/stwn { /fs exch def /fn exch def /text exch def fn findfont fs sf
 text sw pop xs add /xs exch def} def
/stwb { /fs exch def /fn exch def /nbas exch def /textf exch deftextf length /tlen exch def nbas tlen gt {/nbas tlendef} iffn findfont fs sf textf dup length nbas sub nbas getinterval sw
pop neg xs add /xs exch def} def
%%EndProlog
%%BeginSetup
%%EndSetup
newpath  gsave  .25 .25 scale  gsave  0 0 t black[  ] 0 sd 3 lw 0.95 0.95 0.95 c 2268 1448 0 0 bf 1 1 1 c 0 0 m 8 8 d 1432 Y 2252 X 8 8 d -2268 X -1448 Y f 0.665 0.665 0.665 c 0 0 m 8 8 d 2252 X 1432 Y 8 8 d -1448 Y -2268 X f black 1 1 1 c 2268 724
 0 724 bf black 1 1 1 c 1769 564 272 811 bf 272 811 m 4 4 d 556 Y 1761 X 4 4 d -1769 X -564 Y f 1 7.94729e-08 0 c 272 811 m 4 4 d 1761 X 556 Y 4 4 d -564 Y -1769 X f black 1769 564 272 811 bl 1 1 1 c 1769 564 272 811 bf 272 811 m 4 4 d 556 Y 1761 X
 4 4 d -1769 X -564 Y f 1 7.94729e-08 0 c 272 811 m 4 4 d 1761 X 556 Y 4 4 d -564 Y -1769 X f black 1769 564 272 811 bl 1 1 1 c black 272 1103 m 36 X 245 Y 35 X -118 Y 35 X -154 Y 36 X -101 Y 35 X -60 Y 35 X -33 Y 36 X -21 Y 35 X -12 Y 36 X -9 Y 35
 X -7 Y 35 X -4 Y 36 X -3 Y 35 X -4 Y 35 X -3 Y 36 X -1 Y 35 X -1 Y 36 X -1 Y 35 X -1 Y 71 X -1 Y 35 X -1 Y 71 X -1 Y 141 X -1 Y 814 X s 0.95 0.95 0.95 c 655 314 1567 1131 bf black 1574 1131 m -5 Y 653 X 312 Y -5 X -307 Y f 1567 1131 m 314 Y 655 X
 -314 Y -655 X cl s 1 1 1 c black
 gsave  2268 724 0 724 C 1830 1402 t 0 r /Helvetica-Bold findfont 45.5568 sf 0 0 m (30075) show NC gr  1567 1393 m 655 X s
 gsave  2268 724 0 724 C 1597 1349 t 0 r /Helvetica-Bold findfont 45.5568 sf 0 0 m (Mean  ) show NC gr 
 gsave  2268 724 0 724 C 2012 1349 t 0 r /Helvetica-Bold findfont 45.5568 sf 0 0 m ( 0.03544) show NC gr 
 gsave  2268 724 0 724 C 1597 1298 t 0 r /Helvetica-Bold findfont 45.5568 sf 0 0 m (RMS   ) show NC gr 
 gsave  2268 724 0 724 C 2012 1298 t 0 r /Helvetica-Bold findfont 45.5568 sf 0 0 m ( 0.03535) show NC gr 
 gsave  2268 724 0 724 C 1597 1245 t 0 r /Helvetica-Bold findfont 45.5568 sf 0 0 m (Underflow ) show NC gr 
 gsave  2268 724 0 724 C 2088 1245 t 0 r /Helvetica-Bold findfont 45.5568 sf 0 0 m (      0) show NC gr 
 gsave  2268 724 0 724 C 1597 1192 t 0 r /Helvetica-Bold findfont 45.5568 sf 0 0 m (Overflow  ) show NC gr 
 gsave  2268 724 0 724 C 2050 1192 t 0 r /Helvetica-Bold findfont 45.5568 sf 0 0 m (   4507) show NC gr 
 gsave  2268 724 0 724 C 1597 1147 t 0 r /Helvetica-Bold findfont 45.5568 sf 0 0 m (Integral ) show NC gr 
 gsave  2268 724 0 724 C 2050 1141 t 0 r /Helvetica-Bold findfont 45.5568 sf 0 0 m (   5283) show NC gr  272 811 m 1769 X s
 gsave  2268 724 0 724 C 1908 742 t 0 r /Helvetica-Bold findfont 32.9021 sf 0 0 m (isovalue) show NC gr  272 828 m -17 Y s 308 819 m -8 Y s 343 819 m -8 Y s 378 819 m -8 Y s 414 819 m -8 Y s 449 828 m -17 Y s 484 819 m -8 Y s 520 819 m -8 Y s 555
 819 m -8 Y s 591 819 m -8 Y s 626 828 m -17 Y s 661 819 m -8 Y s 697 819 m -8 Y s 732 819 m -8 Y s 767 819 m -8 Y s 803 828 m -17 Y s 838 819 m -8 Y s 874 819 m -8 Y s 909 819 m -8 Y s 944 819 m -8 Y s 980 828 m -17 Y s 1015 819 m -8 Y s 1050 819 m
 -8 Y s 1086 819 m -8 Y s 1121 819 m -8 Y s 1157 828 m -17 Y s 1192 819 m -8 Y s 1227 819 m -8 Y s 1263 819 m -8 Y s 1298 819 m -8 Y s 1333 828 m -17 Y s 1369 819 m -8 Y s 1404 819 m -8 Y s 1440 819 m -8 Y s 1475 819 m -8 Y s 1510 828 m -17 Y s 1546
 819 m -8 Y s 1581 819 m -8 Y s 1616 819 m -8 Y s 1652 819 m -8 Y s 1687 828 m -17 Y s 1723 819 m -8 Y s 1758 819 m -8 Y s 1793 819 m -8 Y s 1829 819 m -8 Y s 1864 828 m -17 Y s 1899 819 m -8 Y s 1935 819 m -8 Y s 1970 819 m -8 Y s 2006 819 m -8 Y s
 2041 828 m -17 Y s
 gsave  2268 724 0 724 C 263 785 t 0 r /Helvetica-Bold findfont 27.8403 sf 0 0 m (0) show NC gr 
 gsave  2268 724 0 724 C 420 785 t 0 r /Helvetica-Bold findfont 27.8403 sf 0 0 m (0.05) show NC gr 
 gsave  2268 724 0 724 C 607 785 t 0 r /Helvetica-Bold findfont 27.8403 sf 0 0 m (0.1) show NC gr 
 gsave  2268 724 0 724 C 774 785 t 0 r /Helvetica-Bold findfont 27.8403 sf 0 0 m (0.15) show NC gr 
 gsave  2268 724 0 724 C 959 785 t 0 r /Helvetica-Bold findfont 27.8403 sf 0 0 m (0.2) show NC gr 
 gsave  2268 724 0 724 C 1126 785 t 0 r /Helvetica-Bold findfont 27.8403 sf 0 0 m (0.25) show NC gr 
 gsave  2268 724 0 724 C 1311 785 t 0 r /Helvetica-Bold findfont 27.8403 sf 0 0 m (0.3) show NC gr 
 gsave  2268 724 0 724 C 1481 785 t 0 r /Helvetica-Bold findfont 27.8403 sf 0 0 m (0.35) show NC gr 
 gsave  2268 724 0 724 C 1665 785 t 0 r /Helvetica-Bold findfont 27.8403 sf 0 0 m (0.4) show NC gr 
 gsave  2268 724 0 724 C 1835 785 t 0 r /Helvetica-Bold findfont 27.8403 sf 0 0 m (0.45) show NC gr 
 gsave  2268 724 0 724 C 2020 785 t 0 r /Helvetica-Bold findfont 27.8403 sf 0 0 m (0.5) show NC gr  272 811 m 564 Y s
 gsave  2268 724 0 724 C 76 1278 t 90 r /Helvetica-Bold findfont 27.8403 sf 0 0 m (leptons) show NC gr  325 811 m -53 X s 299 830 m -27 X s 299 850 m -27 X s 299 870 m -27 X s 325 890 m -53 X s 299 910 m -27 X s 299 929 m -27 X s 299 949 m -27 X s
 325 969 m -53 X s 299 989 m -27 X s 299 1008 m -27 X s 299 1028 m -27 X s 325 1048 m -53 X s 299 1068 m -27 X s 299 1087 m -27 X s 299 1107 m -27 X s 325 1127 m -53 X s 299 1147 m -27 X s 299 1167 m -27 X s 299 1186 m -27 X s 325 1206 m -53 X s 299
 1226 m -27 X s 299 1246 m -27 X s 299 1265 m -27 X s 325 1285 m -53 X s 299 1305 m -27 X s 299 1325 m -27 X s 299 1344 m -27 X s 325 1364 m -53 X s 325 1364 m -53 X s
 gsave  2268 724 0 724 C 246 802 t 0 r /Helvetica-Bold findfont 27.8403 sf 0 0 m (0) show NC gr 
 gsave  2268 724 0 724 C 215 881 t 0 r /Helvetica-Bold findfont 27.8403 sf 0 0 m (200) show NC gr 
 gsave  2268 724 0 724 C 215 959 t 0 r /Helvetica-Bold findfont 27.8403 sf 0 0 m (400) show NC gr 
 gsave  2268 724 0 724 C 215 1040 t 0 r /Helvetica-Bold findfont 27.8403 sf 0 0 m (600) show NC gr 
 gsave  2268 724 0 724 C 215 1119 t 0 r /Helvetica-Bold findfont 27.8403 sf 0 0 m (800) show NC gr 
 gsave  2268 724 0 724 C 200 1197 t 0 r /Helvetica-Bold findfont 27.8403 sf 0 0 m (1000) show NC gr 
 gsave  2268 724 0 724 C 200 1276 t 0 r /Helvetica-Bold findfont 27.8403 sf 0 0 m (1200) show NC gr 
 gsave  2268 724 0 724 C 200 1357 t 0 r /Helvetica-Bold findfont 27.8403 sf 0 0 m (1400) show NC gr  0.95 0.95 0.95 c 655 314 1567 1131 bf black 1574 1131 m -5 Y 653 X 312 Y -5 X -307 Y f 1567 1131 m 314 Y 655 X -314 Y -655 X cl s 1 1 1 c black
 gsave  2268 724 0 724 C 1830 1402 t 0 r /Helvetica-Bold findfont 45.5568 sf 0 0 m (30075) show NC gr  1567 1393 m 655 X s
 gsave  2268 724 0 724 C 1597 1349 t 0 r /Helvetica-Bold findfont 45.5568 sf 0 0 m (Mean  ) show NC gr 
 gsave  2268 724 0 724 C 2012 1349 t 0 r /Helvetica-Bold findfont 45.5568 sf 0 0 m ( 0.03544) show NC gr 
 gsave  2268 724 0 724 C 1597 1298 t 0 r /Helvetica-Bold findfont 45.5568 sf 0 0 m (RMS   ) show NC gr 
 gsave  2268 724 0 724 C 2012 1298 t 0 r /Helvetica-Bold findfont 45.5568 sf 0 0 m ( 0.03535) show NC gr 
 gsave  2268 724 0 724 C 1597 1245 t 0 r /Helvetica-Bold findfont 45.5568 sf 0 0 m (Underflow ) show NC gr 
 gsave  2268 724 0 724 C 2088 1245 t 0 r /Helvetica-Bold findfont 45.5568 sf 0 0 m (      0) show NC gr 
 gsave  2268 724 0 724 C 1597 1192 t 0 r /Helvetica-Bold findfont 45.5568 sf 0 0 m (Overflow  ) show NC gr 
 gsave  2268 724 0 724 C 2050 1192 t 0 r /Helvetica-Bold findfont 45.5568 sf 0 0 m (   4507) show NC gr 
 gsave  2268 724 0 724 C 1597 1147 t 0 r /Helvetica-Bold findfont 45.5568 sf 0 0 m (Integral ) show NC gr 
 gsave  2268 724 0 724 C 2050 1141 t 0 r /Helvetica-Bold findfont 45.5568 sf 0 0 m (   5283) show NC gr  1 1 1 c 2268 724 0 0 bf black 1 1 1 c 1769 564 272 87 bf 272 87 m 4 4 d 556 Y 1761 X 4 4 d -1769 X -564 Y f 1 7.94729e-08 0 c 272 87 m 4 4 d
 1761 X 556 Y 4 4 d -564 Y -1769 X f black 1769 564 272 87 bl 1 1 1 c 1769 564 272 87 bf 272 87 m 4 4 d 556 Y 1761 X 4 4 d -1769 X -564 Y f 1 7.94729e-08 0 c 272 87 m 4 4 d 1761 X 556 Y 4 4 d -564 Y -1769 X f black 1769 564 272 87 bl 1 1 1 c black
 272 276 m 36 X 262 Y 35 X 87 Y 35 X -62 Y 36 X -159 Y 35 X -74 Y 35 X -42 Y 36 X -63 Y 35 X -55 Y 36 X 29 Y 35 X -48 Y 35 X 2 Y 36 X -26 Y 35 X 2 Y 35 X -19 Y 36 X 4 Y 35 X 8 Y 36 X -4 Y 35 X -17 Y 35 X -10 Y 36 X 5 Y 35 X -5 Y 35 X -2 Y 36 X 4 Y
 71 X -4 Y 35 X -2 Y 71 X 2 Y 70 X -2 Y 71 X 2 Y 36 X -2 Y 601 X s 0.95 0.95 0.95 c 645 336 1577 385 bf black 1584 385 m -5 Y 643 X 334 Y -5 X -329 Y f 1577 385 m 336 Y 645 X -336 Y -645 X cl s 1 1 1 c black
 gsave  2268 724 0 0 C 1830 676 t 0 r /Helvetica-Bold findfont 48.0877 sf 0 0 m (30076) show NC gr  1577 665 m 645 X s
 gsave  2268 724 0 0 C 1607 620 t 0 r /Helvetica-Bold findfont 48.0877 sf 0 0 m (Mean  ) show NC gr 
 gsave  2268 724 0 0 C 2002 620 t 0 r /Helvetica-Bold findfont 48.0877 sf 0 0 m ( 0.05189) show NC gr 
 gsave  2268 724 0 0 C 1607 564 t 0 r /Helvetica-Bold findfont 48.0877 sf 0 0 m (RMS   ) show NC gr 
 gsave  2268 724 0 0 C 2030 564 t 0 r /Helvetica-Bold findfont 48.0877 sf 0 0 m ( 0.0437) show NC gr 
 gsave  2268 724 0 0 C 1607 509 t 0 r /Helvetica-Bold findfont 48.0877 sf 0 0 m (Underflow ) show NC gr 
 gsave  2268 724 0 0 C 2083 509 t 0 r /Helvetica-Bold findfont 48.0877 sf 0 0 m (      0) show NC gr 
 gsave  2268 724 0 0 C 1607 453 t 0 r /Helvetica-Bold findfont 48.0877 sf 0 0 m (Overflow  ) show NC gr 
 gsave  2268 724 0 0 C 2083 453 t 0 r /Helvetica-Bold findfont 48.0877 sf 0 0 m (      0) show NC gr 
 gsave  2268 724 0 0 C 1607 400 t 0 r /Helvetica-Bold findfont 48.0877 sf 0 0 m (Integral ) show NC gr 
 gsave  2268 724 0 0 C 2042 397 t 0 r /Helvetica-Bold findfont 48.0877 sf 0 0 m (  98.84) show NC gr  272 87 m 1769 X s
 gsave  2268 724 0 0 C 1908 18 t 0 r /Helvetica-Bold findfont 32.9021 sf 0 0 m (isovalue) show NC gr  272 104 m -17 Y s 308 95 m -8 Y s 343 95 m -8 Y s 378 95 m -8 Y s 414 95 m -8 Y s 449 104 m -17 Y s 484 95 m -8 Y s 520 95 m -8 Y s 555 95 m -8 Y s
 591 95 m -8 Y s 626 104 m -17 Y s 661 95 m -8 Y s 697 95 m -8 Y s 732 95 m -8 Y s 767 95 m -8 Y s 803 104 m -17 Y s 838 95 m -8 Y s 874 95 m -8 Y s 909 95 m -8 Y s 944 95 m -8 Y s 980 104 m -17 Y s 1015 95 m -8 Y s 1050 95 m -8 Y s 1086 95 m -8 Y s
 1121 95 m -8 Y s 1157 104 m -17 Y s 1192 95 m -8 Y s 1227 95 m -8 Y s 1263 95 m -8 Y s 1298 95 m -8 Y s 1333 104 m -17 Y s 1369 95 m -8 Y s 1404 95 m -8 Y s 1440 95 m -8 Y s 1475 95 m -8 Y s 1510 104 m -17 Y s 1546 95 m -8 Y s 1581 95 m -8 Y s 1616
 95 m -8 Y s 1652 95 m -8 Y s 1687 104 m -17 Y s 1723 95 m -8 Y s 1758 95 m -8 Y s 1793 95 m -8 Y s 1829 95 m -8 Y s 1864 104 m -17 Y s 1899 95 m -8 Y s 1935 95 m -8 Y s 1970 95 m -8 Y s 2006 95 m -8 Y s 2041 104 m -17 Y s
 gsave  2268 724 0 0 C 263 61 t 0 r /Helvetica-Bold findfont 27.8403 sf 0 0 m (0) show NC gr 
 gsave  2268 724 0 0 C 420 61 t 0 r /Helvetica-Bold findfont 27.8403 sf 0 0 m (0.05) show NC gr 
 gsave  2268 724 0 0 C 607 61 t 0 r /Helvetica-Bold findfont 27.8403 sf 0 0 m (0.1) show NC gr 
 gsave  2268 724 0 0 C 774 61 t 0 r /Helvetica-Bold findfont 27.8403 sf 0 0 m (0.15) show NC gr 
 gsave  2268 724 0 0 C 959 61 t 0 r /Helvetica-Bold findfont 27.8403 sf 0 0 m (0.2) show NC gr 
 gsave  2268 724 0 0 C 1126 61 t 0 r /Helvetica-Bold findfont 27.8403 sf 0 0 m (0.25) show NC gr 
 gsave  2268 724 0 0 C 1311 61 t 0 r /Helvetica-Bold findfont 27.8403 sf 0 0 m (0.3) show NC gr 
 gsave  2268 724 0 0 C 1481 61 t 0 r /Helvetica-Bold findfont 27.8403 sf 0 0 m (0.35) show NC gr 
 gsave  2268 724 0 0 C 1665 61 t 0 r /Helvetica-Bold findfont 27.8403 sf 0 0 m (0.4) show NC gr 
 gsave  2268 724 0 0 C 1835 61 t 0 r /Helvetica-Bold findfont 27.8403 sf 0 0 m (0.45) show NC gr 
 gsave  2268 724 0 0 C 2020 61 t 0 r /Helvetica-Bold findfont 27.8403 sf 0 0 m (0.5) show NC gr  272 87 m 564 Y s
 gsave  2268 724 0 0 C 76 554 t 90 r /Helvetica-Bold findfont 27.8403 sf 0 0 m (leptons) show NC gr  325 87 m -53 X s 299 103 m -27 X s 299 119 m -27 X s 299 134 m -27 X s 325 150 m -53 X s 299 166 m -27 X s 299 182 m -27 X s 299 198 m -27 X s 325
 214 m -53 X s 299 230 m -27 X s 299 245 m -27 X s 299 261 m -27 X s 325 277 m -53 X s 299 293 m -27 X s 299 309 m -27 X s 299 325 m -27 X s 325 340 m -53 X s 299 356 m -27 X s 299 372 m -27 X s 299 388 m -27 X s 325 404 m -53 X s 299 420 m -27 X s
 299 436 m -27 X s 299 451 m -27 X s 325 467 m -53 X s 299 483 m -27 X s 299 499 m -27 X s 299 515 m -27 X s 325 531 m -53 X s 299 547 m -27 X s 299 562 m -27 X s 299 578 m -27 X s 325 594 m -53 X s 325 594 m -53 X s 299 610 m -27 X s 299 626 m -27
 X s 299 642 m -27 X s
 gsave  2268 724 0 0 C 246 78 t 0 r /Helvetica-Bold findfont 27.8403 sf 0 0 m (0) show NC gr 
 gsave  2268 724 0 0 C 246 139 t 0 r /Helvetica-Bold findfont 27.8403 sf 0 0 m (2) show NC gr 
 gsave  2268 724 0 0 C 246 202 t 0 r /Helvetica-Bold findfont 27.8403 sf 0 0 m (4) show NC gr 
 gsave  2268 724 0 0 C 246 268 t 0 r /Helvetica-Bold findfont 27.8403 sf 0 0 m (6) show NC gr 
 gsave  2268 724 0 0 C 246 332 t 0 r /Helvetica-Bold findfont 27.8403 sf 0 0 m (8) show NC gr 
 gsave  2268 724 0 0 C 230 395 t 0 r /Helvetica-Bold findfont 27.8403 sf 0 0 m (10) show NC gr 
 gsave  2268 724 0 0 C 230 456 t 0 r /Helvetica-Bold findfont 27.8403 sf 0 0 m (12) show NC gr 
 gsave  2268 724 0 0 C 230 519 t 0 r /Helvetica-Bold findfont 27.8403 sf 0 0 m (14) show NC gr 
 gsave  2268 724 0 0 C 230 585 t 0 r /Helvetica-Bold findfont 27.8403 sf 0 0 m (16) show NC gr  0.95 0.95 0.95 c 645 336 1577 385 bf black 1584 385 m -5 Y 643 X 334 Y -5 X -329 Y f 1577 385 m 336 Y 645 X -336 Y -645 X cl s 1 1 1 c black
 gsave  2268 724 0 0 C 1830 676 t 0 r /Helvetica-Bold findfont 48.0877 sf 0 0 m (30076) show NC gr  1577 665 m 645 X s
 gsave  2268 724 0 0 C 1607 620 t 0 r /Helvetica-Bold findfont 48.0877 sf 0 0 m (Mean  ) show NC gr 
 gsave  2268 724 0 0 C 2002 620 t 0 r /Helvetica-Bold findfont 48.0877 sf 0 0 m ( 0.05189) show NC gr 
 gsave  2268 724 0 0 C 1607 564 t 0 r /Helvetica-Bold findfont 48.0877 sf 0 0 m (RMS   ) show NC gr 
 gsave  2268 724 0 0 C 2030 564 t 0 r /Helvetica-Bold findfont 48.0877 sf 0 0 m ( 0.0437) show NC gr 
 gsave  2268 724 0 0 C 1607 509 t 0 r /Helvetica-Bold findfont 48.0877 sf 0 0 m (Underflow ) show NC gr 
 gsave  2268 724 0 0 C 2083 509 t 0 r /Helvetica-Bold findfont 48.0877 sf 0 0 m (      0) show NC gr 
 gsave  2268 724 0 0 C 1607 453 t 0 r /Helvetica-Bold findfont 48.0877 sf 0 0 m (Overflow  ) show NC gr 
 gsave  2268 724 0 0 C 2083 453 t 0 r /Helvetica-Bold findfont 48.0877 sf 0 0 m (      0) show NC gr 
 gsave  2268 724 0 0 C 1607 400 t 0 r /Helvetica-Bold findfont 48.0877 sf 0 0 m (Integral ) show NC gr 
 gsave  2268 724 0 0 C 2042 397 t 0 r /Helvetica-Bold findfont 48.0877 sf 0 0 m (  98.84) show NC gr 
 gr  gr 
showpage
end
%%EOF
