%!PS-Adobe-2.0 EPSF-2.0
%%BoundingBox:  0 0 567 362
%%Title: ./isovalue-mu-sign.eps:  
%%Creator: ROOT Version 5.22/00
%%CreationDate: Thu Aug 13 21:31:02 2009
%%EndComments
%%BeginProlog
80 dict begin
/s {stroke} def /l {lineto} def /m {moveto} def /t {translate} def
/sw {stringwidth} def /r {rotate} def /rl {roll}  def /R {repeat} def
/d {rlineto} def /rm {rmoveto} def /gr {grestore} def /f {eofill} def
/c {setrgbcolor} def /black {0 setgray} def /sd {setdash} def
/cl {closepath} def /sf {scalefont setfont} def /lw {setlinewidth} def
/box {m dup 0 exch d exch 0 d 0 exch neg d cl} def
/NC{systemdict begin initclip end}def/C{NC box clip newpath}def
/bl {box s} def /bf {box f} def /Y { 0 exch d} def /X { 0 d} def 
/mp {newpath /y exch def /x exch def} def
/side {[w .77 mul w .23 mul] .385 w mul sd w 0 l currentpoint t -144 r} def
/mr {mp x y w2 0 360 arc} def /m24 {mr s} def /m20 {mr f} def
/mb {mp x y w2 add m w2 neg 0 d 0 w neg d w 0 d 0 w d cl} def
/mt {mp x y w2 add m w2 neg w neg d w 0 d cl} def
/m21 {mb f} def /m25 {mb s} def /m22 {mt f} def /m26{mt s} def
/m23 {mp x y w2 sub m w2 w d w neg 0 d cl f} def
/m27 {mp x y w2 add m w3 neg w2 neg d w3 w2 neg d w3 w2 d cl s} def
/m28 {mp x w2 sub y w2 sub w3 add m w3 0 d  0 w3 neg d w3 0 d 0 w3 d w3 0 d  0 w3 d w3 neg 0 d 0 w3 d w3 neg 0 d
 0 w3 neg d w3 neg 0 d cl s } def
/m29 {mp gsave x w2 sub y w2 add w3 sub m currentpoint t
 4 {side} repeat cl fill gr} def
/m30 {mp gsave x w2 sub y w2 add w3 sub m currentpoint t
 4 {side} repeat cl s gr} def
/m31 {mp x y w2 sub m 0 w d x w2 sub y m w 0 d x w2 sub y w2 add m w w neg d x w2 sub y w2
 sub m w w d s} def
/m2 {mp x y w2 sub m 0 w d x w2 sub y m w 0 d s} def
/m5 {mp x w2 sub y w2 sub m w w d x w2 sub y w2 add m w w neg d s} def
/reEncode {exch findfont dup length dict begin {1 index /FID eq  {pop pop} {def} ifelse } forall /Encoding exch def currentdict end dup /FontName get exch definefont pop } def [/Times-Bold /Times-Italic /Times-BoldItalic /Helvetica
 /Helvetica-Oblique /Helvetica-Bold /Helvetica-BoldOblique /Courier /Courier-Oblique /Courier-Bold /Courier-BoldOblique /Times-Roman /AvantGarde-Book /AvantGarde-BookOblique /AvantGarde-Demi /AvantGarde-DemiOblique /Bookman-Demi
 /Bookman-DemiItalic /Bookman-Light /Bookman-LightItalic /Helvetica-Narrow /Helvetica-Narrow-Bold /Helvetica-Narrow-BoldOblique /Helvetica-Narrow-Oblique /NewCenturySchlbk-Roman /NewCenturySchlbk-Bold
 /NewCenturySchlbk-BoldItalic /NewCenturySchlbk-Italic /Palatino-Bold /Palatino-BoldItalic /Palatino-Italic /Palatino-Roman ] {ISOLatin1Encoding reEncode } forall
/oshow {gsave [] 0 sd true charpath stroke gr} def
/stwn { /fs exch def /fn exch def /text exch def fn findfont fs sf
 text sw pop xs add /xs exch def} def
/stwb { /fs exch def /fn exch def /nbas exch def /textf exch deftextf length /tlen exch def nbas tlen gt {/nbas tlendef} iffn findfont fs sf textf dup length nbas sub nbas getinterval sw
pop neg xs add /xs exch def} def
%%EndProlog
%%BeginSetup
%%EndSetup
newpath  gsave  .25 .25 scale  gsave  0 0 t black[  ] 0 sd 3 lw 0.95 0.95 0.95 c 2268 1448 0 0 bf 1 1 1 c 0 0 m 8 8 d 1432 Y 2252 X 8 8 d -2268 X -1448 Y f 0.665 0.665 0.665 c 0 0 m 8 8 d 2252 X 1432 Y 8 8 d -1448 Y -2268 X f black 1 1 1 c 2268 724
 0 724 bf black 0.95 0.95 0.95 c 1769 564 272 811 bf 1 1 1 c 272 811 m 4 4 d 556 Y 1761 X 4 4 d -1769 X -564 Y f 0.665 0.665 0.665 c 272 811 m 4 4 d 1761 X 556 Y 4 4 d -564 Y -1769 X f black 1769 564 272 811 bl 0.95 0.95 0.95 c 1769 564 272 811 bf 1
 1 1 c 272 811 m 4 4 d 556 Y 1761 X 4 4 d -1769 X -564 Y f 0.665 0.665 0.665 c 272 811 m 4 4 d 1761 X 556 Y 4 4 d -564 Y -1769 X f black 1769 564 272 811 bl 1 1 1 c black 272 1348 m 36 X -489 Y 35 X -21 Y 35 X -13 Y 36 X -8 Y 35 X 2 Y 35 X -4 Y 36 X
 -2 Y 35 X 2 Y 36 X -2 Y 35 X -1 Y 71 X -1 Y 35 X 2 Y 35 X -2 Y 71 X 1 Y 36 X -1 Y 70 X 1 Y 36 X -1 Y 70 X 1 Y 36 X -1 Y 318 X 1 Y 36 X -1 Y 247 X 1 Y 36 X -1 Y 247 X 1 Y 36 X -1 Y 35 X s 0.95 0.95 0.95 c 625 311 1597 1134 bf black 1605 1134 m -5 Y
 622 X 309 Y -5 X -304 Y f 1597 1134 m 311 Y 625 X -311 Y -625 X cl s 1 1 1 c black
 gsave  2268 724 0 724 C 1817 1382 t 0 r /Helvetica-Bold findfont 65.8043 sf 0 0 m (30085) show NC gr  1597 1367 m 625 X s
 gsave  2268 724 0 724 C 1627 1303 t 0 r /Helvetica-Bold findfont 65.8043 sf 0 0 m (Entries ) show NC gr 
 gsave  2268 724 0 724 C 2027 1303 t 0 r /Helvetica-Bold findfont 65.8043 sf 0 0 m ( 1050) show NC gr 
 gsave  2268 724 0 724 C 1627 1228 t 0 r /Helvetica-Bold findfont 65.8043 sf 0 0 m (Mean  ) show NC gr 
 gsave  2268 724 0 724 C 1944 1228 t 0 r /Helvetica-Bold findfont 65.8043 sf 0 0 m ( 0.01561) show NC gr 
 gsave  2268 724 0 724 C 1627 1149 t 0 r /Helvetica-Bold findfont 65.8043 sf 0 0 m (RMS   ) show NC gr 
 gsave  2268 724 0 724 C 1934 1149 t 0 r /Helvetica-Bold findfont 65.8043 sf 0 0 m ( 0.05514) show NC gr  272 811 m 1769 X s
 gsave  2268 724 0 724 C 1822 744 t 0 r /Helvetica-Bold findfont 32.9021 sf 0 0 m (isovalue, GeV) show NC gr  272 828 m -17 Y s 308 819 m -8 Y s 343 819 m -8 Y s 378 819 m -8 Y s 414 819 m -8 Y s 449 828 m -17 Y s 484 819 m -8 Y s 520 819 m -8 Y s
 555 819 m -8 Y s 591 819 m -8 Y s 626 828 m -17 Y s 661 819 m -8 Y s 697 819 m -8 Y s 732 819 m -8 Y s 767 819 m -8 Y s 803 828 m -17 Y s 838 819 m -8 Y s 874 819 m -8 Y s 909 819 m -8 Y s 944 819 m -8 Y s 980 828 m -17 Y s 1015 819 m -8 Y s 1050
 819 m -8 Y s 1086 819 m -8 Y s 1121 819 m -8 Y s 1157 828 m -17 Y s 1192 819 m -8 Y s 1227 819 m -8 Y s 1263 819 m -8 Y s 1298 819 m -8 Y s 1333 828 m -17 Y s 1369 819 m -8 Y s 1404 819 m -8 Y s 1440 819 m -8 Y s 1475 819 m -8 Y s 1510 828 m -17 Y
 s 1546 819 m -8 Y s 1581 819 m -8 Y s 1616 819 m -8 Y s 1652 819 m -8 Y s 1687 828 m -17 Y s 1723 819 m -8 Y s 1758 819 m -8 Y s 1793 819 m -8 Y s 1829 819 m -8 Y s 1864 828 m -17 Y s 1899 819 m -8 Y s 1935 819 m -8 Y s 1970 819 m -8 Y s 2006 819 m
 -8 Y s 2041 828 m -17 Y s
 gsave  2268 724 0 724 C 263 785 t 0 r /Helvetica-Bold findfont 27.8403 sf 0 0 m (0) show NC gr 
 gsave  2268 724 0 724 C 420 785 t 0 r /Helvetica-Bold findfont 27.8403 sf 0 0 m (0.05) show NC gr 
 gsave  2268 724 0 724 C 607 785 t 0 r /Helvetica-Bold findfont 27.8403 sf 0 0 m (0.1) show NC gr 
 gsave  2268 724 0 724 C 774 785 t 0 r /Helvetica-Bold findfont 27.8403 sf 0 0 m (0.15) show NC gr 
 gsave  2268 724 0 724 C 959 785 t 0 r /Helvetica-Bold findfont 27.8403 sf 0 0 m (0.2) show NC gr 
 gsave  2268 724 0 724 C 1126 785 t 0 r /Helvetica-Bold findfont 27.8403 sf 0 0 m (0.25) show NC gr 
 gsave  2268 724 0 724 C 1311 785 t 0 r /Helvetica-Bold findfont 27.8403 sf 0 0 m (0.3) show NC gr 
 gsave  2268 724 0 724 C 1481 785 t 0 r /Helvetica-Bold findfont 27.8403 sf 0 0 m (0.35) show NC gr 
 gsave  2268 724 0 724 C 1665 785 t 0 r /Helvetica-Bold findfont 27.8403 sf 0 0 m (0.4) show NC gr 
 gsave  2268 724 0 724 C 1835 785 t 0 r /Helvetica-Bold findfont 27.8403 sf 0 0 m (0.45) show NC gr 
 gsave  2268 724 0 724 C 2020 785 t 0 r /Helvetica-Bold findfont 27.8403 sf 0 0 m (0.5) show NC gr  272 811 m 564 Y s
 gsave  2268 724 0 724 C 76 1278 t 90 r /Helvetica-Bold findfont 27.8403 sf 0 0 m (leptons) show NC gr  325 811 m -53 X s 299 827 m -27 X s 299 844 m -27 X s 299 861 m -27 X s 299 877 m -27 X s 325 894 m -53 X s 299 910 m -27 X s 299 927 m -27 X s
 299 944 m -27 X s 299 960 m -27 X s 325 977 m -53 X s 299 993 m -27 X s 299 1010 m -27 X s 299 1027 m -27 X s 299 1043 m -27 X s 325 1060 m -53 X s 299 1076 m -27 X s 299 1093 m -27 X s 299 1110 m -27 X s 299 1126 m -27 X s 325 1143 m -53 X s 299
 1160 m -27 X s 299 1176 m -27 X s 299 1193 m -27 X s 299 1209 m -27 X s 325 1226 m -53 X s 299 1243 m -27 X s 299 1259 m -27 X s 299 1276 m -27 X s 299 1292 m -27 X s 325 1309 m -53 X s 325 1309 m -53 X s 299 1326 m -27 X s 299 1342 m -27 X s 299
 1359 m -27 X s
 gsave  2268 724 0 724 C 246 802 t 0 r /Helvetica-Bold findfont 27.8403 sf 0 0 m (0) show NC gr 
 gsave  2268 724 0 724 C 246 886 t 0 r /Helvetica-Bold findfont 27.8403 sf 0 0 m (5) show NC gr 
 gsave  2268 724 0 724 C 230 967 t 0 r /Helvetica-Bold findfont 27.8403 sf 0 0 m (10) show NC gr 
 gsave  2268 724 0 724 C 230 1050 t 0 r /Helvetica-Bold findfont 27.8403 sf 0 0 m (15) show NC gr 
 gsave  2268 724 0 724 C 230 1134 t 0 r /Helvetica-Bold findfont 27.8403 sf 0 0 m (20) show NC gr 
 gsave  2268 724 0 724 C 230 1217 t 0 r /Helvetica-Bold findfont 27.8403 sf 0 0 m (25) show NC gr 
 gsave  2268 724 0 724 C 230 1301 t 0 r /Helvetica-Bold findfont 27.8403 sf 0 0 m (30) show NC gr  0.95 0.95 0.95 c 625 311 1597 1134 bf black 1605 1134 m -5 Y 622 X 309 Y -5 X -304 Y f 1597 1134 m 311 Y 625 X -311 Y -625 X cl s 1 1 1 c black
 gsave  2268 724 0 724 C 1817 1382 t 0 r /Helvetica-Bold findfont 65.8043 sf 0 0 m (30085) show NC gr  1597 1367 m 625 X s
 gsave  2268 724 0 724 C 1627 1303 t 0 r /Helvetica-Bold findfont 65.8043 sf 0 0 m (Entries ) show NC gr 
 gsave  2268 724 0 724 C 2027 1303 t 0 r /Helvetica-Bold findfont 65.8043 sf 0 0 m ( 1050) show NC gr 
 gsave  2268 724 0 724 C 1627 1228 t 0 r /Helvetica-Bold findfont 65.8043 sf 0 0 m (Mean  ) show NC gr 
 gsave  2268 724 0 724 C 1944 1228 t 0 r /Helvetica-Bold findfont 65.8043 sf 0 0 m ( 0.01561) show NC gr 
 gsave  2268 724 0 724 C 1627 1149 t 0 r /Helvetica-Bold findfont 65.8043 sf 0 0 m (RMS   ) show NC gr 
 gsave  2268 724 0 724 C 1934 1149 t 0 r /Helvetica-Bold findfont 65.8043 sf 0 0 m ( 0.05514) show NC gr  1 1 1 c 2268 724 0 0 bf black 0.95 0.95 0.95 c 1769 564 272 87 bf 1 1 1 c 272 87 m 4 4 d 556 Y 1761 X 4 4 d -1769 X -564 Y f 0.665 0.665 0.665
 c 272 87 m 4 4 d 1761 X 556 Y 4 4 d -564 Y -1769 X f black 1769 564 272 87 bl 0.95 0.95 0.95 c 1769 564 272 87 bf 1 1 1 c 272 87 m 4 4 d 556 Y 1761 X 4 4 d -1769 X -564 Y f 0.665 0.665 0.665 c 272 87 m 4 4 d 1761 X 556 Y 4 4 d -564 Y -1769 X f
 black 1769 564 272 87 bl 1 1 1 c black 272 625 m 36 X -391 Y 35 X -73 Y 35 X -8 Y 36 X -15 Y 35 X -36 Y 35 X -8 Y 36 X -7 Y 35 X 7 Y 71 X -7 Y 35 X 7 Y 36 X -7 Y 35 X 7 Y 35 X -7 Y 36 X 15 Y 35 X -8 Y 36 X -7 Y 35 X 7 Y 35 X -7 Y 71 X 7 Y 71 X -7 Y
 955 X s 0.95 0.95 0.95 c 610 303 1612 418 bf black 1620 418 m -5 Y 607 X 301 Y -5 X -296 Y f 1612 418 m 303 Y 610 X -303 Y -610 X cl s 1 1 1 c black
 gsave  2268 724 0 0 C 1825 658 t 0 r /Helvetica-Bold findfont 65.8043 sf 0 0 m (30086) show NC gr  1612 645 m 610 X s
 gsave  2268 724 0 0 C 1643 582 t 0 r /Helvetica-Bold findfont 65.8043 sf 0 0 m (Entries ) show NC gr 
 gsave  2268 724 0 0 C 2063 582 t 0 r /Helvetica-Bold findfont 65.8043 sf 0 0 m ( 132) show NC gr 
 gsave  2268 724 0 0 C 1643 506 t 0 r /Helvetica-Bold findfont 65.8043 sf 0 0 m (Mean  ) show NC gr 
 gsave  2268 724 0 0 C 1972 506 t 0 r /Helvetica-Bold findfont 65.8043 sf 0 0 m ( 0.0229) show NC gr 
 gsave  2268 724 0 0 C 1643 430 t 0 r /Helvetica-Bold findfont 65.8043 sf 0 0 m (RMS   ) show NC gr 
 gsave  2268 724 0 0 C 1936 430 t 0 r /Helvetica-Bold findfont 65.8043 sf 0 0 m ( 0.04138) show NC gr  272 87 m 1769 X s
 gsave  2268 724 0 0 C 1822 20 t 0 r /Helvetica-Bold findfont 32.9021 sf 0 0 m (isovalue, GeV) show NC gr  272 104 m -17 Y s 308 95 m -8 Y s 343 95 m -8 Y s 378 95 m -8 Y s 414 95 m -8 Y s 449 104 m -17 Y s 484 95 m -8 Y s 520 95 m -8 Y s 555 95 m
 -8 Y s 591 95 m -8 Y s 626 104 m -17 Y s 661 95 m -8 Y s 697 95 m -8 Y s 732 95 m -8 Y s 767 95 m -8 Y s 803 104 m -17 Y s 838 95 m -8 Y s 874 95 m -8 Y s 909 95 m -8 Y s 944 95 m -8 Y s 980 104 m -17 Y s 1015 95 m -8 Y s 1050 95 m -8 Y s 1086 95 m
 -8 Y s 1121 95 m -8 Y s 1157 104 m -17 Y s 1192 95 m -8 Y s 1227 95 m -8 Y s 1263 95 m -8 Y s 1298 95 m -8 Y s 1333 104 m -17 Y s 1369 95 m -8 Y s 1404 95 m -8 Y s 1440 95 m -8 Y s 1475 95 m -8 Y s 1510 104 m -17 Y s 1546 95 m -8 Y s 1581 95 m -8 Y
 s 1616 95 m -8 Y s 1652 95 m -8 Y s 1687 104 m -17 Y s 1723 95 m -8 Y s 1758 95 m -8 Y s 1793 95 m -8 Y s 1829 95 m -8 Y s 1864 104 m -17 Y s 1899 95 m -8 Y s 1935 95 m -8 Y s 1970 95 m -8 Y s 2006 95 m -8 Y s 2041 104 m -17 Y s
 gsave  2268 724 0 0 C 263 61 t 0 r /Helvetica-Bold findfont 27.8403 sf 0 0 m (0) show NC gr 
 gsave  2268 724 0 0 C 420 61 t 0 r /Helvetica-Bold findfont 27.8403 sf 0 0 m (0.05) show NC gr 
 gsave  2268 724 0 0 C 607 61 t 0 r /Helvetica-Bold findfont 27.8403 sf 0 0 m (0.1) show NC gr 
 gsave  2268 724 0 0 C 774 61 t 0 r /Helvetica-Bold findfont 27.8403 sf 0 0 m (0.15) show NC gr 
 gsave  2268 724 0 0 C 959 61 t 0 r /Helvetica-Bold findfont 27.8403 sf 0 0 m (0.2) show NC gr 
 gsave  2268 724 0 0 C 1126 61 t 0 r /Helvetica-Bold findfont 27.8403 sf 0 0 m (0.25) show NC gr 
 gsave  2268 724 0 0 C 1311 61 t 0 r /Helvetica-Bold findfont 27.8403 sf 0 0 m (0.3) show NC gr 
 gsave  2268 724 0 0 C 1481 61 t 0 r /Helvetica-Bold findfont 27.8403 sf 0 0 m (0.35) show NC gr 
 gsave  2268 724 0 0 C 1665 61 t 0 r /Helvetica-Bold findfont 27.8403 sf 0 0 m (0.4) show NC gr 
 gsave  2268 724 0 0 C 1835 61 t 0 r /Helvetica-Bold findfont 27.8403 sf 0 0 m (0.45) show NC gr 
 gsave  2268 724 0 0 C 2020 61 t 0 r /Helvetica-Bold findfont 27.8403 sf 0 0 m (0.5) show NC gr  272 87 m 564 Y s
 gsave  2268 724 0 0 C 76 554 t 90 r /Helvetica-Bold findfont 27.8403 sf 0 0 m (leptons) show NC gr  325 87 m -53 X s 299 106 m -27 X s 299 124 m -27 X s 299 143 m -27 X s 299 162 m -27 X s 325 180 m -53 X s 299 199 m -27 X s 299 218 m -27 X s 299
 237 m -27 X s 299 255 m -27 X s 325 274 m -53 X s 299 293 m -27 X s 299 311 m -27 X s 299 330 m -27 X s 299 349 m -27 X s 325 367 m -53 X s 299 386 m -27 X s 299 405 m -27 X s 299 424 m -27 X s 299 442 m -27 X s 325 461 m -53 X s 299 480 m -27 X s
 299 498 m -27 X s 299 517 m -27 X s 299 536 m -27 X s 325 554 m -53 X s 299 573 m -27 X s 299 592 m -27 X s 299 611 m -27 X s 299 629 m -27 X s 325 648 m -53 X s 325 648 m -53 X s
 gsave  2268 724 0 0 C 246 78 t 0 r /Helvetica-Bold findfont 27.8403 sf 0 0 m (0) show NC gr 
 gsave  2268 724 0 0 C 223 172 t 0 r /Helvetica-Bold findfont 27.8403 sf 0 0 m (0.5) show NC gr 
 gsave  2268 724 0 0 C 248 263 t 0 r /Helvetica-Bold findfont 27.8403 sf 0 0 m (1) show NC gr 
 gsave  2268 724 0 0 C 223 359 t 0 r /Helvetica-Bold findfont 27.8403 sf 0 0 m (1.5) show NC gr 
 gsave  2268 724 0 0 C 246 451 t 0 r /Helvetica-Bold findfont 27.8403 sf 0 0 m (2) show NC gr 
 gsave  2268 724 0 0 C 223 547 t 0 r /Helvetica-Bold findfont 27.8403 sf 0 0 m (2.5) show NC gr 
 gsave  2268 724 0 0 C 246 640 t 0 r /Helvetica-Bold findfont 27.8403 sf 0 0 m (3) show NC gr  0.95 0.95 0.95 c 610 303 1612 418 bf black 1620 418 m -5 Y 607 X 301 Y -5 X -296 Y f 1612 418 m 303 Y 610 X -303 Y -610 X cl s 1 1 1 c black
 gsave  2268 724 0 0 C 1825 658 t 0 r /Helvetica-Bold findfont 65.8043 sf 0 0 m (30086) show NC gr  1612 645 m 610 X s
 gsave  2268 724 0 0 C 1643 582 t 0 r /Helvetica-Bold findfont 65.8043 sf 0 0 m (Entries ) show NC gr 
 gsave  2268 724 0 0 C 2063 582 t 0 r /Helvetica-Bold findfont 65.8043 sf 0 0 m ( 132) show NC gr 
 gsave  2268 724 0 0 C 1643 506 t 0 r /Helvetica-Bold findfont 65.8043 sf 0 0 m (Mean  ) show NC gr 
 gsave  2268 724 0 0 C 1972 506 t 0 r /Helvetica-Bold findfont 65.8043 sf 0 0 m ( 0.0229) show NC gr 
 gsave  2268 724 0 0 C 1643 430 t 0 r /Helvetica-Bold findfont 65.8043 sf 0 0 m (RMS   ) show NC gr 
 gsave  2268 724 0 0 C 1936 430 t 0 r /Helvetica-Bold findfont 65.8043 sf 0 0 m ( 0.04138) show NC gr 
 gr  gr 
showpage
end
%%EOF
