%!PS-Adobe-2.0 EPSF-2.0
%%BoundingBox:  0 0 567 613
%%Title: ./jetdist.eps:  
%%Creator: ROOT Version 5.24/00
%%CreationDate: Thu Feb 11 21:14:43 2010
%%EndComments
%%BeginProlog
80 dict begin
/s {stroke} def /l {lineto} def /m {moveto} def /t {translate} def
/sw {stringwidth} def /r {rotate} def /rl {roll}  def /R {repeat} def
/d {rlineto} def /rm {rmoveto} def /gr {grestore} def /f {eofill} def
/c {setrgbcolor} def /black {0 setgray} def /sd {setdash} def
/cl {closepath} def /sf {scalefont setfont} def /lw {setlinewidth} def
/box {m dup 0 exch d exch 0 d 0 exch neg d cl} def
/NC{systemdict begin initclip end}def/C{NC box clip newpath}def
/bl {box s} def /bf {box f} def /Y { 0 exch d} def /X { 0 d} def 
/mp {newpath /y exch def /x exch def} def
/side {[w .77 mul w .23 mul] .385 w mul sd w 0 l currentpoint t -144 r} def
/mr {mp x y w2 0 360 arc} def /m24 {mr s} def /m20 {mr f} def
/mb {mp x y w2 add m w2 neg 0 d 0 w neg d w 0 d 0 w d cl} def
/mt {mp x y w2 add m w2 neg w neg d w 0 d cl} def
/m21 {mb f} def /m25 {mb s} def /m22 {mt f} def /m26{mt s} def
/m23 {mp x y w2 sub m w2 w d w neg 0 d cl f} def
/m27 {mp x y w2 add m w3 neg w2 neg d w3 w2 neg d w3 w2 d cl s} def
/m28 {mp x w2 sub y w2 sub w3 add m w3 0 d  0 w3 neg d w3 0 d 0 w3 d w3 0 d  0 w3 d w3 neg 0 d 0 w3 d w3 neg 0 d
 0 w3 neg d w3 neg 0 d cl s } def
/m29 {mp gsave x w2 sub y w2 add w3 sub m currentpoint t
 4 {side} repeat cl fill gr} def
/m30 {mp gsave x w2 sub y w2 add w3 sub m currentpoint t
 4 {side} repeat cl s gr} def
/m31 {mp x y w2 sub m 0 w d x w2 sub y m w 0 d x w2 sub y w2 add m w w neg d x w2 sub y w2
 sub m w w d s} def
/m2 {mp x y w2 sub m 0 w d x w2 sub y m w 0 d s} def
/m5 {mp x w2 sub y w2 sub m w w d x w2 sub y w2 add m w w neg d s} def
/reEncode {exch findfont dup length dict begin {1 index /FID eq  {pop pop} {def} ifelse } forall /Encoding exch def currentdict end dup /FontName get exch definefont pop } def [/Times-Bold /Times-Italic /Times-BoldItalic /Helvetica
 /Helvetica-Oblique /Helvetica-Bold /Helvetica-BoldOblique /Courier /Courier-Oblique /Courier-Bold /Courier-BoldOblique /Times-Roman /AvantGarde-Book /AvantGarde-BookOblique /AvantGarde-Demi /AvantGarde-DemiOblique /Bookman-Demi
 /Bookman-DemiItalic /Bookman-Light /Bookman-LightItalic /Helvetica-Narrow /Helvetica-Narrow-Bold /Helvetica-Narrow-BoldOblique /Helvetica-Narrow-Oblique /NewCenturySchlbk-Roman /NewCenturySchlbk-Bold
 /NewCenturySchlbk-BoldItalic /NewCenturySchlbk-Italic /Palatino-Bold /Palatino-BoldItalic /Palatino-Italic /Palatino-Roman ] {ISOLatin1Encoding reEncode } forall
/oshow {gsave [] 0 sd true charpath stroke gr} def
/stwn { /fs exch def /fn exch def /text exch def fn findfont fs sf
 text sw pop xs add /xs exch def} def
/stwb { /fs exch def /fn exch def /nbas exch def /textf exch deftextf length /tlen exch def nbas tlen gt {/nbas tlendef} iffn findfont fs sf textf dup length nbas sub nbas getinterval sw
pop neg xs add /xs exch def} def
%%EndProlog
%%BeginSetup
%%EndSetup
newpath  gsave  .25 .25 scale  gsave  0 0 t black[  ] 0 sd 3 lw 0.95 0.95 0.95 c 2268 2450 0 0 bf 1 1 1 c 0 0 m 8 8 d 2434 Y 2252 X 8 8 d -2268 X -2450 Y f 0.665 0.665 0.665 c 0 0 m 8 8 d 2252 X 2434 Y 8 8 d -2450 Y -2268 X f black 1 1 1 c 2268 2450
 0 0 bf black 1 1 1 c 1769 1911 272 294 bf 272 294 m 4 4 d 1903 Y 1761 X 4 4 d -1769 X -1911 Y f 1 7.94729e-08 0 c 272 294 m 4 4 d 1761 X 1903 Y 4 4 d -1911 Y -1769 X f black 1769 1911 272 294 bl 1 1 1 c 1769 1911 272 294 bf 272 294 m 4 4 d 1903 Y
 1761 X 4 4 d -1769 X -1911 Y f 1 7.94729e-08 0 c 272 294 m 4 4 d 1761 X 1903 Y 4 4 d -1911 Y -1769 X f black 1769 1911 272 294 bl 1 1 1 c black 272 443 m 18 X 255 Y 18 X 304 Y 17 X 191 Y 18 X 224 Y 18 X 31 Y 17 X 252 Y 18 X -145 Y 18 X 294 Y 17 X
 162 Y 18 X 36 Y 18 X 60 Y 17 X 7 Y 18 X -124 Y 18 X -3 Y 17 X -153 Y 18 X -99 Y 18 X -304 Y 18 X -85 Y 17 X -53 Y 18 X -75 Y 18 X -198 Y 17 X -89 Y 18 X 22 Y 18 X -142 Y 17 X 74 Y 18 X -109 Y 18 X 21 Y 17 X -11 Y 18 X -28 Y 18 X -96 Y 17 X -53 Y 18
 X -145 Y 18 X -46 Y 18 X -43 Y 17 X -14 Y 18 X -28 Y 18 X -21 Y 35 X -14 Y 18 X 3 Y 17 X -7 Y 18 X 4 Y 18 X -4 Y 17 X 4 Y 18 X -4 Y 973 X s 272 294 m 1769 X s
 gsave  2268 2450 0 0 C 655 72 t 0 r /Helvetica-Bold findfont 104.263 sf 0 0 m (min. distance lepton \255 quark) show NC gr  272 351 m -57 Y s 308 323 m -29 Y s 343 323 m -29 Y s 378 323 m -29 Y s 414 323 m -29 Y s 449 351 m -57 Y s 484 323 m -29 Y
 s 520 323 m -29 Y s 555 323 m -29 Y s 591 323 m -29 Y s 626 351 m -57 Y s 661 323 m -29 Y s 697 323 m -29 Y s 732 323 m -29 Y s 767 323 m -29 Y s 803 351 m -57 Y s 838 323 m -29 Y s 874 323 m -29 Y s 909 323 m -29 Y s 944 323 m -29 Y s 980 351 m
 -57 Y s 1015 323 m -29 Y s 1050 323 m -29 Y s 1086 323 m -29 Y s 1121 323 m -29 Y s 1157 351 m -57 Y s 1192 323 m -29 Y s 1227 323 m -29 Y s 1263 323 m -29 Y s 1298 323 m -29 Y s 1333 351 m -57 Y s 1369 323 m -29 Y s 1404 323 m -29 Y s 1440 323 m
 -29 Y s 1475 323 m -29 Y s 1510 351 m -57 Y s 1546 323 m -29 Y s 1581 323 m -29 Y s 1616 323 m -29 Y s 1652 323 m -29 Y s 1687 351 m -57 Y s 1723 323 m -29 Y s 1758 323 m -29 Y s 1793 323 m -29 Y s 1829 323 m -29 Y s 1864 351 m -57 Y s 1899 323 m
 -29 Y s 1935 323 m -29 Y s 1970 323 m -29 Y s 2006 323 m -29 Y s 2041 351 m -57 Y s
 gsave  2268 2450 0 0 C 248 205 t 0 r /Helvetica-Bold findfont 84.7136 sf 0 0 m (0) show NC gr 
 gsave  2268 2450 0 0 C 427 205 t 0 r /Helvetica-Bold findfont 84.7136 sf 0 0 m (1) show NC gr 
 gsave  2268 2450 0 0 C 603 205 t 0 r /Helvetica-Bold findfont 84.7136 sf 0 0 m (2) show NC gr 
 gsave  2268 2450 0 0 C 779 205 t 0 r /Helvetica-Bold findfont 84.7136 sf 0 0 m (3) show NC gr 
 gsave  2268 2450 0 0 C 955 205 t 0 r /Helvetica-Bold findfont 84.7136 sf 0 0 m (4) show NC gr 
 gsave  2268 2450 0 0 C 1131 205 t 0 r /Helvetica-Bold findfont 84.7136 sf 0 0 m (5) show NC gr 
 gsave  2268 2450 0 0 C 1310 205 t 0 r /Helvetica-Bold findfont 84.7136 sf 0 0 m (6) show NC gr 
 gsave  2268 2450 0 0 C 1486 205 t 0 r /Helvetica-Bold findfont 84.7136 sf 0 0 m (7) show NC gr 
 gsave  2268 2450 0 0 C 1662 205 t 0 r /Helvetica-Bold findfont 84.7136 sf 0 0 m (8) show NC gr 
 gsave  2268 2450 0 0 C 1841 205 t 0 r /Helvetica-Bold findfont 84.7136 sf 0 0 m (9) show NC gr 
 gsave  2268 2450 0 0 C 1994 205 t 0 r /Helvetica-Bold findfont 84.7136 sf 0 0 m (10) show NC gr  272 294 m 1911 Y s
 gsave  2268 2450 0 0 C 98 1854 t 90 r /Helvetica-Bold findfont 84.7136 sf 0 0 m (N events) show NC gr  325 294 m -53 X s 299 365 m -27 X s 299 436 m -27 X s 299 506 m -27 X s 299 577 m -27 X s 325 648 m -53 X s 299 719 m -27 X s 299 790 m -27 X s
 299 861 m -27 X s 299 931 m -27 X s 325 1002 m -53 X s 299 1073 m -27 X s 299 1144 m -27 X s 299 1215 m -27 X s 299 1286 m -27 X s 325 1356 m -53 X s 299 1427 m -27 X s 299 1498 m -27 X s 299 1569 m -27 X s 299 1640 m -27 X s 325 1710 m -53 X s 299
 1781 m -27 X s 299 1852 m -27 X s 299 1923 m -27 X s 299 1994 m -27 X s 325 2065 m -53 X s 325 2065 m -53 X s 299 2135 m -27 X s
 gsave  2268 2450 0 0 C 215 264 t 0 r /Helvetica-Bold findfont 84.7136 sf 0 0 m (0) show NC gr 
 gsave  2268 2450 0 0 C 121 616 t 0 r /Helvetica-Bold findfont 84.7136 sf 0 0 m (100) show NC gr 
 gsave  2268 2450 0 0 C 121 971 t 0 r /Helvetica-Bold findfont 84.7136 sf 0 0 m (200) show NC gr 
 gsave  2268 2450 0 0 C 121 1326 t 0 r /Helvetica-Bold findfont 84.7136 sf 0 0 m (300) show NC gr 
 gsave  2268 2450 0 0 C 121 1678 t 0 r /Helvetica-Bold findfont 84.7136 sf 0 0 m (400) show NC gr 
 gsave  2268 2450 0 0 C 121 2033 t 0 r /Helvetica-Bold findfont 84.7136 sf 0 0 m (500) show NC gr 
 gr  gr 
showpage
end
%%EOF
