%!PS-Adobe-2.0 EPSF-2.0
%%BoundingBox:  0 0 567 613
%%Title: ./limitwr.eps: limitwr
%%Creator: ROOT Version 5.26/00b
%%CreationDate: Wed Mar 24 21:29:11 2010
%%EndComments
%%BeginProlog
80 dict begin
/s {stroke} def /l {lineto} def /m {moveto} def /t {translate} def
/sw {stringwidth} def /r {rotate} def /rl {roll}  def /R {repeat} def
/d {rlineto} def /rm {rmoveto} def /gr {grestore} def /f {eofill} def
/c {setrgbcolor} def /black {0 setgray} def /sd {setdash} def
/cl {closepath} def /sf {scalefont setfont} def /lw {setlinewidth} def
/box {m dup 0 exch d exch 0 d 0 exch neg d cl} def
/NC{systemdict begin initclip end}def/C{NC box clip newpath}def
/bl {box s} def /bf {box f} def /Y { 0 exch d} def /X { 0 d} def 
/mp {newpath /y exch def /x exch def} def
/side {[w .77 mul w .23 mul] .385 w mul sd w 0 l currentpoint t -144 r} def
/mr {mp x y w2 0 360 arc} def /m24 {mr s} def /m20 {mr f} def
/mb {mp x y w2 add m w2 neg 0 d 0 w neg d w 0 d 0 w d cl} def
/mt {mp x y w2 add m w2 neg w neg d w 0 d cl} def
/m21 {mb f} def /m25 {mb s} def /m22 {mt f} def /m26{mt s} def
/m23 {mp x y w2 sub m w2 w d w neg 0 d cl f} def
/m27 {mp x y w2 add m w3 neg w2 neg d w3 w2 neg d w3 w2 d cl s} def
/m28 {mp x w2 sub y w2 sub w3 add m w3 0 d  0 w3 neg d w3 0 d 0 w3 d w3 0 d  0 w3 d w3 neg 0 d 0 w3 d w3 neg 0 d
 0 w3 neg d w3 neg 0 d cl s } def
/m29 {mp gsave x w2 sub y w2 add w3 sub m currentpoint t
 4 {side} repeat cl fill gr} def
/m30 {mp gsave x w2 sub y w2 add w3 sub m currentpoint t
 4 {side} repeat cl s gr} def
/m31 {mp x y w2 sub m 0 w d x w2 sub y m w 0 d x w2 sub y w2 add m w w neg d x w2 sub y w2
 sub m w w d s} def
/m2 {mp x y w2 sub m 0 w d x w2 sub y m w 0 d s} def
/m5 {mp x w2 sub y w2 sub m w w d x w2 sub y w2 add m w w neg d s} def
/reEncode {exch findfont dup length dict begin {1 index /FID eq  {pop pop} {def} ifelse } forall /Encoding exch def currentdict end dup /FontName get exch definefont pop } def [/Times-Bold /Times-Italic /Times-BoldItalic /Helvetica
 /Helvetica-Oblique /Helvetica-Bold /Helvetica-BoldOblique /Courier /Courier-Oblique /Courier-Bold /Courier-BoldOblique /Times-Roman /AvantGarde-Book /AvantGarde-BookOblique /AvantGarde-Demi /AvantGarde-DemiOblique /Bookman-Demi
 /Bookman-DemiItalic /Bookman-Light /Bookman-LightItalic /Helvetica-Narrow /Helvetica-Narrow-Bold /Helvetica-Narrow-BoldOblique /Helvetica-Narrow-Oblique /NewCenturySchlbk-Roman /NewCenturySchlbk-Bold
 /NewCenturySchlbk-BoldItalic /NewCenturySchlbk-Italic /Palatino-Bold /Palatino-BoldItalic /Palatino-Italic /Palatino-Roman ] {ISOLatin1Encoding reEncode } forall
/oshow {gsave [] 0 sd true charpath stroke gr} def
/stwn { /fs exch def /fn exch def /text exch def fn findfont fs sf
 text sw pop xs add /xs exch def} def
/stwb { /fs exch def /fn exch def /nbas exch def /textf exch deftextf length /tlen exch def nbas tlen gt {/nbas tlendef} iffn findfont fs sf textf dup length nbas sub nbas getinterval sw
pop neg xs add /xs exch def} def
%%EndProlog
%%BeginSetup
%%EndSetup
newpath  gsave  .25 .25 scale  gsave  0 0 t black[  ] 0 sd 3 lw 0.95 0.95 0.95 c 2268 2450 0 0 bf 1 1 1 c 0 0 m 8 8 d 2434 Y 2252 X 8 8 d -2268 X -2450 Y f 0.665 0.665 0.665 c 0 0 m 8 8 d 2252 X 2434 Y 8 8 d -2450 Y -2268 X f black 1 1 1 c 2268 2450
 0 0 bf 0 0 m 8 8 d 2434 Y 2252 X 8 8 d -2268 X -2450 Y f 0 0 m 8 8 d 2252 X 2434 Y 8 8 d -2450 Y -2268 X f black 1 1 1 c 1723 1960 431 245 bf 431 245 m 4 4 d 1952 Y 1715 X 4 4 d -1723 X -1960 Y f 1 7.94729e-08 0 c 431 245 m 4 4 d 1715 X 1952 Y 4 4
 d -1960 Y -1723 X f black 1723 1960 431 245 bl 1 1 1 c 1723 1960 431 245 bf 431 245 m 4 4 d 1952 Y 1715 X 4 4 d -1723 X -1960 Y f 1 7.94729e-08 0 c 431 245 m 4 4 d 1715 X 1952 Y 4 4 d -1960 Y -1723 X f black 1723 1960 431 245 bl 431 245 m 1723 X s
 gsave  2268 2450 0 0 C 1935 81 t 0 r /Helvetica-Bold findfont 84.7136 sf 0 0 m (, GeV) show NC gr 
 gsave  2268 2450 0 0 C 1906 36 t 0 r /Helvetica-Bold findfont 39.0986 sf 0 0 m (R) show NC gr 
 gsave  2268 2450 0 0 C 1851 55 t 0 r /Helvetica-Bold findfont 55.3896 sf 0 0 m (W) show NC gr 
 gsave  2268 2450 0 0 C 1786 81 t 0 r /Helvetica-Bold findfont 84.7136 sf 0 0 m (M) show NC gr  431 301 m -56 Y s 517 273 m -28 Y s 603 273 m -28 Y s 689 273 m -28 Y s 776 273 m -28 Y s 862 301 m -56 Y s 948 273 m -28 Y s 1034 273 m -28 Y s 1120 273
 m -28 Y s 1206 273 m -28 Y s 1293 301 m -56 Y s 1379 273 m -28 Y s 1465 273 m -28 Y s 1551 273 m -28 Y s 1637 273 m -28 Y s 1723 301 m -56 Y s 1810 273 m -28 Y s 1896 273 m -28 Y s 1982 273 m -28 Y s 2068 273 m -28 Y s 2154 301 m -56 Y s
 gsave  2268 2450 0 0 C 336 156 t 0 r /Helvetica-Bold findfont 84.7136 sf 0 0 m (1000) show NC gr 
 gsave  2268 2450 0 0 C 766 156 t 0 r /Helvetica-Bold findfont 84.7136 sf 0 0 m (1500) show NC gr 
 gsave  2268 2450 0 0 C 1196 156 t 0 r /Helvetica-Bold findfont 84.7136 sf 0 0 m (2000) show NC gr 
 gsave  2268 2450 0 0 C 1626 156 t 0 r /Helvetica-Bold findfont 84.7136 sf 0 0 m (2500) show NC gr 
 gsave  2268 2450 0 0 C 2059 156 t 0 r /Helvetica-Bold findfont 84.7136 sf 0 0 m (3000) show NC gr  431 245 m 1960 Y s
 gsave  2268 2450 0 0 C 179 1988 t 90 r /Helvetica-Bold findfont 84.7136 sf 0 0 m (, GeV) show NC gr 
 gsave  2268 2450 0 0 C 225 1978 t 90 r /Helvetica-Bold findfont 39.0986 sf 0 0 m (l) show NC gr 
 gsave  2268 2450 0 0 C 205 1942 t 90 r /Helvetica-Bold findfont 55.3896 sf 0 0 m (N) show NC gr 
 gsave  2268 2450 0 0 C 179 1877 t 90 r /Helvetica-Bold findfont 84.7136 sf 0 0 m (M) show NC gr  485 245 m -54 X s 458 318 m -27 X s 458 390 m -27 X s 458 463 m -27 X s 458 535 m -27 X s 485 608 m -54 X s 458 681 m -27 X s 458 753 m -27 X s 458 826
 m -27 X s 458 898 m -27 X s 485 971 m -54 X s 458 1044 m -27 X s 458 1116 m -27 X s 458 1189 m -27 X s 458 1261 m -27 X s 485 1334 m -54 X s 458 1407 m -27 X s 458 1479 m -27 X s 458 1552 m -27 X s 458 1624 m -27 X s 485 1697 m -54 X s 458 1770 m
 -27 X s 458 1842 m -27 X s 458 1915 m -27 X s 458 1987 m -27 X s 485 2060 m -54 X s 485 2060 m -54 X s 458 2133 m -27 X s
 gsave  2268 2450 0 0 C 371 215 t 0 r /Helvetica-Bold findfont 84.7136 sf 0 0 m (0) show NC gr 
 gsave  2268 2450 0 0 C 277 577 t 0 r /Helvetica-Bold findfont 84.7136 sf 0 0 m (500) show NC gr 
 gsave  2268 2450 0 0 C 231 942 t 0 r /Helvetica-Bold findfont 84.7136 sf 0 0 m (1000) show NC gr 
 gsave  2268 2450 0 0 C 231 1303 t 0 r /Helvetica-Bold findfont 84.7136 sf 0 0 m (1500) show NC gr 
 gsave  2268 2450 0 0 C 231 1665 t 0 r /Helvetica-Bold findfont 84.7136 sf 0 0 m (2000) show NC gr 
 gsave  2268 2450 0 0 C 231 2030 t 0 r /Helvetica-Bold findfont 84.7136 sf 0 0 m (2500) show NC gr  0.8 0.8 0.8 c
 gsave  2268 2450 0 0 C 1197 1162 t 45 r  -833 0 t /Helvetica-Bold findfont 211.784 sf 0 0 m (CMS preliminary) show NC gr  black 6 lw 431 971 m 1465 1234 d s
 gsave  2268 2450 0 0 C 603 2062 t 0 r /Helvetica-Bold findfont 84.7136 sf 0 0 m (Virtual N ) show NC gr 
 gsave  2268 2450 0 0 C 932 1802 t 0 r /Helvetica-Bold findfont 39.0986 sf 0 0 m (R) show NC gr 
 gsave  2268 2450 0 0 C 876 1821 t 0 r /Helvetica-Bold findfont 55.3896 sf 0 0 m (W) show NC gr 
 gsave  2268 2450 0 0 C 714 1844 t 0 r /Helvetica-Bold findfont 84.7136 sf 0 0 m ( > M) show NC gr 
 gsave  2268 2450 0 0 C 704 1802 t 0 r /Helvetica-Bold findfont 39.0986 sf 0 0 m (l) show NC gr 
 gsave  2268 2450 0 0 C 668 1821 t 0 r /Helvetica-Bold findfont 55.3896 sf 0 0 m (N) show NC gr 
 gsave  2268 2450 0 0 C 603 1844 t 0 r /Helvetica-Bold findfont 84.7136 sf 0 0 m (M) show NC gr  431 401 m 1837 X s
 gsave  2268 2450 0 0 C 1636 326 t 0 r /Helvetica-Bold findfont 52.1314 sf 0 0 m (Excluded by L3 \(LEP\)) show NC gr  0 1 0 c black 0 1 0 c 432 354 m 27 3 d 34 5 d 30 6 d 30 7 d 28 8 d 22 7 d 42 15 d 29 11 d 20 10 d 16 8 d 16 10 d 6 4 d 42 31 d 25
 19 d 20 18 d 18 16 d 14 15 d 11 14 d 10 13 d 7 12 d 6 12 d 3 11 d 3 11 d 1 9 d -1 8 d -2 11 d -3 9 d -4 8 d -6 9 d -6 7 d -7 7 d -10 8 d -13 8 d -21 13 d -19 10 d -20 9 d -19 8 d -18 6 d -18 5 d -16 3 d -16 2 d -4 X -13 1 d -18 -1 d -22 -2 d -33 -5
 d -27 -5 d -24 -6 d -25 -7 d -25 -8 d -25 -10 d -22 -10 d -23 -12 d s
 gr  gr 
showpage
end
%%EOF
