%!PS-Adobe-2.0 EPSF-2.0
%%BoundingBox:  0 0 567 406
%%Title: fit-data=dstsign1500-mu.d-samples=1000-2D-limit.eps: fit-data=dstsign1500-mu.d-samples=1000-2D
%%Creator: ROOT Version 5.20/00
%%CreationDate: Mon Sep 01 22:55:48 2008
%%EndComments
%%BeginProlog
80 dict begin
/s {stroke} def /l {lineto} def /m {moveto} def /t {translate} def
/sw {stringwidth} def /r {rotate} def /rl {roll}  def /R {repeat} def
/d {rlineto} def /rm {rmoveto} def /gr {grestore} def /f {eofill} def
/c {setrgbcolor} def /black {0 setgray} def /sd {setdash} def
/cl {closepath} def /sf {scalefont setfont} def /lw {setlinewidth} def
/box {m dup 0 exch d exch 0 d 0 exch neg d cl} def
/NC{systemdict begin initclip end}def/C{NC box clip newpath}def
/bl {box s} def /bf {box f} def /Y { 0 exch d} def /X { 0 d} def 
/mp {newpath /y exch def /x exch def} def
/side {[w .77 mul w .23 mul] .385 w mul sd w 0 l currentpoint t -144 r} def
/mr {mp x y w2 0 360 arc} def /m24 {mr s} def /m20 {mr f} def
/mb {mp x y w2 add m w2 neg 0 d 0 w neg d w 0 d 0 w d cl} def
/mt {mp x y w2 add m w2 neg w neg d w 0 d cl} def
/m21 {mb f} def /m25 {mb s} def /m22 {mt f} def /m26{mt s} def
/m23 {mp x y w2 sub m w2 w d w neg 0 d cl f} def
/m27 {mp x y w2 add m w3 neg w2 neg d w3 w2 neg d w3 w2 d cl s} def
/m28 {mp x w2 sub y w2 sub w3 add m w3 0 d  0 w3 neg d w3 0 d 0 w3 d w3 0 d  0 w3 d w3 neg 0 d 0 w3 d w3 neg 0 d
 0 w3 neg d w3 neg 0 d cl s } def
/m29 {mp gsave x w2 sub y w2 add w3 sub m currentpoint t
 4 {side} repeat cl fill gr} def
/m30 {mp gsave x w2 sub y w2 add w3 sub m currentpoint t
 4 {side} repeat cl s gr} def
/m31 {mp x y w2 sub m 0 w d x w2 sub y m w 0 d x w2 sub y w2 add m w w neg d x w2 sub y w2
 sub m w w d s} def
/m2 {mp x y w2 sub m 0 w d x w2 sub y m w 0 d s} def
/m5 {mp x w2 sub y w2 sub m w w d x w2 sub y w2 add m w w neg d s} def
/reEncode {exch findfont dup length dict begin {1 index /FID eq  {pop pop} {def} ifelse } forall /Encoding exch def currentdict end dup /FontName get exch definefont pop } def [/Times-Bold /Times-Italic /Times-BoldItalic /Helvetica
 /Helvetica-Oblique /Helvetica-Bold /Helvetica-BoldOblique /Courier /Courier-Oblique /Courier-Bold /Courier-BoldOblique /Times-Roman /AvantGarde-Book /AvantGarde-BookOblique /AvantGarde-Demi /AvantGarde-DemiOblique /Bookman-Demi
 /Bookman-DemiItalic /Bookman-Light /Bookman-LightItalic /Helvetica-Narrow /Helvetica-Narrow-Bold /Helvetica-Narrow-BoldOblique /Helvetica-Narrow-Oblique /NewCenturySchlbk-Roman /NewCenturySchlbk-Bold
 /NewCenturySchlbk-BoldItalic /NewCenturySchlbk-Italic /Palatino-Bold /Palatino-BoldItalic /Palatino-Italic /Palatino-Roman ] {ISOLatin1Encoding reEncode } forall
/oshow {gsave [] 0 sd true charpath stroke gr} def
/stwn { /fs exch def /fn exch def /text exch def fn findfont fs sf
 text sw pop xs add /xs exch def} def
/stwb { /fs exch def /fn exch def /nbas exch def /textf exch deftextf length /tlen exch def nbas tlen gt {/nbas tlendef} iffn findfont fs sf textf dup length nbas sub nbas getinterval sw
pop neg xs add /xs exch def} def
%%EndProlog
%%BeginSetup
%%EndSetup
newpath  gsave  .25 .25 scale  gsave  0 0 t black[  ] 0 sd 3 lw 0.999 0.999 0.999 c 2268 1625 0 0 bf 1 1 1 c 0 0 m 8 8 d 1609 Y 2252 X 8 8 d -2268 X -1625 Y f 0.999 0.999 0.999 c 0 0 m 8 8 d 2252 X 1609 Y 8 8 d -1625 Y -2268 X f black 0.999 0.999
 0.999 c 1814 1300 227 163 bf 1 1 1 c 227 163 m 4 4 d 1292 Y 1806 X 4 4 d -1814 X -1300 Y f 0.999 0.999 0.999 c 227 163 m 4 4 d 1806 X 1292 Y 4 4 d -1300 Y -1814 X f black 1814 1300 227 163 bl 1 1 1 c black 227 1112 m 90 X 289 Y 91 X -555 Y 91 X -35
 Y 91 X -307 Y 90 X -159 Y 91 X -63 Y 91 X -62 Y 90 X -22 Y 182 X -13 Y 91 X -5 Y 90 X -13 Y 182 X 9 Y 90 X -9 Y 91 X 4 Y 91 X -4 Y 91 X 9 Y 90 X -9 Y 91 X s 0.95 0.95 0.95 c 453 260 1769 1357 bf black 1778 1357 m -6 Y 450 X 257 Y -6 X -251 Y f 1769
 1357 m 260 Y 453 X -260 Y -453 X cl s 1 1 1 c black
 gsave  2268 1625 0 0 C 1915 1563 t 0 r /Helvetica-Bold findfont 56.7676 sf 0 0 m (hlimit) show NC gr  1769 1552 m 453 X s
 gsave  2268 1625 0 0 C 1790 1497 t 0 r /Helvetica-Bold findfont 56.7676 sf 0 0 m (Entries ) show NC gr 
 gsave  2268 1625 0 0 C 2059 1497 t 0 r /Helvetica-Bold findfont 56.7676 sf 0 0 m ( 1000) show NC gr 
 gsave  2268 1625 0 0 C 1790 1431 t 0 r /Helvetica-Bold findfont 56.7676 sf 0 0 m (Mean  ) show NC gr 
 gsave  2268 1625 0 0 C 2011 1431 t 0 r /Helvetica-Bold findfont 56.7676 sf 0 0 m ( 0.1383) show NC gr 
 gsave  2268 1625 0 0 C 1790 1368 t 0 r /Helvetica-Bold findfont 56.7676 sf 0 0 m (RMS   ) show NC gr 
 gsave  2268 1625 0 0 C 2011 1368 t 0 r /Helvetica-Bold findfont 56.7676 sf 0 0 m ( 0.1256) show NC gr  227 163 m 1814 X s 227 202 m -39 Y s 263 182 m -19 Y s 299 182 m -19 Y s 336 182 m -19 Y s 372 182 m -19 Y s 408 202 m -39 Y s 444 182 m -19 Y s
 481 182 m -19 Y s 517 182 m -19 Y s 553 182 m -19 Y s 590 202 m -39 Y s 626 182 m -19 Y s 662 182 m -19 Y s 698 182 m -19 Y s 735 182 m -19 Y s 771 202 m -39 Y s 807 182 m -19 Y s 844 182 m -19 Y s 880 182 m -19 Y s 916 182 m -19 Y s 952 202 m -39
 Y s 989 182 m -19 Y s 1025 182 m -19 Y s 1061 182 m -19 Y s 1098 182 m -19 Y s 1134 202 m -39 Y s 1170 182 m -19 Y s 1206 182 m -19 Y s 1243 182 m -19 Y s 1279 182 m -19 Y s 1315 202 m -39 Y s 1352 182 m -19 Y s 1388 182 m -19 Y s 1424 182 m -19 Y
 s 1460 182 m -19 Y s 1497 202 m -39 Y s 1533 182 m -19 Y s 1569 182 m -19 Y s 1606 182 m -19 Y s 1642 182 m -19 Y s 1678 202 m -39 Y s 1714 182 m -19 Y s 1751 182 m -19 Y s 1787 182 m -19 Y s 1823 182 m -19 Y s 1860 202 m -39 Y s 1896 182 m -19 Y s
 1932 182 m -19 Y s 1968 182 m -19 Y s 2005 182 m -19 Y s 2041 202 m -39 Y s
 gsave  2268 1625 0 0 C 206 105 t 0 r /Helvetica-Bold findfont 59.7554 sf 0 0 m (0) show NC gr 
 gsave  2268 1625 0 0 C 367 105 t 0 r /Helvetica-Bold findfont 59.7554 sf 0 0 m (0.1) show NC gr 
 gsave  2268 1625 0 0 C 547 105 t 0 r /Helvetica-Bold findfont 59.7554 sf 0 0 m (0.2) show NC gr 
 gsave  2268 1625 0 0 C 729 105 t 0 r /Helvetica-Bold findfont 59.7554 sf 0 0 m (0.3) show NC gr 
 gsave  2268 1625 0 0 C 908 105 t 0 r /Helvetica-Bold findfont 59.7554 sf 0 0 m (0.4) show NC gr 
 gsave  2268 1625 0 0 C 1091 105 t 0 r /Helvetica-Bold findfont 59.7554 sf 0 0 m (0.5) show NC gr 
 gsave  2268 1625 0 0 C 1273 105 t 0 r /Helvetica-Bold findfont 59.7554 sf 0 0 m (0.6) show NC gr 
 gsave  2268 1625 0 0 C 1452 105 t 0 r /Helvetica-Bold findfont 59.7554 sf 0 0 m (0.7) show NC gr 
 gsave  2268 1625 0 0 C 1634 105 t 0 r /Helvetica-Bold findfont 59.7554 sf 0 0 m (0.8) show NC gr 
 gsave  2268 1625 0 0 C 1817 105 t 0 r /Helvetica-Bold findfont 59.7554 sf 0 0 m (0.9) show NC gr 
 gsave  2268 1625 0 0 C 2029 105 t 0 r /Helvetica-Bold findfont 59.7554 sf 0 0 m (1) show NC gr  227 163 m 1300 Y s 281 163 m -54 X s 254 207 m -27 X s 254 251 m -27 X s 254 296 m -27 X s 254 340 m -27 X s 281 384 m -54 X s 254 429 m -27 X s 254 473
 m -27 X s 254 518 m -27 X s 254 562 m -27 X s 281 606 m -54 X s 254 651 m -27 X s 254 695 m -27 X s 254 740 m -27 X s 254 784 m -27 X s 281 828 m -54 X s 254 873 m -27 X s 254 917 m -27 X s 254 961 m -27 X s 254 1006 m -27 X s 281 1050 m -54 X s
 254 1095 m -27 X s 254 1139 m -27 X s 254 1183 m -27 X s 254 1228 m -27 X s 281 1272 m -54 X s 281 1272 m -54 X s 254 1317 m -27 X s 254 1361 m -27 X s 254 1405 m -27 X s 254 1450 m -27 X s
 gsave  2268 1625 0 0 C 182 137 t 0 r /Helvetica-Bold findfont 59.7554 sf 0 0 m (0) show NC gr 
 gsave  2268 1625 0 0 C 149 359 t 0 r /Helvetica-Bold findfont 59.7554 sf 0 0 m (50) show NC gr 
 gsave  2268 1625 0 0 C 117 580 t 0 r /Helvetica-Bold findfont 59.7554 sf 0 0 m (100) show NC gr 
 gsave  2268 1625 0 0 C 117 804 t 0 r /Helvetica-Bold findfont 59.7554 sf 0 0 m (150) show NC gr 
 gsave  2268 1625 0 0 C 117 1025 t 0 r /Helvetica-Bold findfont 59.7554 sf 0 0 m (200) show NC gr 
 gsave  2268 1625 0 0 C 117 1246 t 0 r /Helvetica-Bold findfont 59.7554 sf 0 0 m (250) show NC gr  0.95 0.95 0.95 c 224 81 23 1536 bf black 32 1536 m -6 Y 221 X 78 Y -6 X -72 Y f 23 1536 m 81 Y 224 X -81 Y -224 X cl s 1 1 1 c black
 gsave  2268 1625 0 0 C 54 1548 t 0 r /Helvetica-Bold findfont 65.7309 sf 0 0 m (Limit) show NC gr  0.95 0.95 0.95 c 453 260 1769 1357 bf black 1778 1357 m -6 Y 450 X 257 Y -6 X -251 Y f 1769 1357 m 260 Y 453 X -260 Y -453 X cl s 1 1 1 c black
 gsave  2268 1625 0 0 C 1915 1563 t 0 r /Helvetica-Bold findfont 56.7676 sf 0 0 m (hlimit) show NC gr  1769 1552 m 453 X s
 gsave  2268 1625 0 0 C 1790 1497 t 0 r /Helvetica-Bold findfont 56.7676 sf 0 0 m (Entries ) show NC gr 
 gsave  2268 1625 0 0 C 2059 1497 t 0 r /Helvetica-Bold findfont 56.7676 sf 0 0 m ( 1000) show NC gr 
 gsave  2268 1625 0 0 C 1790 1431 t 0 r /Helvetica-Bold findfont 56.7676 sf 0 0 m (Mean  ) show NC gr 
 gsave  2268 1625 0 0 C 2011 1431 t 0 r /Helvetica-Bold findfont 56.7676 sf 0 0 m ( 0.1383) show NC gr 
 gsave  2268 1625 0 0 C 1790 1368 t 0 r /Helvetica-Bold findfont 56.7676 sf 0 0 m (RMS   ) show NC gr 
 gsave  2268 1625 0 0 C 2011 1368 t 0 r /Helvetica-Bold findfont 56.7676 sf 0 0 m ( 0.1256) show NC gr  0.95 0.95 0.95 c 224 81 23 1536 bf black 32 1536 m -6 Y 221 X 78 Y -6 X -72 Y f 23 1536 m 81 Y 224 X -81 Y -224 X cl s 1 1 1 c black
 gsave  2268 1625 0 0 C 54 1548 t 0 r /Helvetica-Bold findfont 65.7309 sf 0 0 m (Limit) show NC gr 
 gr  gr 
showpage
end
%%EOF
