%!PS-Adobe-2.0 EPSF-2.0
%%BoundingBox:  0 0 567 613
%%Title: ./mzcut.eps:  
%%Creator: ROOT Version 5.26/00b
%%CreationDate: Fri Apr 30 09:51:30 2010
%%EndComments
%%BeginProlog
80 dict begin
/s {stroke} def /l {lineto} def /m {moveto} def /t {translate} def
/sw {stringwidth} def /r {rotate} def /rl {roll}  def /R {repeat} def
/d {rlineto} def /rm {rmoveto} def /gr {grestore} def /f {eofill} def
/c {setrgbcolor} def /black {0 setgray} def /sd {setdash} def
/cl {closepath} def /sf {scalefont setfont} def /lw {setlinewidth} def
/box {m dup 0 exch d exch 0 d 0 exch neg d cl} def
/NC{systemdict begin initclip end}def/C{NC box clip newpath}def
/bl {box s} def /bf {box f} def /Y { 0 exch d} def /X { 0 d} def 
/mp {newpath /y exch def /x exch def} def
/side {[w .77 mul w .23 mul] .385 w mul sd w 0 l currentpoint t -144 r} def
/mr {mp x y w2 0 360 arc} def /m24 {mr s} def /m20 {mr f} def
/mb {mp x y w2 add m w2 neg 0 d 0 w neg d w 0 d 0 w d cl} def
/mt {mp x y w2 add m w2 neg w neg d w 0 d cl} def
/m21 {mb f} def /m25 {mb s} def /m22 {mt f} def /m26{mt s} def
/m23 {mp x y w2 sub m w2 w d w neg 0 d cl f} def
/m27 {mp x y w2 add m w3 neg w2 neg d w3 w2 neg d w3 w2 d cl s} def
/m28 {mp x w2 sub y w2 sub w3 add m w3 0 d  0 w3 neg d w3 0 d 0 w3 d w3 0 d  0 w3 d w3 neg 0 d 0 w3 d w3 neg 0 d
 0 w3 neg d w3 neg 0 d cl s } def
/m29 {mp gsave x w2 sub y w2 add w3 sub m currentpoint t
 4 {side} repeat cl fill gr} def
/m30 {mp gsave x w2 sub y w2 add w3 sub m currentpoint t
 4 {side} repeat cl s gr} def
/m31 {mp x y w2 sub m 0 w d x w2 sub y m w 0 d x w2 sub y w2 add m w w neg d x w2 sub y w2
 sub m w w d s} def
/m2 {mp x y w2 sub m 0 w d x w2 sub y m w 0 d s} def
/m5 {mp x w2 sub y w2 sub m w w d x w2 sub y w2 add m w w neg d s} def
/reEncode {exch findfont dup length dict begin {1 index /FID eq  {pop pop} {def} ifelse } forall /Encoding exch def currentdict end dup /FontName get exch definefont pop } def [/Times-Bold /Times-Italic /Times-BoldItalic /Helvetica
 /Helvetica-Oblique /Helvetica-Bold /Helvetica-BoldOblique /Courier /Courier-Oblique /Courier-Bold /Courier-BoldOblique /Times-Roman /AvantGarde-Book /AvantGarde-BookOblique /AvantGarde-Demi /AvantGarde-DemiOblique /Bookman-Demi
 /Bookman-DemiItalic /Bookman-Light /Bookman-LightItalic /Helvetica-Narrow /Helvetica-Narrow-Bold /Helvetica-Narrow-BoldOblique /Helvetica-Narrow-Oblique /NewCenturySchlbk-Roman /NewCenturySchlbk-Bold
 /NewCenturySchlbk-BoldItalic /NewCenturySchlbk-Italic /Palatino-Bold /Palatino-BoldItalic /Palatino-Italic /Palatino-Roman ] {ISOLatin1Encoding reEncode } forall
/oshow {gsave [] 0 sd true charpath stroke gr} def
/stwn { /fs exch def /fn exch def /text exch def fn findfont fs sf
 text sw pop xs add /xs exch def} def
/stwb { /fs exch def /fn exch def /nbas exch def /textf exch deftextf length /tlen exch def nbas tlen gt {/nbas tlendef} iffn findfont fs sf textf dup length nbas sub nbas getinterval sw
pop neg xs add /xs exch def} def
%%EndProlog
%%BeginSetup
%%EndSetup
newpath  gsave  .25 .25 scale  gsave  0 0 t black[  ] 0 sd 3 lw 0.95 0.95 0.95 c 2268 2450 0 0 bf 1 1 1 c 0 0 m 8 8 d 2434 Y 2252 X 8 8 d -2268 X -2450 Y f 0.665 0.665 0.665 c 0 0 m 8 8 d 2252 X 2434 Y 8 8 d -2450 Y -2268 X f black 1 1 1 c 2268 2450
 0 0 bf black 1 1 1 c 1769 1911 272 294 bf 272 294 m 4 4 d 1903 Y 1761 X 4 4 d -1769 X -1911 Y f 1 7.94729e-08 0 c 272 294 m 4 4 d 1761 X 1903 Y 4 4 d -1911 Y -1769 X f black 1769 1911 272 294 bl 1 1 1 c 1769 1911 272 294 bf 272 294 m 4 4 d 1903 Y
 1761 X 4 4 d -1769 X -1911 Y f 1 7.94729e-08 0 c 272 294 m 4 4 d 1761 X 1903 Y 4 4 d -1911 Y -1769 X f black 1769 1911 272 294 bl 6 lw 1 1 1 c black 272 1120 m 18 X 122 Y 18 X 143 Y 17 X 257 Y 18 X 456 Y 18 X -542 Y 17 X -211 Y 18 X -147 Y 18 X -57
 Y 17 X -80 Y 18 X -90 Y 18 X 27 Y 17 X -156 Y 18 X 12 Y 18 X -26 Y 17 X -14 Y 18 X -219 Y 18 X 86 Y 18 X 31 Y 17 X -301 Y 36 X 184 Y 17 X -184 Y 18 X 233 Y 18 X -117 Y 35 X -233 Y 71 X 117 Y 17 X -117 Y 54 X 233 Y 17 X -233 Y 1150 X s 3 lw 272 294
 m 1769 X s
 gsave  2268 2450 0 0 C 1274 65 t 0 r /Helvetica-Bold findfont 104.263 sf 0 0 m ( inv. mass, GeV) show NC gr 
 gsave  2268 2450 0 0 C 1248 121 t 0 r /Helvetica-Bold findfont 71.6807 sf 0 0 m (\255) show NC gr 
 gsave  2268 2450 0 0 C 1225 65 t 0 r /Helvetica-Bold findfont 104.263 sf 0 0 m (l) show NC gr 
 gsave  2268 2450 0 0 C 1186 114 t 0 r /Helvetica-Bold findfont 71.6807 sf 0 0 m (+) show NC gr 
 gsave  2268 2450 0 0 C 919 65 t 0 r /Helvetica-Bold findfont 104.263 sf 0 0 m (min. l) show NC gr  272 351 m -57 Y s 361 323 m -29 Y s 449 323 m -29 Y s 537 323 m -29 Y s 626 323 m -29 Y s 714 351 m -57 Y s 803 323 m -29 Y s 891 323 m -29 Y s 980
 323 m -29 Y s 1068 323 m -29 Y s 1157 351 m -57 Y s 1245 323 m -29 Y s 1333 323 m -29 Y s 1422 323 m -29 Y s 1510 323 m -29 Y s 1599 351 m -57 Y s 1687 323 m -29 Y s 1776 323 m -29 Y s 1864 323 m -29 Y s 1953 323 m -29 Y s 2041 351 m -57 Y s
 gsave  2268 2450 0 0 C 248 205 t 0 r /Helvetica-Bold findfont 84.7136 sf 0 0 m (0) show NC gr 
 gsave  2268 2450 0 0 C 642 205 t 0 r /Helvetica-Bold findfont 84.7136 sf 0 0 m (500) show NC gr 
 gsave  2268 2450 0 0 C 1059 205 t 0 r /Helvetica-Bold findfont 84.7136 sf 0 0 m (1000) show NC gr 
 gsave  2268 2450 0 0 C 1502 205 t 0 r /Helvetica-Bold findfont 84.7136 sf 0 0 m (1500) show NC gr 
 gsave  2268 2450 0 0 C 1945 205 t 0 r /Helvetica-Bold findfont 84.7136 sf 0 0 m (2000) show NC gr  272 294 m 1911 Y s
 gsave  2268 2450 0 0 C 98 1564 t 90 r /Helvetica-Bold findfont 84.7136 sf 0 0 m (N events/20GeV) show NC gr  299 294 m -27 X s 299 325 m -27 X s 299 351 m -27 X s 299 373 m -27 X s 299 393 m -27 X s 325 411 m -53 X s
 gsave  2268 2450 0 0 C 254 375 t 0 r  -36 0 t /Helvetica-Bold findfont 84.7136 sf 0 0 m (1) show NC gr  299 527 m -27 X s 299 595 m -27 X s 299 644 m -27 X s 299 681 m -27 X s 299 712 m -27 X s 299 738 m -27 X s 299 760 m -27 X s 299 780 m -27 X s
 325 798 m -53 X s
 gsave  2268 2450 0 0 C 254 762 t 0 r  -91 0 t /Helvetica-Bold findfont 84.7136 sf 0 0 m (10) show NC gr  299 914 m -27 X s 299 982 m -27 X s 299 1031 m -27 X s 299 1068 m -27 X s 299 1099 m -27 X s 299 1125 m -27 X s 299 1147 m -27 X s 299 1167 m
 -27 X s 325 1185 m -53 X s
 gsave  2268 2450 0 0 C 222 1183 t 0 r /Helvetica-Bold findfont 55.3896 sf 0 0 m (2) show NC gr 
 gsave  2268 2450 0 0 C 130 1147 t 0 r /Helvetica-Bold findfont 84.7136 sf 0 0 m (10) show NC gr  299 1301 m -27 X s 299 1369 m -27 X s 299 1418 m -27 X s 299 1455 m -27 X s 299 1486 m -27 X s 299 1512 m -27 X s 299 1534 m -27 X s 299 1554 m -27 X s
 325 1572 m -53 X s
 gsave  2268 2450 0 0 C 222 1574 t 0 r /Helvetica-Bold findfont 55.3896 sf 0 0 m (3) show NC gr 
 gsave  2268 2450 0 0 C 130 1535 t 0 r /Helvetica-Bold findfont 84.7136 sf 0 0 m (10) show NC gr  299 1688 m -27 X s 299 1756 m -27 X s 299 1805 m -27 X s 299 1842 m -27 X s 299 1873 m -27 X s 299 1899 m -27 X s 299 1921 m -27 X s 299 1941 m -27 X s
 325 1959 m -53 X s
 gsave  2268 2450 0 0 C 218 1958 t 0 r /Helvetica-Bold findfont 55.3896 sf 0 0 m (4) show NC gr 
 gsave  2268 2450 0 0 C 127 1922 t 0 r /Helvetica-Bold findfont 84.7136 sf 0 0 m (10) show NC gr  299 2075 m -27 X s 299 2143 m -27 X s 299 2192 m -27 X s 6 lw 1 1 1 c black 272 595 m 18 X 436 Y 18 X 220 Y 17 X 75 Y 18 X 35 Y 18 X 37 Y 17 X 29 Y 18
 X 5 Y 18 X 14 Y 17 X 3 Y 18 X 24 Y 18 X 5 Y 17 X 11 Y 18 X -16 Y 18 X 15 Y 17 X 19 Y 18 X -1 Y 18 X 3 Y 18 X 6 Y 17 X -6 Y 18 X 17 Y 18 X -2 Y 17 X 2 Y 18 X 4 Y 18 X -7 Y 17 X 20 Y 18 X 4 Y 18 X -2 Y 17 X -4 Y 18 X -4 Y 18 X 13 Y 35 X 2 Y 18 X -8 Y
 18 X -5 Y 17 X 3 Y 18 X 4 Y 18 X -1 Y 17 X 1 Y 18 X 3 Y 18 X -12 Y 17 X 7 Y 18 X -5 Y 18 X -9 Y 17 X 1 Y 18 X -21 Y 18 X -1 Y 17 X 1 Y 18 X -5 Y 18 X -4 Y 18 X -19 Y 17 X 3 Y 18 X -16 Y 18 X -3 Y 17 X -3 Y 18 X -31 Y 18 X -7 Y 17 X -13 Y 18 X -37 Y
 35 X -28 Y 18 X -24 Y 18 X -30 Y 17 X -5 Y 18 X -70 Y 18 X -46 Y 18 X -82 Y 17 X -108 Y 18 X -68 Y 18 X -72 Y 35 X -62 Y 18 X -253 Y 17 X 233 Y 18 X -233 Y 18 X 68 Y 17 X -68 Y 18 X -116 Y 18 X 116 Y 17 X -116 Y 18 X -117 Y 18 X 117 Y 35 X 116 Y 18
 X -116 Y 18 X -117 Y 53 X 117 Y 17 X 116 Y 18 X -233 Y 35 X 117 Y 18 X -117 Y 18 X 117 Y 18 X -117 Y 17 X 117 Y 18 X -117 Y 53 X s
 gsave  2268 2450 0 0 C 489 1961 t 0 r /Helvetica-Bold findfont 104.263 sf 0 0 m ( Z + jets) show NC gr 
 gsave  2268 2450 0 0 C 459 2023 t 0 r /Helvetica-Bold findfont 71.6807 sf 0 0 m (*) show NC gr 
 gsave  2268 2450 0 0 C 407 1961 t 0 r /Symbol findfont 104.263 sf 0 0 m (g) show NC gr 
 gsave  2268 2450 0 0 C 1245 1522 t 0 r /Helvetica-Bold findfont 104.263 sf 0 0 m (signal LRRP1) show NC gr 
 gsave  2268 2450 0 0 C 384 515 t 0 r /Helvetica-Bold findfont 104.263 sf 0 0 m (cut) show NC gr  446 495 m -199 Y s 496 382 m -50 -86 d -49 86 d s
 gr  gr 
showpage
end
%%EOF
