%!PS-Adobe-2.0 EPSF-2.0
%%BoundingBox:  0 0 567 362
%%Title: ./pseudoexexamples.eps:  
%%Creator: ROOT Version 5.24/00
%%CreationDate: Wed Mar  3 17:46:03 2010
%%EndComments
%%BeginProlog
80 dict begin
/s {stroke} def /l {lineto} def /m {moveto} def /t {translate} def
/sw {stringwidth} def /r {rotate} def /rl {roll}  def /R {repeat} def
/d {rlineto} def /rm {rmoveto} def /gr {grestore} def /f {eofill} def
/c {setrgbcolor} def /black {0 setgray} def /sd {setdash} def
/cl {closepath} def /sf {scalefont setfont} def /lw {setlinewidth} def
/box {m dup 0 exch d exch 0 d 0 exch neg d cl} def
/NC{systemdict begin initclip end}def/C{NC box clip newpath}def
/bl {box s} def /bf {box f} def /Y { 0 exch d} def /X { 0 d} def 
/mp {newpath /y exch def /x exch def} def
/side {[w .77 mul w .23 mul] .385 w mul sd w 0 l currentpoint t -144 r} def
/mr {mp x y w2 0 360 arc} def /m24 {mr s} def /m20 {mr f} def
/mb {mp x y w2 add m w2 neg 0 d 0 w neg d w 0 d 0 w d cl} def
/mt {mp x y w2 add m w2 neg w neg d w 0 d cl} def
/m21 {mb f} def /m25 {mb s} def /m22 {mt f} def /m26{mt s} def
/m23 {mp x y w2 sub m w2 w d w neg 0 d cl f} def
/m27 {mp x y w2 add m w3 neg w2 neg d w3 w2 neg d w3 w2 d cl s} def
/m28 {mp x w2 sub y w2 sub w3 add m w3 0 d  0 w3 neg d w3 0 d 0 w3 d w3 0 d  0 w3 d w3 neg 0 d 0 w3 d w3 neg 0 d
 0 w3 neg d w3 neg 0 d cl s } def
/m29 {mp gsave x w2 sub y w2 add w3 sub m currentpoint t
 4 {side} repeat cl fill gr} def
/m30 {mp gsave x w2 sub y w2 add w3 sub m currentpoint t
 4 {side} repeat cl s gr} def
/m31 {mp x y w2 sub m 0 w d x w2 sub y m w 0 d x w2 sub y w2 add m w w neg d x w2 sub y w2
 sub m w w d s} def
/m2 {mp x y w2 sub m 0 w d x w2 sub y m w 0 d s} def
/m5 {mp x w2 sub y w2 sub m w w d x w2 sub y w2 add m w w neg d s} def
/reEncode {exch findfont dup length dict begin {1 index /FID eq  {pop pop} {def} ifelse } forall /Encoding exch def currentdict end dup /FontName get exch definefont pop } def [/Times-Bold /Times-Italic /Times-BoldItalic /Helvetica
 /Helvetica-Oblique /Helvetica-Bold /Helvetica-BoldOblique /Courier /Courier-Oblique /Courier-Bold /Courier-BoldOblique /Times-Roman /AvantGarde-Book /AvantGarde-BookOblique /AvantGarde-Demi /AvantGarde-DemiOblique /Bookman-Demi
 /Bookman-DemiItalic /Bookman-Light /Bookman-LightItalic /Helvetica-Narrow /Helvetica-Narrow-Bold /Helvetica-Narrow-BoldOblique /Helvetica-Narrow-Oblique /NewCenturySchlbk-Roman /NewCenturySchlbk-Bold
 /NewCenturySchlbk-BoldItalic /NewCenturySchlbk-Italic /Palatino-Bold /Palatino-BoldItalic /Palatino-Italic /Palatino-Roman ] {ISOLatin1Encoding reEncode } forall
/oshow {gsave [] 0 sd true charpath stroke gr} def
/stwn { /fs exch def /fn exch def /text exch def fn findfont fs sf
 text sw pop xs add /xs exch def} def
/stwb { /fs exch def /fn exch def /nbas exch def /textf exch deftextf length /tlen exch def nbas tlen gt {/nbas tlendef} iffn findfont fs sf textf dup length nbas sub nbas getinterval sw
pop neg xs add /xs exch def} def
%%EndProlog
%%BeginSetup
%%EndSetup
newpath  gsave  .25 .25 scale  gsave  0 0 t black[  ] 0 sd 3 lw 0.95 0.95 0.95 c 2268 1448 0 0 bf 1 1 1 c 0 0 m 8 8 d 1432 Y 2252 X 8 8 d -2268 X -1448 Y f 0.665 0.665 0.665 c 0 0 m 8 8 d 2252 X 1432 Y 8 8 d -1448 Y -2268 X f black 1 1 1 c 2268 1448
 0 0 bf black 963 174 m 43 7 d s 981 194 m 25 -13 d s 938 186 m 43 8 d s 938 186 m 25 -12 d s 1006 181 m 43 7 d s 1024 201 m 25 -13 d s 981 194 m 43 7 d s 1049 188 m 43 8 d s 1067 208 m 25 -12 d s 1024 201 m 43 7 d s 1092 196 m 43 7 d s 1110 216 m
 25 -13 d s 1067 208 m 43 8 d s 1135 203 m 43 7 d s 1153 223 m 25 -13 d s 1110 216 m 43 7 d s 1178 210 m 43 7 d s 1197 230 m 24 -13 d s 1153 223 m 44 7 d s 1221 217 m 44 8 d s 1240 237 m 25 -12 d s 1197 230 m 43 7 d s 1265 225 m 43 7 d s 1283 245 m
 25 -13 d s 1240 237 m 43 8 d s 1308 232 m 43 7 d s 1326 252 m 25 -13 d s 1283 245 m 43 7 d s 1351 239 m 43 8 d s 1369 259 m 25 -12 d s 1326 252 m 43 7 d s 1394 247 m 43 7 d s 1412 267 m 25 -13 d s 1369 259 m 43 8 d s 1437 254 m 43 7 d s 1455 274 m
 25 -13 d s 1412 267 m 43 7 d s 1480 261 m 43 7 d s 1498 281 m 25 -13 d s 1455 274 m 43 7 d s 1523 268 m 44 8 d s 1542 288 m 25 -12 d s 1498 281 m 44 7 d s 1567 276 m 43 7 d s 1585 296 m 25 -13 d s 1542 288 m 43 8 d s 1610 283 m 43 7 d s 1628 303 m
 25 -13 d s 1585 296 m 43 7 d s 1653 290 m 43 8 d s 1671 310 m 25 -12 d s 1628 303 m 43 7 d s 1696 298 m 43 7 d s 1714 318 m 25 -13 d s 1671 310 m 43 8 d s 1739 305 m 43 7 d s 1757 325 m 25 -13 d s 1714 318 m 43 7 d s 1782 312 m 43 8 d s 1800 332 m
 25 -12 d s 1757 325 m 43 7 d s 1825 320 m 43 7 d s 1844 339 m 24 -12 d s 1800 332 m 44 7 d s 1868 327 m 44 7 d s 1887 347 m 25 -13 d s 1844 339 m 43 8 d s 1912 334 m 43 7 d s 1930 354 m 25 -13 d s 1887 347 m 43 7 d s 1955 341 m 43 8 d s 1973 361 m
 25 -12 d s 1930 354 m 43 7 d s 1998 349 m 43 7 d s 2016 369 m 25 -13 d s 1973 361 m 43 8 d s 956 206 m 25 -12 d s 913 199 m 43 7 d s 913 199 m 25 -13 d s 999 214 m 25 -13 d s 956 206 m 43 8 d s 1042 221 m 25 -13 d s 999 214 m 43 7 d s 1085 228 m 25
 -12 d s 1042 221 m 43 7 d s 1129 235 m 24 -12 d s 1085 228 m 44 7 d s 1172 243 m 25 -13 d s 1129 235 m 43 8 d s 1215 250 m 25 -13 d s 1172 243 m 43 7 d s 1258 257 m 25 -12 d s 1215 250 m 43 7 d s 1301 265 m 25 -13 d s 1258 257 m 43 8 d s 1344 272 m
 25 -13 d s 1301 265 m 43 7 d s 1387 279 m 25 -12 d s 1344 272 m 43 7 d s 1430 286 m 25 -12 d s 1387 279 m 43 7 d s 1474 294 m 24 -13 d s 1430 286 m 44 8 d s 1517 301 m 25 -13 d s 1474 294 m 43 7 d s 1560 308 m 25 -12 d s 1517 301 m 43 7 d s 1603
 316 m 25 -13 d s 1560 308 m 43 8 d s 1646 323 m 25 -13 d s 1603 316 m 43 7 d s 1689 330 m 25 -12 d s 1646 323 m 43 7 d s 1732 337 m 25 -12 d s 1689 330 m 43 7 d s 1775 345 m 25 -13 d s 1732 337 m 43 8 d s 1819 352 m 25 -13 d s 1775 345 m 44 7 d s
 1862 359 m 25 -12 d s 1819 352 m 43 7 d s 1905 367 m 25 -13 d s 1862 359 m 43 8 d s 1948 374 m 25 -13 d s 1905 367 m 43 7 d s 1991 381 m 25 -12 d s 1948 374 m 43 7 d s 931 219 m 25 -13 d s 888 212 m 43 7 d s 888 212 m 25 -13 d s 974 226 m 25 -12 d
 s 931 219 m 43 7 d s 1017 233 m 25 -12 d s 974 226 m 43 7 d s 1061 241 m 24 -13 d s 1017 233 m 44 8 d s 1104 248 m 25 -13 d s 1061 241 m 43 7 d s 1147 255 m 25 -12 d s 1104 248 m 43 7 d s 1190 263 m 25 -13 d s 1147 255 m 43 8 d s 1233 270 m 25 -13
 d s 1190 263 m 43 7 d s 1276 277 m 25 -12 d s 1233 270 m 43 7 d s 1319 284 m 25 -12 d s 1276 277 m 43 7 d s 1362 292 m 25 -13 d s 1319 284 m 43 8 d s 1406 299 m 24 -13 d s 1362 292 m 44 7 d s 1449 306 m 25 -12 d s 1406 299 m 43 7 d s 1492 314 m 25
 -13 d s 1449 306 m 43 8 d s 1535 321 m 25 -13 d s 1492 314 m 43 7 d s 1578 328 m 25 -12 d s 1535 321 m 43 7 d s 1621 336 m 25 -13 d s 1578 328 m 43 8 d s 1664 343 m 25 -13 d s 1621 336 m 43 7 d s 1707 350 m 25 -13 d s 1664 343 m 43 7 d s 1751 357 m
 24 -12 d s 1707 350 m 44 7 d s 1794 365 m 25 -13 d s 1751 357 m 43 8 d s 1837 372 m 25 -13 d s 1794 365 m 43 7 d s 1880 379 m 25 -12 d s 1837 372 m 43 7 d s 1923 387 m 25 -13 d s 1880 379 m 43 8 d s 1966 394 m 25 -13 d s 1923 387 m 43 7 d s 906 232
 m 25 -13 d s 863 224 m 43 8 d s 863 224 m 25 -12 d s 949 239 m 25 -13 d s 906 232 m 43 7 d s 992 246 m 25 -13 d s 949 239 m 43 7 d s 1036 253 m 25 -12 d s 992 246 m 44 7 d s 1079 261 m 25 -13 d s 1036 253 m 43 8 d s 1122 268 m 25 -13 d s 1079 261 m
 43 7 d s 1165 275 m 25 -12 d s 1122 268 m 43 7 d s 1208 283 m 25 -13 d s 1165 275 m 43 8 d s 1251 290 m 25 -13 d s 1208 283 m 43 7 d s 1294 297 m 25 -13 d s 1251 290 m 43 7 d s 1338 304 m 24 -12 d s 1294 297 m 44 7 d s 1381 312 m 25 -13 d s 1338
 304 m 43 8 d s 1424 319 m 25 -13 d s 1381 312 m 43 7 d s 1467 326 m 25 -12 d s 1424 319 m 43 7 d s 1510 334 m 25 -13 d s 1467 326 m 43 8 d s 1553 341 m 25 -13 d s 1510 334 m 43 7 d s 1596 348 m 25 -12 d s 1553 341 m 43 7 d s 1639 355 m 25 -12 d s
 1596 348 m 43 7 d s 1683 363 m 24 -13 d s 1639 355 m 44 8 d s 1726 370 m 25 -13 d s 1683 363 m 43 7 d s 1769 377 m 25 -12 d s 1726 370 m 43 7 d s 1812 385 m 25 -13 d s 1769 377 m 43 8 d s 1855 392 m 25 -13 d s 1812 385 m 43 7 d s 1898 399 m 25 -12
 d s 1855 392 m 43 7 d s 1941 406 m 25 -12 d s 1898 399 m 43 7 d s 881 244 m 25 -12 d s 838 237 m 43 7 d s 838 237 m 25 -13 d s 924 251 m 25 -12 d s 881 244 m 43 7 d s 968 259 m 24 -13 d s 924 251 m 44 8 d s 1011 266 m 25 -13 d s 968 259 m 43 7 d s
 1054 273 m 25 -12 d s 1011 266 m 43 7 d s 1097 281 m 25 -13 d s 1054 273 m 43 8 d s 1140 288 m 25 -13 d s 1097 281 m 43 7 d s 1183 295 m 25 -12 d s 1140 288 m 43 7 d s 1226 302 m 25 -12 d s 1183 295 m 43 7 d s 1269 310 m 25 -13 d s 1226 302 m 43 8
 d s 1313 317 m 25 -13 d s 1269 310 m 44 7 d s 1356 324 m 25 -12 d s 1313 317 m 43 7 d s 1399 332 m 25 -13 d s 1356 324 m 43 8 d s 1442 339 m 25 -13 d s 1399 332 m 43 7 d s 1485 346 m 25 -12 d s 1442 339 m 43 7 d s 1528 353 m 25 -12 d s 1485 346 m
 43 7 d s 1571 361 m 25 -13 d s 1528 353 m 43 8 d s 1615 368 m 24 -13 d s 1571 361 m 44 7 d s 1658 375 m 25 -12 d s 1615 368 m 43 7 d s 1701 383 m 25 -13 d s 1658 375 m 43 8 d s 1744 390 m 25 -13 d s 1701 383 m 43 7 d s 1787 397 m 25 -12 d s 1744
 390 m 43 7 d s 1830 405 m 25 -13 d s 1787 397 m 43 8 d s 1873 412 m 25 -13 d s 1830 405 m 43 7 d s 1916 419 m 25 -13 d s 1873 412 m 43 7 d s 856 257 m 25 -13 d s 813 249 m 43 8 d s 813 249 m 25 -12 d s 900 264 m 24 -13 d s 856 257 m 44 7 d s 943
 271 m 25 -12 d s 900 264 m 43 7 d s 986 279 m 25 -13 d s 943 271 m 43 8 d s 1029 286 m 25 -13 d s 986 279 m 43 7 d s 1072 293 m 25 -12 d s 1029 286 m 43 7 d s 1140 288 m 286 Y s 1097 567 m 43 7 d s 1097 281 m 286 Y s 1097 567 m s 1072 580 m 25 -13
 d s 1072 293 m 287 Y s 1115 587 m 25 -13 d s 1072 580 m 43 7 d s 1158 308 m 25 -13 d s 1139 305 m 19 3 d s 1201 315 m 25 -13 d s 1158 308 m 43 7 d s 1245 322 m 24 -12 d s 1201 315 m 44 7 d s 1288 330 m 25 -13 d s 1245 322 m 43 8 d s 1331 337 m 25
 -13 d s 1288 330 m 43 7 d s 1374 344 m 25 -12 d s 1331 337 m 43 7 d s 1417 352 m 25 -13 d s 1374 344 m 43 8 d s 1460 359 m 25 -13 d s 1417 352 m 43 7 d s 1503 366 m 25 -13 d s 1460 359 m 43 7 d s 1546 373 m 25 -12 d s 1503 366 m 43 7 d s 1590 381 m
 25 -13 d s 1546 373 m 44 8 d s 1633 388 m 25 -13 d s 1590 381 m 43 7 d s 1676 395 m 25 -12 d s 1633 388 m 43 7 d s 1719 403 m 25 -13 d s 1676 395 m 43 8 d s 1762 410 m 25 -13 d s 1719 403 m 43 7 d s 1805 417 m 25 -12 d s 1762 410 m 43 7 d s 1848
 424 m 25 -12 d s 1805 417 m 43 7 d s 1892 432 m 24 -13 d s 1848 424 m 44 8 d s 832 269 m 24 -12 d s 788 262 m 44 7 d s 788 262 m 25 -13 d s 875 277 m 25 -13 d s 832 269 m 43 8 d s 918 284 m 25 -13 d s 875 277 m 43 7 d s 961 291 m 25 -12 d s 918 284
 m 43 7 d s 1004 299 m 25 -13 d s 961 291 m 43 8 d s 1047 306 m 25 -13 d s 1004 299 m 43 7 d s 1047 306 m 27 4 d s 1140 317 m 18 -9 d s 1177 328 m 24 -13 d s 1140 322 m 37 6 d s 1220 335 m 25 -13 d s 1177 328 m 43 7 d s 1263 342 m 25 -12 d s 1220
 335 m 43 7 d s 1306 350 m 25 -13 d s 1263 342 m 43 8 d s 1349 357 m 25 -13 d s 1306 350 m 43 7 d s 1392 364 m 25 -12 d s 1349 357 m 43 7 d s 1435 371 m 25 -12 d s 1392 364 m 43 7 d s 1478 379 m 25 -13 d s 1435 371 m 43 8 d s 1522 386 m 24 -13 d s
 1478 379 m 44 7 d s 1565 393 m 25 -12 d s 1522 386 m 43 7 d s 1608 401 m 25 -13 d s 1565 393 m 43 8 d s 1651 408 m 25 -13 d s 1608 401 m 43 7 d s 1694 415 m 25 -12 d s 1651 408 m 43 7 d s 1737 422 m 25 -12 d s 1694 415 m 43 7 d s 1780 430 m 25 -13
 d s 1737 422 m 43 8 d s 1824 437 m 24 -13 d s 1780 430 m 44 7 d s 1867 444 m 25 -12 d s 1824 437 m 43 7 d s 807 282 m 25 -13 d s 763 275 m 44 7 d s 763 275 m 25 -13 d s 850 289 m 25 -12 d s 807 282 m 43 7 d s 893 297 m 25 -13 d s 850 289 m 43 8 d s
 936 304 m 25 -13 d s 893 297 m 43 7 d s 979 311 m 25 -12 d s 936 304 m 43 7 d s 1022 318 m 25 -12 d s 979 311 m 43 7 d s 1065 326 m 8 -4 d s 1022 318 m 43 8 d s 1065 326 m 8 1 d s 1152 340 m 25 -12 d s 1140 338 m 12 2 d s 1195 348 m 25 -13 d s 1152
 340 m 43 8 d s 1238 355 m 25 -13 d s 1195 348 m 43 7 d s 1281 362 m 25 -12 d s 1238 355 m 43 7 d s 1324 369 m 25 -12 d s 1281 362 m 43 7 d s 1367 377 m 25 -13 d s 1324 369 m 43 8 d s 1410 384 m 25 -13 d s 1367 377 m 43 7 d s 1454 391 m 24 -12 d s
 1410 384 m 44 7 d s 1497 399 m 25 -13 d s 1454 391 m 43 8 d s 1540 406 m 25 -13 d s 1497 399 m 43 7 d s 1583 413 m 25 -12 d s 1540 406 m 43 7 d s 1626 421 m 25 -13 d s 1583 413 m 43 8 d s 1669 428 m 25 -13 d s 1626 421 m 43 7 d s 1712 435 m 25 -13
 d s 1669 428 m 43 7 d s 1755 442 m 25 -12 d s 1712 435 m 43 7 d s 1799 450 m 25 -13 d s 1755 442 m 44 8 d s 1842 457 m 25 -13 d s 1799 450 m 43 7 d s 782 295 m 25 -13 d s 739 287 m 43 8 d s 739 287 m 24 -12 d s 825 302 m 25 -13 d s 782 295 m 43 7 d
 s 893 297 m 286 Y s 850 576 m 43 7 d s 850 289 m 287 Y s 825 588 m 25 -12 d s 825 302 m 286 Y s 868 596 m 25 -13 d s 825 588 m 43 8 d s 911 317 m 25 -13 d s 892 313 m 19 4 d s 954 324 m 25 -13 d s 911 317 m 43 7 d s 997 331 m 25 -13 d s 954 324 m
 43 7 d s 1065 326 m 572 Y s 1022 891 m 43 7 d s 1022 318 m 573 Y s 997 904 m 25 -13 d s 997 331 m 573 Y s 1040 911 m 25 -13 d s 997 904 m 43 7 d s 1067 343 m 7 1 d s 1139 347 m 13 -7 d s 1170 360 m 25 -12 d s 1139 355 m 31 5 d s 1213 368 m 25 -13 d
 s 1170 360 m 43 8 d s 1256 375 m 25 -13 d s 1213 368 m 43 7 d s 1299 382 m 25 -13 d s 1256 375 m 43 7 d s 1342 389 m 25 -12 d s 1299 382 m 43 7 d s 1386 397 m 24 -13 d s 1342 389 m 44 8 d s 1429 404 m 25 -13 d s 1386 397 m 43 7 d s 1472 411 m 25
 -12 d s 1429 404 m 43 7 d s 1515 419 m 25 -13 d s 1472 411 m 43 8 d s 1558 426 m 25 -13 d s 1515 419 m 43 7 d s 1601 433 m 25 -12 d s 1558 426 m 43 7 d s 1644 440 m 25 -12 d s 1601 433 m 43 7 d s 1687 448 m 25 -13 d s 1644 440 m 43 8 d s 1731 455 m
 24 -13 d s 1687 448 m 44 7 d s 1774 462 m 25 -12 d s 1731 455 m 43 7 d s 1817 470 m 25 -13 d s 1774 462 m 43 8 d s 757 307 m 25 -12 d s 714 300 m 43 7 d s 714 300 m 25 -13 d s 800 315 m 25 -13 d s 757 307 m 43 8 d s 800 315 m 24 4 d s 893 326 m 18
 -9 d s 929 336 m 25 -12 d s 893 330 m 36 6 d s 972 344 m 25 -13 d s 929 336 m 43 8 d s 972 344 m 24 4 d s 1066 355 m 8 -4 d s 1066 360 m 7 1 d s 1145 373 m 25 -13 d s 1140 372 m 5 1 d s 1188 380 m 25 -12 d s 1145 373 m 43 7 d s 1231 387 m 25 -12 d
 s 1188 380 m 43 7 d s 1274 395 m 25 -13 d s 1231 387 m 43 8 d s 1317 402 m 25 -13 d s 1274 395 m 43 7 d s 1361 409 m 25 -12 d s 1317 402 m 44 7 d s 1404 417 m 25 -13 d s 1361 409 m 43 8 d s 1447 424 m 25 -13 d s 1404 417 m 43 7 d s 1490 431 m 25
 -12 d s 1447 424 m 43 7 d s 1533 438 m 25 -12 d s 1490 431 m 43 7 d s 1576 446 m 25 -13 d s 1533 438 m 43 8 d s 1619 453 m 25 -13 d s 1576 446 m 43 7 d s 1663 460 m 24 -12 d s 1619 453 m 44 7 d s 1706 468 m 25 -13 d s 1663 460 m 43 8 d s 1749 475 m
 25 -13 d s 1706 468 m 43 7 d s 1792 482 m 25 -12 d s 1749 475 m 43 7 d s 732 320 m 25 -13 d s 689 313 m 43 7 d s 689 313 m 25 -13 d s 775 327 m 25 -12 d s 732 320 m 43 7 d s 818 334 m 5 -2 d s 775 327 m 43 7 d s 886 587 m 28 Y s 843 608 m 43 7 d s
 843 591 m 17 Y s 818 621 m 25 -13 d s 818 334 m 287 Y s 861 628 m 25 -13 d s 818 621 m 43 7 d s 904 349 m 25 -13 d s 892 347 m 12 2 d s 948 356 m 24 -12 d s 904 349 m 44 7 d s 1016 907 m 45 Y s 972 945 m 44 7 d s 972 344 m 601 Y s 972 945 m cl s
 948 958 m 24 -13 d s 948 356 m 602 Y s 991 965 m 25 -13 d s 948 958 m 43 7 d s 1066 376 m 6 1 d s 1140 375 m 5 -2 d s 1163 393 m 25 -13 d s 1139 389 m 24 4 d s 1206 400 m 25 -13 d s 1163 393 m 43 7 d s 1249 407 m 25 -12 d s 1206 400 m 43 7 d s 1293
 415 m 24 -13 d s 1249 407 m 44 8 d s 1336 422 m 25 -13 d s 1293 415 m 43 7 d s 1379 429 m 25 -12 d s 1336 422 m 43 7 d s 1422 437 m 25 -13 d s 1379 429 m 43 8 d s 1465 444 m 25 -13 d s 1422 437 m 43 7 d s 1508 451 m 25 -13 d s 1465 444 m 43 7 d s
 1551 458 m 25 -12 d s 1508 451 m 43 7 d s 1595 466 m 24 -13 d s 1551 458 m 44 8 d s 1638 473 m 25 -13 d s 1595 466 m 43 7 d s 1681 480 m 25 -12 d s 1638 473 m 43 7 d s 1724 488 m 25 -13 d s 1681 480 m 43 8 d s 1767 495 m 25 -13 d s 1724 488 m 43 7
 d s 707 333 m 25 -13 d s 664 325 m 43 8 d s 664 325 m 25 -12 d s 750 340 m 25 -13 d s 707 333 m 43 7 d s 793 347 m 25 -13 d s 750 340 m 43 7 d s 793 347 m 27 5 d s 893 355 m 11 -6 d s 923 369 m 25 -13 d s 893 364 m 30 5 d s 923 655 m 25 -12 d s 923
 369 m 286 Y s 923 655 m 24 4 d s 1066 384 m 6 -3 d s 1066 393 m 8 1 d s 1141 404 m 22 -11 d s 1181 413 m 25 -13 d s 1141 406 m 40 7 d s 1225 420 m 24 -13 d s 1181 413 m 44 7 d s 1268 427 m 25 -12 d s 1225 420 m 43 7 d s 1311 435 m 25 -13 d s 1268
 427 m 43 8 d s 1354 442 m 25 -13 d s 1311 435 m 43 7 d s 1397 449 m 25 -12 d s 1354 442 m 43 7 d s 1440 456 m 25 -12 d s 1397 449 m 43 7 d s 1483 464 m 25 -13 d s 1440 456 m 43 8 d s 1526 471 m 25 -13 d s 1483 464 m 43 7 d s 1570 478 m 25 -12 d s
 1526 471 m 44 7 d s 1613 486 m 25 -13 d s 1570 478 m 43 8 d s 1656 493 m 25 -13 d s 1613 486 m 43 7 d s 1699 500 m 25 -12 d s 1656 493 m 43 7 d s 1742 507 m 25 -12 d s 1699 500 m 43 7 d s 707 333 m 286 Y s 664 612 m 43 7 d s 664 325 m 287 Y s 639
 338 m 25 -13 d s 639 624 m 25 -12 d s 639 338 m 286 Y s 682 631 m 25 -12 d s 639 624 m 43 7 d s 750 340 m 286 Y s 707 619 m 43 7 d s 725 639 m 25 -13 d s 682 631 m 43 8 d s 768 360 m 25 -13 d s 750 357 m 18 3 d s 811 367 m 8 -4 d s 768 360 m 43 7 d
 s 880 619 m 29 Y s 836 641 m 44 7 d s 836 624 m 17 Y s 811 653 m 25 -12 d s 811 367 m 286 Y s 855 661 m 25 -13 d s 811 653 m 44 8 d s 898 382 m 25 -13 d s 893 381 m 5 1 d s 923 655 m cl s 898 668 m 25 -13 d s 898 382 m 286 Y s 941 675 m 7 -3 d s
 898 668 m 43 7 d s 1070 411 m 3 -2 d s 1065 410 m 5 1 d s 1070 411 m 3 X s 1157 425 m 24 -12 d s 1140 423 m 17 2 d s 1200 433 m 25 -13 d s 1157 425 m 43 8 d s 1243 440 m 25 -13 d s 1200 433 m 43 7 d s 1286 447 m 25 -12 d s 1243 440 m 43 7 d s 1329
 454 m 25 -12 d s 1286 447 m 43 7 d s 1372 462 m 25 -13 d s 1329 454 m 43 8 d s 1415 469 m 25 -13 d s 1372 462 m 43 7 d s 1458 476 m 25 -12 d s 1415 469 m 43 7 d s 1502 484 m 24 -13 d s 1458 476 m 44 8 d s 1545 491 m 25 -13 d s 1502 484 m 43 7 d s
 1588 498 m 25 -12 d s 1545 491 m 43 7 d s 1631 506 m 25 -13 d s 1588 498 m 43 8 d s 1674 513 m 25 -13 d s 1631 506 m 43 7 d s 1717 520 m 25 -13 d s 1674 513 m 43 7 d s 614 350 m 25 5 d s 614 350 m 25 -12 d s 750 369 m 18 -9 d s 787 380 m 24 -13 d s
 751 374 m 36 6 d s 787 380 m 26 4 d s 893 384 m 5 -2 d s 892 397 m 5 1 d s 1066 413 m 4 -2 d s 1067 427 m 7 1 d s 1139 434 m 18 -9 d s 1175 445 m 25 -12 d s 1139 439 m 36 6 d s 1218 453 m 25 -13 d s 1175 445 m 43 8 d s 1261 460 m 25 -13 d s 1218
 453 m 43 7 d s 1304 467 m 25 -13 d s 1261 460 m 43 7 d s 1347 474 m 25 -12 d s 1304 467 m 43 7 d s 1390 482 m 25 -13 d s 1347 474 m 43 8 d s 1434 489 m 24 -13 d s 1390 482 m 44 7 d s 1477 496 m 25 -12 d s 1434 489 m 43 7 d s 1520 504 m 25 -13 d s
 1477 496 m 43 8 d s 1563 511 m 25 -13 d s 1520 504 m 43 7 d s 1606 518 m 25 -12 d s 1563 511 m 43 7 d s 1649 525 m 25 -12 d s 1606 518 m 43 7 d s 1692 533 m 25 -13 d s 1649 525 m 43 8 d s 632 370 m 7 -3 d s 589 363 m 43 7 d s 589 363 m 25 -13 d s
 632 370 m 7 2 d s 762 392 m 25 -12 d s 750 390 m 12 2 d s 805 400 m 7 -4 d s 762 392 m 43 8 d s 805 400 m 7 1 d s 893 413 m 5 -2 d s 893 415 m 5 X s 1066 442 m 8 -4 d s 1066 444 m 7 1 d s 1150 458 m 25 -13 d s 1140 456 m 10 2 d s 1193 465 m 25 -12
 d s 1150 458 m 43 7 d s 1236 472 m 25 -12 d s 1193 465 m 43 7 d s 1279 480 m 25 -13 d s 1236 472 m 43 8 d s 1322 487 m 25 -13 d s 1279 480 m 43 7 d s 1366 494 m 24 -12 d s 1322 487 m 44 7 d s 1409 502 m 25 -13 d s 1366 494 m 43 8 d s 1452 509 m 25
 -13 d s 1409 502 m 43 7 d s 1495 516 m 25 -12 d s 1452 509 m 43 7 d s 1538 523 m 25 -12 d s 1495 516 m 43 7 d s 1581 531 m 25 -13 d s 1538 523 m 43 8 d s 1624 538 m 25 -13 d s 1581 531 m 43 7 d s 1667 545 m 25 -12 d s 1624 538 m 43 7 d s 607 383 m
 25 -13 d s 564 376 m 43 7 d s 564 376 m 25 -13 d s 607 383 m 32 5 d s 750 398 m 12 -6 d s 780 412 m 25 -12 d s 751 407 m 29 5 d s 780 412 m 32 6 d s 893 431 m 4 1 d s 1066 461 m 7 1 d s 1140 463 m 10 -5 d s 1168 478 m 25 -13 d s 1139 473 m 29 5 d s
 1211 485 m 25 -13 d s 1168 478 m 43 7 d s 1254 492 m 25 -12 d s 1211 485 m 43 7 d s 1297 500 m 25 -13 d s 1254 492 m 43 8 d s 1341 507 m 25 -13 d s 1297 500 m 44 7 d s 1384 514 m 25 -12 d s 1341 507 m 43 7 d s 1427 522 m 25 -13 d s 1384 514 m 43 8
 d s 1470 529 m 25 -13 d s 1427 522 m 43 7 d s 1513 536 m 25 -13 d s 1470 529 m 43 7 d s 1556 543 m 25 -12 d s 1513 536 m 43 7 d s 1599 551 m 25 -13 d s 1556 543 m 43 8 d s 1643 558 m 24 -13 d s 1599 551 m 44 7 d s 607 383 m 286 Y s 564 662 m 43 7 d
 s 564 376 m 286 Y s 539 388 m 25 -12 d s 539 675 m 25 -13 d s 539 388 m 287 Y s 582 682 m 25 -13 d s 539 675 m 43 7 d s 626 403 m 13 -7 d s 609 400 m 17 3 d s 626 403 m 13 2 d s 755 425 m 25 -13 d s 750 424 m 5 1 d s 798 432 m 14 -7 d s 755 425 m
 43 7 d s 798 432 m 15 3 d s 893 442 m 5 -2 d s 893 448 m 5 1 d s 1066 471 m 7 -3 d s 1067 477 m 7 2 d s 1143 490 m 25 -12 d s 1139 490 m 4 X s 1186 498 m 25 -13 d s 1143 490 m 43 8 d s 1229 505 m 25 -13 d s 1186 498 m 43 7 d s 1273 512 m 24 -12 d s
 1229 505 m 44 7 d s 1316 520 m 25 -13 d s 1273 512 m 43 8 d s 1359 527 m 25 -13 d s 1316 520 m 43 7 d s 1402 534 m 25 -12 d s 1359 527 m 43 7 d s 1445 541 m 25 -12 d s 1402 534 m 43 7 d s 1488 549 m 25 -13 d s 1445 541 m 43 8 d s 1531 556 m 25 -13
 d s 1488 549 m 43 7 d s 1574 563 m 25 -12 d s 1531 556 m 43 7 d s 1618 571 m 25 -13 d s 1574 563 m 44 8 d s 514 401 m 25 -13 d s 514 687 m 25 -12 d s 514 401 m 286 Y s 558 695 m 24 -13 d s 514 687 m 44 8 d s 608 412 m 18 -9 d s 608 417 m 31 5 d s
 750 427 m 5 -2 d s 773 445 m 25 -13 d s 751 441 m 22 4 d s 773 445 m 39 6 d s 893 465 m 5 1 d s 1066 494 m 7 1 d s 1139 493 m 4 -3 d s 1161 510 m 25 -12 d s 1140 507 m 21 3 d s 1205 518 m 24 -13 d s 1161 510 m 44 8 d s 1248 525 m 25 -13 d s 1205
 518 m 43 7 d s 1291 532 m 25 -12 d s 1248 525 m 43 7 d s 1334 539 m 25 -12 d s 1291 532 m 43 7 d s 1377 547 m 25 -13 d s 1334 539 m 43 8 d s 1420 554 m 25 -13 d s 1377 547 m 43 7 d s 1463 561 m 25 -12 d s 1420 554 m 43 7 d s 1506 569 m 25 -13 d s
 1463 561 m 43 8 d s 1550 576 m 24 -13 d s 1506 569 m 44 7 d s 1593 583 m 25 -12 d s 1550 576 m 43 7 d s 490 414 m 24 4 d s 490 414 m 24 -13 d s 644 625 m 84 Y s 601 702 m 43 7 d s 601 673 m 29 Y s 576 715 m 25 -13 d s 576 686 m 29 Y s 619 722 m 25
 -13 d s 576 715 m 43 7 d s 687 632 m 84 Y s 644 709 m 43 7 d s 662 729 m 25 -13 d s 619 722 m 43 7 d s 751 456 m 22 -11 d s 816 654 m 84 Y s 773 731 m 43 7 d s 773 445 m 286 Y s 773 731 m cl s 748 744 m 25 -13 d s 748 627 m 117 Y s 791 751 m 25 -13
 d s 748 744 m 43 7 d s 893 472 m 5 -3 d s 892 482 m 5 X s 1066 500 m 7 -3 d s 1066 511 m 7 1 d s 1139 522 m 22 -12 d s 1180 530 m 25 -12 d s 1139 523 m 41 7 d s 1223 538 m 25 -13 d s 1180 530 m 43 8 d s 1266 545 m 25 -13 d s 1223 538 m 43 7 d s
 1309 552 m 25 -13 d s 1266 545 m 43 7 d s 1352 559 m 25 -12 d s 1309 552 m 43 7 d s 1395 567 m 25 -13 d s 1352 559 m 43 8 d s 1438 574 m 25 -13 d s 1395 567 m 43 7 d s 1482 581 m 24 -12 d s 1438 574 m 44 7 d s 1525 589 m 25 -13 d s 1482 581 m 43 8
 d s 1568 596 m 25 -13 d s 1525 589 m 43 7 d s 508 434 m 5 -3 d s 465 426 m 43 8 d s 465 426 m 25 -12 d s 508 434 m 5 X s 551 727 m 25 -12 d s 551 693 m 34 Y s 594 734 m 25 -12 d s 551 727 m 43 7 d s 896 499 m 2 -1 d s 894 499 m 2 X s 896 499 m 2 1
 d s 1068 528 m 5 -2 d s 1066 528 m 2 X s 1068 528 m 5 1 d s 1155 543 m 25 -13 d s 1140 540 m 15 3 d s 1198 550 m 25 -12 d s 1155 543 m 43 7 d s 1241 557 m 25 -12 d s 1198 550 m 43 7 d s 1284 565 m 25 -13 d s 1241 557 m 43 8 d s 1327 572 m 25 -13 d
 s 1284 565 m 43 7 d s 1370 579 m 25 -12 d s 1327 572 m 43 7 d s 1414 587 m 24 -13 d s 1370 579 m 44 8 d s 1457 594 m 25 -13 d s 1414 587 m 43 7 d s 1500 601 m 25 -12 d s 1457 594 m 43 7 d s 1543 608 m 25 -12 d s 1500 601 m 43 7 d s 483 446 m 25 -12
 d s 440 439 m 43 7 d s 440 439 m 25 -13 d s 483 446 m 31 5 d s 893 500 m 3 -1 d s 893 515 m 4 1 d s 1066 530 m 2 -2 d s 1065 545 m 7 1 d s 1140 550 m 15 -7 d s 1173 563 m 25 -13 d s 1139 557 m 34 6 d s 1216 570 m 25 -13 d s 1173 563 m 43 7 d s 1259
 577 m 25 -12 d s 1216 570 m 43 7 d s 1302 585 m 25 -13 d s 1259 577 m 43 8 d s 1345 592 m 25 -13 d s 1302 585 m 43 7 d s 1389 599 m 25 -12 d s 1345 592 m 44 7 d s 1432 607 m 25 -13 d s 1389 599 m 43 8 d s 1475 614 m 25 -13 d s 1432 607 m 43 7 d s
 1518 621 m 25 -13 d s 1475 614 m 43 7 d s 458 459 m 25 -13 d s 415 451 m 43 8 d s 415 451 m 25 -12 d s 501 466 m 13 -6 d s 458 459 m 43 7 d s 501 466 m 12 2 d s 892 530 m 5 -2 d s 892 532 m 4 1 d s 1066 559 m 7 -4 d s 1067 562 m 7 1 d s 1148 575 m
 25 -12 d s 1139 574 m 9 1 d s 1191 583 m 25 -13 d s 1148 575 m 43 8 d s 1234 590 m 25 -13 d s 1191 583 m 43 7 d s 1277 597 m 25 -12 d s 1234 590 m 43 7 d s 1321 605 m 24 -13 d s 1277 597 m 44 8 d s 1364 612 m 25 -13 d s 1321 605 m 43 7 d s 1407 619
 m 25 -12 d s 1364 612 m 43 7 d s 1450 626 m 25 -12 d s 1407 619 m 43 7 d s 1493 634 m 25 -13 d s 1450 626 m 43 8 d s 433 471 m 25 -12 d s 390 464 m 43 7 d s 390 464 m 25 -13 d s 476 479 m 25 -13 d s 433 471 m 43 8 d s 476 479 m 37 6 d s 893 549 m 5
 1 d s 1080 581 m s 1066 578 m 14 3 d s 1123 588 m 25 -13 d s 1080 581 m 43 7 d s 1166 595 m 25 -12 d s 1123 588 m 43 7 d s 1209 603 m 25 -13 d s 1166 595 m 43 8 d s 1253 610 m 24 -13 d s 1209 603 m 44 7 d s 1296 617 m 25 -12 d s 1253 610 m 43 7 d s
 1339 624 m 25 -12 d s 1296 617 m 43 7 d s 1382 632 m 25 -13 d s 1339 624 m 43 8 d s 1425 639 m 25 -13 d s 1382 632 m 43 7 d s 1468 646 m 25 -12 d s 1425 639 m 43 7 d s 408 484 m 25 -13 d s 365 477 m 43 7 d s 365 477 m 25 -13 d s 451 491 m 25 -12 d
 s 408 484 m 43 7 d s 494 499 m 19 -10 d s 451 491 m 43 8 d s 494 499 m 20 3 d s 893 559 m 5 -2 d s 892 566 m 5 1 d s 1066 588 m 14 -7 d s 1098 601 m 25 -13 d s 1066 595 m 32 6 d s 1141 608 m 25 -13 d s 1098 601 m 43 7 d s 1185 615 m 24 -12 d s 1141
 608 m 44 7 d s 1228 623 m 25 -13 d s 1185 615 m 43 8 d s 1271 630 m 25 -13 d s 1228 623 m 43 7 d s 1314 637 m 25 -13 d s 1271 630 m 43 7 d s 1357 644 m 25 -12 d s 1314 637 m 43 7 d s 1400 652 m 25 -13 d s 1357 644 m 43 8 d s 1443 659 m 25 -13 d s
 1400 652 m 43 7 d s 383 497 m 25 -13 d s 340 489 m 43 8 d s 340 489 m 25 -12 d s 426 504 m 25 -13 d s 383 497 m 43 7 d s 470 511 m 24 -12 d s 426 504 m 44 7 d s 470 511 m 43 8 d s 894 583 m 4 1 d s 1073 613 m 25 -12 d s 1066 612 m 7 1 d s 1117 621
 m 24 -13 d s 1073 613 m 44 8 d s 1160 628 m 25 -13 d s 1117 621 m 43 7 d s 1203 635 m 25 -12 d s 1160 628 m 43 7 d s 1246 642 m 25 -12 d s 1203 635 m 43 7 d s 1289 650 m 25 -13 d s 1246 642 m 43 8 d s 1332 657 m 25 -13 d s 1289 650 m 43 7 d s 1375
 664 m 25 -12 d s 1332 657 m 43 7 d s 1418 672 m 25 -13 d s 1375 664 m 43 8 d s[ 4 8] 0 sd 340 547 m 173 29 d s 878 638 m 19 3 d s 1065 669 m 353 60 d s 340 604 m 173 29 d s 686 662 m 62 11 d s 816 684 m 131 22 d s 1065 726 m 353 60 d s 340 661 m
 211 36 d s 682 719 m 66 11 d s 811 741 m 136 23 d s 1065 784 m 353 59 d s 340 718 m 607 103 d s 1065 841 m 353 60 d s 340 776 m 607 102 d s 1065 898 m 353 60 d s 340 833 m 607 102 d s 1016 947 m 402 68 d s 340 890 m 1078 182 d s 340 947 m 1078 183
 d s 340 1005 m 1078 182 d s 340 1062 m 1078 182 d s 340 1119 m 1078 182 d s[  ] 0 sd 448 508 m 65 11 d s 1418 672 m 631 Y s 340 1121 m 1078 182 d s 340 489 m 632 Y s[ 4 8] 0 sd 1418 729 m 623 -316 d s 1418 786 m 623 -316 d s 1418 843 m 623 -315 d s
 1418 901 m 623 -316 d s 1418 958 m 623 -316 d s 1418 1015 m 623 -315 d s 1418 1072 m 623 -315 d s 1418 1130 m 623 -316 d s 1418 1187 m 623 -316 d s 1418 1244 m 623 -315 d s 1418 1301 m 623 -315 d s[  ] 0 sd 1418 672 m 48 -25 d s 1470 645 m 44 -22 d
 s 1522 619 m 40 -20 d s 1574 593 m 36 -19 d s 1626 566 m 32 -16 d s 1678 540 m 28 -14 d s 1730 514 m 24 -12 d s 1782 487 m 20 -10 d s 1833 461 m 16 -8 d s 1885 435 m 12 -6 d s 1937 409 m 104 -53 d s 2041 356 m 631 Y s 1418 1303 m 623 -316 d s 340
 489 m 623 -315 d s 963 174 m 631 Y s 340 1121 m 623 -316 d s 340 489 m 632 Y s 963 174 m 1078 182 d s 2041 356 m 631 Y s 963 805 m 1078 182 d s 963 174 m 1078 182 d s
 gsave  2268 1448 0 0 C 1939 147 t 10 r /Helvetica-Bold findfont 68.3352 sf 0 0 m (, GeV) show NC gr 
 gsave  2268 1448 0 0 C 1830 162 t 10 r /Helvetica-Bold findfont 45.5568 sf 0 0 m (cand) show NC gr 
 gsave  2268 1448 0 0 C 1883 104 t 10 r /Helvetica-Bold findfont 30.3712 sf 0 0 m (R) show NC gr 
 gsave  2268 1448 0 0 C 1840 109 t 10 r /Helvetica-Bold findfont 45.5568 sf 0 0 m (W) show NC gr 
 gsave  2268 1448 0 0 C 1784 119 t 10 r /Helvetica-Bold findfont 68.3352 sf 0 0 m (M) show NC gr  971 153 m -8 21 d s 1010 171 m -4 10 d s 1053 178 m -4 10 d s 1096 185 m -4 11 d s 1139 193 m -4 10 d s 1187 190 m -9 20 d s 1226 207 m -5 10 d s 1269
 214 m -4 11 d s 1312 222 m -4 10 d s 1355 229 m -4 10 d s 1403 226 m -9 21 d s 1441 244 m -4 10 d s 1485 251 m -5 10 d s 1528 258 m -5 10 d s 1571 265 m -4 11 d s 1618 262 m -8 21 d s 1657 280 m -4 10 d s 1700 287 m -4 11 d s 1743 295 m -4 10 d s
 1786 302 m -4 10 d s 1834 299 m -9 21 d s 1873 316 m -5 11 d s 1916 324 m -4 10 d s 1959 331 m -4 10 d s 2002 338 m -4 11 d s 2050 335 m -9 21 d s
 gsave  2268 1448 0 0 C 939 106 t 0 r /Helvetica-Bold findfont 53.1496 sf 0 0 m (500) show NC gr 
 gsave  2268 1448 0 0 C 1139 142 t 0 r /Helvetica-Bold findfont 53.1496 sf 0 0 m (1000) show NC gr 
 gsave  2268 1448 0 0 C 1354 180 t 0 r /Helvetica-Bold findfont 53.1496 sf 0 0 m (1500) show NC gr 
 gsave  2268 1448 0 0 C 1572 215 t 0 r /Helvetica-Bold findfont 53.1496 sf 0 0 m (2000) show NC gr 
 gsave  2268 1448 0 0 C 1787 251 t 0 r /Helvetica-Bold findfont 53.1496 sf 0 0 m (2500) show NC gr 
 gsave  2268 1448 0 0 C 2002 289 t 0 r /Helvetica-Bold findfont 53.1496 sf 0 0 m (3000) show NC gr  963 174 m -623 315 d s
 gsave  2268 1448 0 0 C 387 266 t -26 r /Helvetica-Bold findfont 45.5568 sf 0 0 m (cand) show NC gr 
 gsave  2268 1448 0 0 C 395 185 t -26 r /Helvetica-Bold findfont 30.3712 sf 0 0 m (R) show NC gr 
 gsave  2268 1448 0 0 C 362 218 t -26 r /Helvetica-Bold findfont 45.5568 sf 0 0 m (W) show NC gr 
 gsave  2268 1448 0 0 C 306 271 t -26 r /Helvetica-Bold findfont 68.3352 sf 0 0 m (/M) show NC gr 
 gsave  2268 1448 0 0 C 228 347 t -26 r /Helvetica-Bold findfont 45.5568 sf 0 0 m (cand) show NC gr 
 gsave  2268 1448 0 0 C 205 301 t -26 r /Helvetica-Bold findfont 45.5568 sf 0 0 m (N) show NC gr 
 gsave  2268 1448 0 0 C 165 342 t -26 r /Helvetica-Bold findfont 68.3352 sf 0 0 m (M) show NC gr  948 162 m 15 12 d s 943 174 m 7 6 d s 930 180 m 8 6 d s 918 187 m 7 6 d s 905 193 m 8 6 d s 886 193 m 14 12 d s 881 206 m 7 6 d s 868 212 m 8 6 d s 856
 218 m 7 6 d s 843 225 m 8 6 d s 823 225 m 15 12 d s 818 237 m 8 6 d s 806 244 m 7 5 d s 793 250 m 8 6 d s 781 256 m 7 6 d s 761 256 m 15 12 d s 756 269 m 7 6 d s 744 275 m 7 6 d s 731 281 m 8 6 d s 719 288 m 7 6 d s 699 288 m 15 12 d s 694 300 m 7
 6 d s 681 307 m 8 6 d s 669 313 m 7 6 d s 656 319 m 8 6 d s 637 320 m 14 12 d s 632 332 m 7 6 d s 619 338 m 8 6 d s 607 345 m 7 5 d s 594 351 m 8 6 d s 574 351 m 15 12 d s 569 363 m 8 6 d s 557 370 m 7 6 d s 544 376 m 8 6 d s 532 382 m 7 6 d s 512
 383 m 15 12 d s 507 395 m 7 6 d s 495 401 m 7 6 d s 482 408 m 8 6 d s 470 414 m 7 6 d s 450 414 m 15 12 d s 445 427 m 7 6 d s 432 433 m 8 6 d s 420 439 m 7 6 d s 407 446 m 8 5 d s 388 446 m 14 12 d s 383 458 m 7 6 d s 370 464 m 8 6 d s 358 471 m 7
 6 d s 345 477 m 8 6 d s 325 477 m 15 12 d s
 gsave  2268 1448 0 0 C 883 114 t 0 r /Helvetica-Bold findfont 53.1496 sf 0 0 m (0) show NC gr 
 gsave  2268 1448 0 0 C 785 147 t 0 r /Helvetica-Bold findfont 53.1496 sf 0 0 m (0.1) show NC gr 
 gsave  2268 1448 0 0 C 714 177 t 0 r /Helvetica-Bold findfont 53.1496 sf 0 0 m (0.2) show NC gr 
 gsave  2268 1448 0 0 C 653 210 t 0 r /Helvetica-Bold findfont 53.1496 sf 0 0 m (0.3) show NC gr 
 gsave  2268 1448 0 0 C 590 240 t 0 r /Helvetica-Bold findfont 53.1496 sf 0 0 m (0.4) show NC gr 
 gsave  2268 1448 0 0 C 526 273 t 0 r /Helvetica-Bold findfont 53.1496 sf 0 0 m (0.5) show NC gr 
 gsave  2268 1448 0 0 C 466 304 t 0 r /Helvetica-Bold findfont 53.1496 sf 0 0 m (0.6) show NC gr 
 gsave  2268 1448 0 0 C 402 337 t 0 r /Helvetica-Bold findfont 53.1496 sf 0 0 m (0.7) show NC gr 
 gsave  2268 1448 0 0 C 342 367 t 0 r /Helvetica-Bold findfont 53.1496 sf 0 0 m (0.8) show NC gr 
 gsave  2268 1448 0 0 C 278 400 t 0 r /Helvetica-Bold findfont 53.1496 sf 0 0 m (0.9) show NC gr 
 gsave  2268 1448 0 0 C 266 428 t 0 r /Helvetica-Bold findfont 53.1496 sf 0 0 m (1) show NC gr  340 489 m 632 Y s 310 489 m 30 X s 325 504 m 15 X s 325 518 m 15 X s 325 532 m 15 X s 310 547 m 30 X s 325 561 m 15 X s 325 575 m 15 X s 325 590 m 15 X s
 310 604 m 30 X s 325 618 m 15 X s 325 633 m 15 X s 325 647 m 15 X s 310 661 m 30 X s 325 675 m 15 X s 325 690 m 15 X s 325 704 m 15 X s 310 718 m 30 X s 325 733 m 15 X s 325 747 m 15 X s 325 761 m 15 X s 310 776 m 30 X s 325 790 m 15 X s 325 804 m
 15 X s 325 819 m 15 X s 310 833 m 30 X s 325 847 m 15 X s 325 862 m 15 X s 325 876 m 15 X s 310 890 m 30 X s 325 905 m 15 X s 325 919 m 15 X s 325 933 m 15 X s 310 947 m 30 X s 325 962 m 15 X s 325 976 m 15 X s 325 990 m 15 X s 310 1005 m 30 X s
 325 1019 m 15 X s 325 1033 m 15 X s 325 1048 m 15 X s 310 1062 m 30 X s 325 1076 m 15 X s 325 1091 m 15 X s 325 1105 m 15 X s 310 1119 m 30 X s 310 1119 m 30 X s
 gsave  2268 1448 0 0 C 276 471 t 0 r /Helvetica-Bold findfont 53.1496 sf 0 0 m (0) show NC gr 
 gsave  2268 1448 0 0 C 230 526 t 0 r /Helvetica-Bold findfont 53.1496 sf 0 0 m (0.2) show NC gr 
 gsave  2268 1448 0 0 C 230 585 t 0 r /Helvetica-Bold findfont 53.1496 sf 0 0 m (0.4) show NC gr 
 gsave  2268 1448 0 0 C 230 643 t 0 r /Helvetica-Bold findfont 53.1496 sf 0 0 m (0.6) show NC gr 
 gsave  2268 1448 0 0 C 230 699 t 0 r /Helvetica-Bold findfont 53.1496 sf 0 0 m (0.8) show NC gr 
 gsave  2268 1448 0 0 C 281 754 t 0 r /Helvetica-Bold findfont 53.1496 sf 0 0 m (1) show NC gr 
 gsave  2268 1448 0 0 C 230 812 t 0 r /Helvetica-Bold findfont 53.1496 sf 0 0 m (1.2) show NC gr 
 gsave  2268 1448 0 0 C 230 868 t 0 r /Helvetica-Bold findfont 53.1496 sf 0 0 m (1.4) show NC gr 
 gsave  2268 1448 0 0 C 230 929 t 0 r /Helvetica-Bold findfont 53.1496 sf 0 0 m (1.6) show NC gr 
 gsave  2268 1448 0 0 C 230 985 t 0 r /Helvetica-Bold findfont 53.1496 sf 0 0 m (1.8) show NC gr 
 gsave  2268 1448 0 0 C 276 1040 t 0 r /Helvetica-Bold findfont 53.1496 sf 0 0 m (2) show NC gr 
 gsave  2268 1448 0 0 C 230 1098 t 0 r /Helvetica-Bold findfont 53.1496 sf 0 0 m (2.2) show NC gr 
 gr  gr 
showpage
end
%%EOF
