%!PS-Adobe-2.0 EPSF-2.0
%%BoundingBox:  0 0 567 362
%%Title: ./ptleptons.eps:  
%%Creator: ROOT Version 5.24/00
%%CreationDate: Thu Feb 11 21:11:57 2010
%%EndComments
%%BeginProlog
80 dict begin
/s {stroke} def /l {lineto} def /m {moveto} def /t {translate} def
/sw {stringwidth} def /r {rotate} def /rl {roll}  def /R {repeat} def
/d {rlineto} def /rm {rmoveto} def /gr {grestore} def /f {eofill} def
/c {setrgbcolor} def /black {0 setgray} def /sd {setdash} def
/cl {closepath} def /sf {scalefont setfont} def /lw {setlinewidth} def
/box {m dup 0 exch d exch 0 d 0 exch neg d cl} def
/NC{systemdict begin initclip end}def/C{NC box clip newpath}def
/bl {box s} def /bf {box f} def /Y { 0 exch d} def /X { 0 d} def 
/mp {newpath /y exch def /x exch def} def
/side {[w .77 mul w .23 mul] .385 w mul sd w 0 l currentpoint t -144 r} def
/mr {mp x y w2 0 360 arc} def /m24 {mr s} def /m20 {mr f} def
/mb {mp x y w2 add m w2 neg 0 d 0 w neg d w 0 d 0 w d cl} def
/mt {mp x y w2 add m w2 neg w neg d w 0 d cl} def
/m21 {mb f} def /m25 {mb s} def /m22 {mt f} def /m26{mt s} def
/m23 {mp x y w2 sub m w2 w d w neg 0 d cl f} def
/m27 {mp x y w2 add m w3 neg w2 neg d w3 w2 neg d w3 w2 d cl s} def
/m28 {mp x w2 sub y w2 sub w3 add m w3 0 d  0 w3 neg d w3 0 d 0 w3 d w3 0 d  0 w3 d w3 neg 0 d 0 w3 d w3 neg 0 d
 0 w3 neg d w3 neg 0 d cl s } def
/m29 {mp gsave x w2 sub y w2 add w3 sub m currentpoint t
 4 {side} repeat cl fill gr} def
/m30 {mp gsave x w2 sub y w2 add w3 sub m currentpoint t
 4 {side} repeat cl s gr} def
/m31 {mp x y w2 sub m 0 w d x w2 sub y m w 0 d x w2 sub y w2 add m w w neg d x w2 sub y w2
 sub m w w d s} def
/m2 {mp x y w2 sub m 0 w d x w2 sub y m w 0 d s} def
/m5 {mp x w2 sub y w2 sub m w w d x w2 sub y w2 add m w w neg d s} def
/reEncode {exch findfont dup length dict begin {1 index /FID eq  {pop pop} {def} ifelse } forall /Encoding exch def currentdict end dup /FontName get exch definefont pop } def [/Times-Bold /Times-Italic /Times-BoldItalic /Helvetica
 /Helvetica-Oblique /Helvetica-Bold /Helvetica-BoldOblique /Courier /Courier-Oblique /Courier-Bold /Courier-BoldOblique /Times-Roman /AvantGarde-Book /AvantGarde-BookOblique /AvantGarde-Demi /AvantGarde-DemiOblique /Bookman-Demi
 /Bookman-DemiItalic /Bookman-Light /Bookman-LightItalic /Helvetica-Narrow /Helvetica-Narrow-Bold /Helvetica-Narrow-BoldOblique /Helvetica-Narrow-Oblique /NewCenturySchlbk-Roman /NewCenturySchlbk-Bold
 /NewCenturySchlbk-BoldItalic /NewCenturySchlbk-Italic /Palatino-Bold /Palatino-BoldItalic /Palatino-Italic /Palatino-Roman ] {ISOLatin1Encoding reEncode } forall
/oshow {gsave [] 0 sd true charpath stroke gr} def
/stwn { /fs exch def /fn exch def /text exch def fn findfont fs sf
 text sw pop xs add /xs exch def} def
/stwb { /fs exch def /fn exch def /nbas exch def /textf exch deftextf length /tlen exch def nbas tlen gt {/nbas tlendef} iffn findfont fs sf textf dup length nbas sub nbas getinterval sw
pop neg xs add /xs exch def} def
%%EndProlog
%%BeginSetup
%%EndSetup
newpath  gsave  .25 .25 scale  gsave  0 0 t black[  ] 0 sd 3 lw 0.95 0.95 0.95 c 2268 1448 0 0 bf 1 1 1 c 0 0 m 8 8 d 1432 Y 2252 X 8 8 d -2268 X -1448 Y f 0.665 0.665 0.665 c 0 0 m 8 8 d 2252 X 1432 Y 8 8 d -1448 Y -2268 X f black 1 1 1 c 1134 1448
 0 0 bf black 1 1 1 c 884 1129 136 174 bf 136 174 m 4 4 d 1121 Y 876 X 4 4 d -884 X -1129 Y f 1 7.94729e-08 0 c 136 174 m 4 4 d 876 X 1121 Y 4 4 d -1129 Y -884 X f black 884 1129 136 174 bl 1 1 1 c 884 1129 136 174 bf 136 174 m 4 4 d 1121 Y 876 X 4
 4 d -884 X -1129 Y f 1 7.94729e-08 0 c 136 174 m 4 4 d 876 X 1121 Y 4 4 d -1129 Y -884 X f black 884 1129 136 174 bl 1 1 1 c black 136 174 m 35 X 1 Y 18 X 8 Y 18 X 11 Y 18 X 7 Y 17 X 32 Y 18 X 36 Y 18 X 24 Y 17 X 29 Y 18 X 55 Y 18 X 17 Y 17 X 23 Y
 18 X 54 Y 18 X -34 Y 17 X 59 Y 18 X 18 Y 18 X -2 Y 17 X 89 Y 18 X 19 Y 18 X -21 Y 18 X 36 Y 17 X 66 Y 18 X -49 Y 18 X 39 Y 17 X 97 Y 18 X 35 Y 18 X 94 Y 17 X 15 Y 18 X 211 Y 18 X 106 Y 17 X -171 Y 18 X -479 Y 18 X -264 Y 17 X -73 Y 18 X -36 Y 18 X
 -21 Y 18 X -3 Y 17 X -13 Y 18 X -9 Y 18 X -2 Y 17 X 1 Y 18 X -5 Y 18 X 4 Y 17 X -3 Y 18 X -1 Y 18 X 2 Y 17 X -1 Y 18 X -1 Y 35 X s 136 174 m 884 X s
 gsave  1134 1448 0 0 C 709 51 t 0 r /Helvetica-Bold findfont 53.1496 sf 0 0 m ( lepton, GeV) show NC gr 
 gsave  1134 1448 0 0 C 696 23 t 0 r /Helvetica-Bold findfont 35.4331 sf 0 0 m (t) show NC gr 
 gsave  1134 1448 0 0 C 663 51 t 0 r /Helvetica-Bold findfont 53.1496 sf 0 0 m (p) show NC gr  136 208 m -34 Y s 154 191 m -17 Y s 171 191 m -17 Y s 189 191 m -17 Y s 207 191 m -17 Y s 225 208 m -34 Y s 242 191 m -17 Y s 260 191 m -17 Y s 278 191 m
 -17 Y s 295 191 m -17 Y s 313 208 m -34 Y s 331 191 m -17 Y s 348 191 m -17 Y s 366 191 m -17 Y s 384 191 m -17 Y s 401 208 m -34 Y s 419 191 m -17 Y s 437 191 m -17 Y s 454 191 m -17 Y s 472 191 m -17 Y s 490 208 m -34 Y s 508 191 m -17 Y s 525
 191 m -17 Y s 543 191 m -17 Y s 561 191 m -17 Y s 578 208 m -34 Y s 596 191 m -17 Y s 614 191 m -17 Y s 631 191 m -17 Y s 649 191 m -17 Y s 667 208 m -34 Y s 684 191 m -17 Y s 702 191 m -17 Y s 720 191 m -17 Y s 737 191 m -17 Y s 755 208 m -34 Y s
 773 191 m -17 Y s 791 191 m -17 Y s 808 191 m -17 Y s 826 191 m -17 Y s 844 208 m -34 Y s 861 191 m -17 Y s 879 191 m -17 Y s 897 191 m -17 Y s 914 191 m -17 Y s 932 208 m -34 Y s 950 191 m -17 Y s 967 191 m -17 Y s 985 191 m -17 Y s 1003 191 m -17
 Y s 1020 208 m -34 Y s
 gsave  1134 1448 0 0 C 121 121 t 0 r /Helvetica-Bold findfont 43.0259 sf 0 0 m (0) show NC gr 
 gsave  1134 1448 0 0 C 187 121 t 0 r /Helvetica-Bold findfont 43.0259 sf 0 0 m (100) show NC gr 
 gsave  1134 1448 0 0 C 276 121 t 0 r /Helvetica-Bold findfont 43.0259 sf 0 0 m (200) show NC gr 
 gsave  1134 1448 0 0 C 364 121 t 0 r /Helvetica-Bold findfont 43.0259 sf 0 0 m (300) show NC gr 
 gsave  1134 1448 0 0 C 453 121 t 0 r /Helvetica-Bold findfont 43.0259 sf 0 0 m (400) show NC gr 
 gsave  1134 1448 0 0 C 542 121 t 0 r /Helvetica-Bold findfont 43.0259 sf 0 0 m (500) show NC gr 
 gsave  1134 1448 0 0 C 630 121 t 0 r /Helvetica-Bold findfont 43.0259 sf 0 0 m (600) show NC gr 
 gsave  1134 1448 0 0 C 719 121 t 0 r /Helvetica-Bold findfont 43.0259 sf 0 0 m (700) show NC gr 
 gsave  1134 1448 0 0 C 807 121 t 0 r /Helvetica-Bold findfont 43.0259 sf 0 0 m (800) show NC gr 
 gsave  1134 1448 0 0 C 896 121 t 0 r /Helvetica-Bold findfont 43.0259 sf 0 0 m (900) show NC gr 
 gsave  1134 1448 0 0 C 972 121 t 0 r /Helvetica-Bold findfont 43.0259 sf 0 0 m (1000) show NC gr  136 174 m 1129 Y s
 gsave  1134 1448 0 0 C 46 959 t 90 r /Helvetica-Bold findfont 43.0259 sf 0 0 m (N leptons/20GeV) show NC gr  163 174 m -27 X s 149 201 m -13 X s 149 227 m -13 X s 149 254 m -13 X s 149 281 m -13 X s 163 308 m -27 X s 149 335 m -13 X s 149 362 m -13
 X s 149 389 m -13 X s 149 416 m -13 X s 163 443 m -27 X s 149 469 m -13 X s 149 496 m -13 X s 149 523 m -13 X s 149 550 m -13 X s 163 577 m -27 X s 149 604 m -13 X s 149 631 m -13 X s 149 658 m -13 X s 149 685 m -13 X s 163 711 m -27 X s 149 738 m
 -13 X s 149 765 m -13 X s 149 792 m -13 X s 149 819 m -13 X s 163 846 m -27 X s 149 873 m -13 X s 149 900 m -13 X s 149 927 m -13 X s 149 953 m -13 X s 163 980 m -27 X s 149 1007 m -13 X s 149 1034 m -13 X s 149 1061 m -13 X s 149 1088 m -13 X s
 163 1115 m -27 X s 149 1142 m -13 X s 149 1168 m -13 X s 149 1195 m -13 X s 149 1222 m -13 X s 163 1249 m -27 X s 163 1249 m -27 X s 149 1276 m -13 X s
 gsave  1134 1448 0 0 C 106 157 t 0 r /Helvetica-Bold findfont 43.0259 sf 0 0 m (0) show NC gr 
 gsave  1134 1448 0 0 C 58 291 t 0 r /Helvetica-Bold findfont 43.0259 sf 0 0 m (100) show NC gr 
 gsave  1134 1448 0 0 C 58 425 t 0 r /Helvetica-Bold findfont 43.0259 sf 0 0 m (200) show NC gr 
 gsave  1134 1448 0 0 C 58 559 t 0 r /Helvetica-Bold findfont 43.0259 sf 0 0 m (300) show NC gr 
 gsave  1134 1448 0 0 C 58 696 t 0 r /Helvetica-Bold findfont 43.0259 sf 0 0 m (400) show NC gr 
 gsave  1134 1448 0 0 C 58 830 t 0 r /Helvetica-Bold findfont 43.0259 sf 0 0 m (500) show NC gr 
 gsave  1134 1448 0 0 C 58 964 t 0 r /Helvetica-Bold findfont 43.0259 sf 0 0 m (600) show NC gr 
 gsave  1134 1448 0 0 C 58 1098 t 0 r /Helvetica-Bold findfont 43.0259 sf 0 0 m (700) show NC gr 
 gsave  1134 1448 0 0 C 58 1233 t 0 r /Helvetica-Bold findfont 43.0259 sf 0 0 m (800) show NC gr  1 1 1 c 1134 1448 1134 0 bf black 1 1 1 c 884 1129 1270 174 bf 1270 174 m 4 4 d 1121 Y 876 X 4 4 d -884 X -1129 Y f 1 7.94729e-08 0 c 1270 174 m 4 4 d
 876 X 1121 Y 4 4 d -1129 Y -884 X f black 884 1129 1270 174 bl 1 1 1 c 884 1129 1270 174 bf 1270 174 m 4 4 d 1121 Y 876 X 4 4 d -884 X -1129 Y f 1 7.94729e-08 0 c 1270 174 m 4 4 d 876 X 1121 Y 4 4 d -1129 Y -884 X f black 884 1129 1270 174 bl 1 1 1
 c black 1270 174 m 18 X 589 Y 17 X 199 Y 18 X 155 Y 18 X 126 Y 17 X 6 Y 18 X -5 Y 18 X -116 Y 17 X -29 Y 18 X -100 Y 18 X -42 Y 17 X -126 Y 18 X -39 Y 18 X -43 Y 18 X -54 Y 17 X -77 Y 18 X -10 Y 18 X -3 Y 17 X -86 Y 18 X -9 Y 18 X -47 Y 17 X -41 Y
 18 X -55 Y 18 X 4 Y 17 X -33 Y 18 X -16 Y 18 X -53 Y 18 X -3 Y 17 X 5 Y 18 X -44 Y 18 X -3 Y 17 X -23 Y 18 X -21 Y 18 X -3 Y 17 X -3 Y 18 X 1 Y 18 X -1 Y 17 X 1 Y 18 X -1 Y 212 X s 1270 174 m 884 X s
 gsave  1134 1448 1134 0 C 1843 51 t 0 r /Helvetica-Bold findfont 53.1496 sf 0 0 m ( lepton, GeV) show NC gr 
 gsave  1134 1448 1134 0 C 1830 23 t 0 r /Helvetica-Bold findfont 35.4331 sf 0 0 m (t) show NC gr 
 gsave  1134 1448 1134 0 C 1797 51 t 0 r /Helvetica-Bold findfont 53.1496 sf 0 0 m (p) show NC gr  1270 208 m -34 Y s 1288 191 m -17 Y s 1305 191 m -17 Y s 1323 191 m -17 Y s 1341 191 m -17 Y s 1358 208 m -34 Y s 1376 191 m -17 Y s 1394 191 m -17 Y
 s 1411 191 m -17 Y s 1429 191 m -17 Y s 1447 208 m -34 Y s 1464 191 m -17 Y s 1482 191 m -17 Y s 1500 191 m -17 Y s 1518 191 m -17 Y s 1535 208 m -34 Y s 1553 191 m -17 Y s 1571 191 m -17 Y s 1588 191 m -17 Y s 1606 191 m -17 Y s 1624 208 m -34 Y s
 1641 191 m -17 Y s 1659 191 m -17 Y s 1677 191 m -17 Y s 1694 191 m -17 Y s 1712 208 m -34 Y s 1730 191 m -17 Y s 1748 191 m -17 Y s 1765 191 m -17 Y s 1783 191 m -17 Y s 1801 208 m -34 Y s 1818 191 m -17 Y s 1836 191 m -17 Y s 1854 191 m -17 Y s
 1871 191 m -17 Y s 1889 208 m -34 Y s 1907 191 m -17 Y s 1924 191 m -17 Y s 1942 191 m -17 Y s 1960 191 m -17 Y s 1977 208 m -34 Y s 1995 191 m -17 Y s 2013 191 m -17 Y s 2031 191 m -17 Y s 2048 191 m -17 Y s 2066 208 m -34 Y s 2084 191 m -17 Y s
 2101 191 m -17 Y s 2119 191 m -17 Y s 2137 191 m -17 Y s 2154 208 m -34 Y s
 gsave  1134 1448 1134 0 C 1255 121 t 0 r /Helvetica-Bold findfont 43.0259 sf 0 0 m (0) show NC gr 
 gsave  1134 1448 1134 0 C 1321 121 t 0 r /Helvetica-Bold findfont 43.0259 sf 0 0 m (100) show NC gr 
 gsave  1134 1448 1134 0 C 1410 121 t 0 r /Helvetica-Bold findfont 43.0259 sf 0 0 m (200) show NC gr 
 gsave  1134 1448 1134 0 C 1498 121 t 0 r /Helvetica-Bold findfont 43.0259 sf 0 0 m (300) show NC gr 
 gsave  1134 1448 1134 0 C 1587 121 t 0 r /Helvetica-Bold findfont 43.0259 sf 0 0 m (400) show NC gr 
 gsave  1134 1448 1134 0 C 1675 121 t 0 r /Helvetica-Bold findfont 43.0259 sf 0 0 m (500) show NC gr 
 gsave  1134 1448 1134 0 C 1764 121 t 0 r /Helvetica-Bold findfont 43.0259 sf 0 0 m (600) show NC gr 
 gsave  1134 1448 1134 0 C 1853 121 t 0 r /Helvetica-Bold findfont 43.0259 sf 0 0 m (700) show NC gr 
 gsave  1134 1448 1134 0 C 1941 121 t 0 r /Helvetica-Bold findfont 43.0259 sf 0 0 m (800) show NC gr 
 gsave  1134 1448 1134 0 C 2030 121 t 0 r /Helvetica-Bold findfont 43.0259 sf 0 0 m (900) show NC gr 
 gsave  1134 1448 1134 0 C 2106 121 t 0 r /Helvetica-Bold findfont 43.0259 sf 0 0 m (1000) show NC gr  1270 174 m 1129 Y s
 gsave  1134 1448 1134 0 C 1179 959 t 90 r /Helvetica-Bold findfont 43.0259 sf 0 0 m (N leptons/20GeV) show NC gr  1296 174 m -26 X s 1283 206 m -13 X s 1283 238 m -13 X s 1283 271 m -13 X s 1283 303 m -13 X s 1296 335 m -26 X s 1283 367 m -13 X s
 1283 400 m -13 X s 1283 432 m -13 X s 1283 464 m -13 X s 1296 497 m -26 X s 1283 529 m -13 X s 1283 561 m -13 X s 1283 594 m -13 X s 1283 626 m -13 X s 1296 658 m -26 X s 1283 690 m -13 X s 1283 723 m -13 X s 1283 755 m -13 X s 1283 787 m -13 X s
 1296 820 m -26 X s 1283 852 m -13 X s 1283 884 m -13 X s 1283 917 m -13 X s 1283 949 m -13 X s 1296 981 m -26 X s 1283 1013 m -13 X s 1283 1046 m -13 X s 1283 1078 m -13 X s 1283 1110 m -13 X s 1296 1143 m -26 X s 1296 1143 m -26 X s 1283 1175 m
 -13 X s 1283 1207 m -13 X s 1283 1239 m -13 X s 1283 1272 m -13 X s
 gsave  1134 1448 1134 0 C 1240 157 t 0 r /Helvetica-Bold findfont 43.0259 sf 0 0 m (0) show NC gr 
 gsave  1134 1448 1134 0 C 1192 319 t 0 r /Helvetica-Bold findfont 43.0259 sf 0 0 m (100) show NC gr 
 gsave  1134 1448 1134 0 C 1192 481 t 0 r /Helvetica-Bold findfont 43.0259 sf 0 0 m (200) show NC gr 
 gsave  1134 1448 1134 0 C 1192 643 t 0 r /Helvetica-Bold findfont 43.0259 sf 0 0 m (300) show NC gr 
 gsave  1134 1448 1134 0 C 1192 802 t 0 r /Helvetica-Bold findfont 43.0259 sf 0 0 m (400) show NC gr 
 gsave  1134 1448 1134 0 C 1192 964 t 0 r /Helvetica-Bold findfont 43.0259 sf 0 0 m (500) show NC gr 
 gsave  1134 1448 1134 0 C 1192 1126 t 0 r /Helvetica-Bold findfont 43.0259 sf 0 0 m (600) show NC gr 
 gr  gr 
showpage
end
%%EOF
