%!PS-Adobe-2.0 EPSF-2.0
%%BoundingBox:  0 0 567 362
%%Title: ./quality.eps:  
%%Creator: ROOT Version 5.20/00
%%CreationDate: Fri Aug  1 16:39:03 2008
%%EndComments
%%BeginProlog
80 dict begin
/s {stroke} def /l {lineto} def /m {moveto} def /t {translate} def
/sw {stringwidth} def /r {rotate} def /rl {roll}  def /R {repeat} def
/d {rlineto} def /rm {rmoveto} def /gr {grestore} def /f {eofill} def
/c {setrgbcolor} def /black {0 setgray} def /sd {setdash} def
/cl {closepath} def /sf {scalefont setfont} def /lw {setlinewidth} def
/box {m dup 0 exch d exch 0 d 0 exch neg d cl} def
/NC{systemdict begin initclip end}def/C{NC box clip newpath}def
/bl {box s} def /bf {box f} def /Y { 0 exch d} def /X { 0 d} def 
/mp {newpath /y exch def /x exch def} def
/side {[w .77 mul w .23 mul] .385 w mul sd w 0 l currentpoint t -144 r} def
/mr {mp x y w2 0 360 arc} def /m24 {mr s} def /m20 {mr f} def
/mb {mp x y w2 add m w2 neg 0 d 0 w neg d w 0 d 0 w d cl} def
/mt {mp x y w2 add m w2 neg w neg d w 0 d cl} def
/m21 {mb f} def /m25 {mb s} def /m22 {mt f} def /m26{mt s} def
/m23 {mp x y w2 sub m w2 w d w neg 0 d cl f} def
/m27 {mp x y w2 add m w3 neg w2 neg d w3 w2 neg d w3 w2 d cl s} def
/m28 {mp x w2 sub y w2 sub w3 add m w3 0 d  0 w3 neg d w3 0 d 0 w3 d w3 0 d  0 w3 d w3 neg 0 d 0 w3 d w3 neg 0 d
 0 w3 neg d w3 neg 0 d cl s } def
/m29 {mp gsave x w2 sub y w2 add w3 sub m currentpoint t
 4 {side} repeat cl fill gr} def
/m30 {mp gsave x w2 sub y w2 add w3 sub m currentpoint t
 4 {side} repeat cl s gr} def
/m31 {mp x y w2 sub m 0 w d x w2 sub y m w 0 d x w2 sub y w2 add m w w neg d x w2 sub y w2
 sub m w w d s} def
/m2 {mp x y w2 sub m 0 w d x w2 sub y m w 0 d s} def
/m5 {mp x w2 sub y w2 sub m w w d x w2 sub y w2 add m w w neg d s} def
/reEncode {exch findfont dup length dict begin {1 index /FID eq  {pop pop} {def} ifelse } forall /Encoding exch def currentdict end dup /FontName get exch definefont pop } def [/Times-Bold /Times-Italic /Times-BoldItalic /Helvetica
 /Helvetica-Oblique /Helvetica-Bold /Helvetica-BoldOblique /Courier /Courier-Oblique /Courier-Bold /Courier-BoldOblique /Times-Roman /AvantGarde-Book /AvantGarde-BookOblique /AvantGarde-Demi /AvantGarde-DemiOblique /Bookman-Demi
 /Bookman-DemiItalic /Bookman-Light /Bookman-LightItalic /Helvetica-Narrow /Helvetica-Narrow-Bold /Helvetica-Narrow-BoldOblique /Helvetica-Narrow-Oblique /NewCenturySchlbk-Roman /NewCenturySchlbk-Bold
 /NewCenturySchlbk-BoldItalic /NewCenturySchlbk-Italic /Palatino-Bold /Palatino-BoldItalic /Palatino-Italic /Palatino-Roman ] {ISOLatin1Encoding reEncode } forall
/oshow {gsave [] 0 sd true charpath stroke gr} def
/stwn { /fs exch def /fn exch def /text exch def fn findfont fs sf
 text sw pop xs add /xs exch def} def
/stwb { /fs exch def /fn exch def /nbas exch def /textf exch deftextf length /tlen exch def nbas tlen gt {/nbas tlendef} iffn findfont fs sf textf dup length nbas sub nbas getinterval sw
pop neg xs add /xs exch def} def
%%EndProlog
%%BeginSetup
%%EndSetup
newpath  gsave  .25 .25 scale  gsave  0 0 t black[  ] 0 sd 3 lw 0.95 0.95 0.95 c 2268 1448 0 0 bf 1 1 1 c 0 0 m 8 8 d 1432 Y 2252 X 8 8 d -2268 X -1448 Y f 0.665 0.665 0.665 c 0 0 m 8 8 d 2252 X 1432 Y 8 8 d -1448 Y -2268 X f black 1 1 1 c 1134 1448
 0 0 bf black 1 1 1 c 884 1129 136 174 bf 136 174 m 4 4 d 1121 Y 876 X 4 4 d -884 X -1129 Y f 1 7.94729e-08 0 c 136 174 m 4 4 d 876 X 1121 Y 4 4 d -1129 Y -884 X f black 884 1129 136 174 bl 1 1 1 c 884 1129 136 174 bf 136 174 m 4 4 d 1121 Y 876 X 4
 4 d -884 X -1129 Y f 1 7.94729e-08 0 c 136 174 m 4 4 d 876 X 1121 Y 4 4 d -1129 Y -884 X f black 884 1129 136 174 bl 1 1 1 c black 136 1204 m 18 X -423 Y 17 X -177 Y 18 X -45 Y 18 X -170 Y 35 X 107 Y 18 X -107 Y 18 X -108 Y 17 X 108 Y 36 X 63 Y 17
 X -171 Y 36 X -107 Y 70 X 107 Y 18 X -107 Y 548 X s 0.95 0.95 0.95 c 455 479 656 964 bf black 663 964 m -5 Y 453 X 476 Y -5 X -471 Y f 656 964 m 479 Y 455 X -479 Y -455 X cl s 1 1 1 c black
 gsave  1134 1448 0 0 C 709 1349 t 0 r /Helvetica-Bold findfont 80.9899 sf 0 0 m (hhovere1) show NC gr  656 1323 m 455 X s
 gsave  1134 1448 0 0 C 678 1243 t 0 r /Helvetica-Bold findfont 50.6187 sf 0 0 m (Entries ) show NC gr 
 gsave  1134 1448 0 0 C 992 1240 t 0 r /Helvetica-Bold findfont 50.6187 sf 0 0 m ( 442) show NC gr 
 gsave  1134 1448 0 0 C 678 1121 t 0 r /Helvetica-Bold findfont 50.6187 sf 0 0 m (Mean  ) show NC gr 
 gsave  1134 1448 0 0 C 863 1121 t 0 r /Helvetica-Bold findfont 50.6187 sf 0 0 m ( 0.008684) show NC gr 
 gsave  1134 1448 0 0 C 678 1002 t 0 r /Helvetica-Bold findfont 50.6187 sf 0 0 m (RMS   ) show NC gr 
 gsave  1134 1448 0 0 C 893 1002 t 0 r /Helvetica-Bold findfont 50.6187 sf 0 0 m ( 0.02009) show NC gr  136 174 m 884 X s
 gsave  1134 1448 0 0 C 934 33 t 0 r /Helvetica-Bold findfont 53.1496 sf 0 0 m (H/E) show NC gr  136 208 m -34 Y s 154 191 m -17 Y s 171 191 m -17 Y s 189 191 m -17 Y s 207 191 m -17 Y s 225 208 m -34 Y s 242 191 m -17 Y s 260 191 m -17 Y s 278 191
 m -17 Y s 295 191 m -17 Y s 313 208 m -34 Y s 331 191 m -17 Y s 348 191 m -17 Y s 366 191 m -17 Y s 384 191 m -17 Y s 401 208 m -34 Y s 419 191 m -17 Y s 437 191 m -17 Y s 454 191 m -17 Y s 472 191 m -17 Y s 490 208 m -34 Y s 508 191 m -17 Y s 525
 191 m -17 Y s 543 191 m -17 Y s 561 191 m -17 Y s 578 208 m -34 Y s 596 191 m -17 Y s 614 191 m -17 Y s 631 191 m -17 Y s 649 191 m -17 Y s 667 208 m -34 Y s 684 191 m -17 Y s 702 191 m -17 Y s 720 191 m -17 Y s 737 191 m -17 Y s 755 208 m -34 Y s
 773 191 m -17 Y s 791 191 m -17 Y s 808 191 m -17 Y s 826 191 m -17 Y s 844 208 m -34 Y s 861 191 m -17 Y s 879 191 m -17 Y s 897 191 m -17 Y s 914 191 m -17 Y s 932 208 m -34 Y s 950 191 m -17 Y s 967 191 m -17 Y s 985 191 m -17 Y s 1003 191 m -17
 Y s 1020 208 m -34 Y s
 gsave  1134 1448 0 0 C 121 121 t 0 r /Helvetica-Bold findfont 43.0259 sf 0 0 m (0) show NC gr 
 gsave  1134 1448 0 0 C 180 121 t 0 r /Helvetica-Bold findfont 43.0259 sf 0 0 m (0.05) show NC gr 
 gsave  1134 1448 0 0 C 283 121 t 0 r /Helvetica-Bold findfont 43.0259 sf 0 0 m (0.1) show NC gr 
 gsave  1134 1448 0 0 C 357 121 t 0 r /Helvetica-Bold findfont 43.0259 sf 0 0 m (0.15) show NC gr 
 gsave  1134 1448 0 0 C 458 121 t 0 r /Helvetica-Bold findfont 43.0259 sf 0 0 m (0.2) show NC gr 
 gsave  1134 1448 0 0 C 534 121 t 0 r /Helvetica-Bold findfont 43.0259 sf 0 0 m (0.25) show NC gr 
 gsave  1134 1448 0 0 C 635 121 t 0 r /Helvetica-Bold findfont 43.0259 sf 0 0 m (0.3) show NC gr 
 gsave  1134 1448 0 0 C 711 121 t 0 r /Helvetica-Bold findfont 43.0259 sf 0 0 m (0.35) show NC gr 
 gsave  1134 1448 0 0 C 812 121 t 0 r /Helvetica-Bold findfont 43.0259 sf 0 0 m (0.4) show NC gr 
 gsave  1134 1448 0 0 C 888 121 t 0 r /Helvetica-Bold findfont 43.0259 sf 0 0 m (0.45) show NC gr 
 gsave  1134 1448 0 0 C 990 121 t 0 r /Helvetica-Bold findfont 43.0259 sf 0 0 m (0.5) show NC gr  136 174 m 1129 Y s
 gsave  1134 1448 0 0 C 46 1109 t 90 r /Helvetica-Bold findfont 43.0259 sf 0 0 m (N leptons) show NC gr  149 174 m -13 X s 149 202 m -13 X s 149 226 m -13 X s 149 247 m -13 X s 149 265 m -13 X s 163 281 m -27 X s
 gsave  1134 1448 0 0 C 127 264 t 0 r  -18 0 t /Helvetica-Bold findfont 43.0259 sf 0 0 m (1) show NC gr  149 389 m -13 X s 149 452 m -13 X s 149 496 m -13 X s 149 531 m -13 X s 149 559 m -13 X s 149 583 m -13 X s 149 604 m -13 X s 149 622 m -13 X s
 163 639 m -27 X s
 gsave  1134 1448 0 0 C 127 621 t 0 r  -48 0 t /Helvetica-Bold findfont 43.0259 sf 0 0 m (10) show NC gr  149 746 m -13 X s 149 809 m -13 X s 149 854 m -13 X s 149 888 m -13 X s 149 917 m -13 X s 149 940 m -13 X s 149 961 m -13 X s 149 979 m -13 X s
 163 996 m -27 X s
 gsave  1134 1448 0 0 C 111 992 t 0 r /Helvetica-Bold findfont 27.8403 sf 0 0 m (2) show NC gr 
 gsave  1134 1448 0 0 C 63 974 t 0 r /Helvetica-Bold findfont 43.0259 sf 0 0 m (10) show NC gr  149 1103 m -13 X s 149 1166 m -13 X s 149 1211 m -13 X s 149 1246 m -13 X s 149 1274 m -13 X s 149 1298 m -13 X s 0.95 0.95 0.95 c 455 479 656 964 bf
 black 663 964 m -5 Y 453 X 476 Y -5 X -471 Y f 656 964 m 479 Y 455 X -479 Y -455 X cl s 1 1 1 c black
 gsave  1134 1448 0 0 C 709 1349 t 0 r /Helvetica-Bold findfont 80.9899 sf 0 0 m (hhovere1) show NC gr  656 1323 m 455 X s
 gsave  1134 1448 0 0 C 678 1243 t 0 r /Helvetica-Bold findfont 50.6187 sf 0 0 m (Entries ) show NC gr 
 gsave  1134 1448 0 0 C 992 1240 t 0 r /Helvetica-Bold findfont 50.6187 sf 0 0 m ( 442) show NC gr 
 gsave  1134 1448 0 0 C 678 1121 t 0 r /Helvetica-Bold findfont 50.6187 sf 0 0 m (Mean  ) show NC gr 
 gsave  1134 1448 0 0 C 863 1121 t 0 r /Helvetica-Bold findfont 50.6187 sf 0 0 m ( 0.008684) show NC gr 
 gsave  1134 1448 0 0 C 678 1002 t 0 r /Helvetica-Bold findfont 50.6187 sf 0 0 m (RMS   ) show NC gr 
 gsave  1134 1448 0 0 C 893 1002 t 0 r /Helvetica-Bold findfont 50.6187 sf 0 0 m ( 0.02009) show NC gr  0.95 0.95 0.95 c 456 124 10 1319 bf black 18 1319 m -5 Y 453 X 121 Y -5 X -116 Y f 10 1319 m 124 Y 456 X -124 Y -456 X cl s 1 1 1 c black
 gsave  1134 1448 0 0 C 23 1359 t 0 r /Helvetica-Bold findfont 58.2115 sf 0 0 m (Dist. to jet < 0.8) show NC gr  1 1 1 c 1134 1448 1134 0 bf black 1 1 1 c 884 1129 1270 174 bf 1270 174 m 4 4 d 1121 Y 876 X 4 4 d -884 X -1129 Y f 1 7.94729e-08 0 c
 1270 174 m 4 4 d 876 X 1121 Y 4 4 d -1129 Y -884 X f black 884 1129 1270 174 bl 1 1 1 c 884 1129 1270 174 bf 1270 174 m 4 4 d 1121 Y 876 X 4 4 d -884 X -1129 Y f 1 7.94729e-08 0 c 1270 174 m 4 4 d 876 X 1121 Y 4 4 d -1129 Y -884 X f black 884 1129
 1270 174 bl 1 1 1 c black 1270 1208 m 18 X -413 Y 17 X -174 Y 18 X -104 Y 18 X -240 Y 17 X -103 Y 18 X 310 Y 18 X -207 Y 35 X -103 Y 18 X 103 Y 35 X -103 Y 89 X 103 Y 17 X -103 Y 566 X s 0.95 0.95 0.95 c 473 469 1772 974 bf black 1779 974 m -5 Y
 471 X 466 Y -5 X -461 Y f 1772 974 m 469 Y 473 X -469 Y -473 X cl s 1 1 1 c black
 gsave  1134 1448 1134 0 C 1832 1349 t 0 r /Helvetica-Bold findfont 78.4589 sf 0 0 m (hhovere2) show NC gr  1772 1326 m 473 X s
 gsave  1134 1448 1134 0 C 1794 1243 t 0 r /Helvetica-Bold findfont 53.1496 sf 0 0 m (Entries ) show NC gr 
 gsave  1134 1448 1134 0 C 2116 1243 t 0 r /Helvetica-Bold findfont 53.1496 sf 0 0 m ( 566) show NC gr 
 gsave  1134 1448 1134 0 C 1794 1126 t 0 r /Helvetica-Bold findfont 53.1496 sf 0 0 m (Mean  ) show NC gr 
 gsave  1134 1448 1134 0 C 1984 1126 t 0 r /Helvetica-Bold findfont 53.1496 sf 0 0 m ( 0.005765) show NC gr 
 gsave  1134 1448 1134 0 C 1794 1010 t 0 r /Helvetica-Bold findfont 53.1496 sf 0 0 m (RMS   ) show NC gr 
 gsave  1134 1448 1134 0 C 2020 1010 t 0 r /Helvetica-Bold findfont 53.1496 sf 0 0 m ( 0.01281) show NC gr  1270 174 m 884 X s
 gsave  1134 1448 1134 0 C 2068 33 t 0 r /Helvetica-Bold findfont 53.1496 sf 0 0 m (H/E) show NC gr  1270 208 m -34 Y s 1288 191 m -17 Y s 1305 191 m -17 Y s 1323 191 m -17 Y s 1341 191 m -17 Y s 1358 208 m -34 Y s 1376 191 m -17 Y s 1394 191 m -17
 Y s 1411 191 m -17 Y s 1429 191 m -17 Y s 1447 208 m -34 Y s 1464 191 m -17 Y s 1482 191 m -17 Y s 1500 191 m -17 Y s 1518 191 m -17 Y s 1535 208 m -34 Y s 1553 191 m -17 Y s 1571 191 m -17 Y s 1588 191 m -17 Y s 1606 191 m -17 Y s 1624 208 m -34 Y
 s 1641 191 m -17 Y s 1659 191 m -17 Y s 1677 191 m -17 Y s 1694 191 m -17 Y s 1712 208 m -34 Y s 1730 191 m -17 Y s 1748 191 m -17 Y s 1765 191 m -17 Y s 1783 191 m -17 Y s 1801 208 m -34 Y s 1818 191 m -17 Y s 1836 191 m -17 Y s 1854 191 m -17 Y s
 1871 191 m -17 Y s 1889 208 m -34 Y s 1907 191 m -17 Y s 1924 191 m -17 Y s 1942 191 m -17 Y s 1960 191 m -17 Y s 1977 208 m -34 Y s 1995 191 m -17 Y s 2013 191 m -17 Y s 2031 191 m -17 Y s 2048 191 m -17 Y s 2066 208 m -34 Y s 2084 191 m -17 Y s
 2101 191 m -17 Y s 2119 191 m -17 Y s 2137 191 m -17 Y s 2154 208 m -34 Y s
 gsave  1134 1448 1134 0 C 1255 121 t 0 r /Helvetica-Bold findfont 43.0259 sf 0 0 m (0) show NC gr 
 gsave  1134 1448 1134 0 C 1314 121 t 0 r /Helvetica-Bold findfont 43.0259 sf 0 0 m (0.05) show NC gr 
 gsave  1134 1448 1134 0 C 1417 121 t 0 r /Helvetica-Bold findfont 43.0259 sf 0 0 m (0.1) show NC gr 
 gsave  1134 1448 1134 0 C 1491 121 t 0 r /Helvetica-Bold findfont 43.0259 sf 0 0 m (0.15) show NC gr 
 gsave  1134 1448 1134 0 C 1592 121 t 0 r /Helvetica-Bold findfont 43.0259 sf 0 0 m (0.2) show NC gr 
 gsave  1134 1448 1134 0 C 1668 121 t 0 r /Helvetica-Bold findfont 43.0259 sf 0 0 m (0.25) show NC gr 
 gsave  1134 1448 1134 0 C 1769 121 t 0 r /Helvetica-Bold findfont 43.0259 sf 0 0 m (0.3) show NC gr 
 gsave  1134 1448 1134 0 C 1845 121 t 0 r /Helvetica-Bold findfont 43.0259 sf 0 0 m (0.35) show NC gr 
 gsave  1134 1448 1134 0 C 1946 121 t 0 r /Helvetica-Bold findfont 43.0259 sf 0 0 m (0.4) show NC gr 
 gsave  1134 1448 1134 0 C 2022 121 t 0 r /Helvetica-Bold findfont 43.0259 sf 0 0 m (0.45) show NC gr 
 gsave  1134 1448 1134 0 C 2123 121 t 0 r /Helvetica-Bold findfont 43.0259 sf 0 0 m (0.5) show NC gr  1270 174 m 1129 Y s
 gsave  1134 1448 1134 0 C 1179 1109 t 90 r /Helvetica-Bold findfont 43.0259 sf 0 0 m (N leptons) show NC gr  1283 174 m -13 X s 1283 201 m -13 X s 1283 224 m -13 X s 1283 244 m -13 X s 1283 261 m -13 X s 1296 277 m -26 X s
 gsave  1134 1448 1134 0 C 1261 260 t 0 r  -18 0 t /Helvetica-Bold findfont 43.0259 sf 0 0 m (1) show NC gr  1283 381 m -13 X s 1283 441 m -13 X s 1283 484 m -13 X s 1283 517 m -13 X s 1283 545 m -13 X s 1283 568 m -13 X s 1283 588 m -13 X s 1283
 605 m -13 X s 1296 621 m -26 X s
 gsave  1134 1448 1134 0 C 1261 604 t 0 r  -48 0 t /Helvetica-Bold findfont 43.0259 sf 0 0 m (10) show NC gr  1283 724 m -13 X s 1283 785 m -13 X s 1283 828 m -13 X s 1283 861 m -13 X s 1283 888 m -13 X s 1283 911 m -13 X s 1283 931 m -13 X s 1283
 949 m -13 X s 1296 965 m -26 X s
 gsave  1134 1448 1134 0 C 1245 962 t 0 r /Helvetica-Bold findfont 27.8403 sf 0 0 m (2) show NC gr 
 gsave  1134 1448 1134 0 C 1197 944 t 0 r /Helvetica-Bold findfont 43.0259 sf 0 0 m (10) show NC gr  1283 1068 m -13 X s 1283 1129 m -13 X s 1283 1172 m -13 X s 1283 1205 m -13 X s 1283 1232 m -13 X s 1283 1255 m -13 X s 1283 1275 m -13 X s 1283
 1293 m -13 X s 0.95 0.95 0.95 c 473 469 1772 974 bf black 1779 974 m -5 Y 471 X 466 Y -5 X -461 Y f 1772 974 m 469 Y 473 X -469 Y -473 X cl s 1 1 1 c black
 gsave  1134 1448 1134 0 C 1832 1349 t 0 r /Helvetica-Bold findfont 78.4589 sf 0 0 m (hhovere2) show NC gr  1772 1326 m 473 X s
 gsave  1134 1448 1134 0 C 1794 1243 t 0 r /Helvetica-Bold findfont 53.1496 sf 0 0 m (Entries ) show NC gr 
 gsave  1134 1448 1134 0 C 2116 1243 t 0 r /Helvetica-Bold findfont 53.1496 sf 0 0 m ( 566) show NC gr 
 gsave  1134 1448 1134 0 C 1794 1126 t 0 r /Helvetica-Bold findfont 53.1496 sf 0 0 m (Mean  ) show NC gr 
 gsave  1134 1448 1134 0 C 1984 1126 t 0 r /Helvetica-Bold findfont 53.1496 sf 0 0 m ( 0.005765) show NC gr 
 gsave  1134 1448 1134 0 C 1794 1010 t 0 r /Helvetica-Bold findfont 53.1496 sf 0 0 m (RMS   ) show NC gr 
 gsave  1134 1448 1134 0 C 2020 1010 t 0 r /Helvetica-Bold findfont 53.1496 sf 0 0 m ( 0.01281) show NC gr  0.95 0.95 0.95 c 473 122 1144 1321 bf black 1152 1321 m -5 Y 470 X 119 Y -5 X -114 Y f 1144 1321 m 122 Y 473 X -122 Y -473 X cl s 1 1 1 c
 black
 gsave  1134 1448 1134 0 C 1164 1359 t 0 r /Helvetica-Bold findfont 58.2115 sf 0 0 m (Dist. to jet > 1.2) show NC gr 
 gr  gr 
showpage
end
%%EOF
