%!PS-Adobe-2.0 EPSF-2.0
%%BoundingBox:  0 0 567 413
%%Title: ./ratio.eps: ratio
%%Creator: ROOT Version 5.26/00b
%%CreationDate: Wed Mar 24 22:56:34 2010
%%EndComments
%%BeginProlog
80 dict begin
/s {stroke} def /l {lineto} def /m {moveto} def /t {translate} def
/sw {stringwidth} def /r {rotate} def /rl {roll}  def /R {repeat} def
/d {rlineto} def /rm {rmoveto} def /gr {grestore} def /f {eofill} def
/c {setrgbcolor} def /black {0 setgray} def /sd {setdash} def
/cl {closepath} def /sf {scalefont setfont} def /lw {setlinewidth} def
/box {m dup 0 exch d exch 0 d 0 exch neg d cl} def
/NC{systemdict begin initclip end}def/C{NC box clip newpath}def
/bl {box s} def /bf {box f} def /Y { 0 exch d} def /X { 0 d} def 
/mp {newpath /y exch def /x exch def} def
/side {[w .77 mul w .23 mul] .385 w mul sd w 0 l currentpoint t -144 r} def
/mr {mp x y w2 0 360 arc} def /m24 {mr s} def /m20 {mr f} def
/mb {mp x y w2 add m w2 neg 0 d 0 w neg d w 0 d 0 w d cl} def
/mt {mp x y w2 add m w2 neg w neg d w 0 d cl} def
/m21 {mb f} def /m25 {mb s} def /m22 {mt f} def /m26{mt s} def
/m23 {mp x y w2 sub m w2 w d w neg 0 d cl f} def
/m27 {mp x y w2 add m w3 neg w2 neg d w3 w2 neg d w3 w2 d cl s} def
/m28 {mp x w2 sub y w2 sub w3 add m w3 0 d  0 w3 neg d w3 0 d 0 w3 d w3 0 d  0 w3 d w3 neg 0 d 0 w3 d w3 neg 0 d
 0 w3 neg d w3 neg 0 d cl s } def
/m29 {mp gsave x w2 sub y w2 add w3 sub m currentpoint t
 4 {side} repeat cl fill gr} def
/m30 {mp gsave x w2 sub y w2 add w3 sub m currentpoint t
 4 {side} repeat cl s gr} def
/m31 {mp x y w2 sub m 0 w d x w2 sub y m w 0 d x w2 sub y w2 add m w w neg d x w2 sub y w2
 sub m w w d s} def
/m2 {mp x y w2 sub m 0 w d x w2 sub y m w 0 d s} def
/m5 {mp x w2 sub y w2 sub m w w d x w2 sub y w2 add m w w neg d s} def
/reEncode {exch findfont dup length dict begin {1 index /FID eq  {pop pop} {def} ifelse } forall /Encoding exch def currentdict end dup /FontName get exch definefont pop } def [/Times-Bold /Times-Italic /Times-BoldItalic /Helvetica
 /Helvetica-Oblique /Helvetica-Bold /Helvetica-BoldOblique /Courier /Courier-Oblique /Courier-Bold /Courier-BoldOblique /Times-Roman /AvantGarde-Book /AvantGarde-BookOblique /AvantGarde-Demi /AvantGarde-DemiOblique /Bookman-Demi
 /Bookman-DemiItalic /Bookman-Light /Bookman-LightItalic /Helvetica-Narrow /Helvetica-Narrow-Bold /Helvetica-Narrow-BoldOblique /Helvetica-Narrow-Oblique /NewCenturySchlbk-Roman /NewCenturySchlbk-Bold
 /NewCenturySchlbk-BoldItalic /NewCenturySchlbk-Italic /Palatino-Bold /Palatino-BoldItalic /Palatino-Italic /Palatino-Roman ] {ISOLatin1Encoding reEncode } forall
/oshow {gsave [] 0 sd true charpath stroke gr} def
/stwn { /fs exch def /fn exch def /text exch def fn findfont fs sf
 text sw pop xs add /xs exch def} def
/stwb { /fs exch def /fn exch def /nbas exch def /textf exch deftextf length /tlen exch def nbas tlen gt {/nbas tlendef} iffn findfont fs sf textf dup length nbas sub nbas getinterval sw
pop neg xs add /xs exch def} def
%%EndProlog
%%BeginSetup
%%EndSetup
newpath  gsave  .25 .25 scale  gsave  0 0 t black[  ] 0 sd 3 lw 0.95 0.95 0.95 c 2268 1653 0 0 bf 1 1 1 c 0 0 m 8 8 d 1637 Y 2252 X 8 8 d -2268 X -1653 Y f 0.665 0.665 0.665 c 0 0 m 8 8 d 2252 X 1637 Y 8 8 d -1653 Y -2268 X f black 0.95 0.95 0.95 c
 710 794 23 843 bf 1 1 1 c 23 843 m 8 8 d 778 Y 694 X 8 8 d -710 X -794 Y f 0.665 0.665 0.665 c 23 843 m 8 8 d 694 X 778 Y 8 8 d -794 Y -710 X f black 0.95 0.95 0.95 c 568 634 94 923 bf 1 1 1 c 94 923 m 4 4 d 626 Y 560 X 4 4 d -568 X -634 Y f 0.665
 0.665 0.665 c 94 923 m 4 4 d 560 X 626 Y 4 4 d -634 Y -568 X f black 568 634 94 923 bl 1 1 1 c black 94 923 m 568 X s 94 923 m 568 X s
 gsave  710 794 23 843 C 654 865 t 0 r /Helvetica-Bold findfont 26.5982 sf 0 0 m (\)) show NC gr 
 gsave  710 794 23 843 C 645 878 t 0 r /Helvetica-Bold findfont 17.0988 sf 0 0 m (2) show NC gr 
 gsave  710 794 23 843 C 544 865 t 0 r /Helvetica-Bold findfont 26.5982 sf 0 0 m (\) \(GeV/c) show NC gr 
 gsave  710 794 23 843 C 531 851 t 0 r /Helvetica-Bold findfont 17.0988 sf 0 0 m (R) show NC gr 
 gsave  710 794 23 843 C 474 865 t 0 r /Helvetica-Bold findfont 26.5982 sf 0 0 m (M\(W) show NC gr  94 942 m -19 Y s 116 932 m -9 Y s 139 932 m -9 Y s 162 932 m -9 Y s 185 932 m -9 Y s 207 942 m -19 Y s 230 932 m -9 Y s 253 932 m -9 Y s 276 932 m -9
 Y s 298 932 m -9 Y s 321 942 m -19 Y s 344 932 m -9 Y s 367 932 m -9 Y s 389 932 m -9 Y s 412 932 m -9 Y s 435 942 m -19 Y s 458 932 m -9 Y s 480 932 m -9 Y s 503 932 m -9 Y s 526 932 m -9 Y s 548 942 m -19 Y s 571 932 m -9 Y s 594 932 m -9 Y s 617
 932 m -9 Y s 639 932 m -9 Y s 662 942 m -19 Y s
 gsave  710 794 23 843 C 70 895 t 0 r /Helvetica-Bold findfont 26.5982 sf 0 0 m (500) show NC gr 
 gsave  710 794 23 843 C 176 895 t 0 r /Helvetica-Bold findfont 26.5982 sf 0 0 m (1000) show NC gr 
 gsave  710 794 23 843 C 290 895 t 0 r /Helvetica-Bold findfont 26.5982 sf 0 0 m (1500) show NC gr 
 gsave  710 794 23 843 C 404 895 t 0 r /Helvetica-Bold findfont 26.5982 sf 0 0 m (2000) show NC gr 
 gsave  710 794 23 843 C 518 895 t 0 r /Helvetica-Bold findfont 26.5982 sf 0 0 m (2500) show NC gr 
 gsave  710 794 23 843 C 631 895 t 0 r /Helvetica-Bold findfont 26.5982 sf 0 0 m (3000) show NC gr  94 923 m 634 Y s
 gsave  710 794 23 843 C 59 1543 t 90 r /Helvetica-Bold findfont 26.5982 sf 0 0 m ( \)) show NC gr 
 gsave  710 794 23 843 C 46 1536 t 90 r /Helvetica-Bold findfont 17.0988 sf 0 0 m (2) show NC gr 
 gsave  710 794 23 843 C 59 1282 t 90 r /Helvetica-Bold findfont 26.5982 sf 0 0 m (Events / \( 100 GeV/c) show NC gr  111 923 m -17 X s 102 946 m -8 X s 102 970 m -8 X s 102 994 m -8 X s 102 1017 m -8 X s 111 1041 m -17 X s 102 1065 m -8 X s 102
 1088 m -8 X s 102 1112 m -8 X s 102 1136 m -8 X s 111 1159 m -17 X s 102 1183 m -8 X s 102 1207 m -8 X s 102 1230 m -8 X s 102 1254 m -8 X s 111 1278 m -17 X s 102 1301 m -8 X s 102 1325 m -8 X s 102 1349 m -8 X s 102 1372 m -8 X s 111 1396 m -17 X
 s 102 1420 m -8 X s 102 1443 m -8 X s 102 1467 m -8 X s 102 1491 m -8 X s 111 1514 m -17 X s 111 1514 m -17 X s 102 1538 m -8 X s
 gsave  710 794 23 843 C 74 912 t 0 r /Helvetica-Bold findfont 26.5982 sf 0 0 m (0) show NC gr 
 gsave  710 794 23 843 C 51 1030 t 0 r /Helvetica-Bold findfont 26.5982 sf 0 0 m (0.5) show NC gr 
 gsave  710 794 23 843 C 78 1149 t 0 r /Helvetica-Bold findfont 26.5982 sf 0 0 m (1) show NC gr 
 gsave  710 794 23 843 C 51 1267 t 0 r /Helvetica-Bold findfont 26.5982 sf 0 0 m (1.5) show NC gr 
 gsave  710 794 23 843 C 74 1386 t 0 r /Helvetica-Bold findfont 26.5982 sf 0 0 m (2) show NC gr 
 gsave  710 794 23 843 C 51 1504 t 0 r /Helvetica-Bold findfont 26.5982 sf 0 0 m (2.5) show NC gr  1 1 1 c 342 50 30 1583 bf black 30 1583 m 342 X s 372 1583 m 50 Y s 372 1633 m -342 X s 30 1633 m -50 Y s 1 1 1 c black
 gsave  710 794 23 843 C 330 1604 t 0 r /Helvetica-Bold findfont 30.3979 sf 0 0 m (\)") show NC gr 
 gsave  710 794 23 843 C 315 1587 t 0 r /Helvetica-Bold findfont 20.8986 sf 0 0 m (R) show NC gr 
 gsave  710 794 23 843 C 44 1604 t 0 r /Helvetica-Bold findfont 30.3979 sf 0 0 m (A RooPlot of "M\(W) show NC gr  105 923 m -11 X s 94 923 m 3 Y s 105 923 m 11 X s 116 923 m 3 Y s 128 923 m -12 X s 116 923 m 3 Y s 128 923 m 11 X s 139 923 m 3 Y s
 151 923 m -12 X s 139 923 m 3 Y s 151 923 m 11 X s 162 923 m 3 Y s 173 923 m -11 X s 162 923 m 4 Y s 173 923 m 12 X s 185 923 m 4 Y s 173 923 m 1 Y s 170 924 m 7 X s 173 923 m s 170 923 m 7 X s 196 927 m -11 X s 185 924 m 7 Y s 196 927 m 11 X s 207
 924 m 7 Y s 196 927 m 2 Y s 192 929 m 8 X s 196 927 m -2 Y s 192 925 m 8 X s 219 936 m -12 X s 207 932 m 8 Y s 219 936 m 11 X s 230 932 m 8 Y s 219 936 m 3 Y s 215 939 m 8 X s 219 936 m -3 Y s 215 933 m 8 X s 242 926 m -12 X s 230 923 m 7 Y s 242
 926 m 11 X s 253 923 m 7 Y s 242 926 m 1 Y s 238 927 m 7 X s 242 926 m -2 Y s 238 924 m 7 X s 264 1014 m -11 X s 253 1010 m 8 Y s 264 1014 m 12 X s 276 1010 m 8 Y s 264 1014 m 9 Y s 260 1023 m 8 X s 264 1014 m -8 Y s 260 1006 m 8 X s 287 1059 m -11
 X s 276 1055 m 7 Y s 287 1059 m 11 X s 298 1055 m 7 Y s 287 1059 m 10 Y s 283 1069 m 8 X s 287 1059 m -11 Y s 283 1048 m 8 X s 310 1368 m -12 X s 298 1364 m 8 Y s 310 1368 m 11 X s 321 1364 m 8 Y s 310 1368 m 19 Y s 306 1387 m 8 X s 310 1368 m -19
 Y s 306 1349 m 8 X s 332 1214 m -11 X s 321 1210 m 8 Y s 332 1214 m 12 X s 344 1210 m 8 Y s 332 1214 m 15 Y s 329 1229 m 7 X s 332 1214 m -15 Y s 329 1199 m 7 X s 355 966 m -11 X s 344 963 m 7 Y s 355 966 m 12 X s 367 963 m 7 Y s 355 966 m 6 Y s
 351 972 m 8 X s 355 966 m -6 Y s 351 960 m 8 X s 378 925 m -11 X s 367 923 m 6 Y s 378 925 m 11 X s 389 923 m 6 Y s 378 925 m 1 Y s 374 926 m 8 X s 378 925 m -1 Y s 374 924 m 8 X s 401 923 m -12 X s 389 923 m 4 Y s 401 923 m 11 X s 412 923 m 4 Y s
 401 923 m 1 Y s 397 924 m 7 X s 401 923 m s 397 923 m 7 X s 423 923 m -11 X s 412 923 m 3 Y s 423 923 m 12 X s 435 923 m 3 Y s 446 928 m -11 X s 435 924 m 8 Y s 446 928 m 12 X s 458 924 m 8 Y s 446 928 m 2 Y s 442 930 m 8 X s 446 928 m -2 Y s 442
 926 m 8 X s 469 933 m -11 X s 458 929 m 8 Y s 469 933 m 11 X s 480 929 m 8 Y s 469 933 m 3 Y s 465 936 m 8 X s 469 933 m -3 Y s 465 930 m 8 X s 492 923 m -12 X s 480 923 m 3 Y s 492 923 m 11 X s 503 923 m 3 Y s 514 923 m -11 X s 503 923 m 3 Y s 514
 923 m 12 X s 526 923 m 3 Y s 537 923 m -11 X s 526 923 m 3 Y s 537 923 m 11 X s 548 923 m 3 Y s 560 923 m -12 X s 548 923 m 3 Y s 560 923 m 11 X s 571 923 m 3 Y s 583 923 m -12 X s 571 923 m 3 Y s 583 923 m 11 X s 594 923 m 3 Y s 605 923 m -11 X s
 594 923 m 3 Y s 605 923 m 12 X s 617 923 m 3 Y s 628 923 m -11 X s 617 923 m 3 Y s 628 923 m 11 X s 639 923 m 3 Y s 651 923 m -12 X s 639 923 m 3 Y s 651 923 m 11 X s 662 923 m 3 Y s /w 24 def /w2 {w 2 div} def /w3 {w 3 div} def 105 923 128 923 151
 923 173 923 196 927 219 936 242 926 264 1014 287 1059 310 1368 332 1214 355 966 378 925 401 923 423 923 446 928 469 933 492 923 514 923 537 923 560 923 583 923 605 923 628 923 651 923 25 { m20} R 0 0 1 c 9 lw black 0 0 1 c 94 925 m cl s 94 925 m 22
 X 23 1 d 23 1 d 23 2 d 22 2 d 23 6 d 12 4 d 11 7 d 6 6 d 5 7 d 6 9 d 3 6 d 3 8 d 2 9 d 3 11 d 3 13 d 2 8 d 1 9 d 1 10 d 2 12 d 1 13 d 2 14 d 1 17 d 2 19 d 1 21 d 1 25 d 2 27 d 1 31 d 2 35 d 1 38 d 1 42 d 2 42 d 1 43 d 1 20 d 1 19 d 18 Y 1 15 d 1 13
 d 1 10 d 6 Y 1 3 d 1 X -5 Y 1 -7 d 1 -11 d 1 -14 d -16 Y 1 -18 d 1 -19 d 1 -42 d 2 -43 d 1 -42 d 1 -39 d 2 -36 d 1 -33 d 2 -29 d 1 -25 d 1 -23 d 2 -19 d 1 -18 d 2 -15 d 1 -13 d 2 -12 d 1 -11 d 1 -9 d 2 -8 d 3 -14 d 3 -12 d 2 -9 d 3 -7 d 3 -7 d 3 -5
 d 6 -8 d 5 -7 d 6 -4 d 11 -7 d 12 -4 d 11 -3 d 23 -4 d 23 -2 d 22 -1 d 23 -1 d 23 X 22 -1 d 91 X 23 -1 d s black 3 lw 94 923 m 568 X s
 gsave  710 794 23 843 C 654 865 t 0 r /Helvetica-Bold findfont 26.5982 sf 0 0 m (\)) show NC gr 
 gsave  710 794 23 843 C 645 878 t 0 r /Helvetica-Bold findfont 17.0988 sf 0 0 m (2) show NC gr 
 gsave  710 794 23 843 C 544 865 t 0 r /Helvetica-Bold findfont 26.5982 sf 0 0 m (\) \(GeV/c) show NC gr 
 gsave  710 794 23 843 C 531 851 t 0 r /Helvetica-Bold findfont 17.0988 sf 0 0 m (R) show NC gr 
 gsave  710 794 23 843 C 474 865 t 0 r /Helvetica-Bold findfont 26.5982 sf 0 0 m (M\(W) show NC gr  94 942 m -19 Y s 116 932 m -9 Y s 139 932 m -9 Y s 162 932 m -9 Y s 185 932 m -9 Y s 207 942 m -19 Y s 230 932 m -9 Y s 253 932 m -9 Y s 276 932 m -9
 Y s 298 932 m -9 Y s 321 942 m -19 Y s 344 932 m -9 Y s 367 932 m -9 Y s 389 932 m -9 Y s 412 932 m -9 Y s 435 942 m -19 Y s 458 932 m -9 Y s 480 932 m -9 Y s 503 932 m -9 Y s 526 932 m -9 Y s 548 942 m -19 Y s 571 932 m -9 Y s 594 932 m -9 Y s 617
 932 m -9 Y s 639 932 m -9 Y s 662 942 m -19 Y s
 gsave  710 794 23 843 C 70 895 t 0 r /Helvetica-Bold findfont 26.5982 sf 0 0 m (500) show NC gr 
 gsave  710 794 23 843 C 176 895 t 0 r /Helvetica-Bold findfont 26.5982 sf 0 0 m (1000) show NC gr 
 gsave  710 794 23 843 C 290 895 t 0 r /Helvetica-Bold findfont 26.5982 sf 0 0 m (1500) show NC gr 
 gsave  710 794 23 843 C 404 895 t 0 r /Helvetica-Bold findfont 26.5982 sf 0 0 m (2000) show NC gr 
 gsave  710 794 23 843 C 518 895 t 0 r /Helvetica-Bold findfont 26.5982 sf 0 0 m (2500) show NC gr 
 gsave  710 794 23 843 C 631 895 t 0 r /Helvetica-Bold findfont 26.5982 sf 0 0 m (3000) show NC gr  94 923 m 634 Y s
 gsave  710 794 23 843 C 59 1543 t 90 r /Helvetica-Bold findfont 26.5982 sf 0 0 m ( \)) show NC gr 
 gsave  710 794 23 843 C 46 1536 t 90 r /Helvetica-Bold findfont 17.0988 sf 0 0 m (2) show NC gr 
 gsave  710 794 23 843 C 59 1282 t 90 r /Helvetica-Bold findfont 26.5982 sf 0 0 m (Events / \( 100 GeV/c) show NC gr  111 923 m -17 X s 102 946 m -8 X s 102 970 m -8 X s 102 994 m -8 X s 102 1017 m -8 X s 111 1041 m -17 X s 102 1065 m -8 X s 102
 1088 m -8 X s 102 1112 m -8 X s 102 1136 m -8 X s 111 1159 m -17 X s 102 1183 m -8 X s 102 1207 m -8 X s 102 1230 m -8 X s 102 1254 m -8 X s 111 1278 m -17 X s 102 1301 m -8 X s 102 1325 m -8 X s 102 1349 m -8 X s 102 1372 m -8 X s 111 1396 m -17 X
 s 102 1420 m -8 X s 102 1443 m -8 X s 102 1467 m -8 X s 102 1491 m -8 X s 111 1514 m -17 X s 111 1514 m -17 X s 102 1538 m -8 X s
 gsave  710 794 23 843 C 74 912 t 0 r /Helvetica-Bold findfont 26.5982 sf 0 0 m (0) show NC gr 
 gsave  710 794 23 843 C 51 1030 t 0 r /Helvetica-Bold findfont 26.5982 sf 0 0 m (0.5) show NC gr 
 gsave  710 794 23 843 C 78 1149 t 0 r /Helvetica-Bold findfont 26.5982 sf 0 0 m (1) show NC gr 
 gsave  710 794 23 843 C 51 1267 t 0 r /Helvetica-Bold findfont 26.5982 sf 0 0 m (1.5) show NC gr 
 gsave  710 794 23 843 C 74 1386 t 0 r /Helvetica-Bold findfont 26.5982 sf 0 0 m (2) show NC gr 
 gsave  710 794 23 843 C 51 1504 t 0 r /Helvetica-Bold findfont 26.5982 sf 0 0 m (2.5) show NC gr  1 1 1 c 342 50 30 1583 bf black 30 1583 m 342 X s 372 1583 m 50 Y s 372 1633 m -342 X s 30 1633 m -50 Y s 1 1 1 c black
 gsave  710 794 23 843 C 330 1604 t 0 r /Helvetica-Bold findfont 30.3979 sf 0 0 m (\)") show NC gr 
 gsave  710 794 23 843 C 315 1587 t 0 r /Helvetica-Bold findfont 20.8986 sf 0 0 m (R) show NC gr 
 gsave  710 794 23 843 C 44 1604 t 0 r /Helvetica-Bold findfont 30.3979 sf 0 0 m (A RooPlot of "M\(W) show NC gr  0.95 0.95 0.95 c 710 794 779 843 bf 1 1 1 c 779 843 m 8 8 d 778 Y 694 X 8 8 d -710 X -794 Y f 0.665 0.665 0.665 c 779 843 m 8 8 d 694 X
 778 Y 8 8 d -794 Y -710 X f black 0.95 0.95 0.95 c 568 634 850 923 bf 1 1 1 c 850 923 m 4 4 d 626 Y 560 X 4 4 d -568 X -634 Y f 0.665 0.665 0.665 c 850 923 m 4 4 d 560 X 626 Y 4 4 d -634 Y -568 X f black 568 634 850 923 bl 1 1 1 c black 850 949 m
 568 X s 850 923 m 568 X s
 gsave  710 794 779 843 C 1409 865 t 0 r /Helvetica-Bold findfont 26.5982 sf 0 0 m (\)) show NC gr 
 gsave  710 794 779 843 C 1399 878 t 0 r /Helvetica-Bold findfont 17.0988 sf 0 0 m (2) show NC gr 
 gsave  710 794 779 843 C 1299 865 t 0 r /Helvetica-Bold findfont 26.5982 sf 0 0 m (\) \(GeV/c) show NC gr 
 gsave  710 794 779 843 C 1286 851 t 0 r /Helvetica-Bold findfont 17.0988 sf 0 0 m (R) show NC gr 
 gsave  710 794 779 843 C 1229 865 t 0 r /Helvetica-Bold findfont 26.5982 sf 0 0 m (M\(W) show NC gr  850 942 m -19 Y s 872 932 m -9 Y s 895 932 m -9 Y s 918 932 m -9 Y s 941 932 m -9 Y s 963 942 m -19 Y s 986 932 m -9 Y s 1009 932 m -9 Y s 1032 932
 m -9 Y s 1054 932 m -9 Y s 1077 942 m -19 Y s 1100 932 m -9 Y s 1122 932 m -9 Y s 1145 932 m -9 Y s 1168 932 m -9 Y s 1191 942 m -19 Y s 1213 932 m -9 Y s 1236 932 m -9 Y s 1259 932 m -9 Y s 1282 932 m -9 Y s 1304 942 m -19 Y s 1327 932 m -9 Y s
 1350 932 m -9 Y s 1373 932 m -9 Y s 1395 932 m -9 Y s 1418 942 m -19 Y s
 gsave  710 794 779 843 C 827 895 t 0 r /Helvetica-Bold findfont 26.5982 sf 0 0 m (500) show NC gr 
 gsave  710 794 779 843 C 933 895 t 0 r /Helvetica-Bold findfont 26.5982 sf 0 0 m (1000) show NC gr 
 gsave  710 794 779 843 C 1047 895 t 0 r /Helvetica-Bold findfont 26.5982 sf 0 0 m (1500) show NC gr 
 gsave  710 794 779 843 C 1159 895 t 0 r /Helvetica-Bold findfont 26.5982 sf 0 0 m (2000) show NC gr 
 gsave  710 794 779 843 C 1272 895 t 0 r /Helvetica-Bold findfont 26.5982 sf 0 0 m (2500) show NC gr 
 gsave  710 794 779 843 C 1386 895 t 0 r /Helvetica-Bold findfont 26.5982 sf 0 0 m (3000) show NC gr  850 923 m 634 Y s
 gsave  710 794 779 843 C 815 1543 t 90 r /Helvetica-Bold findfont 26.5982 sf 0 0 m ( \)) show NC gr 
 gsave  710 794 779 843 C 802 1536 t 90 r /Helvetica-Bold findfont 17.0988 sf 0 0 m (2) show NC gr 
 gsave  710 794 779 843 C 815 1282 t 90 r /Helvetica-Bold findfont 26.5982 sf 0 0 m (Events / \( 100 GeV/c) show NC gr  867 949 m -17 X s 858 976 m -8 X s 858 1004 m -8 X s 858 1032 m -8 X s 858 1060 m -8 X s 867 1088 m -17 X s 858 1116 m -8 X s 858
 1144 m -8 X s 858 1171 m -8 X s 858 1199 m -8 X s 867 1227 m -17 X s 858 1255 m -8 X s 858 1283 m -8 X s 858 1311 m -8 X s 858 1338 m -8 X s 867 1366 m -17 X s 858 1394 m -8 X s 858 1422 m -8 X s 858 1450 m -8 X s 858 1478 m -8 X s 867 1506 m -17 X
 s 867 949 m -17 X s 867 1506 m -17 X s 858 1533 m -8 X s
 gsave  710 794 779 843 C 830 939 t 0 r /Helvetica-Bold findfont 26.5982 sf 0 0 m (0) show NC gr 
 gsave  710 794 779 843 C 808 1077 t 0 r /Helvetica-Bold findfont 26.5982 sf 0 0 m (0.5) show NC gr 
 gsave  710 794 779 843 C 834 1217 t 0 r /Helvetica-Bold findfont 26.5982 sf 0 0 m (1) show NC gr 
 gsave  710 794 779 843 C 808 1356 t 0 r /Helvetica-Bold findfont 26.5982 sf 0 0 m (1.5) show NC gr 
 gsave  710 794 779 843 C 830 1496 t 0 r /Helvetica-Bold findfont 26.5982 sf 0 0 m (2) show NC gr  1 1 1 c 342 50 786 1583 bf black 786 1583 m 342 X s 1128 1583 m 50 Y s 1128 1633 m -342 X s 786 1633 m -50 Y s 1 1 1 c black
 gsave  710 794 779 843 C 1086 1604 t 0 r /Helvetica-Bold findfont 30.3979 sf 0 0 m (\)") show NC gr 
 gsave  710 794 779 843 C 1071 1587 t 0 r /Helvetica-Bold findfont 20.8986 sf 0 0 m (R) show NC gr 
 gsave  710 794 779 843 C 800 1604 t 0 r /Helvetica-Bold findfont 30.3979 sf 0 0 m (A RooPlot of "M\(W) show NC gr  861 1398 m -11 X s 850 1394 m 7 Y s 861 1398 m 11 X s 872 1394 m 7 Y s 861 1398 m 71 Y s 857 1469 m 8 X s 861 1398 m -72 Y s 857 1326
 m 8 X s 884 1340 m -12 X s 872 1336 m 8 Y s 884 1340 m 11 X s 895 1336 m 8 Y s 884 1340 m 67 Y s 880 1407 m 8 X s 884 1340 m -67 Y s 880 1273 m 8 X s 906 1143 m -11 X s 895 1139 m 7 Y s 906 1143 m 12 X s 918 1139 m 7 Y s 906 1143 m 44 Y s 903 1187
 m 7 X s 906 1143 m -45 Y s 903 1098 m 7 X s 929 1122 m -11 X s 918 1118 m 8 Y s 929 1122 m 12 X s 941 1118 m 8 Y s 929 1122 m 41 Y s 925 1163 m 8 X s 929 1122 m -41 Y s 925 1081 m 8 X s 952 1131 m -11 X s 941 1127 m 7 Y s 952 1131 m 11 X s 963 1127
 m 7 Y s 952 1131 m 50 Y s 948 1181 m 8 X s 952 1131 m -51 Y s 948 1080 m 8 X s 975 1006 m -12 X s 963 1002 m 8 Y s 975 1006 m 11 X s 986 1002 m 8 Y s 975 1006 m 21 Y s 971 1027 m 7 X s 975 1006 m -20 Y s 971 986 m 7 X s 997 959 m -11 X s 986 955 m
 7 Y s 997 959 m 12 X s 1009 955 m 7 Y s 997 959 m 10 Y s 994 969 m 7 X s 997 959 m -10 Y s 994 949 m 7 X s 1020 955 m -11 X s 1009 951 m 8 Y s 1020 955 m 12 X s 1032 951 m 8 Y s 1020 955 m 5 Y s 1016 960 m 8 X s 1020 955 m -4 Y s 1016 951 m 8 X s
 1043 985 m -11 X s 1032 981 m 8 Y s 1043 985 m 11 X s 1054 981 m 8 Y s 1043 985 m 26 Y s 1039 1011 m 8 X s 1043 985 m -26 Y s 1039 959 m 8 X s 1066 949 m -12 X s 1054 945 m 7 Y s 1066 949 m 11 X s 1077 945 m 7 Y s 1088 949 m -11 X s 1077 945 m 7 Y
 s 1088 949 m 12 X s 1100 945 m 7 Y s 1111 956 m -11 X s 1100 952 m 8 Y s 1111 956 m 11 X s 1122 952 m 8 Y s 1111 956 m 7 Y s 1107 963 m 8 X s 1111 956 m -7 Y s 1107 949 m 8 X s 1134 949 m -12 X s 1122 945 m 7 Y s 1134 949 m 11 X s 1145 945 m 7 Y s
 1157 985 m -12 X s 1145 981 m 8 Y s 1157 985 m 11 X s 1168 981 m 8 Y s 1157 985 m 26 Y s 1153 1011 m 7 X s 1157 985 m -26 Y s 1153 959 m 7 X s 1179 949 m -11 X s 1168 945 m 7 Y s 1179 949 m 12 X s 1191 945 m 7 Y s 1202 949 m -11 X s 1191 945 m 7 Y
 s 1202 949 m 11 X s 1213 945 m 7 Y s 1225 956 m -12 X s 1213 952 m 8 Y s 1225 956 m 11 X s 1236 952 m 8 Y s 1225 956 m 7 Y s 1221 963 m 8 X s 1225 956 m -7 Y s 1221 949 m 8 X s 1248 949 m -12 X s 1236 945 m 7 Y s 1248 949 m 11 X s 1259 945 m 7 Y s
 1270 949 m -11 X s 1259 945 m 7 Y s 1270 949 m 12 X s 1282 945 m 7 Y s 1293 949 m -11 X s 1282 945 m 7 Y s 1293 949 m 11 X s 1304 945 m 7 Y s 1316 949 m -12 X s 1304 945 m 7 Y s 1316 949 m 11 X s 1327 945 m 7 Y s 1338 949 m -11 X s 1327 945 m 7 Y s
 1338 949 m 12 X s 1350 945 m 7 Y s 1361 949 m -11 X s 1350 945 m 7 Y s 1361 949 m 12 X s 1373 945 m 7 Y s 1384 949 m -11 X s 1373 945 m 7 Y s 1384 949 m 11 X s 1395 945 m 7 Y s 1407 949 m -12 X s 1395 945 m 7 Y s 1407 949 m 11 X s 1418 945 m 7 Y s
 861 1398 884 1340 906 1143 929 1122 952 1131 975 1006 997 959 1020 955 1043 985 1066 949 1088 949 1111 956 1134 949 1157 985 1179 949 1202 949 1225 956 1248 949 1270 949 1293 949 1316 949 1338 949 1361 949 1384 949 1407 949 25 { m20} R 0 0 1 c 9 lw
 black 0 0 1 c 850 1528 m cl s 850 1528 m 2 -26 d 3 -25 d 6 -47 d 6 -43 d 5 -39 d 6 -36 d 6 -32 d 5 -30 d 6 -27 d 6 -24 d 5 -23 d 6 -20 d 6 -18 d 6 -17 d 5 -16 d 6 -14 d 6 -12 d 11 -23 d 11 -18 d 12 -15 d 11 -13 d 11 -10 d 12 -9 d 11 -7 d 12 -6 d 22
 -9 d 23 -7 d 23 -4 d 22 -3 d 23 -2 d 23 -1 d 23 -1 d 22 -1 d 23 X 23 -1 d 159 X s black 3 lw 850 923 m 568 X s
 gsave  710 794 779 843 C 1409 865 t 0 r /Helvetica-Bold findfont 26.5982 sf 0 0 m (\)) show NC gr 
 gsave  710 794 779 843 C 1399 878 t 0 r /Helvetica-Bold findfont 17.0988 sf 0 0 m (2) show NC gr 
 gsave  710 794 779 843 C 1299 865 t 0 r /Helvetica-Bold findfont 26.5982 sf 0 0 m (\) \(GeV/c) show NC gr 
 gsave  710 794 779 843 C 1286 851 t 0 r /Helvetica-Bold findfont 17.0988 sf 0 0 m (R) show NC gr 
 gsave  710 794 779 843 C 1229 865 t 0 r /Helvetica-Bold findfont 26.5982 sf 0 0 m (M\(W) show NC gr  850 942 m -19 Y s 872 932 m -9 Y s 895 932 m -9 Y s 918 932 m -9 Y s 941 932 m -9 Y s 963 942 m -19 Y s 986 932 m -9 Y s 1009 932 m -9 Y s 1032 932
 m -9 Y s 1054 932 m -9 Y s 1077 942 m -19 Y s 1100 932 m -9 Y s 1122 932 m -9 Y s 1145 932 m -9 Y s 1168 932 m -9 Y s 1191 942 m -19 Y s 1213 932 m -9 Y s 1236 932 m -9 Y s 1259 932 m -9 Y s 1282 932 m -9 Y s 1304 942 m -19 Y s 1327 932 m -9 Y s
 1350 932 m -9 Y s 1373 932 m -9 Y s 1395 932 m -9 Y s 1418 942 m -19 Y s
 gsave  710 794 779 843 C 827 895 t 0 r /Helvetica-Bold findfont 26.5982 sf 0 0 m (500) show NC gr 
 gsave  710 794 779 843 C 933 895 t 0 r /Helvetica-Bold findfont 26.5982 sf 0 0 m (1000) show NC gr 
 gsave  710 794 779 843 C 1047 895 t 0 r /Helvetica-Bold findfont 26.5982 sf 0 0 m (1500) show NC gr 
 gsave  710 794 779 843 C 1159 895 t 0 r /Helvetica-Bold findfont 26.5982 sf 0 0 m (2000) show NC gr 
 gsave  710 794 779 843 C 1272 895 t 0 r /Helvetica-Bold findfont 26.5982 sf 0 0 m (2500) show NC gr 
 gsave  710 794 779 843 C 1386 895 t 0 r /Helvetica-Bold findfont 26.5982 sf 0 0 m (3000) show NC gr  850 923 m 634 Y s
 gsave  710 794 779 843 C 815 1543 t 90 r /Helvetica-Bold findfont 26.5982 sf 0 0 m ( \)) show NC gr 
 gsave  710 794 779 843 C 802 1536 t 90 r /Helvetica-Bold findfont 17.0988 sf 0 0 m (2) show NC gr 
 gsave  710 794 779 843 C 815 1282 t 90 r /Helvetica-Bold findfont 26.5982 sf 0 0 m (Events / \( 100 GeV/c) show NC gr  867 949 m -17 X s 858 976 m -8 X s 858 1004 m -8 X s 858 1032 m -8 X s 858 1060 m -8 X s 867 1088 m -17 X s 858 1116 m -8 X s 858
 1144 m -8 X s 858 1171 m -8 X s 858 1199 m -8 X s 867 1227 m -17 X s 858 1255 m -8 X s 858 1283 m -8 X s 858 1311 m -8 X s 858 1338 m -8 X s 867 1366 m -17 X s 858 1394 m -8 X s 858 1422 m -8 X s 858 1450 m -8 X s 858 1478 m -8 X s 867 1506 m -17 X
 s 867 949 m -17 X s 867 1506 m -17 X s 858 1533 m -8 X s
 gsave  710 794 779 843 C 830 939 t 0 r /Helvetica-Bold findfont 26.5982 sf 0 0 m (0) show NC gr 
 gsave  710 794 779 843 C 808 1077 t 0 r /Helvetica-Bold findfont 26.5982 sf 0 0 m (0.5) show NC gr 
 gsave  710 794 779 843 C 834 1217 t 0 r /Helvetica-Bold findfont 26.5982 sf 0 0 m (1) show NC gr 
 gsave  710 794 779 843 C 808 1356 t 0 r /Helvetica-Bold findfont 26.5982 sf 0 0 m (1.5) show NC gr 
 gsave  710 794 779 843 C 830 1496 t 0 r /Helvetica-Bold findfont 26.5982 sf 0 0 m (2) show NC gr  1 1 1 c 342 50 786 1583 bf black 786 1583 m 342 X s 1128 1583 m 50 Y s 1128 1633 m -342 X s 786 1633 m -50 Y s 1 1 1 c black
 gsave  710 794 779 843 C 1086 1604 t 0 r /Helvetica-Bold findfont 30.3979 sf 0 0 m (\)") show NC gr 
 gsave  710 794 779 843 C 1071 1587 t 0 r /Helvetica-Bold findfont 20.8986 sf 0 0 m (R) show NC gr 
 gsave  710 794 779 843 C 800 1604 t 0 r /Helvetica-Bold findfont 30.3979 sf 0 0 m (A RooPlot of "M\(W) show NC gr  0.95 0.95 0.95 c 711 794 1534 843 bf 1 1 1 c 1534 843 m 8 8 d 778 Y 695 X 8 8 d -711 X -794 Y f 0.665 0.665 0.665 c 1534 843 m 8 8 d
 695 X 778 Y 8 8 d -794 Y -711 X f black 0.95 0.95 0.95 c 568 634 1606 923 bf 1 1 1 c 1606 923 m 4 4 d 626 Y 560 X 4 4 d -568 X -634 Y f 0.665 0.665 0.665 c 1606 923 m 4 4 d 560 X 626 Y 4 4 d -634 Y -568 X f black 568 634 1606 923 bl 1 1 1 c black
 1606 923 m 568 X s 1606 923 m 568 X s
 gsave  711 794 1534 843 C 2165 865 t 0 r /Helvetica-Bold findfont 26.5982 sf 0 0 m (\)) show NC gr 
 gsave  711 794 1534 843 C 2156 878 t 0 r /Helvetica-Bold findfont 17.0988 sf 0 0 m (2) show NC gr 
 gsave  711 794 1534 843 C 2055 865 t 0 r /Helvetica-Bold findfont 26.5982 sf 0 0 m (\) \(GeV/c) show NC gr 
 gsave  711 794 1534 843 C 2042 851 t 0 r /Helvetica-Bold findfont 17.0988 sf 0 0 m (R) show NC gr 
 gsave  711 794 1534 843 C 1985 865 t 0 r /Helvetica-Bold findfont 26.5982 sf 0 0 m (M\(W) show NC gr  1606 942 m -19 Y s 1628 932 m -9 Y s 1651 932 m -9 Y s 1674 932 m -9 Y s 1696 932 m -9 Y s 1719 942 m -19 Y s 1742 932 m -9 Y s 1765 932 m -9 Y s
 1787 932 m -9 Y s 1810 932 m -9 Y s 1833 942 m -19 Y s 1856 932 m -9 Y s 1878 932 m -9 Y s 1901 932 m -9 Y s 1924 932 m -9 Y s 1947 942 m -19 Y s 1969 932 m -9 Y s 1992 932 m -9 Y s 2015 932 m -9 Y s 2038 932 m -9 Y s 2060 942 m -19 Y s 2083 932 m
 -9 Y s 2106 932 m -9 Y s 2129 932 m -9 Y s 2151 932 m -9 Y s 2174 942 m -19 Y s
 gsave  711 794 1534 843 C 1581 895 t 0 r /Helvetica-Bold findfont 26.5982 sf 0 0 m (500) show NC gr 
 gsave  711 794 1534 843 C 1688 895 t 0 r /Helvetica-Bold findfont 26.5982 sf 0 0 m (1000) show NC gr 
 gsave  711 794 1534 843 C 1801 895 t 0 r /Helvetica-Bold findfont 26.5982 sf 0 0 m (1500) show NC gr 
 gsave  711 794 1534 843 C 1915 895 t 0 r /Helvetica-Bold findfont 26.5982 sf 0 0 m (2000) show NC gr 
 gsave  711 794 1534 843 C 2029 895 t 0 r /Helvetica-Bold findfont 26.5982 sf 0 0 m (2500) show NC gr 
 gsave  711 794 1534 843 C 2143 895 t 0 r /Helvetica-Bold findfont 26.5982 sf 0 0 m (3000) show NC gr  1606 923 m 634 Y s
 gsave  711 794 1534 843 C 1570 1543 t 90 r /Helvetica-Bold findfont 26.5982 sf 0 0 m ( \)) show NC gr 
 gsave  711 794 1534 843 C 1557 1536 t 90 r /Helvetica-Bold findfont 17.0988 sf 0 0 m (2) show NC gr 
 gsave  711 794 1534 843 C 1570 1282 t 90 r /Helvetica-Bold findfont 26.5982 sf 0 0 m (Events / \( 100 GeV/c) show NC gr  1623 923 m -17 X s 1614 946 m -8 X s 1614 970 m -8 X s 1614 993 m -8 X s 1614 1017 m -8 X s 1623 1040 m -17 X s 1614 1064 m -8
 X s 1614 1087 m -8 X s 1614 1111 m -8 X s 1614 1135 m -8 X s 1623 1158 m -17 X s 1614 1182 m -8 X s 1614 1205 m -8 X s 1614 1229 m -8 X s 1614 1252 m -8 X s 1623 1276 m -17 X s 1614 1299 m -8 X s 1614 1323 m -8 X s 1614 1347 m -8 X s 1614 1370 m -8
 X s 1623 1394 m -17 X s 1614 1417 m -8 X s 1614 1441 m -8 X s 1614 1464 m -8 X s 1614 1488 m -8 X s 1623 1511 m -17 X s 1623 1511 m -17 X s 1614 1535 m -8 X s
 gsave  711 794 1534 843 C 1585 912 t 0 r /Helvetica-Bold findfont 26.5982 sf 0 0 m (0) show NC gr 
 gsave  711 794 1534 843 C 1562 1030 t 0 r /Helvetica-Bold findfont 26.5982 sf 0 0 m (0.5) show NC gr 
 gsave  711 794 1534 843 C 1589 1147 t 0 r /Helvetica-Bold findfont 26.5982 sf 0 0 m (1) show NC gr 
 gsave  711 794 1534 843 C 1562 1265 t 0 r /Helvetica-Bold findfont 26.5982 sf 0 0 m (1.5) show NC gr 
 gsave  711 794 1534 843 C 1585 1384 t 0 r /Helvetica-Bold findfont 26.5982 sf 0 0 m (2) show NC gr 
 gsave  711 794 1534 843 C 1562 1502 t 0 r /Helvetica-Bold findfont 26.5982 sf 0 0 m (2.5) show NC gr  1 1 1 c 342 50 1542 1583 bf black 1542 1583 m 342 X s 1884 1583 m 50 Y s 1884 1633 m -342 X s 1542 1633 m -50 Y s 1 1 1 c black
 gsave  711 794 1534 843 C 1843 1604 t 0 r /Helvetica-Bold findfont 30.3979 sf 0 0 m (\)") show NC gr 
 gsave  711 794 1534 843 C 1828 1587 t 0 r /Helvetica-Bold findfont 20.8986 sf 0 0 m (R) show NC gr 
 gsave  711 794 1534 843 C 1557 1604 t 0 r /Helvetica-Bold findfont 30.3979 sf 0 0 m (A RooPlot of "M\(W) show NC gr  1617 1302 m -11 X s 1606 1299 m 7 Y s 1617 1302 m 11 X s 1628 1299 m 7 Y s 1617 1302 m 61 Y s 1613 1363 m 8 X s 1617 1302 m -60 Y s
 1613 1242 m 8 X s 1640 1254 m -12 X s 1628 1250 m 7 Y s 1640 1254 m 11 X s 1651 1250 m 7 Y s 1640 1254 m 56 Y s 1636 1310 m 7 X s 1640 1254 m -57 Y s 1636 1197 m 7 X s 1662 1087 m -11 X s 1651 1083 m 7 Y s 1662 1087 m 12 X s 1674 1083 m 7 Y s 1662
 1087 m 37 Y s 1659 1124 m 7 X s 1662 1087 m -38 Y s 1659 1049 m 7 X s 1685 1070 m -11 X s 1674 1066 m 8 Y s 1685 1070 m 11 X s 1696 1066 m 8 Y s 1685 1070 m 35 Y s 1681 1105 m 8 X s 1685 1070 m -35 Y s 1681 1035 m 8 X s 1708 1081 m -12 X s 1696
 1077 m 8 Y s 1708 1081 m 11 X s 1719 1077 m 8 Y s 1708 1081 m 43 Y s 1704 1124 m 8 X s 1708 1081 m -42 Y s 1704 1039 m 8 X s 1731 985 m -12 X s 1719 981 m 8 Y s 1731 985 m 11 X s 1742 981 m 8 Y s 1731 985 m 17 Y s 1727 1002 m 7 X s 1731 985 m -18 Y
 s 1727 967 m 7 X s 1753 934 m -11 X s 1742 930 m 8 Y s 1753 934 m 12 X s 1765 930 m 8 Y s 1753 934 m 9 Y s 1750 943 m 7 X s 1753 934 m -8 Y s 1750 926 m 7 X s 1776 1019 m -11 X s 1765 1016 m 7 Y s 1776 1019 m 11 X s 1787 1016 m 7 Y s 1776 1019 m 10
 Y s 1772 1029 m 8 X s 1776 1019 m -9 Y s 1772 1010 m 8 X s 1799 1089 m -12 X s 1787 1085 m 8 Y s 1799 1089 m 11 X s 1810 1085 m 8 Y s 1799 1089 m 24 Y s 1795 1113 m 8 X s 1799 1089 m -24 Y s 1795 1065 m 8 X s 1822 1366 m -12 X s 1810 1362 m 8 Y s
 1822 1366 m 11 X s 1833 1362 m 8 Y s 1822 1366 m 19 Y s 1818 1385 m 7 X s 1822 1366 m -19 Y s 1818 1347 m 7 X s 1844 1213 m -11 X s 1833 1209 m 7 Y s 1844 1213 m 12 X s 1856 1209 m 7 Y s 1844 1213 m 15 Y s 1840 1228 m 8 X s 1844 1213 m -16 Y s 1840
 1197 m 8 X s 1867 972 m -11 X s 1856 968 m 8 Y s 1867 972 m 11 X s 1878 968 m 8 Y s 1867 972 m 9 Y s 1863 981 m 8 X s 1867 972 m -8 Y s 1863 964 m 8 X s 1890 925 m -12 X s 1878 923 m 6 Y s 1890 925 m 11 X s 1901 923 m 6 Y s 1890 925 m 1 Y s 1886
 926 m 8 X s 1890 925 m -1 Y s 1886 924 m 8 X s 1913 954 m -12 X s 1901 951 m 7 Y s 1913 954 m 11 X s 1924 951 m 7 Y s 1913 954 m 22 Y s 1909 976 m 7 X s 1913 954 m -22 Y s 1909 932 m 7 X s 1935 923 m -11 X s 1924 923 m 3 Y s 1935 923 m 12 X s 1947
 923 m 3 Y s 1958 928 m -11 X s 1947 924 m 8 Y s 1958 928 m 11 X s 1969 924 m 8 Y s 1958 928 m 2 Y s 1954 930 m 8 X s 1958 928 m -2 Y s 1954 926 m 8 X s 1981 939 m -12 X s 1969 935 m 8 Y s 1981 939 m 11 X s 1992 935 m 8 Y s 1981 939 m 7 Y s 1977 946
 m 8 X s 1981 939 m -7 Y s 1977 932 m 8 X s 2003 923 m -11 X s 1992 923 m 3 Y s 2003 923 m 12 X s 2015 923 m 3 Y s 2026 923 m -11 X s 2015 923 m 3 Y s 2026 923 m 12 X s 2038 923 m 3 Y s 2049 923 m -11 X s 2038 923 m 3 Y s 2049 923 m 11 X s 2060 923
 m 3 Y s 2072 923 m -12 X s 2060 923 m 3 Y s 2072 923 m 11 X s 2083 923 m 3 Y s 2094 923 m -11 X s 2083 923 m 3 Y s 2094 923 m 12 X s 2106 923 m 3 Y s 2117 923 m -11 X s 2106 923 m 3 Y s 2117 923 m 12 X s 2129 923 m 3 Y s 2140 923 m -11 X s 2129 923
 m 3 Y s 2140 923 m 11 X s 2151 923 m 3 Y s 2163 923 m -12 X s 2151 923 m 3 Y s 2163 923 m 11 X s 2174 923 m 3 Y s 1617 1302 1640 1254 1662 1087 1685 1070 1708 1081 1731 985 1753 934 1776 1019 1799 1089 1822 1366 1844 1213 1867 972 1890 925 1913 954
 1935 923 1958 928 1981 939 2003 923 2026 923 2049 923 2072 923 2094 923 2117 923 2140 923 2163 923 25 { m20} R 0 0 1 c 9 lw black 0 0 1 c 1606 1384 m cl s 1606 1384 m 5 -37 d 6 -35 d 6 -31 d 5 -29 d 6 -27 d 6 -24 d 5 -22 d 6 -21 d 6 -18 d 5 -18 d 6
 -15 d 6 -15 d 5 -13 d 6 -12 d 6 -11 d 5 -10 d 12 -17 d 11 -14 d 12 -11 d 11 -9 d 11 -5 d 6 -1 d 6 X 5 2 d 6 3 d 6 6 d 3 5 d 2 6 d 3 7 d 3 9 d 3 11 d 3 15 d 1 9 d 2 11 d 1 11 d 1 14 d 2 15 d 1 17 d 2 20 d 1 23 d 2 26 d 1 30 d 1 33 d 2 37 d 6 162 d
 17 Y 1 16 d 1 13 d 10 Y 1 7 d 1 3 d 1 X -4 Y 1 -7 d 1 -10 d -14 Y 1 -15 d 1 -18 d -19 Y 2 -42 d 1 -43 d 2 -41 d 1 -39 d 2 -36 d 1 -32 d 1 -29 d 2 -25 d 1 -22 d 2 -19 d 1 -17 d 2 -16 d 1 -13 d 1 -12 d 2 -10 d 1 -9 d 2 -8 d 2 -14 d 3 -12 d 3 -9 d 3
 -8 d 3 -6 d 3 -6 d 5 -8 d 6 -7 d 6 -5 d 11 -7 d 12 -5 d 11 -4 d 23 -4 d 22 -3 d 23 -2 d 23 -1 d 23 -1 d 22 X 23 -1 d 68 X 23 -1 d s black 3 lw 1606 923 m 568 X s
 gsave  711 794 1534 843 C 2165 865 t 0 r /Helvetica-Bold findfont 26.5982 sf 0 0 m (\)) show NC gr 
 gsave  711 794 1534 843 C 2156 878 t 0 r /Helvetica-Bold findfont 17.0988 sf 0 0 m (2) show NC gr 
 gsave  711 794 1534 843 C 2055 865 t 0 r /Helvetica-Bold findfont 26.5982 sf 0 0 m (\) \(GeV/c) show NC gr 
 gsave  711 794 1534 843 C 2042 851 t 0 r /Helvetica-Bold findfont 17.0988 sf 0 0 m (R) show NC gr 
 gsave  711 794 1534 843 C 1985 865 t 0 r /Helvetica-Bold findfont 26.5982 sf 0 0 m (M\(W) show NC gr  1606 942 m -19 Y s 1628 932 m -9 Y s 1651 932 m -9 Y s 1674 932 m -9 Y s 1696 932 m -9 Y s 1719 942 m -19 Y s 1742 932 m -9 Y s 1765 932 m -9 Y s
 1787 932 m -9 Y s 1810 932 m -9 Y s 1833 942 m -19 Y s 1856 932 m -9 Y s 1878 932 m -9 Y s 1901 932 m -9 Y s 1924 932 m -9 Y s 1947 942 m -19 Y s 1969 932 m -9 Y s 1992 932 m -9 Y s 2015 932 m -9 Y s 2038 932 m -9 Y s 2060 942 m -19 Y s 2083 932 m
 -9 Y s 2106 932 m -9 Y s 2129 932 m -9 Y s 2151 932 m -9 Y s 2174 942 m -19 Y s
 gsave  711 794 1534 843 C 1581 895 t 0 r /Helvetica-Bold findfont 26.5982 sf 0 0 m (500) show NC gr 
 gsave  711 794 1534 843 C 1688 895 t 0 r /Helvetica-Bold findfont 26.5982 sf 0 0 m (1000) show NC gr 
 gsave  711 794 1534 843 C 1801 895 t 0 r /Helvetica-Bold findfont 26.5982 sf 0 0 m (1500) show NC gr 
 gsave  711 794 1534 843 C 1915 895 t 0 r /Helvetica-Bold findfont 26.5982 sf 0 0 m (2000) show NC gr 
 gsave  711 794 1534 843 C 2029 895 t 0 r /Helvetica-Bold findfont 26.5982 sf 0 0 m (2500) show NC gr 
 gsave  711 794 1534 843 C 2143 895 t 0 r /Helvetica-Bold findfont 26.5982 sf 0 0 m (3000) show NC gr  1606 923 m 634 Y s
 gsave  711 794 1534 843 C 1570 1543 t 90 r /Helvetica-Bold findfont 26.5982 sf 0 0 m ( \)) show NC gr 
 gsave  711 794 1534 843 C 1557 1536 t 90 r /Helvetica-Bold findfont 17.0988 sf 0 0 m (2) show NC gr 
 gsave  711 794 1534 843 C 1570 1282 t 90 r /Helvetica-Bold findfont 26.5982 sf 0 0 m (Events / \( 100 GeV/c) show NC gr  1623 923 m -17 X s 1614 946 m -8 X s 1614 970 m -8 X s 1614 993 m -8 X s 1614 1017 m -8 X s 1623 1040 m -17 X s 1614 1064 m -8
 X s 1614 1087 m -8 X s 1614 1111 m -8 X s 1614 1135 m -8 X s 1623 1158 m -17 X s 1614 1182 m -8 X s 1614 1205 m -8 X s 1614 1229 m -8 X s 1614 1252 m -8 X s 1623 1276 m -17 X s 1614 1299 m -8 X s 1614 1323 m -8 X s 1614 1347 m -8 X s 1614 1370 m -8
 X s 1623 1394 m -17 X s 1614 1417 m -8 X s 1614 1441 m -8 X s 1614 1464 m -8 X s 1614 1488 m -8 X s 1623 1511 m -17 X s 1623 1511 m -17 X s 1614 1535 m -8 X s
 gsave  711 794 1534 843 C 1585 912 t 0 r /Helvetica-Bold findfont 26.5982 sf 0 0 m (0) show NC gr 
 gsave  711 794 1534 843 C 1562 1030 t 0 r /Helvetica-Bold findfont 26.5982 sf 0 0 m (0.5) show NC gr 
 gsave  711 794 1534 843 C 1589 1147 t 0 r /Helvetica-Bold findfont 26.5982 sf 0 0 m (1) show NC gr 
 gsave  711 794 1534 843 C 1562 1265 t 0 r /Helvetica-Bold findfont 26.5982 sf 0 0 m (1.5) show NC gr 
 gsave  711 794 1534 843 C 1585 1384 t 0 r /Helvetica-Bold findfont 26.5982 sf 0 0 m (2) show NC gr 
 gsave  711 794 1534 843 C 1562 1502 t 0 r /Helvetica-Bold findfont 26.5982 sf 0 0 m (2.5) show NC gr  1 1 1 c 342 50 1542 1583 bf black 1542 1583 m 342 X s 1884 1583 m 50 Y s 1884 1633 m -342 X s 1542 1633 m -50 Y s 1 1 1 c black
 gsave  711 794 1534 843 C 1843 1604 t 0 r /Helvetica-Bold findfont 30.3979 sf 0 0 m (\)") show NC gr 
 gsave  711 794 1534 843 C 1828 1587 t 0 r /Helvetica-Bold findfont 20.8986 sf 0 0 m (R) show NC gr 
 gsave  711 794 1534 843 C 1557 1604 t 0 r /Helvetica-Bold findfont 30.3979 sf 0 0 m (A RooPlot of "M\(W) show NC gr  0.95 0.95 0.95 c 710 793 23 17 bf 1 1 1 c 23 17 m 8 8 d 777 Y 694 X 8 8 d -710 X -793 Y f 0.665 0.665 0.665 c 23 17 m 8 8 d 694 X
 777 Y 8 8 d -793 Y -710 X f black 0.95 0.95 0.95 c 568 635 94 96 bf 1 1 1 c 94 96 m 4 4 d 627 Y 560 X 4 4 d -568 X -635 Y f 0.665 0.665 0.665 c 94 96 m 4 4 d 560 X 627 Y 4 4 d -635 Y -568 X f black 568 635 94 96 bl 1 1 1 c black 94 96 m 568 X s 94
 96 m 568 X s
 gsave  710 793 23 17 C 654 42 t 0 r /Helvetica-Bold findfont 26.5982 sf 0 0 m (\)) show NC gr 
 gsave  710 793 23 17 C 641 27 t 0 r /Helvetica-Bold findfont 17.0988 sf 0 0 m (R) show NC gr 
 gsave  710 793 23 17 C 567 42 t 0 r /Helvetica-Bold findfont 26.5982 sf 0 0 m (\)/M\(W) show NC gr 
 gsave  710 793 23 17 C 554 30 t 0 r /Helvetica-Bold findfont 17.0988 sf 0 0 m (R) show NC gr 
 gsave  710 793 23 17 C 538 42 t 0 r /Symbol findfont 26.5982 sf 0 0 m (n) show NC gr 
 gsave  710 793 23 17 C 508 42 t 0 r /Helvetica-Bold findfont 26.5982 sf 0 0 m (M\() show NC gr  94 115 m -19 Y s 105 105 m -9 Y s 116 105 m -9 Y s 128 105 m -9 Y s 139 105 m -9 Y s 151 115 m -19 Y s 162 105 m -9 Y s 173 105 m -9 Y s 185 105 m -9 Y
 s 196 105 m -9 Y s 207 115 m -19 Y s 219 105 m -9 Y s 230 105 m -9 Y s 242 105 m -9 Y s 253 105 m -9 Y s 264 115 m -19 Y s 276 105 m -9 Y s 287 105 m -9 Y s 298 105 m -9 Y s 310 105 m -9 Y s 321 115 m -19 Y s 332 105 m -9 Y s 344 105 m -9 Y s 355
 105 m -9 Y s 367 105 m -9 Y s 378 115 m -19 Y s 389 105 m -9 Y s 401 105 m -9 Y s 412 105 m -9 Y s 423 105 m -9 Y s 435 115 m -19 Y s 446 105 m -9 Y s 458 105 m -9 Y s 469 105 m -9 Y s 480 105 m -9 Y s 492 115 m -19 Y s 503 105 m -9 Y s 514 105 m
 -9 Y s 526 105 m -9 Y s 537 105 m -9 Y s 548 115 m -19 Y s 560 105 m -9 Y s 571 105 m -9 Y s 583 105 m -9 Y s 594 105 m -9 Y s 605 115 m -19 Y s 617 105 m -9 Y s 628 105 m -9 Y s 639 105 m -9 Y s 651 105 m -9 Y s 662 115 m -19 Y s
 gsave  710 793 23 17 C 85 68 t 0 r /Helvetica-Bold findfont 26.5982 sf 0 0 m (0) show NC gr 
 gsave  710 793 23 17 C 133 68 t 0 r /Helvetica-Bold findfont 26.5982 sf 0 0 m (0.1) show NC gr 
 gsave  710 793 23 17 C 188 68 t 0 r /Helvetica-Bold findfont 26.5982 sf 0 0 m (0.2) show NC gr 
 gsave  710 793 23 17 C 245 68 t 0 r /Helvetica-Bold findfont 26.5982 sf 0 0 m (0.3) show NC gr 
 gsave  710 793 23 17 C 301 68 t 0 r /Helvetica-Bold findfont 26.5982 sf 0 0 m (0.4) show NC gr 
 gsave  710 793 23 17 C 358 68 t 0 r /Helvetica-Bold findfont 26.5982 sf 0 0 m (0.5) show NC gr 
 gsave  710 793 23 17 C 415 68 t 0 r /Helvetica-Bold findfont 26.5982 sf 0 0 m (0.6) show NC gr 
 gsave  710 793 23 17 C 472 68 t 0 r /Helvetica-Bold findfont 26.5982 sf 0 0 m (0.7) show NC gr 
 gsave  710 793 23 17 C 529 68 t 0 r /Helvetica-Bold findfont 26.5982 sf 0 0 m (0.8) show NC gr 
 gsave  710 793 23 17 C 586 68 t 0 r /Helvetica-Bold findfont 26.5982 sf 0 0 m (0.9) show NC gr 
 gsave  710 793 23 17 C 656 68 t 0 r /Helvetica-Bold findfont 26.5982 sf 0 0 m (1) show NC gr  94 96 m 635 Y s
 gsave  710 793 23 17 C 55 538 t 90 r /Helvetica-Bold findfont 26.5982 sf 0 0 m (Events / \( 0.04 \)) show NC gr  111 96 m -17 X s 102 121 m -8 X s 102 146 m -8 X s 102 171 m -8 X s 102 196 m -8 X s 111 221 m -17 X s 102 246 m -8 X s 102 271 m -8 X
 s 102 297 m -8 X s 102 322 m -8 X s 111 347 m -17 X s 102 372 m -8 X s 102 397 m -8 X s 102 422 m -8 X s 102 447 m -8 X s 111 472 m -17 X s 102 497 m -8 X s 102 522 m -8 X s 102 547 m -8 X s 102 572 m -8 X s 111 598 m -17 X s 102 623 m -8 X s 102
 648 m -8 X s 102 673 m -8 X s 102 698 m -8 X s 111 723 m -17 X s 111 723 m -17 X s
 gsave  710 793 23 17 C 74 85 t 0 r /Helvetica-Bold findfont 26.5982 sf 0 0 m (0) show NC gr 
 gsave  710 793 23 17 C 51 210 t 0 r /Helvetica-Bold findfont 26.5982 sf 0 0 m (0.5) show NC gr 
 gsave  710 793 23 17 C 78 336 t 0 r /Helvetica-Bold findfont 26.5982 sf 0 0 m (1) show NC gr 
 gsave  710 793 23 17 C 51 461 t 0 r /Helvetica-Bold findfont 26.5982 sf 0 0 m (1.5) show NC gr 
 gsave  710 793 23 17 C 74 588 t 0 r /Helvetica-Bold findfont 26.5982 sf 0 0 m (2) show NC gr 
 gsave  710 793 23 17 C 51 713 t 0 r /Helvetica-Bold findfont 26.5982 sf 0 0 m (2.5) show NC gr  1 1 1 c 437 50 30 756 bf black 30 756 m 437 X s 467 756 m 50 Y s 467 806 m -437 X s 30 806 m -50 Y s 1 1 1 c black
 gsave  710 793 23 17 C 419 777 t 0 r /Helvetica-Bold findfont 30.3979 sf 0 0 m (\)") show NC gr 
 gsave  710 793 23 17 C 404 760 t 0 r /Helvetica-Bold findfont 20.8986 sf 0 0 m (R) show NC gr 
 gsave  710 793 23 17 C 320 777 t 0 r /Helvetica-Bold findfont 30.3979 sf 0 0 m (\)/M\(W) show NC gr 
 gsave  710 793 23 17 C 305 766 t 0 r /Helvetica-Bold findfont 20.8986 sf 0 0 m (R) show NC gr 
 gsave  710 793 23 17 C 288 777 t 0 r /Symbol findfont 30.3979 sf 0 0 m (n) show NC gr 
 gsave  710 793 23 17 C 47 777 t 0 r /Helvetica-Bold findfont 30.3979 sf 0 0 m (A RooPlot of "M\() show NC gr  105 96 m -11 X s 94 96 m 4 Y s 105 96 m 11 X s 116 96 m 4 Y s 128 96 m -12 X s 116 96 m 4 Y s 128 96 m 11 X s 139 96 m 4 Y s 151 96 m -12
 X s 139 96 m 4 Y s 151 96 m 11 X s 162 96 m 4 Y s 173 96 m -11 X s 162 96 m 4 Y s 173 96 m 12 X s 185 96 m 4 Y s 196 96 m -11 X s 185 96 m 4 Y s 196 96 m 11 X s 207 96 m 4 Y s 219 110 m -12 X s 207 106 m 8 Y s 219 110 m 11 X s 230 106 m 8 Y s 219
 110 m 4 Y s 215 114 m 8 X s 219 110 m -3 Y s 215 107 m 8 X s 242 123 m -12 X s 230 119 m 8 Y s 242 123 m 11 X s 253 119 m 8 Y s 242 123 m 5 Y s 238 128 m 7 X s 242 123 m -5 Y s 238 118 m 7 X s 264 140 m -11 X s 253 136 m 8 Y s 264 140 m 12 X s 276
 136 m 8 Y s 264 140 m 6 Y s 260 146 m 8 X s 264 140 m -6 Y s 260 134 m 8 X s 287 179 m -11 X s 276 175 m 7 Y s 287 179 m 11 X s 298 175 m 7 Y s 287 179 m 8 Y s 283 187 m 8 X s 287 179 m -9 Y s 283 170 m 8 X s 310 475 m -12 X s 298 471 m 7 Y s 310
 475 m 11 X s 321 471 m 7 Y s 310 475 m 17 Y s 306 492 m 8 X s 310 475 m -18 Y s 306 457 m 8 X s 332 505 m -11 X s 321 501 m 8 Y s 332 505 m 12 X s 344 501 m 8 Y s 332 505 m 19 Y s 329 524 m 7 X s 332 505 m -19 Y s 329 486 m 7 X s 355 156 m -11 X s
 344 152 m 8 Y s 355 156 m 12 X s 367 152 m 8 Y s 355 156 m 7 Y s 351 163 m 8 X s 355 156 m -7 Y s 351 149 m 8 X s 378 120 m -11 X s 367 117 m 7 Y s 378 120 m 11 X s 389 117 m 7 Y s 378 120 m 5 Y s 374 125 m 8 X s 378 120 m -4 Y s 374 116 m 8 X s
 401 104 m -12 X s 389 101 m 7 Y s 401 104 m 11 X s 412 101 m 7 Y s 401 104 m 3 Y s 397 107 m 7 X s 401 104 m -2 Y s 397 102 m 7 X s 423 131 m -11 X s 412 128 m 7 Y s 423 131 m 12 X s 435 128 m 7 Y s 423 131 m 6 Y s 420 137 m 7 X s 423 131 m -5 Y s
 420 126 m 7 X s 446 98 m -11 X s 435 96 m 5 Y s 446 98 m 12 X s 458 96 m 5 Y s 446 98 m 1 Y s 442 99 m 8 X s 446 98 m -2 Y s 442 96 m 8 X s 469 97 m -11 X s 458 96 m 5 Y s 469 97 m 11 X s 480 96 m 5 Y s 469 97 m 1 Y s 465 98 m 8 X s 469 97 m -1 Y s
 465 96 m 8 X s 492 109 m -12 X s 480 105 m 7 Y s 492 109 m 11 X s 503 105 m 7 Y s 492 109 m 3 Y s 488 112 m 7 X s 492 109 m -4 Y s 488 105 m 7 X s 514 96 m -11 X s 503 96 m 4 Y s 514 96 m 12 X s 526 96 m 4 Y s 537 96 m -11 X s 526 96 m 4 Y s 537 96
 m 11 X s 548 96 m 4 Y s 560 96 m -12 X s 548 96 m 4 Y s 560 96 m 11 X s 571 96 m 4 Y s 583 109 m -12 X s 571 105 m 7 Y s 583 109 m 11 X s 594 105 m 7 Y s 583 109 m 3 Y s 579 112 m 7 X s 583 109 m -4 Y s 579 105 m 7 X s 605 97 m -11 X s 594 96 m 5 Y
 s 605 97 m 12 X s 617 96 m 5 Y s 605 97 m 1 Y s 602 98 m 7 X s 605 97 m -1 Y s 602 96 m 7 X s 628 96 m -11 X s 617 96 m 4 Y s 628 96 m 11 X s 639 96 m 4 Y s 651 96 m -12 X s 639 96 m 4 Y s 651 96 m 11 X s 662 96 m 4 Y s 105 96 128 96 151 96 173 96
 196 96 219 110 242 123 264 140 287 179 310 475 332 505 355 156 378 120 401 104 423 131 446 98 469 97 492 109 514 96 537 96 560 96 583 109 605 97 628 96 651 96 25 { m20} R 0 0 1 c 9 lw black 0 0 1 c 94 98 m cl s 94 98 m 22 1 d 23 X 23 1 d 23 2 d 22
 3 d 23 5 d 12 4 d 11 6 d 6 4 d 5 6 d 6 7 d 6 10 d 2 7 d 3 7 d 3 10 d 3 11 d 3 14 d 3 17 d 1 10 d 2 11 d 1 13 d 1 14 d 2 17 d 1 18 d 2 21 d 1 23 d 1 26 d 2 30 d 1 32 d 2 36 d 5 157 d 1 18 d 1 16 d 1 15 d 12 Y 1 9 d 1 6 d 3 Y 1 1 d 1 -4 d 1 -6 d -9 Y
 1 -12 d 1 -14 d -16 Y 2 -36 d 3 -81 d 1 -39 d 1 -37 d 2 -35 d 1 -31 d 2 -28 d 1 -24 d 2 -22 d 1 -20 d 1 -17 d 2 -16 d 1 -13 d 2 -12 d 3 -21 d 2 -16 d 3 -13 d 3 -11 d 3 -9 d 6 -13 d 5 -10 d 6 -7 d 6 -5 d 5 -5 d 12 -6 d 11 -4 d 23 -4 d 23 -3 d 22 -2
 d 23 -1 d 23 X 22 -1 d 23 X 23 -1 d 68 X s black 3 lw 94 96 m 568 X s
 gsave  710 793 23 17 C 654 42 t 0 r /Helvetica-Bold findfont 26.5982 sf 0 0 m (\)) show NC gr 
 gsave  710 793 23 17 C 641 27 t 0 r /Helvetica-Bold findfont 17.0988 sf 0 0 m (R) show NC gr 
 gsave  710 793 23 17 C 567 42 t 0 r /Helvetica-Bold findfont 26.5982 sf 0 0 m (\)/M\(W) show NC gr 
 gsave  710 793 23 17 C 554 30 t 0 r /Helvetica-Bold findfont 17.0988 sf 0 0 m (R) show NC gr 
 gsave  710 793 23 17 C 538 42 t 0 r /Symbol findfont 26.5982 sf 0 0 m (n) show NC gr 
 gsave  710 793 23 17 C 508 42 t 0 r /Helvetica-Bold findfont 26.5982 sf 0 0 m (M\() show NC gr  94 115 m -19 Y s 105 105 m -9 Y s 116 105 m -9 Y s 128 105 m -9 Y s 139 105 m -9 Y s 151 115 m -19 Y s 162 105 m -9 Y s 173 105 m -9 Y s 185 105 m -9 Y
 s 196 105 m -9 Y s 207 115 m -19 Y s 219 105 m -9 Y s 230 105 m -9 Y s 242 105 m -9 Y s 253 105 m -9 Y s 264 115 m -19 Y s 276 105 m -9 Y s 287 105 m -9 Y s 298 105 m -9 Y s 310 105 m -9 Y s 321 115 m -19 Y s 332 105 m -9 Y s 344 105 m -9 Y s 355
 105 m -9 Y s 367 105 m -9 Y s 378 115 m -19 Y s 389 105 m -9 Y s 401 105 m -9 Y s 412 105 m -9 Y s 423 105 m -9 Y s 435 115 m -19 Y s 446 105 m -9 Y s 458 105 m -9 Y s 469 105 m -9 Y s 480 105 m -9 Y s 492 115 m -19 Y s 503 105 m -9 Y s 514 105 m
 -9 Y s 526 105 m -9 Y s 537 105 m -9 Y s 548 115 m -19 Y s 560 105 m -9 Y s 571 105 m -9 Y s 583 105 m -9 Y s 594 105 m -9 Y s 605 115 m -19 Y s 617 105 m -9 Y s 628 105 m -9 Y s 639 105 m -9 Y s 651 105 m -9 Y s 662 115 m -19 Y s
 gsave  710 793 23 17 C 85 68 t 0 r /Helvetica-Bold findfont 26.5982 sf 0 0 m (0) show NC gr 
 gsave  710 793 23 17 C 133 68 t 0 r /Helvetica-Bold findfont 26.5982 sf 0 0 m (0.1) show NC gr 
 gsave  710 793 23 17 C 188 68 t 0 r /Helvetica-Bold findfont 26.5982 sf 0 0 m (0.2) show NC gr 
 gsave  710 793 23 17 C 245 68 t 0 r /Helvetica-Bold findfont 26.5982 sf 0 0 m (0.3) show NC gr 
 gsave  710 793 23 17 C 301 68 t 0 r /Helvetica-Bold findfont 26.5982 sf 0 0 m (0.4) show NC gr 
 gsave  710 793 23 17 C 358 68 t 0 r /Helvetica-Bold findfont 26.5982 sf 0 0 m (0.5) show NC gr 
 gsave  710 793 23 17 C 415 68 t 0 r /Helvetica-Bold findfont 26.5982 sf 0 0 m (0.6) show NC gr 
 gsave  710 793 23 17 C 472 68 t 0 r /Helvetica-Bold findfont 26.5982 sf 0 0 m (0.7) show NC gr 
 gsave  710 793 23 17 C 529 68 t 0 r /Helvetica-Bold findfont 26.5982 sf 0 0 m (0.8) show NC gr 
 gsave  710 793 23 17 C 586 68 t 0 r /Helvetica-Bold findfont 26.5982 sf 0 0 m (0.9) show NC gr 
 gsave  710 793 23 17 C 656 68 t 0 r /Helvetica-Bold findfont 26.5982 sf 0 0 m (1) show NC gr  94 96 m 635 Y s
 gsave  710 793 23 17 C 55 538 t 90 r /Helvetica-Bold findfont 26.5982 sf 0 0 m (Events / \( 0.04 \)) show NC gr  111 96 m -17 X s 102 121 m -8 X s 102 146 m -8 X s 102 171 m -8 X s 102 196 m -8 X s 111 221 m -17 X s 102 246 m -8 X s 102 271 m -8 X
 s 102 297 m -8 X s 102 322 m -8 X s 111 347 m -17 X s 102 372 m -8 X s 102 397 m -8 X s 102 422 m -8 X s 102 447 m -8 X s 111 472 m -17 X s 102 497 m -8 X s 102 522 m -8 X s 102 547 m -8 X s 102 572 m -8 X s 111 598 m -17 X s 102 623 m -8 X s 102
 648 m -8 X s 102 673 m -8 X s 102 698 m -8 X s 111 723 m -17 X s 111 723 m -17 X s
 gsave  710 793 23 17 C 74 85 t 0 r /Helvetica-Bold findfont 26.5982 sf 0 0 m (0) show NC gr 
 gsave  710 793 23 17 C 51 210 t 0 r /Helvetica-Bold findfont 26.5982 sf 0 0 m (0.5) show NC gr 
 gsave  710 793 23 17 C 78 336 t 0 r /Helvetica-Bold findfont 26.5982 sf 0 0 m (1) show NC gr 
 gsave  710 793 23 17 C 51 461 t 0 r /Helvetica-Bold findfont 26.5982 sf 0 0 m (1.5) show NC gr 
 gsave  710 793 23 17 C 74 588 t 0 r /Helvetica-Bold findfont 26.5982 sf 0 0 m (2) show NC gr 
 gsave  710 793 23 17 C 51 713 t 0 r /Helvetica-Bold findfont 26.5982 sf 0 0 m (2.5) show NC gr  1 1 1 c 437 50 30 756 bf black 30 756 m 437 X s 467 756 m 50 Y s 467 806 m -437 X s 30 806 m -50 Y s 1 1 1 c black
 gsave  710 793 23 17 C 419 777 t 0 r /Helvetica-Bold findfont 30.3979 sf 0 0 m (\)") show NC gr 
 gsave  710 793 23 17 C 404 760 t 0 r /Helvetica-Bold findfont 20.8986 sf 0 0 m (R) show NC gr 
 gsave  710 793 23 17 C 320 777 t 0 r /Helvetica-Bold findfont 30.3979 sf 0 0 m (\)/M\(W) show NC gr 
 gsave  710 793 23 17 C 305 766 t 0 r /Helvetica-Bold findfont 20.8986 sf 0 0 m (R) show NC gr 
 gsave  710 793 23 17 C 288 777 t 0 r /Symbol findfont 30.3979 sf 0 0 m (n) show NC gr 
 gsave  710 793 23 17 C 47 777 t 0 r /Helvetica-Bold findfont 30.3979 sf 0 0 m (A RooPlot of "M\() show NC gr  0.95 0.95 0.95 c 710 793 779 17 bf 1 1 1 c 779 17 m 8 8 d 777 Y 694 X 8 8 d -710 X -793 Y f 0.665 0.665 0.665 c 779 17 m 8 8 d 694 X 777 Y
 8 8 d -793 Y -710 X f black 0.95 0.95 0.95 c 568 635 850 96 bf 1 1 1 c 850 96 m 4 4 d 627 Y 560 X 4 4 d -568 X -635 Y f 0.665 0.665 0.665 c 850 96 m 4 4 d 560 X 627 Y 4 4 d -635 Y -568 X f black 568 635 850 96 bl 1 1 1 c black 850 125 m 568 X s 850
 96 m 568 X s
 gsave  710 793 779 17 C 1409 42 t 0 r /Helvetica-Bold findfont 26.5982 sf 0 0 m (\)) show NC gr 
 gsave  710 793 779 17 C 1396 27 t 0 r /Helvetica-Bold findfont 17.0988 sf 0 0 m (R) show NC gr 
 gsave  710 793 779 17 C 1322 42 t 0 r /Helvetica-Bold findfont 26.5982 sf 0 0 m (\)/M\(W) show NC gr 
 gsave  710 793 779 17 C 1308 30 t 0 r /Helvetica-Bold findfont 17.0988 sf 0 0 m (R) show NC gr 
 gsave  710 793 779 17 C 1293 42 t 0 r /Symbol findfont 26.5982 sf 0 0 m (n) show NC gr 
 gsave  710 793 779 17 C 1263 42 t 0 r /Helvetica-Bold findfont 26.5982 sf 0 0 m (M\() show NC gr  850 115 m -19 Y s 861 105 m -9 Y s 872 105 m -9 Y s 884 105 m -9 Y s 895 105 m -9 Y s 906 115 m -19 Y s 918 105 m -9 Y s 929 105 m -9 Y s 941 105 m -9
 Y s 952 105 m -9 Y s 963 115 m -19 Y s 975 105 m -9 Y s 986 105 m -9 Y s 997 105 m -9 Y s 1009 105 m -9 Y s 1020 115 m -19 Y s 1032 105 m -9 Y s 1043 105 m -9 Y s 1054 105 m -9 Y s 1066 105 m -9 Y s 1077 115 m -19 Y s 1088 105 m -9 Y s 1100 105 m
 -9 Y s 1111 105 m -9 Y s 1122 105 m -9 Y s 1134 115 m -19 Y s 1145 105 m -9 Y s 1157 105 m -9 Y s 1168 105 m -9 Y s 1179 105 m -9 Y s 1191 115 m -19 Y s 1202 105 m -9 Y s 1213 105 m -9 Y s 1225 105 m -9 Y s 1236 105 m -9 Y s 1248 115 m -19 Y s 1259
 105 m -9 Y s 1270 105 m -9 Y s 1282 105 m -9 Y s 1293 105 m -9 Y s 1304 115 m -19 Y s 1316 105 m -9 Y s 1327 105 m -9 Y s 1338 105 m -9 Y s 1350 105 m -9 Y s 1361 115 m -19 Y s 1373 105 m -9 Y s 1384 105 m -9 Y s 1395 105 m -9 Y s 1407 105 m -9 Y s
 1418 115 m -19 Y s
 gsave  710 793 779 17 C 842 68 t 0 r /Helvetica-Bold findfont 26.5982 sf 0 0 m (0) show NC gr 
 gsave  710 793 779 17 C 889 68 t 0 r /Helvetica-Bold findfont 26.5982 sf 0 0 m (0.1) show NC gr 
 gsave  710 793 779 17 C 944 68 t 0 r /Helvetica-Bold findfont 26.5982 sf 0 0 m (0.2) show NC gr 
 gsave  710 793 779 17 C 1001 68 t 0 r /Helvetica-Bold findfont 26.5982 sf 0 0 m (0.3) show NC gr 
 gsave  710 793 779 17 C 1058 68 t 0 r /Helvetica-Bold findfont 26.5982 sf 0 0 m (0.4) show NC gr 
 gsave  710 793 779 17 C 1115 68 t 0 r /Helvetica-Bold findfont 26.5982 sf 0 0 m (0.5) show NC gr 
 gsave  710 793 779 17 C 1170 68 t 0 r /Helvetica-Bold findfont 26.5982 sf 0 0 m (0.6) show NC gr 
 gsave  710 793 779 17 C 1227 68 t 0 r /Helvetica-Bold findfont 26.5982 sf 0 0 m (0.7) show NC gr 
 gsave  710 793 779 17 C 1284 68 t 0 r /Helvetica-Bold findfont 26.5982 sf 0 0 m (0.8) show NC gr 
 gsave  710 793 779 17 C 1341 68 t 0 r /Helvetica-Bold findfont 26.5982 sf 0 0 m (0.9) show NC gr 
 gsave  710 793 779 17 C 1411 68 t 0 r /Helvetica-Bold findfont 26.5982 sf 0 0 m (1) show NC gr  850 96 m 635 Y s
 gsave  710 793 779 17 C 812 538 t 90 r /Helvetica-Bold findfont 26.5982 sf 0 0 m (Events / \( 0.04 \)) show NC gr  867 125 m -17 X s 858 139 m -8 X s 858 152 m -8 X s 858 166 m -8 X s 858 180 m -8 X s 867 194 m -17 X s 858 207 m -8 X s 858 221 m -8
 X s 858 235 m -8 X s 858 249 m -8 X s 867 262 m -17 X s 858 276 m -8 X s 858 290 m -8 X s 858 304 m -8 X s 858 317 m -8 X s 867 331 m -17 X s 858 345 m -8 X s 858 359 m -8 X s 858 372 m -8 X s 858 386 m -8 X s 867 400 m -17 X s 858 414 m -8 X s 858
 427 m -8 X s 858 441 m -8 X s 858 455 m -8 X s 867 469 m -17 X s 858 482 m -8 X s 858 496 m -8 X s 858 510 m -8 X s 858 524 m -8 X s 867 537 m -17 X s 858 551 m -8 X s 858 565 m -8 X s 858 579 m -8 X s 858 592 m -8 X s 867 606 m -17 X s 858 620 m
 -8 X s 858 634 m -8 X s 858 648 m -8 X s 858 661 m -8 X s 867 675 m -17 X s 867 125 m -17 X s 858 111 m -8 X s 858 97 m -8 X s 867 675 m -17 X s 858 689 m -8 X s 858 703 m -8 X s 858 716 m -8 X s 858 730 m -8 X s
 gsave  710 793 779 17 C 830 114 t 0 r /Helvetica-Bold findfont 26.5982 sf 0 0 m (0) show NC gr 
 gsave  710 793 779 17 C 812 184 t 0 r /Helvetica-Bold findfont 26.5982 sf 0 0 m (0.1) show NC gr 
 gsave  710 793 779 17 C 810 252 t 0 r /Helvetica-Bold findfont 26.5982 sf 0 0 m (0.2) show NC gr 
 gsave  710 793 779 17 C 810 320 t 0 r /Helvetica-Bold findfont 26.5982 sf 0 0 m (0.3) show NC gr 
 gsave  710 793 779 17 C 808 389 t 0 r /Helvetica-Bold findfont 26.5982 sf 0 0 m (0.4) show NC gr 
 gsave  710 793 779 17 C 808 459 t 0 r /Helvetica-Bold findfont 26.5982 sf 0 0 m (0.5) show NC gr 
 gsave  710 793 779 17 C 810 527 t 0 r /Helvetica-Bold findfont 26.5982 sf 0 0 m (0.6) show NC gr 
 gsave  710 793 779 17 C 810 595 t 0 r /Helvetica-Bold findfont 26.5982 sf 0 0 m (0.7) show NC gr 
 gsave  710 793 779 17 C 810 666 t 0 r /Helvetica-Bold findfont 26.5982 sf 0 0 m (0.8) show NC gr  1 1 1 c 437 50 786 756 bf black 786 756 m 437 X s 1223 756 m 50 Y s 1223 806 m -437 X s 786 806 m -50 Y s 1 1 1 c black
 gsave  710 793 779 17 C 1176 777 t 0 r /Helvetica-Bold findfont 30.3979 sf 0 0 m (\)") show NC gr 
 gsave  710 793 779 17 C 1160 760 t 0 r /Helvetica-Bold findfont 20.8986 sf 0 0 m (R) show NC gr 
 gsave  710 793 779 17 C 1077 777 t 0 r /Helvetica-Bold findfont 30.3979 sf 0 0 m (\)/M\(W) show NC gr 
 gsave  710 793 779 17 C 1062 766 t 0 r /Helvetica-Bold findfont 20.8986 sf 0 0 m (R) show NC gr 
 gsave  710 793 779 17 C 1045 777 t 0 r /Symbol findfont 30.3979 sf 0 0 m (n) show NC gr 
 gsave  710 793 779 17 C 804 777 t 0 r /Helvetica-Bold findfont 30.3979 sf 0 0 m (A RooPlot of "M\() show NC gr  861 125 m -11 X s 850 121 m 8 Y s 861 125 m 11 X s 872 121 m 8 Y s 884 125 m -12 X s 872 121 m 8 Y s 884 125 m 11 X s 895 121 m 8 Y s
 906 125 m -11 X s 895 121 m 8 Y s 906 125 m 12 X s 918 121 m 8 Y s 929 125 m -11 X s 918 121 m 8 Y s 929 125 m 12 X s 941 121 m 8 Y s 952 125 m -11 X s 941 121 m 8 Y s 952 125 m 11 X s 963 121 m 8 Y s 975 170 m -12 X s 963 166 m 8 Y s 975 170 m 11
 X s 986 166 m 8 Y s 975 170 m 45 Y s 971 215 m 7 X s 975 170 m -45 Y s 971 125 m 7 X s 997 136 m -11 X s 986 132 m 7 Y s 997 136 m 12 X s 1009 132 m 7 Y s 997 136 m 10 Y s 994 146 m 7 X s 997 136 m -11 Y s 994 125 m 7 X s 1020 143 m -11 X s 1009
 139 m 7 Y s 1020 143 m 12 X s 1032 139 m 7 Y s 1020 143 m 17 Y s 1016 160 m 8 X s 1020 143 m -18 Y s 1016 125 m 8 X s 1043 370 m -11 X s 1032 366 m 8 Y s 1043 370 m 11 X s 1054 366 m 8 Y s 1043 370 m 90 Y s 1039 460 m 8 X s 1043 370 m -90 Y s 1039
 280 m 8 X s 1066 208 m -12 X s 1054 205 m 7 Y s 1066 208 m 11 X s 1077 205 m 7 Y s 1066 208 m 52 Y s 1062 260 m 7 X s 1066 208 m -51 Y s 1062 157 m 7 X s 1088 223 m -11 X s 1077 220 m 7 Y s 1088 223 m 12 X s 1100 220 m 7 Y s 1088 223 m 55 Y s 1085
 278 m 7 X s 1088 223 m -54 Y s 1085 169 m 7 X s 1111 475 m -11 X s 1100 472 m 7 Y s 1111 475 m 11 X s 1122 472 m 7 Y s 1111 475 m 112 Y s 1107 587 m 8 X s 1111 475 m -112 Y s 1107 363 m 8 X s 1134 430 m -12 X s 1122 426 m 8 Y s 1134 430 m 11 X s
 1145 426 m 8 Y s 1134 430 m 96 Y s 1130 526 m 8 X s 1134 430 m -96 Y s 1130 334 m 8 X s 1157 582 m -12 X s 1145 578 m 8 Y s 1157 582 m 11 X s 1168 578 m 8 Y s 1157 582 m 120 Y s 1153 702 m 7 X s 1157 582 m -120 Y s 1153 462 m 7 X s 1179 442 m -11 X
 s 1168 438 m 8 Y s 1179 442 m 12 X s 1191 438 m 8 Y s 1179 442 m 92 Y s 1176 534 m 7 X s 1179 442 m -92 Y s 1176 350 m 7 X s 1202 361 m -11 X s 1191 358 m 7 Y s 1202 361 m 11 X s 1213 358 m 7 Y s 1202 361 m 74 Y s 1198 435 m 8 X s 1202 361 m -73 Y
 s 1198 288 m 8 X s 1225 352 m -12 X s 1213 348 m 8 Y s 1225 352 m 11 X s 1236 348 m 8 Y s 1225 352 m 62 Y s 1221 414 m 8 X s 1225 352 m -63 Y s 1221 289 m 8 X s 1248 378 m -12 X s 1236 374 m 8 Y s 1248 378 m 11 X s 1259 374 m 8 Y s 1248 378 m 83 Y
 s 1244 461 m 7 X s 1248 378 m -83 Y s 1244 295 m 7 X s 1270 440 m -11 X s 1259 436 m 7 Y s 1270 440 m 12 X s 1282 436 m 7 Y s 1270 440 m 82 Y s 1266 522 m 8 X s 1270 440 m -83 Y s 1266 357 m 8 X s 1293 509 m -11 X s 1282 506 m 7 Y s 1293 509 m 11 X
 s 1304 506 m 7 Y s 1293 509 m 103 Y s 1289 612 m 8 X s 1293 509 m -102 Y s 1289 407 m 8 X s 1316 421 m -12 X s 1304 417 m 7 Y s 1316 421 m 11 X s 1327 417 m 7 Y s 1316 421 m 94 Y s 1312 515 m 8 X s 1316 421 m -95 Y s 1312 326 m 8 X s 1338 277 m -11
 X s 1327 273 m 7 Y s 1338 277 m 12 X s 1350 273 m 7 Y s 1338 277 m 63 Y s 1335 340 m 7 X s 1338 277 m -63 Y s 1335 214 m 7 X s 1361 143 m -11 X s 1350 139 m 7 Y s 1361 143 m 12 X s 1373 139 m 7 Y s 1361 143 m 17 Y s 1357 160 m 8 X s 1361 143 m -18
 Y s 1357 125 m 8 X s 1384 143 m -11 X s 1373 139 m 7 Y s 1384 143 m 11 X s 1395 139 m 7 Y s 1384 143 m 17 Y s 1380 160 m 8 X s 1384 143 m -18 Y s 1380 125 m 8 X s 1407 125 m -12 X s 1395 121 m 8 Y s 1407 125 m 11 X s 1418 121 m 8 Y s 861 125 884
 125 906 125 929 125 952 125 975 170 997 136 1020 143 1043 370 1066 208 1088 223 1111 475 1134 430 1157 582 1179 442 1202 361 1225 352 1248 378 1270 440 1293 509 1316 421 1338 277 1361 143 1384 143 1407 125 25 { m20} R 0 0 1 c 9 lw black 0 0 1 c 850
 125 m cl s 850 125 m 22 X 23 1 d 23 1 d 23 2 d 11 2 d 11 4 d 12 5 d 5 4 d 6 4 d 6 6 d 5 7 d 6 8 d 6 8 d 23 37 d 5 8 d 6 7 d 11 11 d 12 11 d 5 6 d 6 8 d 6 9 d 5 11 d 12 25 d 5 13 d 6 15 d 3 9 d 3 9 d 3 10 d 2 12 d 3 12 d 3 13 d 6 29 d 3 13 d 3 13 d
 2 11 d 3 9 d 3 6 d 1 2 d 2 2 d 3 X 3 -2 d 2 -5 d 3 -6 d 6 -13 d 3 -6 d 3 -5 d 2 -3 d 3 -2 d 3 X 3 2 d 6 4 d 5 4 d 3 1 d 3 X 3 -2 d 3 -3 d 3 -4 d 2 -7 d 3 -7 d 3 -8 d 6 -18 d 3 -8 d 2 -6 d 3 -5 d 3 -3 d 3 -1 d 3 2 d 3 5 d 3 6 d 2 9 d 3 10 d 6 23 d 6
 23 d 2 10 d 3 9 d 3 8 d 3 5 d 3 3 d 3 1 d 2 -1 d 3 -3 d 3 -6 d 3 -6 d 3 -8 d 3 -10 d 3 -10 d 2 -12 d 6 -25 d 6 -28 d 5 -29 d 6 -30 d 6 -31 d 5 -28 d 6 -27 d 3 -12 d 3 -12 d 3 -10 d 3 -10 d 2 -9 d 3 -8 d 3 -7 d 3 -7 d 6 -11 d 5 -8 d 6 -6 d 6 -5 d 5
 -4 d 12 -4 d 11 -3 d s black 3 lw 850 96 m 568 X s
 gsave  710 793 779 17 C 1409 42 t 0 r /Helvetica-Bold findfont 26.5982 sf 0 0 m (\)) show NC gr 
 gsave  710 793 779 17 C 1396 27 t 0 r /Helvetica-Bold findfont 17.0988 sf 0 0 m (R) show NC gr 
 gsave  710 793 779 17 C 1322 42 t 0 r /Helvetica-Bold findfont 26.5982 sf 0 0 m (\)/M\(W) show NC gr 
 gsave  710 793 779 17 C 1308 30 t 0 r /Helvetica-Bold findfont 17.0988 sf 0 0 m (R) show NC gr 
 gsave  710 793 779 17 C 1293 42 t 0 r /Symbol findfont 26.5982 sf 0 0 m (n) show NC gr 
 gsave  710 793 779 17 C 1263 42 t 0 r /Helvetica-Bold findfont 26.5982 sf 0 0 m (M\() show NC gr  850 115 m -19 Y s 861 105 m -9 Y s 872 105 m -9 Y s 884 105 m -9 Y s 895 105 m -9 Y s 906 115 m -19 Y s 918 105 m -9 Y s 929 105 m -9 Y s 941 105 m -9
 Y s 952 105 m -9 Y s 963 115 m -19 Y s 975 105 m -9 Y s 986 105 m -9 Y s 997 105 m -9 Y s 1009 105 m -9 Y s 1020 115 m -19 Y s 1032 105 m -9 Y s 1043 105 m -9 Y s 1054 105 m -9 Y s 1066 105 m -9 Y s 1077 115 m -19 Y s 1088 105 m -9 Y s 1100 105 m
 -9 Y s 1111 105 m -9 Y s 1122 105 m -9 Y s 1134 115 m -19 Y s 1145 105 m -9 Y s 1157 105 m -9 Y s 1168 105 m -9 Y s 1179 105 m -9 Y s 1191 115 m -19 Y s 1202 105 m -9 Y s 1213 105 m -9 Y s 1225 105 m -9 Y s 1236 105 m -9 Y s 1248 115 m -19 Y s 1259
 105 m -9 Y s 1270 105 m -9 Y s 1282 105 m -9 Y s 1293 105 m -9 Y s 1304 115 m -19 Y s 1316 105 m -9 Y s 1327 105 m -9 Y s 1338 105 m -9 Y s 1350 105 m -9 Y s 1361 115 m -19 Y s 1373 105 m -9 Y s 1384 105 m -9 Y s 1395 105 m -9 Y s 1407 105 m -9 Y s
 1418 115 m -19 Y s
 gsave  710 793 779 17 C 842 68 t 0 r /Helvetica-Bold findfont 26.5982 sf 0 0 m (0) show NC gr 
 gsave  710 793 779 17 C 889 68 t 0 r /Helvetica-Bold findfont 26.5982 sf 0 0 m (0.1) show NC gr 
 gsave  710 793 779 17 C 944 68 t 0 r /Helvetica-Bold findfont 26.5982 sf 0 0 m (0.2) show NC gr 
 gsave  710 793 779 17 C 1001 68 t 0 r /Helvetica-Bold findfont 26.5982 sf 0 0 m (0.3) show NC gr 
 gsave  710 793 779 17 C 1058 68 t 0 r /Helvetica-Bold findfont 26.5982 sf 0 0 m (0.4) show NC gr 
 gsave  710 793 779 17 C 1115 68 t 0 r /Helvetica-Bold findfont 26.5982 sf 0 0 m (0.5) show NC gr 
 gsave  710 793 779 17 C 1170 68 t 0 r /Helvetica-Bold findfont 26.5982 sf 0 0 m (0.6) show NC gr 
 gsave  710 793 779 17 C 1227 68 t 0 r /Helvetica-Bold findfont 26.5982 sf 0 0 m (0.7) show NC gr 
 gsave  710 793 779 17 C 1284 68 t 0 r /Helvetica-Bold findfont 26.5982 sf 0 0 m (0.8) show NC gr 
 gsave  710 793 779 17 C 1341 68 t 0 r /Helvetica-Bold findfont 26.5982 sf 0 0 m (0.9) show NC gr 
 gsave  710 793 779 17 C 1411 68 t 0 r /Helvetica-Bold findfont 26.5982 sf 0 0 m (1) show NC gr  850 96 m 635 Y s
 gsave  710 793 779 17 C 812 538 t 90 r /Helvetica-Bold findfont 26.5982 sf 0 0 m (Events / \( 0.04 \)) show NC gr  867 125 m -17 X s 858 139 m -8 X s 858 152 m -8 X s 858 166 m -8 X s 858 180 m -8 X s 867 194 m -17 X s 858 207 m -8 X s 858 221 m -8
 X s 858 235 m -8 X s 858 249 m -8 X s 867 262 m -17 X s 858 276 m -8 X s 858 290 m -8 X s 858 304 m -8 X s 858 317 m -8 X s 867 331 m -17 X s 858 345 m -8 X s 858 359 m -8 X s 858 372 m -8 X s 858 386 m -8 X s 867 400 m -17 X s 858 414 m -8 X s 858
 427 m -8 X s 858 441 m -8 X s 858 455 m -8 X s 867 469 m -17 X s 858 482 m -8 X s 858 496 m -8 X s 858 510 m -8 X s 858 524 m -8 X s 867 537 m -17 X s 858 551 m -8 X s 858 565 m -8 X s 858 579 m -8 X s 858 592 m -8 X s 867 606 m -17 X s 858 620 m
 -8 X s 858 634 m -8 X s 858 648 m -8 X s 858 661 m -8 X s 867 675 m -17 X s 867 125 m -17 X s 858 111 m -8 X s 858 97 m -8 X s 867 675 m -17 X s 858 689 m -8 X s 858 703 m -8 X s 858 716 m -8 X s 858 730 m -8 X s
 gsave  710 793 779 17 C 830 114 t 0 r /Helvetica-Bold findfont 26.5982 sf 0 0 m (0) show NC gr 
 gsave  710 793 779 17 C 812 184 t 0 r /Helvetica-Bold findfont 26.5982 sf 0 0 m (0.1) show NC gr 
 gsave  710 793 779 17 C 810 252 t 0 r /Helvetica-Bold findfont 26.5982 sf 0 0 m (0.2) show NC gr 
 gsave  710 793 779 17 C 810 320 t 0 r /Helvetica-Bold findfont 26.5982 sf 0 0 m (0.3) show NC gr 
 gsave  710 793 779 17 C 808 389 t 0 r /Helvetica-Bold findfont 26.5982 sf 0 0 m (0.4) show NC gr 
 gsave  710 793 779 17 C 808 459 t 0 r /Helvetica-Bold findfont 26.5982 sf 0 0 m (0.5) show NC gr 
 gsave  710 793 779 17 C 810 527 t 0 r /Helvetica-Bold findfont 26.5982 sf 0 0 m (0.6) show NC gr 
 gsave  710 793 779 17 C 810 595 t 0 r /Helvetica-Bold findfont 26.5982 sf 0 0 m (0.7) show NC gr 
 gsave  710 793 779 17 C 810 666 t 0 r /Helvetica-Bold findfont 26.5982 sf 0 0 m (0.8) show NC gr  1 1 1 c 437 50 786 756 bf black 786 756 m 437 X s 1223 756 m 50 Y s 1223 806 m -437 X s 786 806 m -50 Y s 1 1 1 c black
 gsave  710 793 779 17 C 1176 777 t 0 r /Helvetica-Bold findfont 30.3979 sf 0 0 m (\)") show NC gr 
 gsave  710 793 779 17 C 1160 760 t 0 r /Helvetica-Bold findfont 20.8986 sf 0 0 m (R) show NC gr 
 gsave  710 793 779 17 C 1077 777 t 0 r /Helvetica-Bold findfont 30.3979 sf 0 0 m (\)/M\(W) show NC gr 
 gsave  710 793 779 17 C 1062 766 t 0 r /Helvetica-Bold findfont 20.8986 sf 0 0 m (R) show NC gr 
 gsave  710 793 779 17 C 1045 777 t 0 r /Symbol findfont 30.3979 sf 0 0 m (n) show NC gr 
 gsave  710 793 779 17 C 804 777 t 0 r /Helvetica-Bold findfont 30.3979 sf 0 0 m (A RooPlot of "M\() show NC gr  0.95 0.95 0.95 c 711 793 1534 17 bf 1 1 1 c 1534 17 m 8 8 d 777 Y 695 X 8 8 d -711 X -793 Y f 0.665 0.665 0.665 c 1534 17 m 8 8 d 695 X
 777 Y 8 8 d -793 Y -711 X f black 0.95 0.95 0.95 c 568 635 1606 96 bf 1 1 1 c 1606 96 m 4 4 d 627 Y 560 X 4 4 d -568 X -635 Y f 0.665 0.665 0.665 c 1606 96 m 4 4 d 560 X 627 Y 4 4 d -635 Y -568 X f black 568 635 1606 96 bl 1 1 1 c black 1606 116 m
 568 X s 1606 96 m 568 X s
 gsave  711 793 1534 17 C 2165 42 t 0 r /Helvetica-Bold findfont 26.5982 sf 0 0 m (\)) show NC gr 
 gsave  711 793 1534 17 C 2152 27 t 0 r /Helvetica-Bold findfont 17.0988 sf 0 0 m (R) show NC gr 
 gsave  711 793 1534 17 C 2078 42 t 0 r /Helvetica-Bold findfont 26.5982 sf 0 0 m (\)/M\(W) show NC gr 
 gsave  711 793 1534 17 C 2065 30 t 0 r /Helvetica-Bold findfont 17.0988 sf 0 0 m (R) show NC gr 
 gsave  711 793 1534 17 C 2050 42 t 0 r /Symbol findfont 26.5982 sf 0 0 m (n) show NC gr 
 gsave  711 793 1534 17 C 2019 42 t 0 r /Helvetica-Bold findfont 26.5982 sf 0 0 m (M\() show NC gr  1606 115 m -19 Y s 1617 105 m -9 Y s 1628 105 m -9 Y s 1640 105 m -9 Y s 1651 105 m -9 Y s 1662 115 m -19 Y s 1674 105 m -9 Y s 1685 105 m -9 Y s
 1696 105 m -9 Y s 1708 105 m -9 Y s 1719 115 m -19 Y s 1731 105 m -9 Y s 1742 105 m -9 Y s 1753 105 m -9 Y s 1765 105 m -9 Y s 1776 115 m -19 Y s 1787 105 m -9 Y s 1799 105 m -9 Y s 1810 105 m -9 Y s 1822 105 m -9 Y s 1833 115 m -19 Y s 1844 105 m
 -9 Y s 1856 105 m -9 Y s 1867 105 m -9 Y s 1878 105 m -9 Y s 1890 115 m -19 Y s 1901 105 m -9 Y s 1913 105 m -9 Y s 1924 105 m -9 Y s 1935 105 m -9 Y s 1947 115 m -19 Y s 1958 105 m -9 Y s 1969 105 m -9 Y s 1981 105 m -9 Y s 1992 105 m -9 Y s 2003
 115 m -19 Y s 2015 105 m -9 Y s 2026 105 m -9 Y s 2038 105 m -9 Y s 2049 105 m -9 Y s 2060 115 m -19 Y s 2072 105 m -9 Y s 2083 105 m -9 Y s 2094 105 m -9 Y s 2106 105 m -9 Y s 2117 115 m -19 Y s 2129 105 m -9 Y s 2140 105 m -9 Y s 2151 105 m -9 Y
 s 2163 105 m -9 Y s 2174 115 m -19 Y s
 gsave  711 793 1534 17 C 1597 68 t 0 r /Helvetica-Bold findfont 26.5982 sf 0 0 m (0) show NC gr 
 gsave  711 793 1534 17 C 1644 68 t 0 r /Helvetica-Bold findfont 26.5982 sf 0 0 m (0.1) show NC gr 
 gsave  711 793 1534 17 C 1699 68 t 0 r /Helvetica-Bold findfont 26.5982 sf 0 0 m (0.2) show NC gr 
 gsave  711 793 1534 17 C 1756 68 t 0 r /Helvetica-Bold findfont 26.5982 sf 0 0 m (0.3) show NC gr 
 gsave  711 793 1534 17 C 1813 68 t 0 r /Helvetica-Bold findfont 26.5982 sf 0 0 m (0.4) show NC gr 
 gsave  711 793 1534 17 C 1870 68 t 0 r /Helvetica-Bold findfont 26.5982 sf 0 0 m (0.5) show NC gr 
 gsave  711 793 1534 17 C 1926 68 t 0 r /Helvetica-Bold findfont 26.5982 sf 0 0 m (0.6) show NC gr 
 gsave  711 793 1534 17 C 1983 68 t 0 r /Helvetica-Bold findfont 26.5982 sf 0 0 m (0.7) show NC gr 
 gsave  711 793 1534 17 C 2040 68 t 0 r /Helvetica-Bold findfont 26.5982 sf 0 0 m (0.8) show NC gr 
 gsave  711 793 1534 17 C 2097 68 t 0 r /Helvetica-Bold findfont 26.5982 sf 0 0 m (0.9) show NC gr 
 gsave  711 793 1534 17 C 2167 68 t 0 r /Helvetica-Bold findfont 26.5982 sf 0 0 m (1) show NC gr  1606 96 m 635 Y s
 gsave  711 793 1534 17 C 1566 538 t 90 r /Helvetica-Bold findfont 26.5982 sf 0 0 m (Events / \( 0.04 \)) show NC gr  1623 116 m -17 X s 1614 137 m -8 X s 1614 158 m -8 X s 1614 180 m -8 X s 1614 201 m -8 X s 1623 222 m -17 X s 1614 243 m -8 X s
 1614 265 m -8 X s 1614 286 m -8 X s 1614 307 m -8 X s 1623 329 m -17 X s 1614 350 m -8 X s 1614 371 m -8 X s 1614 392 m -8 X s 1614 414 m -8 X s 1623 435 m -17 X s 1614 456 m -8 X s 1614 477 m -8 X s 1614 499 m -8 X s 1614 520 m -8 X s 1623 541 m
 -17 X s 1614 562 m -8 X s 1614 584 m -8 X s 1614 605 m -8 X s 1614 626 m -8 X s 1623 647 m -17 X s 1623 116 m -17 X s 1623 647 m -17 X s 1614 669 m -8 X s 1614 690 m -8 X s 1614 711 m -8 X s
 gsave  711 793 1534 17 C 1585 106 t 0 r /Helvetica-Bold findfont 26.5982 sf 0 0 m (0) show NC gr 
 gsave  711 793 1534 17 C 1562 212 t 0 r /Helvetica-Bold findfont 26.5982 sf 0 0 m (0.5) show NC gr 
 gsave  711 793 1534 17 C 1589 319 t 0 r /Helvetica-Bold findfont 26.5982 sf 0 0 m (1) show NC gr 
 gsave  711 793 1534 17 C 1562 425 t 0 r /Helvetica-Bold findfont 26.5982 sf 0 0 m (1.5) show NC gr 
 gsave  711 793 1534 17 C 1585 531 t 0 r /Helvetica-Bold findfont 26.5982 sf 0 0 m (2) show NC gr 
 gsave  711 793 1534 17 C 1562 637 t 0 r /Helvetica-Bold findfont 26.5982 sf 0 0 m (2.5) show NC gr  1 1 1 c 437 50 1542 756 bf black 1542 756 m 437 X s 1979 756 m 50 Y s 1979 806 m -437 X s 1542 806 m -50 Y s 1 1 1 c black
 gsave  711 793 1534 17 C 1932 777 t 0 r /Helvetica-Bold findfont 30.3979 sf 0 0 m (\)") show NC gr 
 gsave  711 793 1534 17 C 1917 760 t 0 r /Helvetica-Bold findfont 20.8986 sf 0 0 m (R) show NC gr 
 gsave  711 793 1534 17 C 1834 777 t 0 r /Helvetica-Bold findfont 30.3979 sf 0 0 m (\)/M\(W) show NC gr 
 gsave  711 793 1534 17 C 1818 766 t 0 r /Helvetica-Bold findfont 20.8986 sf 0 0 m (R) show NC gr 
 gsave  711 793 1534 17 C 1801 777 t 0 r /Symbol findfont 30.3979 sf 0 0 m (n) show NC gr 
 gsave  711 793 1534 17 C 1560 777 t 0 r /Helvetica-Bold findfont 30.3979 sf 0 0 m (A RooPlot of "M\() show NC gr  1617 116 m -11 X s 1606 112 m 8 Y s 1617 116 m 11 X s 1628 112 m 8 Y s 1640 116 m -12 X s 1628 112 m 8 Y s 1640 116 m 11 X s 1651 112
 m 8 Y s 1662 116 m -11 X s 1651 112 m 8 Y s 1662 116 m 12 X s 1674 112 m 8 Y s 1685 116 m -11 X s 1674 112 m 8 Y s 1685 116 m 11 X s 1696 112 m 8 Y s 1708 116 m -12 X s 1696 112 m 8 Y s 1708 116 m 11 X s 1719 112 m 8 Y s 1731 142 m -12 X s 1719 138
 m 8 Y s 1731 142 m 11 X s 1742 138 m 8 Y s 1731 142 m 14 Y s 1727 156 m 7 X s 1731 142 m -14 Y s 1727 128 m 7 X s 1753 142 m -11 X s 1742 138 m 8 Y s 1753 142 m 12 X s 1765 138 m 8 Y s 1753 142 m 5 Y s 1750 147 m 7 X s 1753 142 m -5 Y s 1750 137 m
 7 X s 1776 159 m -11 X s 1765 155 m 7 Y s 1776 159 m 11 X s 1787 155 m 7 Y s 1776 159 m 7 Y s 1772 166 m 8 X s 1776 159 m -8 Y s 1772 151 m 8 X s 1799 262 m -12 X s 1787 258 m 8 Y s 1799 262 m 11 X s 1810 258 m 8 Y s 1799 262 m 28 Y s 1795 290 m 8
 X s 1799 262 m -29 Y s 1795 233 m 8 X s 1822 463 m -12 X s 1810 459 m 8 Y s 1822 463 m 11 X s 1833 459 m 8 Y s 1822 463 m 22 Y s 1818 485 m 7 X s 1822 463 m -22 Y s 1818 441 m 7 X s 1844 493 m -11 X s 1833 489 m 8 Y s 1844 493 m 12 X s 1856 489 m 8
 Y s 1844 493 m 23 Y s 1840 516 m 8 X s 1844 493 m -23 Y s 1840 470 m 8 X s 1867 275 m -11 X s 1856 271 m 8 Y s 1867 275 m 11 X s 1878 271 m 8 Y s 1867 275 m 35 Y s 1863 310 m 8 X s 1867 275 m -35 Y s 1863 240 m 8 X s 1890 231 m -12 X s 1878 227 m 8
 Y s 1890 231 m 11 X s 1901 227 m 8 Y s 1890 231 m 30 Y s 1886 261 m 8 X s 1890 231 m -30 Y s 1886 201 m 8 X s 1913 264 m -12 X s 1901 261 m 7 Y s 1913 264 m 11 X s 1924 261 m 7 Y s 1913 264 m 38 Y s 1909 302 m 7 X s 1913 264 m -37 Y s 1909 227 m 7
 X s 1935 244 m -11 X s 1924 240 m 8 Y s 1935 244 m 12 X s 1947 240 m 8 Y s 1935 244 m 29 Y s 1931 273 m 8 X s 1935 244 m -29 Y s 1931 215 m 8 X s 1958 191 m -11 X s 1947 187 m 7 Y s 1958 191 m 11 X s 1969 187 m 7 Y s 1958 191 m 22 Y s 1954 213 m 8
 X s 1958 191 m -23 Y s 1954 168 m 8 X s 1981 187 m -12 X s 1969 183 m 8 Y s 1981 187 m 11 X s 1992 183 m 8 Y s 1981 187 m 19 Y s 1977 206 m 8 X s 1981 187 m -20 Y s 1977 167 m 8 X s 2003 205 m -11 X s 1992 201 m 8 Y s 2003 205 m 12 X s 2015 201 m 8
 Y s 2003 205 m 26 Y s 2000 231 m 7 X s 2003 205 m -26 Y s 2000 179 m 7 X s 2026 213 m -11 X s 2015 209 m 8 Y s 2026 213 m 12 X s 2038 209 m 8 Y s 2026 213 m 26 Y s 2022 239 m 8 X s 2026 213 m -25 Y s 2022 188 m 8 X s 2049 235 m -11 X s 2038 231 m 8
 Y s 2049 235 m 11 X s 2060 231 m 8 Y s 2049 235 m 32 Y s 2045 267 m 8 X s 2049 235 m -32 Y s 2045 203 m 8 X s 2072 207 m -12 X s 2060 204 m 7 Y s 2072 207 m 11 X s 2083 204 m 7 Y s 2072 207 m 30 Y s 2068 237 m 7 X s 2072 207 m -29 Y s 2068 178 m 7
 X s 2094 174 m -11 X s 2083 170 m 7 Y s 2094 174 m 12 X s 2106 170 m 7 Y s 2094 174 m 19 Y s 2091 193 m 7 X s 2094 174 m -20 Y s 2091 154 m 7 X s 2117 122 m -11 X s 2106 118 m 8 Y s 2117 122 m 12 X s 2129 118 m 8 Y s 2117 122 m 6 Y s 2113 128 m 8 X
 s 2117 122 m -5 Y s 2113 117 m 8 X s 2140 121 m -11 X s 2129 118 m 7 Y s 2140 121 m 11 X s 2151 118 m 7 Y s 2140 121 m 6 Y s 2136 127 m 8 X s 2140 121 m -5 Y s 2136 116 m 8 X s 2163 116 m -12 X s 2151 112 m 8 Y s 2163 116 m 11 X s 2174 112 m 8 Y s
 1617 116 1640 116 1662 116 1685 116 1708 116 1731 142 1753 142 1776 159 1799 262 1822 463 1844 493 1867 275 1890 231 1913 264 1935 244 1958 191 1981 187 2003 205 2026 213 2049 235 2072 207 2094 174 2117 122 2140 121 2163 116 25 { m20} R 0 0 1 c 9
 lw black 0 0 1 c 1606 118 m cl s 1606 118 m 22 X 23 1 d 23 1 d 22 2 d 23 4 d 12 3 d 11 5 d 11 7 d 12 10 d 11 13 d 6 9 d 5 10 d 6 14 d 3 8 d 3 10 d 3 12 d 2 15 d 3 18 d 2 11 d 1 12 d 2 14 d 1 16 d 1 18 d 2 20 d 1 24 d 2 26 d 1 30 d 2 34 d 1 36 d 1
 40 d 3 79 d 1 18 d 1 17 d 15 Y 1 12 d 1 10 d 6 Y 1 4 d 1 -1 d 1 -4 d -7 Y 1 -10 d 1 -13 d -15 Y 1 -16 d 2 -37 d 2 -77 d 2 -37 d 1 -33 d 2 -29 d 1 -27 d 2 -23 d 1 -20 d 1 -17 d 2 -15 d 1 -13 d 2 -11 d 1 -10 d 1 -9 d 3 -13 d 3 -11 d 3 -8 d 3 -5 d 3
 -4 d 3 -2 d 2 -1 d 6 1 d 6 3 d 11 8 d 6 X 6 -2 d 11 -11 d 6 -4 d 5 -3 d 12 X 11 1 d 6 -2 d 5 -4 d 12 -11 d 5 -5 d 6 -3 d 6 X 5 4 d 6 6 d 6 7 d 6 7 d 5 6 d 6 4 d 6 1 d 5 -2 d 6 -3 d 6 -6 d 5 -7 d 12 -17 d 11 -19 d 11 -19 d 12 -16 d 11 -12 d 12 -8 d
 11 -5 d 11 -3 d 23 -2 d s black 3 lw 1606 96 m 568 X s
 gsave  711 793 1534 17 C 2165 42 t 0 r /Helvetica-Bold findfont 26.5982 sf 0 0 m (\)) show NC gr 
 gsave  711 793 1534 17 C 2152 27 t 0 r /Helvetica-Bold findfont 17.0988 sf 0 0 m (R) show NC gr 
 gsave  711 793 1534 17 C 2078 42 t 0 r /Helvetica-Bold findfont 26.5982 sf 0 0 m (\)/M\(W) show NC gr 
 gsave  711 793 1534 17 C 2065 30 t 0 r /Helvetica-Bold findfont 17.0988 sf 0 0 m (R) show NC gr 
 gsave  711 793 1534 17 C 2050 42 t 0 r /Symbol findfont 26.5982 sf 0 0 m (n) show NC gr 
 gsave  711 793 1534 17 C 2019 42 t 0 r /Helvetica-Bold findfont 26.5982 sf 0 0 m (M\() show NC gr  1606 115 m -19 Y s 1617 105 m -9 Y s 1628 105 m -9 Y s 1640 105 m -9 Y s 1651 105 m -9 Y s 1662 115 m -19 Y s 1674 105 m -9 Y s 1685 105 m -9 Y s
 1696 105 m -9 Y s 1708 105 m -9 Y s 1719 115 m -19 Y s 1731 105 m -9 Y s 1742 105 m -9 Y s 1753 105 m -9 Y s 1765 105 m -9 Y s 1776 115 m -19 Y s 1787 105 m -9 Y s 1799 105 m -9 Y s 1810 105 m -9 Y s 1822 105 m -9 Y s 1833 115 m -19 Y s 1844 105 m
 -9 Y s 1856 105 m -9 Y s 1867 105 m -9 Y s 1878 105 m -9 Y s 1890 115 m -19 Y s 1901 105 m -9 Y s 1913 105 m -9 Y s 1924 105 m -9 Y s 1935 105 m -9 Y s 1947 115 m -19 Y s 1958 105 m -9 Y s 1969 105 m -9 Y s 1981 105 m -9 Y s 1992 105 m -9 Y s 2003
 115 m -19 Y s 2015 105 m -9 Y s 2026 105 m -9 Y s 2038 105 m -9 Y s 2049 105 m -9 Y s 2060 115 m -19 Y s 2072 105 m -9 Y s 2083 105 m -9 Y s 2094 105 m -9 Y s 2106 105 m -9 Y s 2117 115 m -19 Y s 2129 105 m -9 Y s 2140 105 m -9 Y s 2151 105 m -9 Y
 s 2163 105 m -9 Y s 2174 115 m -19 Y s
 gsave  711 793 1534 17 C 1597 68 t 0 r /Helvetica-Bold findfont 26.5982 sf 0 0 m (0) show NC gr 
 gsave  711 793 1534 17 C 1644 68 t 0 r /Helvetica-Bold findfont 26.5982 sf 0 0 m (0.1) show NC gr 
 gsave  711 793 1534 17 C 1699 68 t 0 r /Helvetica-Bold findfont 26.5982 sf 0 0 m (0.2) show NC gr 
 gsave  711 793 1534 17 C 1756 68 t 0 r /Helvetica-Bold findfont 26.5982 sf 0 0 m (0.3) show NC gr 
 gsave  711 793 1534 17 C 1813 68 t 0 r /Helvetica-Bold findfont 26.5982 sf 0 0 m (0.4) show NC gr 
 gsave  711 793 1534 17 C 1870 68 t 0 r /Helvetica-Bold findfont 26.5982 sf 0 0 m (0.5) show NC gr 
 gsave  711 793 1534 17 C 1926 68 t 0 r /Helvetica-Bold findfont 26.5982 sf 0 0 m (0.6) show NC gr 
 gsave  711 793 1534 17 C 1983 68 t 0 r /Helvetica-Bold findfont 26.5982 sf 0 0 m (0.7) show NC gr 
 gsave  711 793 1534 17 C 2040 68 t 0 r /Helvetica-Bold findfont 26.5982 sf 0 0 m (0.8) show NC gr 
 gsave  711 793 1534 17 C 2097 68 t 0 r /Helvetica-Bold findfont 26.5982 sf 0 0 m (0.9) show NC gr 
 gsave  711 793 1534 17 C 2167 68 t 0 r /Helvetica-Bold findfont 26.5982 sf 0 0 m (1) show NC gr  1606 96 m 635 Y s
 gsave  711 793 1534 17 C 1566 538 t 90 r /Helvetica-Bold findfont 26.5982 sf 0 0 m (Events / \( 0.04 \)) show NC gr  1623 116 m -17 X s 1614 137 m -8 X s 1614 158 m -8 X s 1614 180 m -8 X s 1614 201 m -8 X s 1623 222 m -17 X s 1614 243 m -8 X s
 1614 265 m -8 X s 1614 286 m -8 X s 1614 307 m -8 X s 1623 329 m -17 X s 1614 350 m -8 X s 1614 371 m -8 X s 1614 392 m -8 X s 1614 414 m -8 X s 1623 435 m -17 X s 1614 456 m -8 X s 1614 477 m -8 X s 1614 499 m -8 X s 1614 520 m -8 X s 1623 541 m
 -17 X s 1614 562 m -8 X s 1614 584 m -8 X s 1614 605 m -8 X s 1614 626 m -8 X s 1623 647 m -17 X s 1623 116 m -17 X s 1623 647 m -17 X s 1614 669 m -8 X s 1614 690 m -8 X s 1614 711 m -8 X s
 gsave  711 793 1534 17 C 1585 106 t 0 r /Helvetica-Bold findfont 26.5982 sf 0 0 m (0) show NC gr 
 gsave  711 793 1534 17 C 1562 212 t 0 r /Helvetica-Bold findfont 26.5982 sf 0 0 m (0.5) show NC gr 
 gsave  711 793 1534 17 C 1589 319 t 0 r /Helvetica-Bold findfont 26.5982 sf 0 0 m (1) show NC gr 
 gsave  711 793 1534 17 C 1562 425 t 0 r /Helvetica-Bold findfont 26.5982 sf 0 0 m (1.5) show NC gr 
 gsave  711 793 1534 17 C 1585 531 t 0 r /Helvetica-Bold findfont 26.5982 sf 0 0 m (2) show NC gr 
 gsave  711 793 1534 17 C 1562 637 t 0 r /Helvetica-Bold findfont 26.5982 sf 0 0 m (2.5) show NC gr  1 1 1 c 437 50 1542 756 bf black 1542 756 m 437 X s 1979 756 m 50 Y s 1979 806 m -437 X s 1542 806 m -50 Y s 1 1 1 c black
 gsave  711 793 1534 17 C 1932 777 t 0 r /Helvetica-Bold findfont 30.3979 sf 0 0 m (\)") show NC gr 
 gsave  711 793 1534 17 C 1917 760 t 0 r /Helvetica-Bold findfont 20.8986 sf 0 0 m (R) show NC gr 
 gsave  711 793 1534 17 C 1834 777 t 0 r /Helvetica-Bold findfont 30.3979 sf 0 0 m (\)/M\(W) show NC gr 
 gsave  711 793 1534 17 C 1818 766 t 0 r /Helvetica-Bold findfont 20.8986 sf 0 0 m (R) show NC gr 
 gsave  711 793 1534 17 C 1801 777 t 0 r /Symbol findfont 30.3979 sf 0 0 m (n) show NC gr 
 gsave  711 793 1534 17 C 1560 777 t 0 r /Helvetica-Bold findfont 30.3979 sf 0 0 m (A RooPlot of "M\() show NC gr 
 gr  gr 
showpage
end
%%EOF
