%!PS-Adobe-2.0 EPSF-2.0
%%BoundingBox:  0 0 567 613
%%Title: ./recomnubg2.eps:  
%%Creator: ROOT Version 5.26/00b
%%CreationDate: Wed Mar 24 22:51:18 2010
%%EndComments
%%BeginProlog
80 dict begin
/s {stroke} def /l {lineto} def /m {moveto} def /t {translate} def
/sw {stringwidth} def /r {rotate} def /rl {roll}  def /R {repeat} def
/d {rlineto} def /rm {rmoveto} def /gr {grestore} def /f {eofill} def
/c {setrgbcolor} def /black {0 setgray} def /sd {setdash} def
/cl {closepath} def /sf {scalefont setfont} def /lw {setlinewidth} def
/box {m dup 0 exch d exch 0 d 0 exch neg d cl} def
/NC{systemdict begin initclip end}def/C{NC box clip newpath}def
/bl {box s} def /bf {box f} def /Y { 0 exch d} def /X { 0 d} def 
/mp {newpath /y exch def /x exch def} def
/side {[w .77 mul w .23 mul] .385 w mul sd w 0 l currentpoint t -144 r} def
/mr {mp x y w2 0 360 arc} def /m24 {mr s} def /m20 {mr f} def
/mb {mp x y w2 add m w2 neg 0 d 0 w neg d w 0 d 0 w d cl} def
/mt {mp x y w2 add m w2 neg w neg d w 0 d cl} def
/m21 {mb f} def /m25 {mb s} def /m22 {mt f} def /m26{mt s} def
/m23 {mp x y w2 sub m w2 w d w neg 0 d cl f} def
/m27 {mp x y w2 add m w3 neg w2 neg d w3 w2 neg d w3 w2 d cl s} def
/m28 {mp x w2 sub y w2 sub w3 add m w3 0 d  0 w3 neg d w3 0 d 0 w3 d w3 0 d  0 w3 d w3 neg 0 d 0 w3 d w3 neg 0 d
 0 w3 neg d w3 neg 0 d cl s } def
/m29 {mp gsave x w2 sub y w2 add w3 sub m currentpoint t
 4 {side} repeat cl fill gr} def
/m30 {mp gsave x w2 sub y w2 add w3 sub m currentpoint t
 4 {side} repeat cl s gr} def
/m31 {mp x y w2 sub m 0 w d x w2 sub y m w 0 d x w2 sub y w2 add m w w neg d x w2 sub y w2
 sub m w w d s} def
/m2 {mp x y w2 sub m 0 w d x w2 sub y m w 0 d s} def
/m5 {mp x w2 sub y w2 sub m w w d x w2 sub y w2 add m w w neg d s} def
/reEncode {exch findfont dup length dict begin {1 index /FID eq  {pop pop} {def} ifelse } forall /Encoding exch def currentdict end dup /FontName get exch definefont pop } def [/Times-Bold /Times-Italic /Times-BoldItalic /Helvetica
 /Helvetica-Oblique /Helvetica-Bold /Helvetica-BoldOblique /Courier /Courier-Oblique /Courier-Bold /Courier-BoldOblique /Times-Roman /AvantGarde-Book /AvantGarde-BookOblique /AvantGarde-Demi /AvantGarde-DemiOblique /Bookman-Demi
 /Bookman-DemiItalic /Bookman-Light /Bookman-LightItalic /Helvetica-Narrow /Helvetica-Narrow-Bold /Helvetica-Narrow-BoldOblique /Helvetica-Narrow-Oblique /NewCenturySchlbk-Roman /NewCenturySchlbk-Bold
 /NewCenturySchlbk-BoldItalic /NewCenturySchlbk-Italic /Palatino-Bold /Palatino-BoldItalic /Palatino-Italic /Palatino-Roman ] {ISOLatin1Encoding reEncode } forall
/oshow {gsave [] 0 sd true charpath stroke gr} def
/stwn { /fs exch def /fn exch def /text exch def fn findfont fs sf
 text sw pop xs add /xs exch def} def
/stwb { /fs exch def /fn exch def /nbas exch def /textf exch deftextf length /tlen exch def nbas tlen gt {/nbas tlendef} iffn findfont fs sf textf dup length nbas sub nbas getinterval sw
pop neg xs add /xs exch def} def
%%EndProlog
%%BeginSetup
%%EndSetup
newpath  gsave  .25 .25 scale  gsave  0 0 t black[  ] 0 sd 3 lw 0.95 0.95 0.95 c 2268 2450 0 0 bf 1 1 1 c 0 0 m 8 8 d 2434 Y 2252 X 8 8 d -2268 X -2450 Y f 0.665 0.665 0.665 c 0 0 m 8 8 d 2252 X 2434 Y 8 8 d -2450 Y -2268 X f black 1 1 1 c 2268 2450
 0 0 bf black 1 1 1 c 1701 1911 340 294 bf 340 294 m 4 4 d 1903 Y 1693 X 4 4 d -1701 X -1911 Y f 1 7.94729e-08 0 c 340 294 m 4 4 d 1693 X 1903 Y 4 4 d -1911 Y -1701 X f black 1701 1911 340 294 bl 1 1 1 c 1701 1911 340 294 bf 340 294 m 4 4 d 1903 Y
 1693 X 4 4 d -1701 X -1911 Y f 1 7.94729e-08 0 c 340 294 m 4 4 d 1693 X 1903 Y 4 4 d -1911 Y -1701 X f black 1701 1911 340 294 bl 1 1 1 c black 340 294 m 167 X 95 Y 28 X 97 Y 28 X 97 Y 28 X 165 Y 28 X 475 Y 28 X 739 Y 28 X 152 Y 28 X -1608 Y 28 X
 -113 Y 27 X 82 Y 28 X -15 Y 28 X -152 Y 28 X 40 Y 56 X -26 Y 28 X 89 Y 28 X -108 Y 27 X 117 Y 28 X -22 Y 28 X 45 Y 28 X -144 Y 56 X -5 Y 167 X 35 Y 28 X -35 Y 725 X s 340 294 m 1701 X s
 gsave  2268 2450 0 0 C 1772 65 t 0 r /Helvetica-Bold findfont 104.263 sf 0 0 m (, GeV) show NC gr 
 gsave  2268 2450 0 0 C 1610 114 t 0 r /Helvetica-Bold findfont 71.6807 sf 0 0 m (cand) show NC gr 
 gsave  2268 2450 0 0 C 1610 33 t 0 r /Helvetica-Bold findfont 71.6807 sf 0 0 m (N) show NC gr 
 gsave  2268 2450 0 0 C 1528 65 t 0 r /Helvetica-Bold findfont 104.263 sf 0 0 m (M) show NC gr  340 349 m -55 Y s 396 322 m -28 Y s 452 322 m -28 Y s 507 322 m -28 Y s 563 322 m -28 Y s 619 349 m -55 Y s 675 322 m -28 Y s 731 322 m -28 Y s 786 322 m
 -28 Y s 842 322 m -28 Y s 898 349 m -55 Y s 954 322 m -28 Y s 1009 322 m -28 Y s 1065 322 m -28 Y s 1121 322 m -28 Y s 1177 349 m -55 Y s 1232 322 m -28 Y s 1288 322 m -28 Y s 1344 322 m -28 Y s 1400 322 m -28 Y s 1455 349 m -55 Y s 1511 322 m -28
 Y s 1567 322 m -28 Y s 1623 322 m -28 Y s 1678 322 m -28 Y s 1734 349 m -55 Y s 1790 322 m -28 Y s 1846 322 m -28 Y s 1902 322 m -28 Y s 1957 322 m -28 Y s 2013 349 m -55 Y s 2013 349 m -55 Y s
 gsave  2268 2450 0 0 C 316 205 t 0 r /Helvetica-Bold findfont 84.7136 sf 0 0 m (0) show NC gr 
 gsave  2268 2450 0 0 C 544 205 t 0 r /Helvetica-Bold findfont 84.7136 sf 0 0 m (500) show NC gr 
 gsave  2268 2450 0 0 C 802 205 t 0 r /Helvetica-Bold findfont 84.7136 sf 0 0 m (1000) show NC gr 
 gsave  2268 2450 0 0 C 1082 205 t 0 r /Helvetica-Bold findfont 84.7136 sf 0 0 m (1500) show NC gr 
 gsave  2268 2450 0 0 C 1359 205 t 0 r /Helvetica-Bold findfont 84.7136 sf 0 0 m (2000) show NC gr 
 gsave  2268 2450 0 0 C 1639 205 t 0 r /Helvetica-Bold findfont 84.7136 sf 0 0 m (2500) show NC gr 
 gsave  2268 2450 0 0 C 1916 205 t 0 r /Helvetica-Bold findfont 84.7136 sf 0 0 m (3000) show NC gr  340 294 m 1911 Y s
 gsave  2268 2450 0 0 C 108 1639 t 90 r /Helvetica-Bold findfont 84.7136 sf 0 0 m (Events/60GeV) show NC gr  393 294 m -53 X s 367 362 m -27 X s 367 430 m -27 X s 367 498 m -27 X s 393 566 m -53 X s 367 635 m -27 X s 367 703 m -27 X s 367 771 m -27
 X s 393 839 m -53 X s 367 907 m -27 X s 367 975 m -27 X s 367 1043 m -27 X s 393 1111 m -53 X s 367 1179 m -27 X s 367 1248 m -27 X s 367 1316 m -27 X s 393 1384 m -53 X s 367 1452 m -27 X s 367 1520 m -27 X s 367 1588 m -27 X s 393 1656 m -53 X s
 367 1724 m -27 X s 367 1792 m -27 X s 367 1861 m -27 X s 393 1929 m -53 X s 367 1997 m -27 X s 367 2065 m -27 X s 367 2133 m -27 X s 393 2201 m -53 X s 393 2201 m -53 X s
 gsave  2268 2450 0 0 C 280 264 t 0 r /Helvetica-Bold findfont 84.7136 sf 0 0 m (0) show NC gr 
 gsave  2268 2450 0 0 C 212 534 t 0 r /Helvetica-Bold findfont 84.7136 sf 0 0 m (0.2) show NC gr 
 gsave  2268 2450 0 0 C 209 808 t 0 r /Helvetica-Bold findfont 84.7136 sf 0 0 m (0.4) show NC gr 
 gsave  2268 2450 0 0 C 209 1082 t 0 r /Helvetica-Bold findfont 84.7136 sf 0 0 m (0.6) show NC gr 
 gsave  2268 2450 0 0 C 212 1352 t 0 r /Helvetica-Bold findfont 84.7136 sf 0 0 m (0.8) show NC gr 
 gsave  2268 2450 0 0 C 290 1626 t 0 r /Helvetica-Bold findfont 84.7136 sf 0 0 m (1) show NC gr 
 gsave  2268 2450 0 0 C 212 1896 t 0 r /Helvetica-Bold findfont 84.7136 sf 0 0 m (1.2) show NC gr 
 gsave  2268 2450 0 0 C 209 2170 t 0 r /Helvetica-Bold findfont 84.7136 sf 0 0 m (1.4) show NC gr  340 294 m 167 X 35 Y 28 X -35 Y 84 X 35 Y 28 X -35 Y 28 X 84 Y 28 X -78 Y 28 X 16 Y 27 X 54 Y 28 X 49 Y 28 X -125 Y 28 X 35 Y 56 X -35 Y 28 X 90 Y 28
 X -90 Y 27 X 90 Y 28 X -55 Y 28 X 55 Y 28 X -90 Y 223 X 35 Y 28 X -35 Y 725 X f 340 294 m 167 X 35 Y 28 X -35 Y 84 X 35 Y 28 X -35 Y 28 X 84 Y 28 X -78 Y 28 X 16 Y 27 X 54 Y 28 X 49 Y 28 X -125 Y 28 X 35 Y 56 X -35 Y 28 X 90 Y 28 X -90 Y 27 X 90 Y
 28 X -55 Y 28 X 55 Y 28 X -90 Y 223 X 35 Y 28 X -35 Y 725 X s
 gr  gr 
showpage
end
%%EOF
