%!PS-Adobe-2.0 EPSF-2.0
%%BoundingBox: 0 0 737 567
%%Title: /tmp_mnt/pool/cern4/gninenko/karmen_nomad/memo/kirs
%%Creator: HIGZ Version 1.22/09
%%CreationDate: :1/09/24   09.42
%%EndComments
80 dict begin
/s {stroke} def /l {lineto} def /m {moveto} def /t {translate} def
/sw {stringwidth} def /r {rotate} def /rl {roll}  def /R {repeat} def
/d {rlineto} def /rm {rmoveto} def /gr {grestore} def /f {eofill} def
/c {setrgbcolor} def /lw {setlinewidth} def /sd {setdash} def
/cl {closepath} def /sf {scalefont setfont} def /black {0 setgray} def
/box {m dup 0 exch d exch 0 d 0 exch neg d cl} def
/NC{systemdict begin initclip end}def/C{NC box clip newpath}def
/bl {box s} def /bf {box f} def /Y { 0 exch d} def /X { 0 d} def 
/mp {newpath /y exch def /x exch def} def
/side {[w .77 mul w .23 mul] .385 w mul sd w 0 l currentpoint t -144 r} def
/mr {mp x y w2 0 360 arc} def /m24 {mr s} def /m20 {mr f} def
/mb {mp x y w2 add m w2 neg 0 d 0 w neg d w 0 d 0 w d cl} def
/mt {mp x y w2 add m w2 neg w neg d w 0 d cl} def
/m21 {mb f} def /m25 {mb s} def /m22 {mt f} def /m26{mt s} def
/m23 {mp x y w2 sub m w2 w d w neg 0 d cl f} def
/m27 {mp x y w2 add m w3 neg w2 neg d w3 w2 neg d w3 w2 d cl s} def
/m28 {mp x w2 sub y w2 sub w3 add m w3 0 d 0 w3 neg d w3 0 d 0 w3 d w3 0 d
 0 w3 d w3 neg 0 d 0 w3 d w3 neg 0 d
 0 w3 neg d w3 neg 0 d cl s } def
/m29 {mp gsave x w2 sub y w2 add w3 sub m currentpoint t
 4 {side} repeat cl fill gr} def
/m30 {mp gsave x w2 sub y w2 add w3 sub m currentpoint t
 5 {side} repeat s gr} def
/m31 {mp x y w2 sub m 0 w d x w2 sub y m w 0 d
 x w2 sub y w2 add m w w neg d x w2 sub y w2
 sub m w w d s} def
/m2 {mp x y w2 sub m 0 w d x w2 sub y m w 0 d s} def
/m5 {mp x w2 sub y w2 sub m w w d x w2 sub y w2 add m w w neg d s} def
/DP {/PT exch def gsave 47.2 47.2 scale PT 1 eq { 1616 1 [ 16 0 0 16 neg 0 16
] { < AA AA 55 55 AA AA 55 55 AA AA 55 55 AA AA 55 55 AA AA 55 55 AA AA 55 55
AA AA 55 55 AA AA 55 55 > } image } if PT 2 eq { 16 16 1 [ 16 0 0 16 neg 0 16
] { < BB BB EE EE BB BB EE EE BB BB EE EE BB BB EE EE BB BB EE EE BB BB EE EE
BB BB EE EE BB BB EE EE > } image } if PT 3 eq { 16 16 1 [ 16 0 0 16 neg 0 16
] { < FF FF BB BB FF FF EE EE FF FF BB BB FF FF EE EE FF FF BB BB FF FF EE EE
FF FF BB BB FF FF EE EE > } image } if PT 4 eq { 16 16 1 [ 16 0 0 16 neg 0 16
] { < DF DF BF BF 7F 7F FE FE FD FD FB FB F7 F7 EF EF DF DF BF BF 7F 7F FE FE
FD FD FB FB F7 F7 EF EF > } image } if PT 5 eq { 16 16 1 [ 16 0 0 16 neg 0 16
] { < 7F 7F BF B F DF DF EF EF F7 F7 FB FB FD FD FE FE 7F 7F BF BF DF DF EF
EF F7 F7 FB FB FD FD FE FE > } image } if PT 6 eq { 16 16 1 [ 16 0 0 16 neg 0
16 ] { < BB BB BB BB BB BB BB BB BB BB BB BB BB BB BB BB BB BB BB BB BB BB BB
BB BB BB BB BB BB BB BB BB > } image } if PT 7 eq { 16 16 1 [ 16 0 0 16 neg 0
16 ] { < FF FF FF FF FF FF 00 00 FF FF FF FF FF FF 00 00 FF FF FF FF FF FF 00
00 FF FF FF FF FF FF 00 00 > } image } if PT 8 eq { 16 16 1 [ 16 0 0 16 neg 0
16 ] { < EE EE 47 47 83 83 C5 C5 EE EE 5C 5C 38 38 74 74 EE EE 47 47 83 83 C5
C5 EE EE 5C 5C 38 38 74 74 > } image } if PT 9 eq { 16 16 1 [ 16 0 0 16 neg 0
16 ] { < EF EF EF EF D7 D7 38 38 FE FE FE FE 7D 7D 83 83 EF EF EF EF D7 D7 38
38 FE FE FE FE 7D 7D 83 83 > } image } if PT 10 eq {16 16 1 [ 16 0 0 16 neg
0 16 ] { < EF EF EF EF EF EF 00 00 FE FE FE FE FE FE00 00 EF EF EF EF EF EF
00 00 FE FE FE FE FE FE 00 00 > } image } if PT 11 eq { 16 16 1 [ 16 0 0 16
neg 0 16 ] { < F7 F7 B6 B6 D5 D5 E3 E3 D5 D5 B6 B6 F7 F7 FF FF 7F 7F 6B 6B 5D
5D 3E 3E 5D 5D 6B 6B 7F 7F FF FF > } image } if PT 12 eq { 16 16 1 [ 16 0 0
16 neg 0 16 ] { < E3 E3 DD DD BE BE BE BE BE BE DD DD E3 E3 FF FF 3E 3E DD DD
EB EB EB EB EB EB DD DD 3E 3E FF FF > } image } if PT 13 eq { 16 16 1 [ 16 0
0 16 neg 0 16 ] { < FE FE 7D 7D BB BB D7 D7 EF EF D7D7 BB BB 7D 7D FE FE 7D
7D BB BB D7 D7 EF EF D7 D7 BB BB 7D 7D > } image } if PT 14 eq { 16 16 1 [ 16
0 0 16 neg 0 16 ] { < 00 00 EE EF EE EF EE EF 0E E0 EE EE EE EE EE EE 00 EE
FE EE FE EE FE EE 00 00 FE EF FE EF FE EF > } image } if PT 15 eq { 16 16 1 [
16 0 0 16 neg 0 16 ] { < DD DD AA AA DD DD FF FF 77 77 AA AA 77 77 FF FF DD
DD AA AA DD DD FF FF 77 77 AA AA 77 77 FF FF > } image } if PT 16 eq { 16 16
1 [ 16 0 0 16 neg 0 16 ] { < F1 F1 EE EE 1F 1F FF FFF1 F1 EE EE 1F 1F FF FF
F1 F1 EE EE 1F 1F FF FF F1 F1 EE EE 1F 1F FF FF > } image } if PT 17 eq { 16
16 1 [ 16 0 0 16 neg 0 16 ] { < EE EE DD DD BB BB FFFF EE EE DD DD BB BB FF
FF EE EE DD DD BB BB FF FF EE EE DD DD BB BB FF FF >} image } if PT 18 eq {
16 16 1 [ 16 0 0 16 neg 0 16 ] { < BB BB DD DD EE EEFF FF BB BB DD DD EE EE
FF FF BB BB DD DD EE EE FF FF BB BB DD DD EE EE FF FF > } image } if PT 19 eq
{ 16 16 1 [ 16 0 0 16 neg 0 16 ] { < 1F FC 67 F3 7B EF BD DE BD DE DE BD E6
B3 F8 0F E6 B3 DE BD BD DE BD DE 7B EF 67 F3 1F FC 7F FF > } image } if PT
20 eq { 16 16 1 [ 16 0 0 16 neg 0 16 ] { < DD DD EE EE EE EE EE EE DD DD BB
BB BB BB BB BB DD DD EE EE EE EE EE EE DD DD BB BB BB BB BB BB > } image }
if PT 21 eq { 16 16 1 [ 16 0 0 16 neg 0 16 ] { < 0E 0E EF EF EF EF EF EF E0
E0 FE FE FE FE FE FE 0E 0E EF EF EF EF EF EF E0 E0 FE FE FE FE FE FE > }
image } if PT 22 eq { 16 16 1 [ 16 0 0 16 neg 0 16 ]{ < 70 70 F7 F7 F7 F7 F7
F7 07 07 7F 7F 7F 7F 7F 7F 70 70 F7 F7 F7 F7 F7 F7 07 07 7F 7F 7F 7F 7F 7F >
} image } if PT 23 eq { 16 16 1 [ 16 0 0 16 neg 0 16] { < AA AA 55 55 A9 A9
D1 D1 E1 E1 D1 D1 A9 A9 55 55 AA AA 55 55 A9 A9 D1 D1 E1 E1 D1 D1 A9 A9 55 55
> } image } if PT 24 eq { 16 16 1 [ 16 0 0 16 neg 0 16 ] { < FF FE FF FC EA
A8 D5 54 EA A8 D5 54 E8 28 D4 54 E8 E8 D4 D4 E8 EA 54 D5 A8 EA 54 D5 00 C0 00
80 > } image } if PT 25 eq { 16 16 1 [ 16 0 0 16 neg0 16 ] { < FF FE FF FC
FF F8 FF F0 F0 00 F0 00 F0 20 F0 60 F0 E0 F1 E0 F3 E0 F0 00 E0 00 C0 00 80 00
00 00 > } image } if gr } def /FA { /PT exch def gsave clip 0 0 translate 1 1
54 { 1 sub 47.2 mul /Xcurr exch def 1 1 74 { 1 sub 47.2 mul /Ycurr exch def
gsave Xcurr Ycurr translate PT DP gr } for } for gr } def
/reencdict 24 dict def /ReEncode {reencdict begin /nco&na exch def
/nfnam exch def /basefontname exch def /basefontdict basefontname findfont def
/newfont basefontdict maxlength dict def basefontdict {exch dup /FID ne
{dup /Encoding eq {exch dup length array copy newfont 3 1 roll put} {exch
newfont 3 1 roll put} ifelse} {pop pop} ifelse } forall newfont
/FontName nfnam put nco&na aload pop nco&na length 2 idiv {newfont
/Encoding get 3 1 roll put} repeat nfnam newfont definefont pop end } def
/accvec [ 176 /agrave 181 /Agrave 190 /acircumflex 192 /Acircumflex
201 /adieresis 204 /Adieresis 209 /ccedilla 210 /Ccedilla 211 /eacute
212 /Eacute 213 /egrave 214 /Egrave 215 /ecircumflex 216 /Ecircumflex
217 /edieresis 218 /Edieresis 219 /icircumflex 220 /Icircumflex
221 /idieresis 222 /Idieresis 223 /ntilde 224 /Ntilde 226 /ocircumflex
228 /Ocircumflex 229 /odieresis 230 /Odieresis 231 /ucircumflex 236 /Ucircumflex
237 /udieresis 238 /Udieresis 239 /aring 242 /Aring 243 /ydieresis
244 /Ydieresis 246 /aacute 247 /Aacute 252 /ugrave 253 /Ugrave] def
/Times-Roman /Times-Roman accvec ReEncode
/Times-Italic /Times-Italic accvec ReEncode
/Times-Bold /Times-Bold accvec ReEncode
/Times-BoldItalic /Times-BoldItalic accvec ReEncode
/Helvetica /Helvetica accvec ReEncode
/Helvetica-Oblique /Helvetica-Oblique accvec ReEncode
/Helvetica-Bold /Helvetica-Bold accvec ReEncode
/Helvetica-BoldOblique /Helvetica-BoldOblique  accvec ReEncode
/Courier /Courier accvec ReEncode
/Courier-Oblique /Courier-Oblique accvec ReEncode
/Courier-Bold /Courier-Bold accvec ReEncode
/Courier-BoldOblique /Courier-BoldOblique accvec ReEncode
/oshow {gsave [] 0 sd true charpath stroke gr} def
/stwn { /fs exch def /fn exch def /text exch def fn findfont fs sf
 text sw pop xs add /xs exch def} def
/stwb { /fs exch def /fn exch def /nbas exch def /textf exch def
textf length /tlen exch def nbas tlen gt {/nbas tlendef} if
fn findfont fs sf textf dup length nbas sub nbas getinterval sw
pop neg xs add /xs exch def} def
/accspe [ 65 /plusminus 66 /bar 67 /existential 68 /universal
69 /exclam 70 /numbersign 71 /greater 72 /question 73 /integral
74 /colon 75 /semicolon 76 /less 77 /bracketleft 78 /bracketright
79 /greaterequal 80 /braceleft 81 /braceright 82 /radical
83 /spade 84 /heart 85 /diamond 86 /club 87 /lessequal
88 /multiply 89 /percent 90 /infinity 48 /circlemultiply 49 /circleplus
50 /emptyset 51 /lozenge 52 /bullet 53 /arrowright 54 /arrowup
55 /arrowleft 56 /arrowdown 57 /arrowboth 48 /degree 44 /comma 43 /plus
 45 /angle 42 /angleleft 47 /divide 61 /notequal 40 /equivalence 41 /second
 97 /approxequal 98 /congruent 99 /perpendicular 100 /partialdiff 101 /florin
 102 /intersection 103 /union 104 /propersuperset 105 /reflexsuperset
 106 /notsubset 107 /propersubset 108 /reflexsubset 109 /element 110 /notelement
 111 /gradient 112 /logicaland 113 /logicalor 114 /arrowdblboth
 115 /arrowdblleft 116 /arrowdblup 117 /arrowdblright 118 /arrowdbldown
 119 /ampersand 120 /omega1 121 /similar 122 /aleph ] def
/Symbol /Special accspe ReEncode
gsave .25 .25 scale 
%%EndProlog
 gsave 0 0 t black [] 0 sd 1 lw 2 lw 2494 1758 397 283 bl 2494 1758 397 283 C
 2948 2948 0 -340 C 1 lw 1599 283 m cl s 1574 283 m s 1549 283 m cl s 1524 283 m
 cl s 1499 283 m cl s 1474 283 m cl s 1449 283 m cl s 1424 283 m cl s 1399 283 m
 cl s 1374 283 m cl s 1349 283 m cl s 1324 283 m s 1299 283 m cl s 1274 283 m cl
 s 1249 283 m cl s 1224 283 m cl s 1199 283 m cl s 1174 283 m s 1149 283 m cl s
 1124 283 m cl s 1099 283 m cl s 1074 283 m cl s 1049 283 m s 1024 283 m cl s
 999 283 m cl s 974 283 m cl s 949 283 m cl s 924 283 m cl s 899 283 m cl s 874
 283 m cl s 849 283 m cl s 824 283 m cl s 799 283 m cl s 774 283 m cl s 749 283
 m cl s 724 283 m cl s 699 283 m cl s 674 283 m cl s 649 283 m cl s 624 283 m s
 599 283 m s 574 283 m cl s 549 283 m cl s 524 283 m s 499 283 m s 497 307 m -23
 -24 d s 474 309 m -25 -26 d s 472 332 m -49 -49 d s 472 357 m -74 -74 d s 472
 382 m -75 -75 d s 452 387 m -55 -55 d s 447 407 m -50 -50 d s 447 432 m -50 -50
 d s 447 457 m -50 -50 d s 447 482 m -50 -50 d s 447 507 m -50 -50 d s 447 532 m
 -50 -50 d s 447 557 m -50 -50 d s 447 582 m -50 -50 d s 447 607 m -50 -50 d s
 447 632 m -50 -50 d s 447 657 m -50 -50 d s 447 682 m -50 -50 d s 447 707 m -50
 -50 d s 447 732 m -50 -50 d s 440 750 m -43 -43 d s 422 757 m -25 -25 d s 422
 782 m -25 -25 d s 422 807 m -25 -25 d s 422 832 m -25 -25 d s 422 857 m -25 -25
 d s 422 882 m -25 -25 d s 422 907 m -25 -25 d s 422 932 m -25 -25 d s 422 957 m
 -25 -25 d s 422 982 m -25 -25 d s 422 1007 m -25 -25 d s 422 1032 m -25 -25 d s
 422 1057 m -25 -25 d s 422 1082 m -25 -25 d s 422 1107 m -25 -25 d s 422 1132 m
 -25 -25 d s 422 1157 m -25 -25 d s 422 1182 m -25 -25 d s 422 1207 m -25 -25 d
 s 422 1232 m -25 -25 d s 422 1257 m -25 -25 d s 422 1282 m -25 -25 d s 422 1307
 m -25 -25 d s 422 1332 m -25 -25 d s 422 1357 m -25 -25 d s 422 1382 m -25 -25
 d s 422 1407 m -25 -25 d s 422 1432 m -25 -25 d s 422 1457 m -25 -25 d s 422
 1482 m -25 -24 d s 422 1507 m -25 -24 d s 422 1532 m -25 -24 d s 422 1557 m -25
 -24 d s 422 1583 m -25 -25 d s 422 1608 m -25 -25 d s 422 1633 m -25 -25 d s
 422 1658 m -25 -25 d s 422 1683 m -25 -25 d s 422 1708 m -25 -25 d s 422 1733 m
 -25 -25 d s 422 1758 m -25 -25 d s 422 1783 m -25 -25 d s 422 1808 m -25 -25 d
 s 422 1833 m -25 -25 d s 422 1858 m -25 -25 d s 404 1865 m -7 -7 d s 2494 1758
 397 283 C 2948 2948 0 -340 C 421 1865 m 1 X s 397 1865 m 25 -25 d s 397 1840 m
 25 -25 d s 397 1814 m 25 -24 d s 397 1789 m 25 -24 d s 397 1764 m 25 -24 d s
 397 1739 m 25 -24 d s 397 1714 m 25 -25 d s 397 1689 m 25 -25 d s 397 1664 m 25
 -25 d s 397 1639 m 25 -25 d s 397 1614 m 25 -25 d s 397 1589 m 25 -25 d s 397
 1564 m 25 -25 d s 397 1539 m 25 -25 d s 397 1514 m 25 -25 d s 397 1489 m 25 -25
 d s 1603 283 m cl s 397 1464 m 25 -25 d s 1578 283 m cl s 397 1439 m 25 -25 d s
 1553 283 m cl s 397 1414 m 25 -25 d s 1528 283 m cl s 397 1389 m 25 -25 d s
 1503 283 m cl s 397 1364 m 25 -25 d s 1478 283 m cl s 397 1339 m 25 -25 d s
 1453 283 m cl s 397 1314 m 25 -25 d s 1428 283 m cl s 397 1289 m 25 -25 d s
 1403 283 m cl s 397 1264 m 25 -25 d s 1378 283 m cl s 397 1239 m 25 -25 d s
 1353 283 m cl s 397 1214 m 25 -25 d s 1328 283 m cl s 397 1189 m 25 -25 d s
 1303 283 m cl s 397 1164 m 25 -25 d s 1277 283 m cl s 397 1139 m 25 -25 d s
 1252 283 m s 397 1114 m 25 -25 d s 1227 283 m cl s 397 1089 m 25 -25 d s 1202
 283 m cl s 397 1064 m 25 -25 d s 1177 283 m cl s 397 1039 m 25 -25 d s 1152 283
 m cl s 397 1014 m 25 -25 d s 1127 283 m s 397 989 m 25 -25 d s 1102 283 m cl s
 397 964 m 25 -25 d s 1077 283 m cl s 397 939 m 25 -25 d s 1052 283 m cl s 397
 914 m 25 -25 d s 1027 283 m s 397 889 m 25 -25 d s 1002 283 m cl s 397 864 m 25
 -25 d s 977 283 m cl s 397 839 m 25 -25 d s 952 283 m cl s 397 814 m 25 -25 d s
 927 283 m cl s 397 789 m 25 -25 d s 436 750 m 11 -11 d s 902 283 m cl s 397 764
 m 50 -50 d s 877 283 m cl s 397 739 m 50 -50 d s 852 283 m s 397 714 m 50 -50 d
 s 827 283 m cl s 397 689 m 50 -50 d s 802 283 m s 397 664 m 50 -50 d s 777 283
 m cl s 397 639 m 50 -50 d s 752 283 m s 397 614 m 50 -50 d s 727 283 m cl s 397
 589 m 50 -50 d s 702 283 m cl s 397 564 m 50 -50 d s 677 283 m cl s 397 539 m
 50 -50 d s 652 283 m s 397 514 m 50 -50 d s 627 283 m s 397 489 m 50 -50 d s
 602 283 m cl s 397 464 m 50 -50 d s 577 283 m s 397 439 m 50 -50 d s 448 387 m
 24 -23 d s 552 283 m s 397 414 m 75 -75 d s 527 283 m s 397 389 m 75 -75 d s
 476 309 m 21 -20 d s 502 283 m s 397 364 m 80 -81 d s 397 339 m 55 -56 d s 397
 314 m 30 -31 d s 397 289 m 5 -6 d s 2494 1758 397 283 C 2 lw 397 283 m 1582 Y
 25 X -1115 Y 25 X -363 Y 25 X -78 Y 25 X -26 Y 1122 X s 2948 2948 0 -340 C 1 lw
 2825 283 m cl s 2800 283 m cl s 2775 283 m cl s 2750 283 m cl s 2725 283 m cl s
 2700 283 m cl s 2675 283 m cl s 2650 283 m s 2625 283 m cl s 2600 283 m cl s
 2575 283 m cl s 2550 283 m cl s 2525 283 m cl s 2500 283 m cl s 2475 283 m cl s
 2450 283 m cl s 2425 283 m cl s 2400 283 m cl s 2375 283 m cl s 2350 283 m s
 2325 283 m cl s 2300 283 m cl s 2275 283 m cl s 2250 283 m cl s 2225 283 m cl s
 2200 283 m cl s 2175 283 m cl s 2150 283 m s 2124 283 m cl s 2099 283 m cl s
 2074 283 m cl s 2049 283 m s 2024 283 m cl s 1999 283 m cl s 1974 283 m cl s
 1949 283 m s 1924 283 m cl s 1899 283 m cl s 1874 283 m cl s 1849 283 m cl s
 1824 283 m cl s 1799 283 m cl s 1774 283 m s 1749 283 m cl s 1724 283 m cl s
 1699 283 m cl s 1674 283 m cl s 1649 283 m cl s 1624 283 m cl s 2494 1758 397
 283 C 2948 2948 0 -340 C 2828 283 m cl s 2803 283 m cl s 2778 283 m cl s 2753
 283 m cl s 2728 283 m cl s 2703 283 m cl s 2678 283 m s 2653 283 m cl s 2628
 283 m cl s 2603 283 m cl s 2578 283 m cl s 2553 283 m cl s 2528 283 m cl s 2503
 283 m cl s 2478 283 m cl s 2453 283 m cl s 2428 283 m cl s 2403 283 m cl s 2378
 283 m cl s 2353 283 m cl s 2328 283 m cl s 2303 283 m cl s 2278 283 m cl s 2253
 283 m cl s 2228 283 m cl s 2203 283 m cl s 2178 283 m s 2153 283 m cl s 2128
 283 m s 2103 283 m cl s 2078 283 m cl s 2053 283 m cl s 2028 283 m cl s 2003
 283 m cl s 1978 283 m cl s 1953 283 m cl s 1928 283 m cl s 1903 283 m cl s 1878
 283 m cl s 1853 283 m cl s 1828 283 m cl s 1803 283 m s 1778 283 m cl s 1753
 283 m cl s 1728 283 m cl s 1703 283 m cl s 1678 283 m cl s 1653 283 m s 1628
 283 m cl s 2494 1758 397 283 C 2 lw 1619 283 m 1222 X s 2948 2948 0 -340 C 1 lw
 2875 283 m cl s 2850 283 m cl s 2494 1758 397 283 C 2948 2948 0 -340 C 2878 283
 m cl s 2853 283 m cl s 2494 1758 397 283 C 2 lw 2841 283 m 50 X s NC 1 lw 397
 283 m 1758 Y s 2 lw 431 283 m -34 X s 414 342 m -17 X s 414 400 m -17 X s 414
 458 m -17 X s 414 516 m -17 X s 431 574 m -34 X s 414 632 m -17 X s 414 690 m
 -17 X s 414 748 m -17 X s 414 806 m -17 X s 431 864 m -34 X s 414 922 m -17 X s
 414 980 m -17 X s 414 1039 m -17 X s 414 1097 m -17 X s 431 1155 m -34 X s 414
 1213 m -17 X s 414 1271 m -17 X s 414 1329 m -17 X s 414 1387 m -17 X s 431
 1445 m -34 X s 414 1503 m -17 X s 414 1561 m -17 X s 414 1619 m -17 X s 414
 1677 m -17 X s 431 1736 m -34 X s 414 1794 m -17 X s 414 1852 m -17 X s 414
 1910 m -17 X s 414 1968 m -17 X s 431 2026 m -34 X s 431 2026 m -34 X s
 /xs 0 def 
(0)
 /Helvetica-Bold     93 stwn 
 gsave  334 249
 t   0 r  xs neg 0 t 0 0 m
 /Helvetica-Bold findfont   93 sf 0    0 m 
(0)
 show 
 gr
 /xs 0 def 
(1)
 /Helvetica-Bold     93 stwn 
 gsave  334 540
 t   0 r  xs neg 0 t 0 0 m
 /Helvetica-Bold findfont   93 sf 0    0 m 
(1)
 show 
 gr
 /xs 0 def 
(2)
 /Helvetica-Bold     93 stwn 
 gsave  334 830
 t   0 r  xs neg 0 t 0 0 m
 /Helvetica-Bold findfont   93 sf 0    0 m 
(2)
 show 
 gr
 /xs 0 def 
(3)
 /Helvetica-Bold     93 stwn 
 gsave  334 1121
 t   0 r  xs neg 0 t 0 0 m
 /Helvetica-Bold findfont   93 sf 0    0 m 
(3)
 show 
 gr
 /xs 0 def 
(4)
 /Helvetica-Bold     93 stwn 
 gsave  334 1411
 t   0 r  xs neg 0 t 0 0 m
 /Helvetica-Bold findfont   93 sf 0    0 m 
(4)
 show 
 gr
 /xs 0 def 
(5)
 /Helvetica-Bold     93 stwn 
 gsave  334 1702
 t   0 r  xs neg 0 t 0 0 m
 /Helvetica-Bold findfont   93 sf 0    0 m 
(5)
 show 
 gr
 /xs 0 def 
(6)
 /Helvetica-Bold     93 stwn 
 gsave  334 1992
 t   0 r  xs neg 0 t 0 0 m
 /Helvetica-Bold findfont   93 sf 0    0 m 
(6)
 show 
 gr
 1 lw 397 283 m 2494 X s 2 lw 397 317 m -34 Y s 447 300 m -17 Y s 497 300 m -17
 Y s 547 300 m -17 Y s 596 300 m -17 Y s 646 317 m -34 Y s 696 300 m -17 Y s 746
 300 m -17 Y s 796 300 m -17 Y s 846 300 m -17 Y s 896 317 m -34 Y s 946 300 m
 -17 Y s 996 300 m -17 Y s 1045 300 m -17 Y s 1095 300 m -17 Y s 1145 317 m -34
 Y s 1195 300 m -17 Y s 1245 300 m -17 Y s 1295 300 m -17 Y s 1345 300 m -17 Y s
 1395 317 m -34 Y s 1445 300 m -17 Y s 1494 300 m -17 Y s 1544 300 m -17 Y s
 1594 300 m -17 Y s 1644 317 m -34 Y s 1694 300 m -17 Y s 1744 300 m -17 Y s
 1794 300 m -17 Y s 1844 300 m -17 Y s 1894 317 m -34 Y s 1943 300 m -17 Y s
 1993 300 m -17 Y s 2043 300 m -17 Y s 2093 300 m -17 Y s 2143 317 m -34 Y s
 2193 300 m -17 Y s 2243 300 m -17 Y s 2293 300 m -17 Y s 2343 300 m -17 Y s
 2392 317 m -34 Y s 2442 300 m -17 Y s 2492 300 m -17 Y s 2542 300 m -17 Y s
 2592 300 m -17 Y s 2642 317 m -34 Y s 2692 300 m -17 Y s 2742 300 m -17 Y s
 2792 300 m -17 Y s 2841 300 m -17 Y s 2891 317 m -34 Y s
 /xs 0 def 
(0)
 /Helvetica-Bold     93 stwn 
 gsave  397 181
 t   0 r  xs 2 div neg 0 t 0 0 m
 /Helvetica-Bold findfont   93 sf 0    0 m 
(0)
 show 
 gr
 /xs 0 def 
(5)
 /Helvetica-Bold     93 stwn 
 gsave  646 181
 t   0 r  xs 2 div neg 0 t 0 0 m
 /Helvetica-Bold findfont   93 sf 0    0 m 
(5)
 show 
 gr
 /xs 0 def 
(10)
 /Helvetica-Bold     93 stwn 
 gsave  896 181
 t   0 r  xs 2 div neg 0 t 0 0 m
 /Helvetica-Bold findfont   93 sf 0    0 m 
(10)
 show 
 gr
 /xs 0 def 
(15)
 /Helvetica-Bold     93 stwn 
 gsave  1145 181
 t   0 r  xs 2 div neg 0 t 0 0 m
 /Helvetica-Bold findfont   93 sf 0    0 m 
(15)
 show 
 gr
 /xs 0 def 
(20)
 /Helvetica-Bold     93 stwn 
 gsave  1395 181
 t   0 r  xs 2 div neg 0 t 0 0 m
 /Helvetica-Bold findfont   93 sf 0    0 m 
(20)
 show 
 gr
 /xs 0 def 
(25)
 /Helvetica-Bold     93 stwn 
 gsave  1644 181
 t   0 r  xs 2 div neg 0 t 0 0 m
 /Helvetica-Bold findfont   93 sf 0    0 m 
(25)
 show 
 gr
 /xs 0 def 
(30)
 /Helvetica-Bold     93 stwn 
 gsave  1894 181
 t   0 r  xs 2 div neg 0 t 0 0 m
 /Helvetica-Bold findfont   93 sf 0    0 m 
(30)
 show 
 gr
 /xs 0 def 
(35)
 /Helvetica-Bold     93 stwn 
 gsave  2143 181
 t   0 r  xs 2 div neg 0 t 0 0 m
 /Helvetica-Bold findfont   93 sf 0    0 m 
(35)
 show 
 gr
 /xs 0 def 
(40)
 /Helvetica-Bold     93 stwn 
 gsave  2392 181
 t   0 r  xs 2 div neg 0 t 0 0 m
 /Helvetica-Bold findfont   93 sf 0    0 m 
(40)
 show 
 gr
 /xs 0 def 
(45)
 /Helvetica-Bold     93 stwn 
 gsave  2642 181
 t   0 r  xs 2 div neg 0 t 0 0 m
 /Helvetica-Bold findfont   93 sf 0    0 m 
(45)
 show 
 gr
 /xs 0 def 
(50)
 /Helvetica-Bold     93 stwn 
 gsave  2891 181
 t   0 r  xs 2 div neg 0 t 0 0 m
 /Helvetica-Bold findfont   93 sf 0    0 m 
(50)
 show 
 gr
 2494 1758 397 283 C 409 283 m 134 Y s 409 440 m 194 Y s 397 429 m 1 X s 421 429
 m 1 X s /w 23 def /w2 {w 2 div} def /w3 {w 3 div} def 409 429 m20 434 283 m 280
 Y s 434 585 m 279 Y s 422 574 m 1 X s 446 574 m 1 X s 434 574 m20 459 283 m 134
 Y s 459 440 m 194 Y s 447 429 m 1 X s 471 429 m 1 X s 459 429 m20 484 283 m 134
 Y s 484 440 m 194 Y s 472 429 m 1 X s 495 429 m 2 X s 484 429 m20 509 283 m 62
 Y s 509 367 m 134 Y s 497 356 m 1 X s 520 356 m 2 X s 509 356 m20 534 283 m 207
 Y s 534 513 m 240 Y s 522 501 m 1 X s 545 501 m 2 X s 534 501 m20 547 283 m 12
 X s 559 283 m 12 X s 584 283 m 62 Y s 584 367 m 134 Y s 571 356 m 2 X s 595 356
 m 1 X s 584 356 m20 609 283 m 62 Y s 609 367 m 134 Y s 596 356 m 2 X s 620 356
 m 1 X s 609 356 m20 621 283 m 13 X s 634 283 m 12 X s 659 738 m 525 Y s 659
 1285 m 525 Y s 646 1274 m 1 X s 670 1274 m 1 X s 659 1274 m20 671 283 m 13 X s
 684 283 m 12 X s 696 283 m 13 X s 709 283 m 12 X s 721 283 m 13 X s 734 283 m
 12 X s 746 283 m 13 X s 759 283 m 12 X s 783 484 m 416 Y s 783 922 m 416 Y s
 771 911 m 1 X s 795 911 m 1 X s 783 911 m20 808 283 m 134 Y s 808 440 m 194 Y s
 796 429 m 1 X s 820 429 m 1 X s 808 429 m20 833 283 m 62 Y s 833 367 m 134 Y s
 821 356 m 1 X s 845 356 m 1 X s 833 356 m20 858 283 m 134 Y s 858 440 m 194 Y s
 846 429 m 1 X s 870 429 m 1 X s 858 429 m20 883 283 m 62 Y s 883 367 m 134 Y s
 871 356 m 1 X s 895 356 m 1 X s 883 356 m20 908 283 m 62 Y s 908 367 m 134 Y s
 896 356 m 1 X s 920 356 m 1 X s 908 356 m20 921 283 m 12 X s 933 283 m 13 X s
 946 283 m 12 X s 958 283 m 13 X s 971 283 m 12 X s 983 283 m 13 X s 1008 283 m
 62 Y s 1008 367 m 134 Y s 996 356 m 1 X s 1019 356 m 1 X s 1008 356 m20 1020
 283 m 13 X s 1033 283 m 12 X s 1045 283 m 13 X s 1058 283 m 12 X s 1083 283 m
 62 Y s 1083 367 m 134 Y s 1070 356 m 1 X s 1094 356 m 1 X s 1083 356 m20 1095
 283 m 13 X s 1108 283 m 12 X s 1120 283 m 13 X s 1133 283 m 12 X s 1145 283 m
 13 X s 1158 283 m 12 X s 1170 283 m 13 X s 1183 283 m 12 X s 1195 283 m 13 X s
 1208 283 m 12 X s 1232 283 m 62 Y s 1232 367 m 134 Y s 1220 356 m 1 X s 1244
 356 m 1 X s 1232 356 m20 1245 283 m 12 X s 1257 283 m 13 X s 1282 283 m 62 Y s
 1282 367 m 134 Y s 1270 356 m 1 X s 1294 356 m 1 X s 1282 356 m20 1295 283 m 12
 X s 1307 283 m 13 X s 1320 283 m 12 X s 1332 283 m 13 X s 1345 283 m 12 X s
 1357 283 m 13 X s 1382 283 m 134 Y s 1382 440 m 194 Y s 1370 429 m 1 X s 1393
 429 m 2 X s 1382 429 m20 1395 283 m 12 X s 1407 283 m 13 X s 1420 283 m 12 X s
 1432 283 m 13 X s 1457 283 m 134 Y s 1457 440 m 194 Y s 1445 429 m 1 X s 1468
 429 m 1 X s 1457 429 m20 1482 283 m 62 Y s 1482 367 m 134 Y s 1469 356 m 2 X s
 1493 356 m 1 X s 1482 356 m20 1507 283 m 134 Y s 1507 440 m 194 Y s 1494 429 m
 2 X s 1518 429 m 1 X s 1507 429 m20 1519 283 m 13 X s 1532 283 m 12 X s 1557
 283 m 134 Y s 1557 440 m 194 Y s 1544 429 m 1 X s 1568 429 m 1 X s 1557 429 m20
 1569 283 m 13 X s 1582 283 m 12 X s 1594 283 m 13 X s 1607 283 m 12 X s 1619
 283 m 13 X s 1632 283 m 12 X s 1644 283 m 13 X s 1657 283 m 12 X s 1681 283 m
 62 Y s 1681 367 m 134 Y s 1669 356 m 1 X s 1693 356 m 1 X s 1681 356 m20 1694
 283 m 12 X s 1706 283 m 13 X s 1719 283 m 12 X s 1731 283 m 13 X s 1744 283 m
 12 X s 1756 283 m 13 X s 1769 283 m 12 X s 1781 283 m 13 X s 1806 283 m 62 Y s
 1806 367 m 134 Y s 1794 356 m 1 X s 1818 356 m 1 X s 1806 356 m20 1819 283 m 12
 X s 1831 283 m 13 X s 1856 283 m 134 Y s 1856 440 m 194 Y s 1844 429 m 1 X s
 1867 429 m 2 X s 1856 429 m20 1881 283 m 62 Y s 1881 367 m 134 Y s 1869 356 m 1
 X s 1892 356 m 2 X s 1881 356 m20 1894 283 m 12 X s 1906 283 m 12 X s 1918 283
 m 13 X s 1931 283 m 12 X s 1943 283 m 13 X s 1956 283 m 12 X s 1981 283 m 62 Y
 s 1981 367 m 134 Y s 1968 356 m 1 X s 1992 356 m 1 X s 1981 356 m20 1993 283 m
 13 X s 2006 283 m 12 X s 2031 283 m 62 Y s 2031 367 m 134 Y s 2018 356 m 1 X s
 2042 356 m 1 X s 2031 356 m20 2043 283 m 13 X s 2056 283 m 12 X s 2068 283 m 13
 X s 2081 283 m 12 X s 2093 283 m 13 X s 2106 283 m 12 X s 2118 283 m 12 X s
 2130 283 m 13 X s 2143 283 m 12 X s 2155 283 m 13 X s 2168 283 m 12 X s 2180
 283 m 13 X s 2205 826 m 556 Y s 2205 1405 m 556 Y s 2193 1393 m 1 X s 2217 1393
 m 1 X s 2205 1393 m20 2218 283 m 12 X s 2230 283 m 13 X s 2243 283 m 12 X s
 2255 283 m 13 X s 2268 283 m 12 X s 2280 283 m 13 X s 2293 283 m 12 X s 2305
 283 m 13 X s 2318 283 m 12 X s 2330 283 m 13 X s 2343 283 m 12 X s 2355 283 m
 12 X s 2367 283 m 13 X s 2380 283 m 12 X s 2392 283 m 13 X s 2405 283 m 12 X s
 2430 283 m 62 Y s 2430 367 m 134 Y s 2417 356 m 1 X s 2441 356 m 1 X s 2430 356
 m20 2442 283 m 13 X s 2455 283 m 12 X s 2467 283 m 13 X s 2480 283 m 12 X s
 2492 283 m 13 X s 2505 283 m 12 X s 2530 283 m 62 Y s 2530 367 m 134 Y s 2517
 356 m 1 X s 2541 356 m 1 X s 2530 356 m20 2542 283 m 13 X s 2555 283 m 12 X s
 2580 283 m 62 Y s 2580 367 m 134 Y s 2567 356 m 1 X s 2591 356 m 1 X s 2580 356
 m20 2604 283 m 62 Y s 2604 367 m 134 Y s 2592 356 m 1 X s 2616 356 m 1 X s 2604
 356 m20 2629 283 m 62 Y s 2629 367 m 134 Y s 2617 356 m 1 X s 2641 356 m 1 X s
 2629 356 m20 2642 283 m 12 X s 2654 283 m 13 X s 2667 283 m 12 X s 2679 283 m
 13 X s 2692 283 m 12 X s 2704 283 m 13 X s 2729 283 m 134 Y s 2729 440 m 194 Y
 s 2717 429 m 1 X s 2741 429 m 1 X s 2729 429 m20 2742 283 m 12 X s 2754 283 m
 13 X s 2779 283 m 62 Y s 2779 367 m 134 Y s 2767 356 m 1 X s 2790 356 m 2 X s
 2779 356 m20 2792 283 m 12 X s 2804 283 m 12 X s 2816 283 m 13 X s 2829 283 m
 12 X s 2854 283 m 134 Y s 2854 440 m 194 Y s 2841 429 m 2 X s 2865 429 m 1 X s
 2854 429 m20 2866 283 m 13 X s 2879 283 m 12 X s 397 283 m 174 X 291 Y 50 X
 -291 Y 350 X 291 Y 25 X -291 Y 74 X 581 Y 25 X -581 Y 150 X 291 Y 50 X -291 Y
 75 X 291 Y 25 X -291 Y 25 X 291 Y 49 X -291 Y 574 X 291 Y 25 X -291 Y 25 X 291
 Y 25 X -291 Y 299 X 291 Y 25 X -291 Y 25 X 291 Y 25 X -291 Y 100 X 291 Y 25 X
 -291 Y 25 X 291 Y 25 X -291 Y 75 X 581 Y 25 X -581 Y 99 X 291 Y 25 X -291 Y s
 2948 2268 0 0 C 2494 1758 397 283 C 2948 2268 0 0 C /w 34
 def /w2 {w 2 div} def /w3 {w 3 div} def 1395 1736 m20
 gsave  1463 1713
 t   0 r 0 0 m
 /Helvetica-Bold findfont   62 sf 0    0 m 
(MC)
 show 
 gr
 2494 1758 397 283 C 2948 2268 0 0 C 2494 1758 397 283 C 2948 2268 0 0 C
 gsave  1345 1590
 t   0 r 0 0 m
 /Helvetica-Bold findfont   62 sf 0    0 m 
(- DATA)
 show 
 gr
 2494 1758 397 283 C 2948 2268 0 0 C
 /xs 0 def 
(\(1-cos)
 /Helvetica-Bold    124 stwn 
(Q)
 /Symbol    124 stwn 
(e+e-)
 /Helvetica-Bold     87 stwn 
(\)x10)
 /Helvetica-Bold    124 stwn 
(5)
 /Helvetica-Bold     87 stwn 
 gsave  2891 43
 t   0 r  xs neg 0 t 0 0 m
 /Helvetica-Bold findfont  124 sf 0    0 m 
(\(1-cos)
 show 
 currentpoint pop 0 t 
 /Symbol findfont  124 sf 0    0 m 
(Q)
 show 
 currentpoint pop 0 t 
 /Helvetica-Bold findfont   87 sf 0  -41 m 
(e+e-)
 show 
 currentpoint pop 0 t 
 /Helvetica-Bold findfont  124 sf 0    0 m 
(\)x10)
 show 
 currentpoint pop 0 t 
 /Helvetica-Bold findfont   87 sf 0   62 m 
(5)
 show 
 gr
 /xs 0 def 
(Number of events)
 /Helvetica-Bold    124 stwn 
 gsave  227 2041
 t  90 r  xs neg 0 t 0 0 m
 /Helvetica-Bold findfont  124 sf 0    0 m 
(Number of events)
 show 
 gr
 2494 1758 397 283 C
gr gr showpage
end
%%EOF
