%!PS-Adobe-2.0 EPSF-2.0
%%BoundingBox: 0 0 737 567
%%Title: result1.eps
%%Creator: HIGZ Version 1.26/04
%%CreationDate: 2000/06/07   14.18
%%EndComments
%%BeginProlog
80 dict begin
/s {stroke} def /l {lineto} def /m {moveto} def /t {translate} def
/sw {stringwidth} def /r {rotate} def /rl {roll}  def /R {repeat} def
/d {rlineto} def /rm {rmoveto} def /gr {grestore} def /f {eofill} def
/c {setrgbcolor} def /lw {setlinewidth} def /sd {setdash} def
/cl {closepath} def /sf {scalefont setfont} def /black {0 setgray} def
/box {m dup 0 exch d exch 0 d 0 exch neg d cl} def
/NC{systemdict begin initclip end}def/C{NC box clip newpath}def
/bl {box s} def /bf {box f} def /Y { 0 exch d} def /X { 0 d} def 
/mp {newpath /y exch def /x exch def} def
/side {[w .77 mul w .23 mul] .385 w mul sd w 0 l currentpoint t -144 r} def
/mr {mp x y w2 0 360 arc} def /m24 {mr s} def /m20 {mr f} def
/mb {mp x y w2 add m w2 neg 0 d 0 w neg d w 0 d 0 w d cl} def
/mt {mp x y w2 add m w2 neg w neg d w 0 d cl} def
/m21 {mb f} def /m25 {mb s} def /m22 {mt f} def /m26 {mt s} def
/m23 {mp x y w2 sub m w2 w d w neg 0 d cl f} def
/m27 {mp x y w2 add m w3 neg w2 neg d w3 w2 neg d w3  w2 d cl s} def
/m28 {mp x w2 sub y w2 sub w3 add m w3 0 d 0 w3 neg d w3 0 d 0 w3 d w3 0 d
 0 w3 d w3 neg 0 d 0 w3 d w3 neg 0 d
 0 w3 neg d w3 neg 0 d cl s } def
/m29 {mp gsave x w2 sub y w2 add w3 sub m currentpoint t
 4 {side} repeat cl fill gr} def
/m30 {mp gsave x w2 sub y w2 add w3 sub m currentpoint t
 5 {side} repeat s gr} def
/m31 {mp x y w2 sub m 0 w d x w2 sub y m w 0 d
 x w2 sub y w2 add m w w neg d x w2 sub y w2
 sub m w w d s} def
/m2 {mp x y w2 sub m 0 w d x w2 sub y m w 0 d s} def
/m5 {mp x w2 sub y w2 sub m w w d x w2 sub y w2 add m w w neg d s} def
/reencdict 24 dict def /ReEncode {reencdict begin /nco&na exch def
/nfnam exch def /basefontname exch def /basefontdict basefontname findfont def
/newfont basefontdict maxlength dict def basefontdict {exch dup /FID ne
{dup /Encoding eq {exch dup length array copy newfont 3 1 roll put} {exch
newfont 3 1 roll put} ifelse} {pop pop} ifelse } forall newfont
/FontName nfnam put nco&na aload pop nco&na length 2 idiv {newfont
/Encoding get 3 1 roll put} repeat nfnam newfont definefont pop end } def
/accvec [ 176 /agrave 181 /Agrave 190 /acircumflex 192 /Acircumflex
201 /adieresis 204 /Adieresis 209 /ccedilla 210 /Ccedilla 211 /eacute
212 /Eacute 213 /egrave 214 /Egrave 215 /ecircumflex 216 /Ecircumflex
217 /edieresis 218 /Edieresis 219 /icircumflex 220 /Icircumflex
221 /idieresis 222 /Idieresis 223 /ntilde 224 /Ntilde 226 /ocircumflex
228 /Ocircumflex 229 /odieresis 230 /Odieresis 231 /ucircumflex 236 /Ucircumflex
237 /udieresis 238 /Udieresis 239 /aring 242 /Aring 243 /ydieresis
244 /Ydieresis 246 /aacute 247 /Aacute 252 /ugrave 253 /Ugrave] def
/Times-Roman /Times-Roman accvec ReEncode
/Times-Italic /Times-Italic accvec ReEncode
/Times-Bold /Times-Bold accvec ReEncode
/Times-BoldItalic /Times-BoldItalic accvec ReEncode
/Helvetica /Helvetica accvec ReEncode
/Helvetica-Oblique /Helvetica-Oblique accvec ReEncode
/Helvetica-Bold /Helvetica-Bold accvec ReEncode
/Helvetica-BoldOblique /Helvetica-BoldOblique  accvec ReEncode
/Courier /Courier accvec ReEncode
/Courier-Oblique /Courier-Oblique accvec ReEncode
/Courier-Bold /Courier-Bold accvec ReEncode
/Courier-BoldOblique /Courier-BoldOblique accvec ReEncode
/oshow {gsave [] 0 sd true charpath stroke gr} def
/stwn { /fs exch def /fn exch def /text exch def fn findfont fs sf
 text sw pop xs add /xs exch def} def
/stwb { /fs exch def /fn exch def /nbas exch def /textf exch def
textf length /tlen exch def nbas tlen gt {/nbas tlen def} if
fn findfont fs sf textf dup length nbas sub nbas getinterval sw
pop neg xs add /xs exch def} def
/accspe [ 65 /plusminus 66 /bar 67 /existential 68 /universal
69 /exclam 70 /numbersign 71 /greater 72 /question 73 /integral
74 /colon 75 /semicolon 76 /less 77 /bracketleft 78 /bracketright
79 /greaterequal 80 /braceleft 81 /braceright 82 /radical
83 /spade 84 /heart 85 /diamond 86 /club 87 /lessequal
88 /multiply 89 /percent 90 /infinity 48 /circlemultiply 49 /circleplus
50 /emptyset 51 /lozenge 52 /bullet 53 /arrowright 54 /arrowup
55 /arrowleft 56 /arrowdown 57 /arrowboth 48 /degree 44 /comma 43 /plus
 45 /angle 42 /angleleft 47 /divide 61 /notequal 40 /equivalence 41 /second
 97 /approxequal 98 /congruent 99 /perpendicular 100 /partialdiff 101 /florin
 102 /intersection 103 /union 104 /propersuperset 105 /reflexsuperset
 106 /notsubset 107 /propersubset 108 /reflexsubset 109 /element 110 /notelement
 111 /gradient 112 /logicaland 113 /logicalor 114 /arrowdblboth
 115 /arrowdblleft 116 /arrowdblup 117 /arrowdblright 118 /arrowdbldown
 119 /ampersand 120 /omega1 121 /similar 122 /aleph ] def
/Symbol /Special accspe ReEncode
%%EndProlog
 gsave  .25 .25 scale  gsave 0 0 t black [] 0 sd 1 lw 2 lw 2494 1758 397 283 bl
 2494 1758 397 283 C 409 319 m 74 Y s 409 416 m 74 Y s 397 405 m 1 X s 421 405 m
 1 X s /w 23 def /w2 {w 2 div} def /w3 {w 3 div} def 409 405 m20 434 405 m 110 Y
 s 434 537 m 110 Y s 422 526 m 1 X s 446 526 m 1 X s 434 526 m20 459 319 m 74 Y
 s 459 416 m 74 Y s 447 405 m 1 X s 471 405 m 1 X s 459 405 m20 484 319 m 74 Y s
 484 416 m 74 Y s 472 405 m 1 X s 495 405 m 2 X s 484 405 m20 509 283 m 50 Y s
 509 355 m 50 Y s 497 344 m 1 X s 520 344 m 2 X s 509 344 m20 534 360 m 94 Y s
 534 477 m 93 Y s 522 465 m 1 X s 545 465 m 2 X s 534 465 m20 547 283 m 12 X s
 559 283 m 12 X s 584 283 m 50 Y s 584 355 m 50 Y s 571 344 m 2 X s 595 344 m 1
 X s 584 344 m20 609 283 m 50 Y s 609 355 m 50 Y s 596 344 m 2 X s 620 344 m 1 X
 s 609 344 m20 621 283 m 13 X s 634 283 m 12 X s 659 624 m 475 Y s 659 1122 m
 475 Y s 646 1110 m 1 X s 670 1110 m 1 X s 659 1110 m20 671 283 m 13 X s 684 283
 m 12 X s 696 283 m 13 X s 709 283 m 12 X s 721 283 m 13 X s 734 283 m 12 X s
 746 283 m 13 X s 759 283 m 12 X s 783 340 m 456 Y s 783 819 m 456 Y s 771 807 m
 1 X s 795 807 m 1 X s 783 807 m20 808 319 m 74 Y s 808 416 m 74 Y s 796 405 m 1
 X s 820 405 m 1 X s 808 405 m20 833 283 m 50 Y s 833 355 m 50 Y s 821 344 m 1 X
 s 845 344 m 1 X s 833 344 m20 858 319 m 74 Y s 858 416 m 74 Y s 846 405 m 1 X s
 870 405 m 1 X s 858 405 m20 883 283 m 50 Y s 883 355 m 50 Y s 871 344 m 1 X s
 895 344 m 1 X s 883 344 m20 908 283 m 50 Y s 908 355 m 50 Y s 896 344 m 1 X s
 920 344 m 1 X s 908 344 m20 921 283 m 12 X s 933 283 m 13 X s 946 283 m 12 X s
 958 283 m 13 X s 971 283 m 12 X s 983 283 m 13 X s 1008 283 m 50 Y s 1008 355 m
 50 Y s 996 344 m 1 X s 1019 344 m 1 X s 1008 344 m20 1020 283 m 13 X s 1033 283
 m 12 X s 1045 283 m 13 X s 1058 283 m 12 X s 1083 283 m 50 Y s 1083 355 m 50 Y
 s 1070 344 m 1 X s 1094 344 m 1 X s 1083 344 m20 1095 283 m 13 X s 1108 283 m
 12 X s 1120 283 m 13 X s 1133 283 m 12 X s 1145 283 m 13 X s 1158 283 m 12 X s
 1170 283 m 13 X s 1183 283 m 12 X s 1195 283 m 13 X s 1208 283 m 12 X s 1232
 283 m 50 Y s 1232 355 m 50 Y s 1220 344 m 1 X s 1244 344 m 1 X s 1232 344 m20
 1245 283 m 12 X s 1257 283 m 13 X s 1282 283 m 50 Y s 1282 355 m 50 Y s 1270
 344 m 1 X s 1294 344 m 1 X s 1282 344 m20 1295 283 m 12 X s 1307 283 m 13 X s
 1320 283 m 12 X s 1332 283 m 13 X s 1345 283 m 12 X s 1357 283 m 13 X s 1382
 319 m 74 Y s 1382 416 m 74 Y s 1370 405 m 1 X s 1393 405 m 2 X s 1382 405 m20
 1395 283 m 12 X s 1407 283 m 13 X s 1420 283 m 12 X s 1432 283 m 13 X s 1457
 319 m 74 Y s 1457 416 m 74 Y s 1445 405 m 1 X s 1468 405 m 1 X s 1457 405 m20
 1482 283 m 50 Y s 1482 355 m 50 Y s 1469 344 m 2 X s 1493 344 m 1 X s 1482 344
 m20 1507 319 m 74 Y s 1507 416 m 74 Y s 1494 405 m 2 X s 1518 405 m 1 X s 1507
 405 m20 1519 283 m 13 X s 1532 283 m 12 X s 1557 319 m 74 Y s 1557 416 m 74 Y s
 1544 405 m 1 X s 1568 405 m 1 X s 1557 405 m20 1569 283 m 13 X s 1582 283 m 12
 X s 1594 283 m 13 X s 1607 283 m 12 X s 1619 283 m 13 X s 1632 283 m 12 X s
 1644 283 m 13 X s 1657 283 m 12 X s 1681 283 m 50 Y s 1681 355 m 50 Y s 1669
 344 m 1 X s 1693 344 m 1 X s 1681 344 m20 1694 283 m 12 X s 1706 283 m 13 X s
 1719 283 m 12 X s 1731 283 m 13 X s 1744 283 m 12 X s 1756 283 m 13 X s 1769
 283 m 12 X s 1781 283 m 13 X s 1806 283 m 50 Y s 1806 355 m 50 Y s 1794 344 m 1
 X s 1818 344 m 1 X s 1806 344 m20 1819 283 m 12 X s 1831 283 m 13 X s 1856 319
 m 74 Y s 1856 416 m 74 Y s 1844 405 m 1 X s 1867 405 m 2 X s 1856 405 m20 1881
 283 m 50 Y s 1881 355 m 50 Y s 1869 344 m 1 X s 1892 344 m 2 X s 1881 344 m20
 1894 283 m 12 X s 1906 283 m 12 X s 1918 283 m 13 X s 1931 283 m 12 X s 1943
 283 m 13 X s 1956 283 m 12 X s 1981 283 m 50 Y s 1981 355 m 50 Y s 1968 344 m 1
 X s 1992 344 m 1 X s 1981 344 m20 1993 283 m 13 X s 2006 283 m 12 X s 2031 283
 m 50 Y s 2031 355 m 50 Y s 2018 344 m 1 X s 2042 344 m 1 X s 2031 344 m20 2043
 283 m 13 X s 2056 283 m 12 X s 2068 283 m 13 X s 2081 283 m 12 X s 2093 283 m
 13 X s 2106 283 m 12 X s 2118 283 m 12 X s 2130 283 m 13 X s 2143 283 m 12 X s
 2155 283 m 13 X s 2168 283 m 12 X s 2180 283 m 13 X s 2205 555 m 644 Y s 2205
 1221 m 644 Y s 2193 1210 m 1 X s 2217 1210 m 1 X s 2205 1210 m20 2218 283 m 12
 X s 2230 283 m 13 X s 2243 283 m 12 X s 2255 283 m 13 X s 2268 283 m 12 X s
 2280 283 m 13 X s 2293 283 m 12 X s 2305 283 m 13 X s 2318 283 m 12 X s 2330
 283 m 13 X s 2343 283 m 12 X s 2355 283 m 12 X s 2367 283 m 13 X s 2380 283 m
 12 X s 2392 283 m 13 X s 2405 283 m 12 X s 2430 283 m 50 Y s 2430 355 m 50 Y s
 2417 344 m 1 X s 2441 344 m 1 X s 2430 344 m20 2442 283 m 13 X s 2455 283 m 12
 X s 2467 283 m 13 X s 2480 283 m 12 X s 2492 283 m 13 X s 2505 283 m 12 X s
 2530 283 m 50 Y s 2530 355 m 50 Y s 2517 344 m 1 X s 2541 344 m 1 X s 2530 344
 m20 2542 283 m 13 X s 2555 283 m 12 X s 2580 283 m 50 Y s 2580 355 m 50 Y s
 2567 344 m 1 X s 2591 344 m 1 X s 2580 344 m20 2604 283 m 50 Y s 2604 355 m 50
 Y s 2592 344 m 1 X s 2616 344 m 1 X s 2604 344 m20 2629 283 m 50 Y s 2629 355 m
 50 Y s 2617 344 m 1 X s 2641 344 m 1 X s 2629 344 m20 2642 283 m 12 X s 2654
 283 m 13 X s 2667 283 m 12 X s 2679 283 m 13 X s 2692 283 m 12 X s 2704 283 m
 13 X s 2729 319 m 74 Y s 2729 416 m 74 Y s 2717 405 m 1 X s 2741 405 m 1 X s
 2729 405 m20 2742 283 m 12 X s 2754 283 m 13 X s 2779 283 m 50 Y s 2779 355 m
 50 Y s 2767 344 m 1 X s 2790 344 m 2 X s 2779 344 m20 2792 283 m 12 X s 2804
 283 m 12 X s 2816 283 m 13 X s 2829 283 m 12 X s 2854 319 m 74 Y s 2854 416 m
 74 Y s 2841 405 m 2 X s 2865 405 m 1 X s 2854 405 m20 2866 283 m 13 X s 2879
 283 m 12 X s NC 1 lw 397 283 m 1758 Y s 2 lw 431 283 m -34 X s 414 332 m -17 X
 s 414 380 m -17 X s 414 429 m -17 X s 414 477 m -17 X s 431 526 m -34 X s 414
 574 m -17 X s 414 623 m -17 X s 414 671 m -17 X s 414 720 m -17 X s 431 768 m
 -34 X s 414 817 m -17 X s 414 865 m -17 X s 414 914 m -17 X s 414 962 m -17 X s
 431 1011 m -34 X s 414 1059 m -17 X s 414 1108 m -17 X s 414 1156 m -17 X s 414
 1205 m -17 X s 431 1253 m -34 X s 414 1302 m -17 X s 414 1350 m -17 X s 414
 1399 m -17 X s 414 1447 m -17 X s 431 1496 m -34 X s 414 1544 m -17 X s 414
 1593 m -17 X s 414 1641 m -17 X s 414 1690 m -17 X s 431 1738 m -34 X s 414
 1786 m -17 X s 414 1835 m -17 X s 414 1883 m -17 X s 414 1932 m -17 X s 431
 1980 m -34 X s 431 1980 m -34 X s 414 2029 m -17 X s
 /xs 0 def 
(0)
 /Helvetica-Bold     54 stwn 
 gsave  334 264
 t   0 r  xs neg 0 t 0 0 m
 /Helvetica-Bold findfont   54 sf 0    0 m 
(0)
 show 
 gr 
 /xs 0 def 
(1)
 /Helvetica-Bold     54 stwn 
 gsave  334 506
 t   0 r  xs neg 0 t 0 0 m
 /Helvetica-Bold findfont   54 sf 0    0 m 
(1)
 show 
 gr 
 /xs 0 def 
(2)
 /Helvetica-Bold     54 stwn 
 gsave  334 748
 t   0 r  xs neg 0 t 0 0 m
 /Helvetica-Bold findfont   54 sf 0    0 m 
(2)
 show 
 gr 
 /xs 0 def 
(3)
 /Helvetica-Bold     54 stwn 
 gsave  334 991
 t   0 r  xs neg 0 t 0 0 m
 /Helvetica-Bold findfont   54 sf 0    0 m 
(3)
 show 
 gr 
 /xs 0 def 
(4)
 /Helvetica-Bold     54 stwn 
 gsave  334 1233
 t   0 r  xs neg 0 t 0 0 m
 /Helvetica-Bold findfont   54 sf 0    0 m 
(4)
 show 
 gr 
 /xs 0 def 
(5)
 /Helvetica-Bold     54 stwn 
 gsave  334 1476
 t   0 r  xs neg 0 t 0 0 m
 /Helvetica-Bold findfont   54 sf 0    0 m 
(5)
 show 
 gr 
 /xs 0 def 
(6)
 /Helvetica-Bold     54 stwn 
 gsave  334 1718
 t   0 r  xs neg 0 t 0 0 m
 /Helvetica-Bold findfont   54 sf 0    0 m 
(6)
 show 
 gr 
 /xs 0 def 
(7)
 /Helvetica-Bold     54 stwn 
 gsave  334 1961
 t   0 r  xs neg 0 t 0 0 m
 /Helvetica-Bold findfont   54 sf 0    0 m 
(7)
 show 
 gr  1 lw 397 283 m 2494 X s 2 lw 397 317 m -34 Y s 447 300 m -17 Y s 497 300 m
 -17 Y s 547 300 m -17 Y s 596 300 m -17 Y s 646 317 m -34 Y s 696 300 m -17 Y s
 746 300 m -17 Y s 796 300 m -17 Y s 846 300 m -17 Y s 896 317 m -34 Y s 946 300
 m -17 Y s 996 300 m -17 Y s 1045 300 m -17 Y s 1095 300 m -17 Y s 1145 317 m
 -34 Y s 1195 300 m -17 Y s 1245 300 m -17 Y s 1295 300 m -17 Y s 1345 300 m -17
 Y s 1395 317 m -34 Y s 1445 300 m -17 Y s 1494 300 m -17 Y s 1544 300 m -17 Y s
 1594 300 m -17 Y s 1644 317 m -34 Y s 1694 300 m -17 Y s 1744 300 m -17 Y s
 1794 300 m -17 Y s 1844 300 m -17 Y s 1894 317 m -34 Y s 1943 300 m -17 Y s
 1993 300 m -17 Y s 2043 300 m -17 Y s 2093 300 m -17 Y s 2143 317 m -34 Y s
 2193 300 m -17 Y s 2243 300 m -17 Y s 2293 300 m -17 Y s 2343 300 m -17 Y s
 2392 317 m -34 Y s 2442 300 m -17 Y s 2492 300 m -17 Y s 2542 300 m -17 Y s
 2592 300 m -17 Y s 2642 317 m -34 Y s 2692 300 m -17 Y s 2742 300 m -17 Y s
 2792 300 m -17 Y s 2841 300 m -17 Y s 2891 317 m -34 Y s
 /xs 0 def 
(0)
 /Helvetica-Bold     54 stwn 
 gsave  397 210
 t   0 r  xs 2 div neg 0 t 0 0 m
 /Helvetica-Bold findfont   54 sf 0    0 m 
(0)
 show 
 gr 
 /xs 0 def 
(0.05)
 /Helvetica-Bold     54 stwn 
 gsave  646 210
 t   0 r  xs 2 div neg 0 t 0 0 m
 /Helvetica-Bold findfont   54 sf 0    0 m 
(0.05)
 show 
 gr 
 /xs 0 def 
(0.1)
 /Helvetica-Bold     54 stwn 
 gsave  896 210
 t   0 r  xs 2 div neg 0 t 0 0 m
 /Helvetica-Bold findfont   54 sf 0    0 m 
(0.1)
 show 
 gr 
 /xs 0 def 
(0.15)
 /Helvetica-Bold     54 stwn 
 gsave  1145 210
 t   0 r  xs 2 div neg 0 t 0 0 m
 /Helvetica-Bold findfont   54 sf 0    0 m 
(0.15)
 show 
 gr 
 /xs 0 def 
(0.2)
 /Helvetica-Bold     54 stwn 
 gsave  1395 210
 t   0 r  xs 2 div neg 0 t 0 0 m
 /Helvetica-Bold findfont   54 sf 0    0 m 
(0.2)
 show 
 gr 
 /xs 0 def 
(0.25)
 /Helvetica-Bold     54 stwn 
 gsave  1644 210
 t   0 r  xs 2 div neg 0 t 0 0 m
 /Helvetica-Bold findfont   54 sf 0    0 m 
(0.25)
 show 
 gr 
 /xs 0 def 
(0.3)
 /Helvetica-Bold     54 stwn 
 gsave  1894 210
 t   0 r  xs 2 div neg 0 t 0 0 m
 /Helvetica-Bold findfont   54 sf 0    0 m 
(0.3)
 show 
 gr 
 /xs 0 def 
(0.35)
 /Helvetica-Bold     54 stwn 
 gsave  2143 210
 t   0 r  xs 2 div neg 0 t 0 0 m
 /Helvetica-Bold findfont   54 sf 0    0 m 
(0.35)
 show 
 gr 
 /xs 0 def 
(0.4)
 /Helvetica-Bold     54 stwn 
 gsave  2392 210
 t   0 r  xs 2 div neg 0 t 0 0 m
 /Helvetica-Bold findfont   54 sf 0    0 m 
(0.4)
 show 
 gr 
 /xs 0 def 
(0.45)
 /Helvetica-Bold     54 stwn 
 gsave  2642 210
 t   0 r  xs 2 div neg 0 t 0 0 m
 /Helvetica-Bold findfont   54 sf 0    0 m 
(0.45)
 show 
 gr 
 /xs 0 def 
(0.5)
 /Helvetica-Bold     54 stwn 
 gsave  2891 210
 t   0 r  xs 2 div neg 0 t 0 0 m
 /Helvetica-Bold findfont   54 sf 0    0 m 
(0.5)
 show 
 gr 
 /xs 0 def 
(x 10)
 /Helvetica-Bold     54 stwn 
 gsave  2871 130
 t   0 r  xs 2 div neg 0 t 0 0 m
 /Helvetica-Bold findfont   54 sf 0    0 m 
(x 10)
 show 
 gr 
 /xs 0 def 
(-3)
 /Helvetica-Bold     43 stwn 
 gsave  2971 170
 t   0 r  xs 2 div neg 0 t 0 0 m
 /Helvetica-Bold findfont   43 sf 0    0 m 
(-3)
 show 
 gr  2494 1758 397 283 C 397 283 m 174 X 243 Y 50 X -243 Y 350 X 243 Y 25 X -243
 Y 74 X 485 Y 25 X -485 Y 150 X 243 Y 50 X -243 Y 75 X 243 Y 25 X -243 Y 25 X
 243 Y 49 X -243 Y 574 X 243 Y 25 X -243 Y 25 X 243 Y 25 X -243 Y 299 X 243 Y 25
 X -243 Y 25 X 243 Y 25 X -243 Y 100 X 243 Y 25 X -243 Y 25 X 243 Y 25 X -243 Y
 75 X 485 Y 25 X -485 Y 99 X 243 Y 25 X -243 Y s 2948 2268 0 0 C 2494 1758 397
 283 C 2948 2268 0 0 C 1 lw /w 34 def /w2 {w 2 div} def /w3 {w 3 div} def 1395
 1496 m20
 gsave  1463 1473
 t   0 r 0 0 m
 /Helvetica-Bold findfont   62 sf 0    0 m 
(MC)
 show 
 gr  2494 1758 397 283 C 2948 2268 0 0 C
 /xs 0 def 
(1-cos)
 /Helvetica-Bold     93 stwn 
(Q)
 /Symbol     93 stwn 
(n)
 /Symbol     65 stwn 
(e+e-)
 /Helvetica-Bold     65 stwn 
 gsave  2891 45
 t   0 r  xs neg 0 t 0 0 m
 /Helvetica-Bold findfont   93 sf 0    0 m 
(1-cos)
 show 
 currentpoint pop 0 t 
 /Symbol findfont   93 sf 0    0 m 
(Q)
 show 
 currentpoint pop 0 t 
 /Symbol findfont   65 sf 0  -31 m 
(n)
 show 
 currentpoint pop 0 t 
 /Helvetica-Bold findfont   65 sf 0  -31 m 
(e+e-)
 show 
 gr 
 /xs 0 def 
(events)
 /Helvetica-Bold     93 stwn 
 gsave  170 2041
 t  90 r  xs neg 0 t 0 0 m
 /Helvetica-Bold findfont   93 sf 0    0 m 
(events)
 show 
 gr  2494 1758 397 283 C
 gr  gr 
showpage
end
%%EOF
