%!PS-Adobe-2.0 EPSF-2.0
%%BoundingBox: 0 0 737 567
%%Title: result2.eps
%%Creator: HIGZ Version 1.26/04
%%CreationDate: 2000/09/12   12.20
%%EndComments
%%BeginProlog
80 dict begin
/s {stroke} def /l {lineto} def /m {moveto} def /t {translate} def
/sw {stringwidth} def /r {rotate} def /rl {roll}  def /R {repeat} def
/d {rlineto} def /rm {rmoveto} def /gr {grestore} def /f {eofill} def
/c {setrgbcolor} def /lw {setlinewidth} def /sd {setdash} def
/cl {closepath} def /sf {scalefont setfont} def /black {0 setgray} def
/box {m dup 0 exch d exch 0 d 0 exch neg d cl} def
/NC{systemdict begin initclip end}def/C{NC box clip newpath}def
/bl {box s} def /bf {box f} def /Y { 0 exch d} def /X { 0 d} def 
/mp {newpath /y exch def /x exch def} def
/side {[w .77 mul w .23 mul] .385 w mul sd w 0 l currentpoint t -144 r} def
/mr {mp x y w2 0 360 arc} def /m24 {mr s} def /m20 {mr f} def
/mb {mp x y w2 add m w2 neg 0 d 0 w neg d w 0 d 0 w d cl} def
/mt {mp x y w2 add m w2 neg w neg d w 0 d cl} def
/m21 {mb f} def /m25 {mb s} def /m22 {mt f} def /m26 {mt s} def
/m23 {mp x y w2 sub m w2 w d w neg 0 d cl f} def
/m27 {mp x y w2 add m w3 neg w2 neg d w3 w2 neg d w3  w2 d cl s} def
/m28 {mp x w2 sub y w2 sub w3 add m w3 0 d 0 w3 neg d w3 0 d 0 w3 d w3 0 d
 0 w3 d w3 neg 0 d 0 w3 d w3 neg 0 d
 0 w3 neg d w3 neg 0 d cl s } def
/m29 {mp gsave x w2 sub y w2 add w3 sub m currentpoint t
 4 {side} repeat cl fill gr} def
/m30 {mp gsave x w2 sub y w2 add w3 sub m currentpoint t
 5 {side} repeat s gr} def
/m31 {mp x y w2 sub m 0 w d x w2 sub y m w 0 d
 x w2 sub y w2 add m w w neg d x w2 sub y w2
 sub m w w d s} def
/m2 {mp x y w2 sub m 0 w d x w2 sub y m w 0 d s} def
/m5 {mp x w2 sub y w2 sub m w w d x w2 sub y w2 add m w w neg d s} def
/reencdict 24 dict def /ReEncode {reencdict begin /nco&na exch def
/nfnam exch def /basefontname exch def /basefontdict basefontname findfont def
/newfont basefontdict maxlength dict def basefontdict {exch dup /FID ne
{dup /Encoding eq {exch dup length array copy newfont 3 1 roll put} {exch
newfont 3 1 roll put} ifelse} {pop pop} ifelse } forall newfont
/FontName nfnam put nco&na aload pop nco&na length 2 idiv {newfont
/Encoding get 3 1 roll put} repeat nfnam newfont definefont pop end } def
/accvec [ 176 /agrave 181 /Agrave 190 /acircumflex 192 /Acircumflex
201 /adieresis 204 /Adieresis 209 /ccedilla 210 /Ccedilla 211 /eacute
212 /Eacute 213 /egrave 214 /Egrave 215 /ecircumflex 216 /Ecircumflex
217 /edieresis 218 /Edieresis 219 /icircumflex 220 /Icircumflex
221 /idieresis 222 /Idieresis 223 /ntilde 224 /Ntilde 226 /ocircumflex
228 /Ocircumflex 229 /odieresis 230 /Odieresis 231 /ucircumflex 236 /Ucircumflex
237 /udieresis 238 /Udieresis 239 /aring 242 /Aring 243 /ydieresis
244 /Ydieresis 246 /aacute 247 /Aacute 252 /ugrave 253 /Ugrave] def
/Times-Roman /Times-Roman accvec ReEncode
/Times-Italic /Times-Italic accvec ReEncode
/Times-Bold /Times-Bold accvec ReEncode
/Times-BoldItalic /Times-BoldItalic accvec ReEncode
/Helvetica /Helvetica accvec ReEncode
/Helvetica-Oblique /Helvetica-Oblique accvec ReEncode
/Helvetica-Bold /Helvetica-Bold accvec ReEncode
/Helvetica-BoldOblique /Helvetica-BoldOblique  accvec ReEncode
/Courier /Courier accvec ReEncode
/Courier-Oblique /Courier-Oblique accvec ReEncode
/Courier-Bold /Courier-Bold accvec ReEncode
/Courier-BoldOblique /Courier-BoldOblique accvec ReEncode
/oshow {gsave [] 0 sd true charpath stroke gr} def
/stwn { /fs exch def /fn exch def /text exch def fn findfont fs sf
 text sw pop xs add /xs exch def} def
/stwb { /fs exch def /fn exch def /nbas exch def /textf exch def
textf length /tlen exch def nbas tlen gt {/nbas tlen def} if
fn findfont fs sf textf dup length nbas sub nbas getinterval sw
pop neg xs add /xs exch def} def
/accspe [ 65 /plusminus 66 /bar 67 /existential 68 /universal
69 /exclam 70 /numbersign 71 /greater 72 /question 73 /integral
74 /colon 75 /semicolon 76 /less 77 /bracketleft 78 /bracketright
79 /greaterequal 80 /braceleft 81 /braceright 82 /radical
83 /spade 84 /heart 85 /diamond 86 /club 87 /lessequal
88 /multiply 89 /percent 90 /infinity 48 /circlemultiply 49 /circleplus
50 /emptyset 51 /lozenge 52 /bullet 53 /arrowright 54 /arrowup
55 /arrowleft 56 /arrowdown 57 /arrowboth 48 /degree 44 /comma 43 /plus
 45 /angle 42 /angleleft 47 /divide 61 /notequal 40 /equivalence 41 /second
 97 /approxequal 98 /congruent 99 /perpendicular 100 /partialdiff 101 /florin
 102 /intersection 103 /union 104 /propersuperset 105 /reflexsuperset
 106 /notsubset 107 /propersubset 108 /reflexsubset 109 /element 110 /notelement
 111 /gradient 112 /logicaland 113 /logicalor 114 /arrowdblboth
 115 /arrowdblleft 116 /arrowdblup 117 /arrowdblright 118 /arrowdbldown
 119 /ampersand 120 /omega1 121 /similar 122 /aleph ] def
/Symbol /Special accspe ReEncode
%%EndProlog
 gsave  .25 .25 scale  gsave 0 0 t black [] 0 sd 1 lw 2 lw 2494 1758 397 283 bl
 2494 1758 397 283 C 2948 2948 0 -340 C 1 lw 1599 283 m cl s 1574 283 m cl s
 1549 283 m cl s 1524 283 m cl s 1499 283 m cl s 1474 283 m cl s 1449 283 m cl s
 1424 283 m cl s 1399 283 m cl s 1374 283 m cl s 1349 283 m cl s 1324 283 m cl s
 1299 283 m cl s 1274 283 m cl s 1249 283 m cl s 1224 283 m cl s 1199 283 m cl s
 1174 283 m cl s 1149 283 m cl s 1124 283 m cl s 1099 283 m cl s 1074 283 m cl s
 1049 283 m cl s 1024 283 m cl s 999 283 m cl s 974 283 m cl s 949 283 m cl s
 924 283 m cl s 899 283 m cl s 874 283 m cl s 849 283 m cl s 824 283 m cl s 799
 283 m cl s 774 283 m cl s 749 283 m cl s 724 283 m cl s 699 283 m cl s 674 283
 m cl s 649 283 m cl s 624 283 m cl s 599 283 m cl s 574 283 m cl s 549 283 m cl
 s 524 283 m cl s 499 283 m cl s 497 307 m -23 -24 d s 474 309 m -25 -26 d s 472
 332 m -49 -49 d s 472 357 m -74 -74 d s 472 382 m -75 -75 d s 452 387 m -55 -55
 d s 447 407 m -50 -50 d s 447 432 m -50 -50 d s 447 457 m -50 -50 d s 447 482 m
 -50 -50 d s 447 507 m -50 -50 d s 447 532 m -50 -50 d s 447 557 m -50 -50 d s
 447 582 m -50 -50 d s 447 607 m -50 -50 d s 447 632 m -50 -50 d s 447 657 m -50
 -50 d s 447 682 m -50 -50 d s 447 707 m -50 -50 d s 447 732 m -50 -50 d s 440
 750 m -43 -43 d s 422 757 m -25 -25 d s 422 782 m -25 -25 d s 422 807 m -25 -25
 d s 422 832 m -25 -25 d s 422 857 m -25 -25 d s 422 882 m -25 -25 d s 422 907 m
 -25 -25 d s 422 932 m -25 -25 d s 422 957 m -25 -25 d s 422 982 m -25 -25 d s
 422 1007 m -25 -25 d s 422 1032 m -25 -25 d s 422 1057 m -25 -25 d s 422 1082 m
 -25 -25 d s 422 1107 m -25 -25 d s 422 1132 m -25 -25 d s 422 1157 m -25 -25 d
 s 422 1182 m -25 -25 d s 422 1207 m -25 -25 d s 422 1232 m -25 -25 d s 422 1257
 m -25 -25 d s 422 1282 m -25 -25 d s 422 1307 m -25 -25 d s 422 1332 m -25 -25
 d s 422 1357 m -25 -25 d s 422 1382 m -25 -25 d s 422 1407 m -25 -25 d s 422
 1432 m -25 -25 d s 422 1457 m -25 -25 d s 422 1482 m -25 -24 d s 422 1507 m -25
 -24 d s 422 1532 m -25 -24 d s 422 1557 m -25 -24 d s 422 1583 m -25 -25 d s
 422 1608 m -25 -25 d s 422 1633 m -25 -25 d s 422 1658 m -25 -25 d s 422 1683 m
 -25 -25 d s 422 1708 m -25 -25 d s 422 1733 m -25 -25 d s 422 1758 m -25 -25 d
 s 422 1783 m -25 -25 d s 422 1808 m -25 -25 d s 422 1833 m -25 -25 d s 422 1858
 m -25 -25 d s 404 1865 m -7 -7 d s 2494 1758 397 283 C 2948 2948 0 -340 C 421
 1865 m 1 X s 397 1865 m 25 -25 d s 397 1840 m 25 -25 d s 397 1814 m 25 -24 d s
 397 1789 m 25 -24 d s 397 1764 m 25 -24 d s 397 1739 m 25 -24 d s 397 1714 m 25
 -25 d s 397 1689 m 25 -25 d s 397 1664 m 25 -25 d s 397 1639 m 25 -25 d s 397
 1614 m 25 -25 d s 397 1589 m 25 -25 d s 397 1564 m 25 -25 d s 397 1539 m 25 -25
 d s 397 1514 m 25 -25 d s 397 1489 m 25 -25 d s 1603 283 m cl s 397 1464 m 25
 -25 d s 1578 283 m cl s 397 1439 m 25 -25 d s 1553 283 m cl s 397 1414 m 25 -25
 d s 1528 283 m cl s 397 1389 m 25 -25 d s 1503 283 m cl s 397 1364 m 25 -25 d s
 1478 283 m cl s 397 1339 m 25 -25 d s 1453 283 m cl s 397 1314 m 25 -25 d s
 1428 283 m cl s 397 1289 m 25 -25 d s 1403 283 m cl s 397 1264 m 25 -25 d s
 1378 283 m cl s 397 1239 m 25 -25 d s 1353 283 m cl s 397 1214 m 25 -25 d s
 1328 283 m cl s 397 1189 m 25 -25 d s 1303 283 m cl s 397 1164 m 25 -25 d s
 1277 283 m cl s 397 1139 m 25 -25 d s 1252 283 m cl s 397 1114 m 25 -25 d s
 1227 283 m cl s 397 1089 m 25 -25 d s 1202 283 m cl s 397 1064 m 25 -25 d s
 1177 283 m cl s 397 1039 m 25 -25 d s 1152 283 m cl s 397 1014 m 25 -25 d s
 1127 283 m cl s 397 989 m 25 -25 d s 1102 283 m cl s 397 964 m 25 -25 d s 1077
 283 m cl s 397 939 m 25 -25 d s 1052 283 m cl s 397 914 m 25 -25 d s 1027 283 m
 cl s 397 889 m 25 -25 d s 1002 283 m cl s 397 864 m 25 -25 d s 977 283 m cl s
 397 839 m 25 -25 d s 952 283 m cl s 397 814 m 25 -25 d s 927 283 m cl s 397 789
 m 25 -25 d s 436 750 m 11 -11 d s 902 283 m cl s 397 764 m 50 -50 d s 877 283 m
 cl s 397 739 m 50 -50 d s 852 283 m cl s 397 714 m 50 -50 d s 827 283 m cl s
 397 689 m 50 -50 d s 802 283 m cl s 397 664 m 50 -50 d s 777 283 m cl s 397 639
 m 50 -50 d s 752 283 m cl s 397 614 m 50 -50 d s 727 283 m cl s 397 589 m 50
 -50 d s 702 283 m cl s 397 564 m 50 -50 d s 677 283 m cl s 397 539 m 50 -50 d s
 652 283 m cl s 397 514 m 50 -50 d s 627 283 m cl s 397 489 m 50 -50 d s 602 283
 m cl s 397 464 m 50 -50 d s 577 283 m cl s 397 439 m 50 -50 d s 448 387 m 24
 -23 d s 552 283 m cl s 397 414 m 75 -75 d s 527 283 m cl s 397 389 m 75 -75 d s
 476 309 m 21 -20 d s 502 283 m cl s 397 364 m 80 -81 d s 397 339 m 55 -56 d s
 397 314 m 30 -31 d s 397 289 m 5 -6 d s 2494 1758 397 283 C 2 lw 397 283 m 1582
 Y 25 X -1115 Y 25 X -363 Y 25 X -78 Y 25 X -26 Y 1122 X s 2948 2948 0 -340 C 1
 lw 2825 283 m cl s 2800 283 m cl s 2775 283 m cl s 2750 283 m cl s 2725 283 m
 cl s 2700 283 m cl s 2675 283 m cl s 2650 283 m cl s 2625 283 m cl s 2600 283 m
 cl s 2575 283 m cl s 2550 283 m cl s 2525 283 m cl s 2500 283 m cl s 2475 283 m
 cl s 2450 283 m cl s 2425 283 m cl s 2400 283 m cl s 2375 283 m cl s 2350 283 m
 cl s 2325 283 m cl s 2300 283 m cl s 2275 283 m cl s 2250 283 m cl s 2225 283 m
 cl s 2200 283 m cl s 2175 283 m cl s 2150 283 m cl s 2124 283 m cl s 2099 283 m
 cl s 2074 283 m cl s 2049 283 m cl s 2024 283 m cl s 1999 283 m cl s 1974 283 m
 cl s 1949 283 m cl s 1924 283 m cl s 1899 283 m cl s 1874 283 m cl s 1849 283 m
 cl s 1824 283 m cl s 1799 283 m cl s 1774 283 m cl s 1749 283 m cl s 1724 283 m
 cl s 1699 283 m cl s 1674 283 m cl s 1649 283 m cl s 1624 283 m cl s 2494 1758
 397 283 C 2948 2948 0 -340 C 2828 283 m cl s 2803 283 m cl s 2778 283 m cl s
 2753 283 m cl s 2728 283 m cl s 2703 283 m cl s 2678 283 m cl s 2653 283 m cl s
 2628 283 m cl s 2603 283 m cl s 2578 283 m cl s 2553 283 m cl s 2528 283 m cl s
 2503 283 m cl s 2478 283 m cl s 2453 283 m cl s 2428 283 m cl s 2403 283 m cl s
 2378 283 m cl s 2353 283 m cl s 2328 283 m cl s 2303 283 m cl s 2278 283 m cl s
 2253 283 m cl s 2228 283 m cl s 2203 283 m cl s 2178 283 m cl s 2153 283 m cl s
 2128 283 m cl s 2103 283 m cl s 2078 283 m cl s 2053 283 m cl s 2028 283 m cl s
 2003 283 m cl s 1978 283 m cl s 1953 283 m cl s 1928 283 m cl s 1903 283 m cl s
 1878 283 m cl s 1853 283 m cl s 1828 283 m cl s 1803 283 m cl s 1778 283 m cl s
 1753 283 m cl s 1728 283 m cl s 1703 283 m cl s 1678 283 m cl s 1653 283 m cl s
 1628 283 m cl s 2494 1758 397 283 C 2 lw 1619 283 m 1222 X s 2948 2948 0 -340 C
 1 lw 2875 283 m cl s 2850 283 m cl s 2494 1758 397 283 C 2948 2948 0 -340 C
 2878 283 m cl s 2853 283 m cl s 2494 1758 397 283 C 2 lw 2841 283 m 50 X s NC 1
 lw 397 283 m 1758 Y s 2 lw 431 283 m -34 X s 414 332 m -17 X s 414 380 m -17 X
 s 414 429 m -17 X s 414 477 m -17 X s 431 525 m -34 X s 414 574 m -17 X s 414
 622 m -17 X s 414 671 m -17 X s 414 719 m -17 X s 431 767 m -34 X s 414 816 m
 -17 X s 414 864 m -17 X s 414 913 m -17 X s 414 961 m -17 X s 431 1009 m -34 X
 s 414 1058 m -17 X s 414 1106 m -17 X s 414 1155 m -17 X s 414 1203 m -17 X s
 431 1252 m -34 X s 414 1300 m -17 X s 414 1348 m -17 X s 414 1397 m -17 X s 414
 1445 m -17 X s 431 1494 m -34 X s 414 1542 m -17 X s 414 1590 m -17 X s 414
 1639 m -17 X s 414 1687 m -17 X s 431 1736 m -34 X s 414 1784 m -17 X s 414
 1832 m -17 X s 414 1881 m -17 X s 414 1929 m -17 X s 431 1978 m -34 X s 431
 1978 m -34 X s 414 2026 m -17 X s
 /xs 0 def 
(0)
 /Helvetica-Bold     54 stwn 
 gsave  334 264
 t   0 r  xs neg 0 t 0 0 m
 /Helvetica-Bold findfont   54 sf 0    0 m 
(0)
 show 
 gr 
 /xs 0 def 
(1)
 /Helvetica-Bold     54 stwn 
 gsave  334 506
 t   0 r  xs neg 0 t 0 0 m
 /Helvetica-Bold findfont   54 sf 0    0 m 
(1)
 show 
 gr 
 /xs 0 def 
(2)
 /Helvetica-Bold     54 stwn 
 gsave  334 748
 t   0 r  xs neg 0 t 0 0 m
 /Helvetica-Bold findfont   54 sf 0    0 m 
(2)
 show 
 gr 
 /xs 0 def 
(3)
 /Helvetica-Bold     54 stwn 
 gsave  334 990
 t   0 r  xs neg 0 t 0 0 m
 /Helvetica-Bold findfont   54 sf 0    0 m 
(3)
 show 
 gr 
 /xs 0 def 
(4)
 /Helvetica-Bold     54 stwn 
 gsave  334 1232
 t   0 r  xs neg 0 t 0 0 m
 /Helvetica-Bold findfont   54 sf 0    0 m 
(4)
 show 
 gr 
 /xs 0 def 
(5)
 /Helvetica-Bold     54 stwn 
 gsave  334 1474
 t   0 r  xs neg 0 t 0 0 m
 /Helvetica-Bold findfont   54 sf 0    0 m 
(5)
 show 
 gr 
 /xs 0 def 
(6)
 /Helvetica-Bold     54 stwn 
 gsave  334 1716
 t   0 r  xs neg 0 t 0 0 m
 /Helvetica-Bold findfont   54 sf 0    0 m 
(6)
 show 
 gr 
 /xs 0 def 
(7)
 /Helvetica-Bold     54 stwn 
 gsave  334 1958
 t   0 r  xs neg 0 t 0 0 m
 /Helvetica-Bold findfont   54 sf 0    0 m 
(7)
 show 
 gr  1 lw 397 283 m 2494 X s 2 lw 397 317 m -34 Y s 447 300 m -17 Y s 497 300 m
 -17 Y s 547 300 m -17 Y s 596 300 m -17 Y s 646 317 m -34 Y s 696 300 m -17 Y s
 746 300 m -17 Y s 796 300 m -17 Y s 846 300 m -17 Y s 896 317 m -34 Y s 946 300
 m -17 Y s 996 300 m -17 Y s 1045 300 m -17 Y s 1095 300 m -17 Y s 1145 317 m
 -34 Y s 1195 300 m -17 Y s 1245 300 m -17 Y s 1295 300 m -17 Y s 1345 300 m -17
 Y s 1395 317 m -34 Y s 1445 300 m -17 Y s 1494 300 m -17 Y s 1544 300 m -17 Y s
 1594 300 m -17 Y s 1644 317 m -34 Y s 1694 300 m -17 Y s 1744 300 m -17 Y s
 1794 300 m -17 Y s 1844 300 m -17 Y s 1894 317 m -34 Y s 1943 300 m -17 Y s
 1993 300 m -17 Y s 2043 300 m -17 Y s 2093 300 m -17 Y s 2143 317 m -34 Y s
 2193 300 m -17 Y s 2243 300 m -17 Y s 2293 300 m -17 Y s 2343 300 m -17 Y s
 2392 317 m -34 Y s 2442 300 m -17 Y s 2492 300 m -17 Y s 2542 300 m -17 Y s
 2592 300 m -17 Y s 2642 317 m -34 Y s 2692 300 m -17 Y s 2742 300 m -17 Y s
 2792 300 m -17 Y s 2841 300 m -17 Y s 2891 317 m -34 Y s
 /xs 0 def 
(0)
 /Helvetica-Bold     54 stwn 
 gsave  397 210
 t   0 r  xs 2 div neg 0 t 0 0 m
 /Helvetica-Bold findfont   54 sf 0    0 m 
(0)
 show 
 gr 
 /xs 0 def 
(5)
 /Helvetica-Bold     54 stwn 
 gsave  646 210
 t   0 r  xs 2 div neg 0 t 0 0 m
 /Helvetica-Bold findfont   54 sf 0    0 m 
(5)
 show 
 gr 
 /xs 0 def 
(10)
 /Helvetica-Bold     54 stwn 
 gsave  896 210
 t   0 r  xs 2 div neg 0 t 0 0 m
 /Helvetica-Bold findfont   54 sf 0    0 m 
(10)
 show 
 gr 
 /xs 0 def 
(15)
 /Helvetica-Bold     54 stwn 
 gsave  1145 210
 t   0 r  xs 2 div neg 0 t 0 0 m
 /Helvetica-Bold findfont   54 sf 0    0 m 
(15)
 show 
 gr 
 /xs 0 def 
(20)
 /Helvetica-Bold     54 stwn 
 gsave  1395 210
 t   0 r  xs 2 div neg 0 t 0 0 m
 /Helvetica-Bold findfont   54 sf 0    0 m 
(20)
 show 
 gr 
 /xs 0 def 
(25)
 /Helvetica-Bold     54 stwn 
 gsave  1644 210
 t   0 r  xs 2 div neg 0 t 0 0 m
 /Helvetica-Bold findfont   54 sf 0    0 m 
(25)
 show 
 gr 
 /xs 0 def 
(30)
 /Helvetica-Bold     54 stwn 
 gsave  1894 210
 t   0 r  xs 2 div neg 0 t 0 0 m
 /Helvetica-Bold findfont   54 sf 0    0 m 
(30)
 show 
 gr 
 /xs 0 def 
(35)
 /Helvetica-Bold     54 stwn 
 gsave  2143 210
 t   0 r  xs 2 div neg 0 t 0 0 m
 /Helvetica-Bold findfont   54 sf 0    0 m 
(35)
 show 
 gr 
 /xs 0 def 
(40)
 /Helvetica-Bold     54 stwn 
 gsave  2392 210
 t   0 r  xs 2 div neg 0 t 0 0 m
 /Helvetica-Bold findfont   54 sf 0    0 m 
(40)
 show 
 gr 
 /xs 0 def 
(45)
 /Helvetica-Bold     54 stwn 
 gsave  2642 210
 t   0 r  xs 2 div neg 0 t 0 0 m
 /Helvetica-Bold findfont   54 sf 0    0 m 
(45)
 show 
 gr 
 /xs 0 def 
(50)
 /Helvetica-Bold     54 stwn 
 gsave  2891 210
 t   0 r  xs 2 div neg 0 t 0 0 m
 /Helvetica-Bold findfont   54 sf 0    0 m 
(50)
 show 
 gr  2494 1758 397 283 C 409 283 m 121 Y s 409 404 m 172 Y s 397 404 m 12 X s
 409 404 m 13 X s 434 283 m 225 Y s 434 542 m 225 Y s /w 34
 def /w2 {w 2 div} def /w3 {w 3 div} def 434 525 m20 459 283 m 104 Y s 459 421 m
 155 Y s 459 404 m20 484 283 m 104 Y s 484 421 m 155 Y s 484 404 m20 509 283 m
 44 Y s 509 361 m 104 Y s 509 344 m20 534 283 m 165 Y s 534 482 m 193 Y s 534
 465 m20 547 283 m 12 X s 559 283 m 12 X s 584 283 m 44 Y s 584 361 m 104 Y s
 584 344 m20 609 283 m 44 Y s 609 361 m 104 Y s 609 344 m20 621 283 m 13 X s 634
 283 m 12 X s 659 662 m 430 Y s 659 1126 m 430 Y s 659 1109 m20 671 283 m 13 X s
 684 283 m 12 X s 696 283 m 13 X s 709 283 m 12 X s 721 283 m 13 X s 734 283 m
 12 X s 746 283 m 13 X s 759 283 m 12 X s 783 451 m 338 Y s 783 823 m 339 Y s
 783 806 m20 808 283 m 104 Y s 808 421 m 155 Y s 808 404 m20 833 283 m 44 Y s
 833 361 m 104 Y s 833 344 m20 858 283 m 104 Y s 858 421 m 155 Y s 858 404 m20
 883 283 m 44 Y s 883 361 m 104 Y s 883 344 m20 908 283 m 44 Y s 908 361 m 104 Y
 s 908 344 m20 921 283 m 12 X s 933 283 m 13 X s 946 283 m 12 X s 958 283 m 13 X
 s 971 283 m 12 X s 983 283 m 13 X s 1008 283 m 44 Y s 1008 361 m 104 Y s 1008
 344 m20 1020 283 m 13 X s 1033 283 m 12 X s 1045 283 m 13 X s 1058 283 m 12 X s
 1083 283 m 44 Y s 1083 361 m 104 Y s 1083 344 m20 1095 283 m 13 X s 1108 283 m
 12 X s 1120 283 m 13 X s 1133 283 m 12 X s 1145 283 m 13 X s 1158 283 m 12 X s
 1170 283 m 13 X s 1183 283 m 12 X s 1195 283 m 13 X s 1208 283 m 12 X s 1232
 283 m 44 Y s 1232 361 m 104 Y s 1232 344 m20 1245 283 m 12 X s 1257 283 m 13 X
 s 1282 283 m 44 Y s 1282 361 m 104 Y s 1282 344 m20 1295 283 m 12 X s 1307 283
 m 13 X s 1320 283 m 12 X s 1332 283 m 13 X s 1345 283 m 12 X s 1357 283 m 13 X
 s 1382 283 m 104 Y s 1382 421 m 155 Y s 1382 404 m20 1395 283 m 12 X s 1407 283
 m 13 X s 1420 283 m 12 X s 1432 283 m 13 X s 1457 283 m 104 Y s 1457 421 m 155
 Y s 1457 404 m20 1482 283 m 44 Y s 1482 361 m 104 Y s 1482 344 m20 1507 283 m
 104 Y s 1507 421 m 155 Y s 1507 404 m20 1519 283 m 13 X s 1532 283 m 12 X s
 1557 283 m 104 Y s 1557 421 m 155 Y s 1557 404 m20 1569 283 m 13 X s 1582 283 m
 12 X s 1594 283 m 13 X s 1607 283 m 12 X s 1619 283 m 13 X s 1632 283 m 12 X s
 1644 283 m 13 X s 1657 283 m 12 X s 1681 283 m 44 Y s 1681 361 m 104 Y s 1681
 344 m20 1694 283 m 12 X s 1706 283 m 13 X s 1719 283 m 12 X s 1731 283 m 13 X s
 1744 283 m 12 X s 1756 283 m 13 X s 1769 283 m 12 X s 1781 283 m 13 X s 1806
 283 m 44 Y s 1806 361 m 104 Y s 1806 344 m20 1819 283 m 12 X s 1831 283 m 13 X
 s 1856 283 m 104 Y s 1856 421 m 155 Y s 1856 404 m20 1881 283 m 44 Y s 1881 361
 m 104 Y s 1881 344 m20 1894 283 m 12 X s 1906 283 m 12 X s 1918 283 m 13 X s
 1931 283 m 12 X s 1943 283 m 13 X s 1956 283 m 12 X s 1981 283 m 44 Y s 1981
 361 m 104 Y s 1981 344 m20 1993 283 m 13 X s 2006 283 m 12 X s 2031 283 m 44 Y
 s 2031 361 m 104 Y s 2031 344 m20 2043 283 m 13 X s 2056 283 m 12 X s 2068 283
 m 13 X s 2081 283 m 12 X s 2093 283 m 13 X s 2106 283 m 12 X s 2118 283 m 12 X
 s 2130 283 m 13 X s 2143 283 m 12 X s 2155 283 m 13 X s 2168 283 m 12 X s 2180
 283 m 13 X s 2205 735 m 456 Y s 2205 1225 m 457 Y s 2205 1208 m20 2218 283 m 12
 X s 2230 283 m 13 X s 2243 283 m 12 X s 2255 283 m 13 X s 2268 283 m 12 X s
 2280 283 m 13 X s 2293 283 m 12 X s 2305 283 m 13 X s 2318 283 m 12 X s 2330
 283 m 13 X s 2343 283 m 12 X s 2355 283 m 12 X s 2367 283 m 13 X s 2380 283 m
 12 X s 2392 283 m 13 X s 2405 283 m 12 X s 2430 283 m 44 Y s 2430 361 m 104 Y s
 2430 344 m20 2442 283 m 13 X s 2455 283 m 12 X s 2467 283 m 13 X s 2480 283 m
 12 X s 2492 283 m 13 X s 2505 283 m 12 X s 2530 283 m 44 Y s 2530 361 m 104 Y s
 2530 344 m20 2542 283 m 13 X s 2555 283 m 12 X s 2580 283 m 44 Y s 2580 361 m
 104 Y s 2580 344 m20 2604 283 m 44 Y s 2604 361 m 104 Y s 2604 344 m20 2629 283
 m 44 Y s 2629 361 m 104 Y s 2629 344 m20 2642 283 m 12 X s 2654 283 m 13 X s
 2667 283 m 12 X s 2679 283 m 13 X s 2692 283 m 12 X s 2704 283 m 13 X s 2729
 283 m 104 Y s 2729 421 m 155 Y s 2729 404 m20 2742 283 m 12 X s 2754 283 m 13 X
 s 2779 283 m 44 Y s 2779 361 m 104 Y s 2779 344 m20 2792 283 m 12 X s 2804 283
 m 12 X s 2816 283 m 13 X s 2829 283 m 12 X s 2854 283 m 104 Y s 2854 421 m 155
 Y s 2854 404 m20 2866 283 m 13 X s 2879 283 m 12 X s 397 283 m 174 X 242 Y 50 X
 -242 Y 350 X 242 Y 25 X -242 Y 74 X 484 Y 25 X -484 Y 150 X 242 Y 50 X -242 Y
 75 X 242 Y 25 X -242 Y 25 X 242 Y 49 X -242 Y 574 X 242 Y 25 X -242 Y 25 X 242
 Y 25 X -242 Y 299 X 242 Y 25 X -242 Y 25 X 242 Y 25 X -242 Y 100 X 242 Y 25 X
 -242 Y 25 X 242 Y 25 X -242 Y 75 X 484 Y 25 X -484 Y 99 X 242 Y 25 X -242 Y s
 2948 2268 0 0 C 2494 1758 397 283 C 2948 2268 0 0 C 1 lw 1395 1494 m20
 gsave  1463 1471
 t   0 r 0 0 m
 /Helvetica-Bold findfont   62 sf 0    0 m 
(MC)
 show 
 gr  2494 1758 397 283 C 2948 2268 0 0 C 2494 1758 397 283 C 2948 2268 0 0 C
 gsave  1345 1373
 t   0 r 0 0 m
 /Helvetica-Bold findfont   78 sf 0    0 m 
(- data)
 show 
 gr  2494 1758 397 283 C 2948 2268 0 0 C
 /xs 0 def 
(\(1-cos)
 /Helvetica-Bold     93 stwn 
(Q)
 /Symbol     93 stwn 
(n)
 /Symbol 65 stwn 
(e+e-)
 /Helvetica-Bold     65 stwn 
(\)x 10)
 /Helvetica-Bold     93 stwn 
(5)
 /Helvetica-Bold     65 stwn 
 gsave  2891 45
 t   0 r  xs neg 0 t 0 0 m
 /Helvetica-Bold findfont   93 sf 0    0 m 
(\(1-cos)
 show 
 currentpoint pop 0 t 
 /Symbol findfont   93 sf 0    0 m 
(Q)
 show 
 currentpoint pop 0 t 
 /Symbol findfont   65 sf 0    -31 m 
(n) 
 show
 currentpoint pop 0 t 
 /Helvetica-Bold findfont   65 sf 0  -31 m 
(e+e-)
 show 
 currentpoint pop 0 t 
 /Helvetica-Bold findfont   93 sf 0    0 m 
(\)x 10)
 show 
 currentpoint pop 0 t 
 /Helvetica-Bold findfont   65 sf 0   47 m 
(5)
 show 
 gr 
 /xs 0 def 
(Number of events)
 /Helvetica-Bold     93 stwn 
 gsave  170 2041
 t  90 r  xs neg 0 t 0 0 m
 /Helvetica-Bold findfont   93 sf 0    0 m 
(Number of events)
 show 
 gr  2494 1758 397 283 C
 gr  gr 
showpage
end
%%EOF
