%!PS-Adobe-2.0 EPSF-2.0
%%BoundingBox:  0 0 567 362
%%Title: ./signal-e.eps:  
%%Creator: ROOT Version 5.24/00
%%CreationDate: Fri Feb 26 12:44:56 2010
%%EndComments
%%BeginProlog
80 dict begin
/s {stroke} def /l {lineto} def /m {moveto} def /t {translate} def
/sw {stringwidth} def /r {rotate} def /rl {roll}  def /R {repeat} def
/d {rlineto} def /rm {rmoveto} def /gr {grestore} def /f {eofill} def
/c {setrgbcolor} def /black {0 setgray} def /sd {setdash} def
/cl {closepath} def /sf {scalefont setfont} def /lw {setlinewidth} def
/box {m dup 0 exch d exch 0 d 0 exch neg d cl} def
/NC{systemdict begin initclip end}def/C{NC box clip newpath}def
/bl {box s} def /bf {box f} def /Y { 0 exch d} def /X { 0 d} def 
/mp {newpath /y exch def /x exch def} def
/side {[w .77 mul w .23 mul] .385 w mul sd w 0 l currentpoint t -144 r} def
/mr {mp x y w2 0 360 arc} def /m24 {mr s} def /m20 {mr f} def
/mb {mp x y w2 add m w2 neg 0 d 0 w neg d w 0 d 0 w d cl} def
/mt {mp x y w2 add m w2 neg w neg d w 0 d cl} def
/m21 {mb f} def /m25 {mb s} def /m22 {mt f} def /m26{mt s} def
/m23 {mp x y w2 sub m w2 w d w neg 0 d cl f} def
/m27 {mp x y w2 add m w3 neg w2 neg d w3 w2 neg d w3 w2 d cl s} def
/m28 {mp x w2 sub y w2 sub w3 add m w3 0 d  0 w3 neg d w3 0 d 0 w3 d w3 0 d  0 w3 d w3 neg 0 d 0 w3 d w3 neg 0 d
 0 w3 neg d w3 neg 0 d cl s } def
/m29 {mp gsave x w2 sub y w2 add w3 sub m currentpoint t
 4 {side} repeat cl fill gr} def
/m30 {mp gsave x w2 sub y w2 add w3 sub m currentpoint t
 4 {side} repeat cl s gr} def
/m31 {mp x y w2 sub m 0 w d x w2 sub y m w 0 d x w2 sub y w2 add m w w neg d x w2 sub y w2
 sub m w w d s} def
/m2 {mp x y w2 sub m 0 w d x w2 sub y m w 0 d s} def
/m5 {mp x w2 sub y w2 sub m w w d x w2 sub y w2 add m w w neg d s} def
/reEncode {exch findfont dup length dict begin {1 index /FID eq  {pop pop} {def} ifelse } forall /Encoding exch def currentdict end dup /FontName get exch definefont pop } def [/Times-Bold /Times-Italic /Times-BoldItalic /Helvetica
 /Helvetica-Oblique /Helvetica-Bold /Helvetica-BoldOblique /Courier /Courier-Oblique /Courier-Bold /Courier-BoldOblique /Times-Roman /AvantGarde-Book /AvantGarde-BookOblique /AvantGarde-Demi /AvantGarde-DemiOblique /Bookman-Demi
 /Bookman-DemiItalic /Bookman-Light /Bookman-LightItalic /Helvetica-Narrow /Helvetica-Narrow-Bold /Helvetica-Narrow-BoldOblique /Helvetica-Narrow-Oblique /NewCenturySchlbk-Roman /NewCenturySchlbk-Bold
 /NewCenturySchlbk-BoldItalic /NewCenturySchlbk-Italic /Palatino-Bold /Palatino-BoldItalic /Palatino-Italic /Palatino-Roman ] {ISOLatin1Encoding reEncode } forall
/oshow {gsave [] 0 sd true charpath stroke gr} def
/stwn { /fs exch def /fn exch def /text exch def fn findfont fs sf
 text sw pop xs add /xs exch def} def
/stwb { /fs exch def /fn exch def /nbas exch def /textf exch deftextf length /tlen exch def nbas tlen gt {/nbas tlendef} iffn findfont fs sf textf dup length nbas sub nbas getinterval sw
pop neg xs add /xs exch def} def
%%EndProlog
%%BeginSetup
%%EndSetup
newpath  gsave  .25 .25 scale  gsave  0 0 t black[  ] 0 sd 3 lw 0.95 0.95 0.95 c 2268 1448 0 0 bf 1 1 1 c 0 0 m 8 8 d 1432 Y 2252 X 8 8 d -2268 X -1448 Y f 0.665 0.665 0.665 c 0 0 m 8 8 d 2252 X 1432 Y 8 8 d -1448 Y -2268 X f black 1 1 1 c 1134 1448
 0 0 bf black 1 1 1 c 884 1129 136 174 bf 136 174 m 4 4 d 1121 Y 876 X 4 4 d -884 X -1129 Y f 1 7.94729e-08 0 c 136 174 m 4 4 d 876 X 1121 Y 4 4 d -1129 Y -884 X f black 884 1129 136 174 bl 1 1 1 c 884 1129 136 174 bf 136 174 m 4 4 d 1121 Y 876 X 4
 4 d -884 X -1129 Y f 1 7.94729e-08 0 c 136 174 m 4 4 d 876 X 1121 Y 4 4 d -1129 Y -884 X f black 884 1129 136 174 bl 1 1 1 c black 136 174 m 247 X 3 Y 14 X 4 Y 15 X 6 Y 14 X 14 Y 15 X 4 Y 14 X -31 Y 15 X 13 Y 14 X 155 Y 15 X 58 Y 14 X -62 Y 15 X
 257 Y 14 X 421 Y 15 X 233 Y 14 X -171 Y 15 X -555 Y 14 X -195 Y 15 X -120 Y 14 X -31 Y 15 X 4 Y 14 X -4 Y 15 X -3 Y 43 X 3 Y 15 X 17 Y 14 X 17 Y 14 X -30 Y 15 X -7 Y 246 X s 136 174 m 884 X s
 gsave  1134 1448 0 0 C 883 43 t 0 r /Helvetica-Bold findfont 53.1496 sf 0 0 m (, GeV) show NC gr 
 gsave  1134 1448 0 0 C 802 71 t 0 r /Helvetica-Bold findfont 35.4331 sf 0 0 m (cand) show NC gr 
 gsave  1134 1448 0 0 C 838 15 t 0 r /Helvetica-Bold findfont 22.7784 sf 0 0 m (R) show NC gr 
 gsave  1134 1448 0 0 C 802 25 t 0 r /Helvetica-Bold findfont 35.4331 sf 0 0 m (W) show NC gr 
 gsave  1134 1448 0 0 C 762 43 t 0 r /Helvetica-Bold findfont 53.1496 sf 0 0 m (M) show NC gr  136 208 m -34 Y s 165 191 m -17 Y s 194 191 m -17 Y s 223 191 m -17 Y s 252 191 m -17 Y s 281 208 m -34 Y s 310 191 m -17 Y s 339 191 m -17 Y s 368 191 m
 -17 Y s 397 191 m -17 Y s 426 208 m -34 Y s 455 191 m -17 Y s 484 191 m -17 Y s 513 191 m -17 Y s 542 191 m -17 Y s 571 208 m -34 Y s 600 191 m -17 Y s 629 191 m -17 Y s 658 191 m -17 Y s 687 191 m -17 Y s 716 208 m -34 Y s 745 191 m -17 Y s 774
 191 m -17 Y s 803 191 m -17 Y s 832 191 m -17 Y s 861 208 m -34 Y s 890 191 m -17 Y s 919 191 m -17 Y s 948 191 m -17 Y s 977 191 m -17 Y s 1006 208 m -34 Y s 1006 208 m -34 Y s
 gsave  1134 1448 0 0 C 121 121 t 0 r /Helvetica-Bold findfont 43.0259 sf 0 0 m (0) show NC gr 
 gsave  1134 1448 0 0 C 246 121 t 0 r /Helvetica-Bold findfont 43.0259 sf 0 0 m (500) show NC gr 
 gsave  1134 1448 0 0 C 377 121 t 0 r /Helvetica-Bold findfont 43.0259 sf 0 0 m (1000) show NC gr 
 gsave  1134 1448 0 0 C 521 121 t 0 r /Helvetica-Bold findfont 43.0259 sf 0 0 m (1500) show NC gr 
 gsave  1134 1448 0 0 C 666 121 t 0 r /Helvetica-Bold findfont 43.0259 sf 0 0 m (2000) show NC gr 
 gsave  1134 1448 0 0 C 812 121 t 0 r /Helvetica-Bold findfont 43.0259 sf 0 0 m (2500) show NC gr 
 gsave  1134 1448 0 0 C 957 121 t 0 r /Helvetica-Bold findfont 43.0259 sf 0 0 m (3000) show NC gr  136 174 m 1129 Y s
 gsave  1134 1448 0 0 C 48 1015 t 90 r /Helvetica-Bold findfont 43.0259 sf 0 0 m (Events/50GeV) show NC gr  163 174 m -27 X s 149 208 m -13 X s 149 242 m -13 X s 149 276 m -13 X s 149 311 m -13 X s 163 345 m -27 X s 149 379 m -13 X s 149 413 m -13 X
 s 149 448 m -13 X s 149 482 m -13 X s 163 516 m -27 X s 149 550 m -13 X s 149 585 m -13 X s 149 619 m -13 X s 149 653 m -13 X s 163 687 m -27 X s 149 722 m -13 X s 149 756 m -13 X s 149 790 m -13 X s 149 824 m -13 X s 163 859 m -27 X s 149 893 m
 -13 X s 149 927 m -13 X s 149 961 m -13 X s 149 996 m -13 X s 163 1030 m -27 X s 149 1064 m -13 X s 149 1098 m -13 X s 149 1133 m -13 X s 149 1167 m -13 X s 163 1201 m -27 X s 163 1201 m -27 X s 149 1235 m -13 X s 149 1270 m -13 X s
 gsave  1134 1448 0 0 C 106 157 t 0 r /Helvetica-Bold findfont 43.0259 sf 0 0 m (0) show NC gr 
 gsave  1134 1448 0 0 C 81 329 t 0 r /Helvetica-Bold findfont 43.0259 sf 0 0 m (50) show NC gr 
 gsave  1134 1448 0 0 C 58 499 t 0 r /Helvetica-Bold findfont 43.0259 sf 0 0 m (100) show NC gr 
 gsave  1134 1448 0 0 C 58 671 t 0 r /Helvetica-Bold findfont 43.0259 sf 0 0 m (150) show NC gr 
 gsave  1134 1448 0 0 C 58 843 t 0 r /Helvetica-Bold findfont 43.0259 sf 0 0 m (200) show NC gr 
 gsave  1134 1448 0 0 C 58 1012 t 0 r /Helvetica-Bold findfont 43.0259 sf 0 0 m (250) show NC gr 
 gsave  1134 1448 0 0 C 58 1184 t 0 r /Helvetica-Bold findfont 43.0259 sf 0 0 m (300) show NC gr  1 1 1 c 1134 1448 1134 0 bf black 1 1 1 c 884 1129 1270 174 bf 1270 174 m 4 4 d 1121 Y 876 X 4 4 d -884 X -1129 Y f 1 7.94729e-08 0 c 1270 174 m 4 4 d
 876 X 1121 Y 4 4 d -1129 Y -884 X f black 884 1129 1270 174 bl 1 1 1 c 884 1129 1270 174 bf 1270 174 m 4 4 d 1121 Y 876 X 4 4 d -884 X -1129 Y f 1 7.94729e-08 0 c 1270 174 m 4 4 d 876 X 1121 Y 4 4 d -1129 Y -884 X f black 884 1129 1270 174 bl 1 1 1
 c black 1270 174 m 88 X 10 Y 6 X 33 Y 5 X 48 Y 6 X 11 Y 6 X -22 Y 6 X 70 Y 6 X -48 Y 6 X 64 Y 6 X 33 Y 5 X 59 Y 6 X 43 Y 6 X 167 Y 6 X 123 Y 6 X 124 Y 6 X 215 Y 6 X 145 Y 5 X -322 Y 6 X -436 Y 6 X -231 Y 6 X -38 Y 12 X -16 Y 6 X -22 Y 5 X 60 Y 6 X
 -17 Y 6 X -21 Y 6 X -27 Y 6 X 22 Y 6 X -27 Y 11 X 16 Y 6 X -11 Y 6 X -5 Y 6 X 21 Y 6 X -21 Y 6 X 10 Y 6 X 6 Y 5 X -11 Y 6 X 5 Y 6 X 11 Y 6 X -11 Y 6 X -10 Y 6 X 5 Y 11 X 27 Y 6 X -16 Y 6 X 32 Y 6 X -32 Y 6 X 16 Y 6 X 5 Y 6 X -32 Y 5 X -5 Y 6 X 5 Y
 6 X -5 Y 486 X s 1270 174 m 884 X s
 gsave  1134 1448 1134 0 C 2017 43 t 0 r /Helvetica-Bold findfont 53.1496 sf 0 0 m (, GeV) show NC gr 
 gsave  1134 1448 1134 0 C 1936 71 t 0 r /Helvetica-Bold findfont 35.4331 sf 0 0 m (cand) show NC gr 
 gsave  1134 1448 1134 0 C 1959 18 t 0 r /Helvetica-Bold findfont 22.7784 sf 0 0 m (e) show NC gr 
 gsave  1134 1448 1134 0 C 1936 25 t 0 r /Helvetica-Bold findfont 35.4331 sf 0 0 m (N) show NC gr 
 gsave  1134 1448 1134 0 C 1896 43 t 0 r /Helvetica-Bold findfont 53.1496 sf 0 0 m (M) show NC gr  1270 208 m -34 Y s 1299 191 m -17 Y s 1328 191 m -17 Y s 1358 191 m -17 Y s 1387 191 m -17 Y s 1416 208 m -34 Y s 1446 191 m -17 Y s 1475 191 m -17 Y
 s 1504 191 m -17 Y s 1533 191 m -17 Y s 1563 208 m -34 Y s 1592 191 m -17 Y s 1621 191 m -17 Y s 1651 191 m -17 Y s 1680 191 m -17 Y s 1709 208 m -34 Y s 1738 191 m -17 Y s 1768 191 m -17 Y s 1797 191 m -17 Y s 1826 191 m -17 Y s 1856 208 m -34 Y s
 1885 191 m -17 Y s 1914 191 m -17 Y s 1943 191 m -17 Y s 1973 191 m -17 Y s 2002 208 m -34 Y s 2031 191 m -17 Y s 2061 191 m -17 Y s 2090 191 m -17 Y s 2119 191 m -17 Y s 2148 208 m -34 Y s 2148 208 m -34 Y s
 gsave  1134 1448 1134 0 C 1255 121 t 0 r /Helvetica-Bold findfont 43.0259 sf 0 0 m (0) show NC gr 
 gsave  1134 1448 1134 0 C 1379 121 t 0 r /Helvetica-Bold findfont 43.0259 sf 0 0 m (500) show NC gr 
 gsave  1134 1448 1134 0 C 1513 121 t 0 r /Helvetica-Bold findfont 43.0259 sf 0 0 m (1000) show NC gr 
 gsave  1134 1448 1134 0 C 1660 121 t 0 r /Helvetica-Bold findfont 43.0259 sf 0 0 m (1500) show NC gr 
 gsave  1134 1448 1134 0 C 1807 121 t 0 r /Helvetica-Bold findfont 43.0259 sf 0 0 m (2000) show NC gr 
 gsave  1134 1448 1134 0 C 1954 121 t 0 r /Helvetica-Bold findfont 43.0259 sf 0 0 m (2500) show NC gr 
 gsave  1134 1448 1134 0 C 2098 121 t 0 r /Helvetica-Bold findfont 43.0259 sf 0 0 m (3000) show NC gr  1270 174 m 1129 Y s
 gsave  1134 1448 1134 0 C 1182 1015 t 90 r /Helvetica-Bold findfont 43.0259 sf 0 0 m (Events/20GeV) show NC gr  1296 174 m -26 X s 1283 201 m -13 X s 1283 227 m -13 X s 1283 254 m -13 X s 1296 281 m -26 X s 1283 308 m -13 X s 1283 335 m -13 X s
 1283 362 m -13 X s 1296 389 m -26 X s 1283 416 m -13 X s 1283 443 m -13 X s 1283 469 m -13 X s 1296 496 m -26 X s 1283 523 m -13 X s 1283 550 m -13 X s 1283 577 m -13 X s 1296 604 m -26 X s 1283 631 m -13 X s 1283 658 m -13 X s 1283 685 m -13 X s
 1296 711 m -26 X s 1283 738 m -13 X s 1283 765 m -13 X s 1283 792 m -13 X s 1296 819 m -26 X s 1283 846 m -13 X s 1283 873 m -13 X s 1283 900 m -13 X s 1296 927 m -26 X s 1283 953 m -13 X s 1283 980 m -13 X s 1283 1007 m -13 X s 1296 1034 m -26 X s
 1283 1061 m -13 X s 1283 1088 m -13 X s 1283 1115 m -13 X s 1296 1142 m -26 X s 1283 1168 m -13 X s 1283 1195 m -13 X s 1283 1222 m -13 X s 1296 1249 m -26 X s 1296 1249 m -26 X s 1283 1276 m -13 X s
 gsave  1134 1448 1134 0 C 1240 157 t 0 r /Helvetica-Bold findfont 43.0259 sf 0 0 m (0) show NC gr 
 gsave  1134 1448 1134 0 C 1215 266 t 0 r /Helvetica-Bold findfont 43.0259 sf 0 0 m (20) show NC gr 
 gsave  1134 1448 1134 0 C 1215 372 t 0 r /Helvetica-Bold findfont 43.0259 sf 0 0 m (40) show NC gr 
 gsave  1134 1448 1134 0 C 1215 481 t 0 r /Helvetica-Bold findfont 43.0259 sf 0 0 m (60) show NC gr 
 gsave  1134 1448 1134 0 C 1215 587 t 0 r /Helvetica-Bold findfont 43.0259 sf 0 0 m (80) show NC gr 
 gsave  1134 1448 1134 0 C 1192 696 t 0 r /Helvetica-Bold findfont 43.0259 sf 0 0 m (100) show NC gr 
 gsave  1134 1448 1134 0 C 1192 802 t 0 r /Helvetica-Bold findfont 43.0259 sf 0 0 m (120) show NC gr 
 gsave  1134 1448 1134 0 C 1192 911 t 0 r /Helvetica-Bold findfont 43.0259 sf 0 0 m (140) show NC gr 
 gsave  1134 1448 1134 0 C 1192 1017 t 0 r /Helvetica-Bold findfont 43.0259 sf 0 0 m (160) show NC gr 
 gsave  1134 1448 1134 0 C 1192 1126 t 0 r /Helvetica-Bold findfont 43.0259 sf 0 0 m (180) show NC gr 
 gsave  1134 1448 1134 0 C 1192 1233 t 0 r /Helvetica-Bold findfont 43.0259 sf 0 0 m (200) show NC gr 
 gr  gr 
showpage
end
%%EOF
