%!PS-Adobe-2.0 EPSF-2.0
%%BoundingBox:  0 0 567 613
%%Title: ./signifcurve.eps:  
%%Creator: ROOT Version 5.20/00
%%CreationDate: Wed Oct 15 00:51:30 2008
%%EndComments
%%BeginProlog
80 dict begin
/s {stroke} def /l {lineto} def /m {moveto} def /t {translate} def
/sw {stringwidth} def /r {rotate} def /rl {roll}  def /R {repeat} def
/d {rlineto} def /rm {rmoveto} def /gr {grestore} def /f {eofill} def
/c {setrgbcolor} def /black {0 setgray} def /sd {setdash} def
/cl {closepath} def /sf {scalefont setfont} def /lw {setlinewidth} def
/box {m dup 0 exch d exch 0 d 0 exch neg d cl} def
/NC{systemdict begin initclip end}def/C{NC box clip newpath}def
/bl {box s} def /bf {box f} def /Y { 0 exch d} def /X { 0 d} def 
/mp {newpath /y exch def /x exch def} def
/side {[w .77 mul w .23 mul] .385 w mul sd w 0 l currentpoint t -144 r} def
/mr {mp x y w2 0 360 arc} def /m24 {mr s} def /m20 {mr f} def
/mb {mp x y w2 add m w2 neg 0 d 0 w neg d w 0 d 0 w d cl} def
/mt {mp x y w2 add m w2 neg w neg d w 0 d cl} def
/m21 {mb f} def /m25 {mb s} def /m22 {mt f} def /m26{mt s} def
/m23 {mp x y w2 sub m w2 w d w neg 0 d cl f} def
/m27 {mp x y w2 add m w3 neg w2 neg d w3 w2 neg d w3 w2 d cl s} def
/m28 {mp x w2 sub y w2 sub w3 add m w3 0 d  0 w3 neg d w3 0 d 0 w3 d w3 0 d  0 w3 d w3 neg 0 d 0 w3 d w3 neg 0 d
 0 w3 neg d w3 neg 0 d cl s } def
/m29 {mp gsave x w2 sub y w2 add w3 sub m currentpoint t
 4 {side} repeat cl fill gr} def
/m30 {mp gsave x w2 sub y w2 add w3 sub m currentpoint t
 4 {side} repeat cl s gr} def
/m31 {mp x y w2 sub m 0 w d x w2 sub y m w 0 d x w2 sub y w2 add m w w neg d x w2 sub y w2
 sub m w w d s} def
/m2 {mp x y w2 sub m 0 w d x w2 sub y m w 0 d s} def
/m5 {mp x w2 sub y w2 sub m w w d x w2 sub y w2 add m w w neg d s} def
/reEncode {exch findfont dup length dict begin {1 index /FID eq  {pop pop} {def} ifelse } forall /Encoding exch def currentdict end dup /FontName get exch definefont pop } def [/Times-Bold /Times-Italic /Times-BoldItalic /Helvetica
 /Helvetica-Oblique /Helvetica-Bold /Helvetica-BoldOblique /Courier /Courier-Oblique /Courier-Bold /Courier-BoldOblique /Times-Roman /AvantGarde-Book /AvantGarde-BookOblique /AvantGarde-Demi /AvantGarde-DemiOblique /Bookman-Demi
 /Bookman-DemiItalic /Bookman-Light /Bookman-LightItalic /Helvetica-Narrow /Helvetica-Narrow-Bold /Helvetica-Narrow-BoldOblique /Helvetica-Narrow-Oblique /NewCenturySchlbk-Roman /NewCenturySchlbk-Bold
 /NewCenturySchlbk-BoldItalic /NewCenturySchlbk-Italic /Palatino-Bold /Palatino-BoldItalic /Palatino-Italic /Palatino-Roman ] {ISOLatin1Encoding reEncode } forall
/oshow {gsave [] 0 sd true charpath stroke gr} def
/stwn { /fs exch def /fn exch def /text exch def fn findfont fs sf
 text sw pop xs add /xs exch def} def
/stwb { /fs exch def /fn exch def /nbas exch def /textf exch deftextf length /tlen exch def nbas tlen gt {/nbas tlendef} iffn findfont fs sf textf dup length nbas sub nbas getinterval sw
pop neg xs add /xs exch def} def
%%EndProlog
%%BeginSetup
%%EndSetup
newpath  gsave  .25 .25 scale  gsave  0 0 t black[  ] 0 sd 3 lw 0.95 0.95 0.95 c 2268 2450 0 0 bf 1 1 1 c 0 0 m 8 8 d 2434 Y 2252 X 8 8 d -2268 X -2450 Y f 0.665 0.665 0.665 c 0 0 m 8 8 d 2252 X 2434 Y 8 8 d -2450 Y -2268 X f black 1 1 1 c 2268 2450
 0 0 bf black 1 1 1 c 1814 2107 340 294 bf 340 294 m 4 4 d 2099 Y 1806 X 4 4 d -1814 X -2107 Y f 1 7.94729e-08 0 c 340 294 m 4 4 d 1806 X 2099 Y 4 4 d -2107 Y -1814 X f black 1814 2107 340 294 bl 1 1 1 c 1814 2107 340 294 bf 340 294 m 4 4 d 2099 Y
 1806 X 4 4 d -1814 X -2107 Y f 1 7.94729e-08 0 c 340 294 m 4 4 d 1806 X 2099 Y 4 4 d -2107 Y -1814 X f black 1814 2107 340 294 bl 340 294 m 1814 X s
 gsave  2268 2450 0 0 C 2010 52 t 0 r /Helvetica-Bold findfont 71.6807 sf 0 0 m (sign) show NC gr 
 gsave  2268 2450 0 0 C 1942 85 t 0 r /Helvetica-Bold findfont 104.263 sf 0 0 m (N) show NC gr  427 353 m -59 Y s 513 323 m -29 Y s 599 323 m -29 Y s 686 323 m -29 Y s 772 323 m -29 Y s 858 353 m -59 Y s 945 323 m -29 Y s 1031 323 m -29 Y s 1118 323
 m -29 Y s 1204 323 m -29 Y s 1290 353 m -59 Y s 1377 323 m -29 Y s 1463 323 m -29 Y s 1550 323 m -29 Y s 1636 323 m -29 Y s 1722 353 m -59 Y s 1809 323 m -29 Y s 1895 323 m -29 Y s 1982 323 m -29 Y s 2068 323 m -29 Y s 2154 353 m -59 Y s 427 353 m
 -59 Y s 340 323 m -29 Y s
 gsave  2268 2450 0 0 C 401 205 t 0 r /Helvetica-Bold findfont 84.7136 sf 0 0 m (0) show NC gr 
 gsave  2268 2450 0 0 C 834 205 t 0 r /Helvetica-Bold findfont 84.7136 sf 0 0 m (5) show NC gr 
 gsave  2268 2450 0 0 C 1245 205 t 0 r /Helvetica-Bold findfont 84.7136 sf 0 0 m (10) show NC gr 
 gsave  2268 2450 0 0 C 1671 205 t 0 r /Helvetica-Bold findfont 84.7136 sf 0 0 m (15) show NC gr 
 gsave  2268 2450 0 0 C 2108 205 t 0 r /Helvetica-Bold findfont 84.7136 sf 0 0 m (20) show NC gr  340 294 m 2107 Y s
 gsave  2268 2450 0 0 C 147 1903 t 90 r /Helvetica-Bold findfont 84.7136 sf 0 0 m (Significance) show NC gr  399 294 m -59 X s 369 336 m -29 X s 369 378 m -29 X s 369 420 m -29 X s 369 463 m -29 X s 399 505 m -59 X s 369 547 m -29 X s 369 589 m -29
 X s 369 631 m -29 X s 369 673 m -29 X s 399 715 m -59 X s 369 758 m -29 X s 369 800 m -29 X s 369 842 m -29 X s 369 884 m -29 X s 399 926 m -59 X s 369 968 m -29 X s 369 1010 m -29 X s 369 1053 m -29 X s 369 1095 m -29 X s 399 1137 m -59 X s 369
 1179 m -29 X s 369 1221 m -29 X s 369 1263 m -29 X s 369 1305 m -29 X s 399 1348 m -59 X s 369 1390 m -29 X s 369 1432 m -29 X s 369 1474 m -29 X s 369 1516 m -29 X s 399 1558 m -59 X s 369 1600 m -29 X s 369 1643 m -29 X s 369 1685 m -29 X s 369
 1727 m -29 X s 399 1769 m -59 X s 369 1811 m -29 X s 369 1853 m -29 X s 369 1895 m -29 X s 369 1938 m -29 X s 399 1980 m -59 X s 369 2022 m -29 X s 369 2064 m -29 X s 369 2106 m -29 X s 369 2148 m -29 X s 399 2190 m -59 X s 369 2233 m -29 X s 369
 2275 m -29 X s 369 2317 m -29 X s 369 2359 m -29 X s 399 2401 m -59 X s
 gsave  2268 2450 0 0 C 280 257 t 0 r /Helvetica-Bold findfont 84.7136 sf 0 0 m (0) show NC gr 
 gsave  2268 2450 0 0 C 290 466 t 0 r /Helvetica-Bold findfont 84.7136 sf 0 0 m (1) show NC gr 
 gsave  2268 2450 0 0 C 280 678 t 0 r /Helvetica-Bold findfont 84.7136 sf 0 0 m (2) show NC gr 
 gsave  2268 2450 0 0 C 280 889 t 0 r /Helvetica-Bold findfont 84.7136 sf 0 0 m (3) show NC gr 
 gsave  2268 2450 0 0 C 280 1098 t 0 r /Helvetica-Bold findfont 84.7136 sf 0 0 m (4) show NC gr 
 gsave  2268 2450 0 0 C 280 1310 t 0 r /Helvetica-Bold findfont 84.7136 sf 0 0 m (5) show NC gr 
 gsave  2268 2450 0 0 C 280 1522 t 0 r /Helvetica-Bold findfont 84.7136 sf 0 0 m (6) show NC gr 
 gsave  2268 2450 0 0 C 280 1730 t 0 r /Helvetica-Bold findfont 84.7136 sf 0 0 m (7) show NC gr 
 gsave  2268 2450 0 0 C 280 1942 t 0 r /Helvetica-Bold findfont 84.7136 sf 0 0 m (8) show NC gr 
 gsave  2268 2450 0 0 C 280 2154 t 0 r /Helvetica-Bold findfont 84.7136 sf 0 0 m (9) show NC gr 
 gsave  2268 2450 0 0 C 235 2362 t 0 r /Helvetica-Bold findfont 84.7136 sf 0 0 m (10) show NC gr  0.8 0.8 0.8 c
 gsave  2268 2450 0 0 C 1210 1149 t 45 r  -1001 0 t /Helvetica-Bold findfont 254.141 sf 0 0 m (CMS preliminary) show NC gr  black 6 lw 427 1982 m 43 Y s 420 2025 m 13 X s 427 1982 m -43 Y s 420 1939 m 13 X s 513 1799 m 28 Y s 506 1827 m 13 X s 513
 1799 m -29 Y s 506 1770 m 13 X s 599 1499 m 32 Y s 593 1531 m 13 X s 599 1499 m -32 Y s 593 1467 m 13 X s 686 1320 m 25 Y s 679 1345 m 13 X s 686 1320 m -25 Y s 679 1295 m 13 X s 772 1215 m 23 Y s 766 1238 m 13 X s 772 1215 m -24 Y s 766 1191 m 13
 X s 858 1050 m 25 Y s 852 1075 m 13 X s 858 1050 m -24 Y s 852 1026 m 13 X s 945 941 m 25 Y s 938 966 m 13 X s 945 941 m -25 Y s 938 916 m 13 X s 1031 892 m 23 Y s 1025 915 m 13 X s 1031 892 m -22 Y s 1025 870 m 13 X s 1118 774 m 22 Y s 1111 796 m
 13 X s 1118 774 m -21 Y s 1111 753 m 13 X s 1204 762 m 24 Y s 1198 786 m 13 X s 1204 762 m -24 Y s 1198 738 m 13 X s 1290 633 m 20 Y s 1284 653 m 13 X s 1290 633 m -19 Y s 1284 614 m 13 X s 1377 600 m 19 Y s 1370 619 m 13 X s 1377 600 m -20 Y s
 1370 580 m 13 X s 1463 566 m 18 Y s 1457 584 m 13 X s 1463 566 m -18 Y s 1457 548 m 13 X s 1550 526 m 16 Y s 1543 542 m 13 X s 1550 526 m -17 Y s 1543 509 m 13 X s 1636 519 m 17 Y s 1629 536 m 14 X s 1636 519 m -16 Y s 1629 503 m 14 X s 1722 486 m
 13 Y s 1716 499 m 13 X s 1722 486 m -14 Y s 1716 472 m 13 X s 1809 488 m 15 Y s 1802 503 m 13 X s 1809 488 m -15 Y s 1802 473 m 13 X s 1895 448 m 12 Y s 1889 460 m 13 X s 1895 448 m -12 Y s 1889 436 m 13 X s 1982 484 m 13 Y s 1975 497 m 13 X s 1982
 484 m -13 Y s 1975 471 m 13 X s 2068 490 m 14 Y s 2061 504 m 13 X s 2068 490 m -14 Y s 2061 476 m 13 X s 3 lw /w 24 def /w2 {w 2 div} def /w3 {w 3 div} def 427 1982 513 1799 599 1499 686 1320 772 1215 858 1050 945 941 1031 892 1118 774 1204 762
 1290 633 1377 600 1463 566 1550 526 1636 519 1722 486 1809 488 1895 448 1982 484 2068 490 20 { m31} R 6 lw
 gr  gr 
showpage
end
%%EOF
