%!PS-Adobe-2.0 EPSF-2.0
%%BoundingBox:  0 0 567 362
%%Title: ./signal-mu.eps:  
%%Creator: ROOT Version 5.24/00
%%CreationDate: Fri Feb 26 12:52:23 2010
%%EndComments
%%BeginProlog
80 dict begin
/s {stroke} def /l {lineto} def /m {moveto} def /t {translate} def
/sw {stringwidth} def /r {rotate} def /rl {roll}  def /R {repeat} def
/d {rlineto} def /rm {rmoveto} def /gr {grestore} def /f {eofill} def
/c {setrgbcolor} def /black {0 setgray} def /sd {setdash} def
/cl {closepath} def /sf {scalefont setfont} def /lw {setlinewidth} def
/box {m dup 0 exch d exch 0 d 0 exch neg d cl} def
/NC{systemdict begin initclip end}def/C{NC box clip newpath}def
/bl {box s} def /bf {box f} def /Y { 0 exch d} def /X { 0 d} def 
/mp {newpath /y exch def /x exch def} def
/side {[w .77 mul w .23 mul] .385 w mul sd w 0 l currentpoint t -144 r} def
/mr {mp x y w2 0 360 arc} def /m24 {mr s} def /m20 {mr f} def
/mb {mp x y w2 add m w2 neg 0 d 0 w neg d w 0 d 0 w d cl} def
/mt {mp x y w2 add m w2 neg w neg d w 0 d cl} def
/m21 {mb f} def /m25 {mb s} def /m22 {mt f} def /m26{mt s} def
/m23 {mp x y w2 sub m w2 w d w neg 0 d cl f} def
/m27 {mp x y w2 add m w3 neg w2 neg d w3 w2 neg d w3 w2 d cl s} def
/m28 {mp x w2 sub y w2 sub w3 add m w3 0 d  0 w3 neg d w3 0 d 0 w3 d w3 0 d  0 w3 d w3 neg 0 d 0 w3 d w3 neg 0 d
 0 w3 neg d w3 neg 0 d cl s } def
/m29 {mp gsave x w2 sub y w2 add w3 sub m currentpoint t
 4 {side} repeat cl fill gr} def
/m30 {mp gsave x w2 sub y w2 add w3 sub m currentpoint t
 4 {side} repeat cl s gr} def
/m31 {mp x y w2 sub m 0 w d x w2 sub y m w 0 d x w2 sub y w2 add m w w neg d x w2 sub y w2
 sub m w w d s} def
/m2 {mp x y w2 sub m 0 w d x w2 sub y m w 0 d s} def
/m5 {mp x w2 sub y w2 sub m w w d x w2 sub y w2 add m w w neg d s} def
/reEncode {exch findfont dup length dict begin {1 index /FID eq  {pop pop} {def} ifelse } forall /Encoding exch def currentdict end dup /FontName get exch definefont pop } def [/Times-Bold /Times-Italic /Times-BoldItalic /Helvetica
 /Helvetica-Oblique /Helvetica-Bold /Helvetica-BoldOblique /Courier /Courier-Oblique /Courier-Bold /Courier-BoldOblique /Times-Roman /AvantGarde-Book /AvantGarde-BookOblique /AvantGarde-Demi /AvantGarde-DemiOblique /Bookman-Demi
 /Bookman-DemiItalic /Bookman-Light /Bookman-LightItalic /Helvetica-Narrow /Helvetica-Narrow-Bold /Helvetica-Narrow-BoldOblique /Helvetica-Narrow-Oblique /NewCenturySchlbk-Roman /NewCenturySchlbk-Bold
 /NewCenturySchlbk-BoldItalic /NewCenturySchlbk-Italic /Palatino-Bold /Palatino-BoldItalic /Palatino-Italic /Palatino-Roman ] {ISOLatin1Encoding reEncode } forall
/oshow {gsave [] 0 sd true charpath stroke gr} def
/stwn { /fs exch def /fn exch def /text exch def fn findfont fs sf
 text sw pop xs add /xs exch def} def
/stwb { /fs exch def /fn exch def /nbas exch def /textf exch deftextf length /tlen exch def nbas tlen gt {/nbas tlendef} iffn findfont fs sf textf dup length nbas sub nbas getinterval sw
pop neg xs add /xs exch def} def
%%EndProlog
%%BeginSetup
%%EndSetup
newpath  gsave  .25 .25 scale  gsave  0 0 t black[  ] 0 sd 3 lw 0.95 0.95 0.95 c 2268 1448 0 0 bf 1 1 1 c 0 0 m 8 8 d 1432 Y 2252 X 8 8 d -2268 X -1448 Y f 0.665 0.665 0.665 c 0 0 m 8 8 d 2252 X 1432 Y 8 8 d -1448 Y -2268 X f black 1 1 1 c 1134 1448
 0 0 bf black 1 1 1 c 884 1129 136 174 bf 136 174 m 4 4 d 1121 Y 876 X 4 4 d -884 X -1129 Y f 1 7.94729e-08 0 c 136 174 m 4 4 d 876 X 1121 Y 4 4 d -1129 Y -884 X f black 884 1129 136 174 bl 1 1 1 c 884 1129 136 174 bf 136 174 m 4 4 d 1121 Y 876 X 4
 4 d -884 X -1129 Y f 1 7.94729e-08 0 c 136 174 m 4 4 d 876 X 1121 Y 4 4 d -1129 Y -884 X f black 884 1129 136 174 bl 1 1 1 c black 136 174 m 189 X 23 Y 14 X 11 Y 15 X 57 Y 14 X 12 Y 15 X -12 Y 14 X -34 Y 15 X 160 Y 29 X 149 Y 14 X 46 Y 15 X 228 Y
 14 X 80 Y 15 X -22 Y 14 X 160 Y 15 X 34 Y 14 X 160 Y 15 X 23 Y 14 X -91 Y 15 X -286 Y 14 X -195 Y 15 X -206 Y 14 X -80 Y 15 X 69 Y 14 X -69 Y 15 X -103 Y 14 X -91 Y 15 X 11 Y 14 X -34 Y 15 X 23 Y 14 X -23 Y 14 X 11 Y 15 X 23 Y 14 X -34 Y 145 X 11 Y
 15 X -11 Y 72 X s 136 174 m 884 X s
 gsave  1134 1448 0 0 C 883 43 t 0 r /Helvetica-Bold findfont 53.1496 sf 0 0 m (, GeV) show NC gr 
 gsave  1134 1448 0 0 C 802 71 t 0 r /Helvetica-Bold findfont 35.4331 sf 0 0 m (cand) show NC gr 
 gsave  1134 1448 0 0 C 838 15 t 0 r /Helvetica-Bold findfont 22.7784 sf 0 0 m (R) show NC gr 
 gsave  1134 1448 0 0 C 802 25 t 0 r /Helvetica-Bold findfont 35.4331 sf 0 0 m (W) show NC gr 
 gsave  1134 1448 0 0 C 762 43 t 0 r /Helvetica-Bold findfont 53.1496 sf 0 0 m (M) show NC gr  136 208 m -34 Y s 165 191 m -17 Y s 194 191 m -17 Y s 223 191 m -17 Y s 252 191 m -17 Y s 281 208 m -34 Y s 310 191 m -17 Y s 339 191 m -17 Y s 368 191 m
 -17 Y s 397 191 m -17 Y s 426 208 m -34 Y s 455 191 m -17 Y s 484 191 m -17 Y s 513 191 m -17 Y s 542 191 m -17 Y s 571 208 m -34 Y s 600 191 m -17 Y s 629 191 m -17 Y s 658 191 m -17 Y s 687 191 m -17 Y s 716 208 m -34 Y s 745 191 m -17 Y s 774
 191 m -17 Y s 803 191 m -17 Y s 832 191 m -17 Y s 861 208 m -34 Y s 890 191 m -17 Y s 919 191 m -17 Y s 948 191 m -17 Y s 977 191 m -17 Y s 1006 208 m -34 Y s 1006 208 m -34 Y s
 gsave  1134 1448 0 0 C 121 121 t 0 r /Helvetica-Bold findfont 43.0259 sf 0 0 m (0) show NC gr 
 gsave  1134 1448 0 0 C 246 121 t 0 r /Helvetica-Bold findfont 43.0259 sf 0 0 m (500) show NC gr 
 gsave  1134 1448 0 0 C 377 121 t 0 r /Helvetica-Bold findfont 43.0259 sf 0 0 m (1000) show NC gr 
 gsave  1134 1448 0 0 C 521 121 t 0 r /Helvetica-Bold findfont 43.0259 sf 0 0 m (1500) show NC gr 
 gsave  1134 1448 0 0 C 666 121 t 0 r /Helvetica-Bold findfont 43.0259 sf 0 0 m (2000) show NC gr 
 gsave  1134 1448 0 0 C 812 121 t 0 r /Helvetica-Bold findfont 43.0259 sf 0 0 m (2500) show NC gr 
 gsave  1134 1448 0 0 C 957 121 t 0 r /Helvetica-Bold findfont 43.0259 sf 0 0 m (3000) show NC gr  136 174 m 1129 Y s
 gsave  1134 1448 0 0 C 48 1015 t 90 r /Helvetica-Bold findfont 43.0259 sf 0 0 m (Events/50GeV) show NC gr  163 174 m -27 X s 149 197 m -13 X s 149 219 m -13 X s 149 242 m -13 X s 149 265 m -13 X s 163 288 m -27 X s 149 311 m -13 X s 149 334 m -13 X
 s 149 357 m -13 X s 149 380 m -13 X s 163 403 m -27 X s 149 425 m -13 X s 149 448 m -13 X s 149 471 m -13 X s 149 494 m -13 X s 163 517 m -27 X s 149 540 m -13 X s 149 563 m -13 X s 149 586 m -13 X s 149 608 m -13 X s 163 631 m -27 X s 149 654 m
 -13 X s 149 677 m -13 X s 149 700 m -13 X s 149 723 m -13 X s 163 746 m -27 X s 149 769 m -13 X s 149 792 m -13 X s 149 814 m -13 X s 149 837 m -13 X s 163 860 m -27 X s 149 883 m -13 X s 149 906 m -13 X s 149 929 m -13 X s 149 952 m -13 X s 163
 975 m -27 X s 149 997 m -13 X s 149 1020 m -13 X s 149 1043 m -13 X s 149 1066 m -13 X s 163 1089 m -27 X s 149 1112 m -13 X s 149 1135 m -13 X s 149 1158 m -13 X s 149 1181 m -13 X s 163 1203 m -27 X s 163 1203 m -27 X s 149 1226 m -13 X s 149
 1249 m -13 X s 149 1272 m -13 X s 149 1295 m -13 X s
 gsave  1134 1448 0 0 C 106 157 t 0 r /Helvetica-Bold findfont 43.0259 sf 0 0 m (0) show NC gr 
 gsave  1134 1448 0 0 C 81 271 t 0 r /Helvetica-Bold findfont 43.0259 sf 0 0 m (10) show NC gr 
 gsave  1134 1448 0 0 C 81 387 t 0 r /Helvetica-Bold findfont 43.0259 sf 0 0 m (20) show NC gr 
 gsave  1134 1448 0 0 C 81 501 t 0 r /Helvetica-Bold findfont 43.0259 sf 0 0 m (30) show NC gr 
 gsave  1134 1448 0 0 C 81 615 t 0 r /Helvetica-Bold findfont 43.0259 sf 0 0 m (40) show NC gr 
 gsave  1134 1448 0 0 C 81 729 t 0 r /Helvetica-Bold findfont 43.0259 sf 0 0 m (50) show NC gr 
 gsave  1134 1448 0 0 C 81 843 t 0 r /Helvetica-Bold findfont 43.0259 sf 0 0 m (60) show NC gr 
 gsave  1134 1448 0 0 C 81 959 t 0 r /Helvetica-Bold findfont 43.0259 sf 0 0 m (70) show NC gr 
 gsave  1134 1448 0 0 C 81 1073 t 0 r /Helvetica-Bold findfont 43.0259 sf 0 0 m (80) show NC gr 
 gsave  1134 1448 0 0 C 81 1187 t 0 r /Helvetica-Bold findfont 43.0259 sf 0 0 m (90) show NC gr  1 1 1 c 1134 1448 1134 0 bf black 1 1 1 c 884 1129 1270 174 bf 1270 174 m 4 4 d 1121 Y 876 X 4 4 d -884 X -1129 Y f 1 7.94729e-08 0 c 1270 174 m 4 4 d
 876 X 1121 Y 4 4 d -1129 Y -884 X f black 884 1129 1270 174 bl 1 1 1 c 884 1129 1270 174 bf 1270 174 m 4 4 d 1121 Y 876 X 4 4 d -884 X -1129 Y f 1 7.94729e-08 0 c 1270 174 m 4 4 d 876 X 1121 Y 4 4 d -1129 Y -884 X f black 884 1129 1270 174 bl 1 1 1
 c black 1270 174 m 47 X 33 Y 6 X 68 Y 5 X -101 Y 6 X 25 Y 6 X 50 Y 6 X -75 Y 12 X 8 Y 6 X 59 Y 5 X 126 Y 6 X -42 Y 6 X -50 Y 6 X -9 Y 6 X -75 Y 6 X 151 Y 6 X 285 Y 5 X -92 Y 6 X 101 Y 6 X -118 Y 6 X 17 Y 6 X 134 Y 6 X 488 Y 6 X 92 Y 5 X -353 Y 6 X
 -378 Y 6 X -75 Y 6 X -194 Y 6 X -16 Y 6 X -59 Y 6 X 33 Y 5 X -25 Y 12 X 25 Y 6 X 42 Y 6 X -25 Y 6 X -8 Y 6 X -25 Y 5 X 84 Y 6 X -9 Y 6 X -33 Y 6 X 92 Y 6 X -59 Y 6 X -25 Y 6 X 50 Y 5 X -58 Y 6 X -34 Y 6 X -25 Y 6 X 8 Y 6 X -8 Y 94 X 8 Y 5 X -8 Y 12
 X 17 Y 6 X -17 Y 439 X s 1270 174 m 884 X s
 gsave  1134 1448 1134 0 C 2017 43 t 0 r /Helvetica-Bold findfont 53.1496 sf 0 0 m (, GeV) show NC gr 
 gsave  1134 1448 1134 0 C 1936 71 t 0 r /Helvetica-Bold findfont 35.4331 sf 0 0 m (cand) show NC gr 
 gsave  1134 1448 1134 0 C 1959 20 t 0 r /Symbol findfont 22.7784 sf 0 0 m (m) show NC gr 
 gsave  1134 1448 1134 0 C 1936 28 t 0 r /Helvetica-Bold findfont 35.4331 sf 0 0 m (N) show NC gr 
 gsave  1134 1448 1134 0 C 1896 43 t 0 r /Helvetica-Bold findfont 53.1496 sf 0 0 m (M) show NC gr  1270 208 m -34 Y s 1299 191 m -17 Y s 1328 191 m -17 Y s 1358 191 m -17 Y s 1387 191 m -17 Y s 1416 208 m -34 Y s 1446 191 m -17 Y s 1475 191 m -17 Y
 s 1504 191 m -17 Y s 1533 191 m -17 Y s 1563 208 m -34 Y s 1592 191 m -17 Y s 1621 191 m -17 Y s 1651 191 m -17 Y s 1680 191 m -17 Y s 1709 208 m -34 Y s 1738 191 m -17 Y s 1768 191 m -17 Y s 1797 191 m -17 Y s 1826 191 m -17 Y s 1856 208 m -34 Y s
 1885 191 m -17 Y s 1914 191 m -17 Y s 1943 191 m -17 Y s 1973 191 m -17 Y s 2002 208 m -34 Y s 2031 191 m -17 Y s 2061 191 m -17 Y s 2090 191 m -17 Y s 2119 191 m -17 Y s 2148 208 m -34 Y s 2148 208 m -34 Y s
 gsave  1134 1448 1134 0 C 1255 121 t 0 r /Helvetica-Bold findfont 43.0259 sf 0 0 m (0) show NC gr 
 gsave  1134 1448 1134 0 C 1379 121 t 0 r /Helvetica-Bold findfont 43.0259 sf 0 0 m (500) show NC gr 
 gsave  1134 1448 1134 0 C 1513 121 t 0 r /Helvetica-Bold findfont 43.0259 sf 0 0 m (1000) show NC gr 
 gsave  1134 1448 1134 0 C 1660 121 t 0 r /Helvetica-Bold findfont 43.0259 sf 0 0 m (1500) show NC gr 
 gsave  1134 1448 1134 0 C 1807 121 t 0 r /Helvetica-Bold findfont 43.0259 sf 0 0 m (2000) show NC gr 
 gsave  1134 1448 1134 0 C 1954 121 t 0 r /Helvetica-Bold findfont 43.0259 sf 0 0 m (2500) show NC gr 
 gsave  1134 1448 1134 0 C 2098 121 t 0 r /Helvetica-Bold findfont 43.0259 sf 0 0 m (3000) show NC gr  1270 174 m 1129 Y s
 gsave  1134 1448 1134 0 C 1182 1015 t 90 r /Helvetica-Bold findfont 43.0259 sf 0 0 m (Events/20GeV) show NC gr  1296 174 m -26 X s 1283 216 m -13 X s 1283 258 m -13 X s 1283 300 m -13 X s 1296 342 m -26 X s 1283 384 m -13 X s 1283 426 m -13 X s
 1283 468 m -13 X s 1296 510 m -26 X s 1283 552 m -13 X s 1283 594 m -13 X s 1283 636 m -13 X s 1296 678 m -26 X s 1283 720 m -13 X s 1283 762 m -13 X s 1283 804 m -13 X s 1296 846 m -26 X s 1283 888 m -13 X s 1283 930 m -13 X s 1283 972 m -13 X s
 1296 1014 m -26 X s 1283 1056 m -13 X s 1283 1098 m -13 X s 1283 1140 m -13 X s 1296 1182 m -26 X s 1296 1182 m -26 X s 1283 1224 m -13 X s 1283 1266 m -13 X s
 gsave  1134 1448 1134 0 C 1240 157 t 0 r /Helvetica-Bold findfont 43.0259 sf 0 0 m (0) show NC gr 
 gsave  1134 1448 1134 0 C 1215 326 t 0 r /Helvetica-Bold findfont 43.0259 sf 0 0 m (20) show NC gr 
 gsave  1134 1448 1134 0 C 1215 494 t 0 r /Helvetica-Bold findfont 43.0259 sf 0 0 m (40) show NC gr 
 gsave  1134 1448 1134 0 C 1215 661 t 0 r /Helvetica-Bold findfont 43.0259 sf 0 0 m (60) show NC gr 
 gsave  1134 1448 1134 0 C 1215 830 t 0 r /Helvetica-Bold findfont 43.0259 sf 0 0 m (80) show NC gr 
 gsave  1134 1448 1134 0 C 1192 997 t 0 r /Helvetica-Bold findfont 43.0259 sf 0 0 m (100) show NC gr 
 gsave  1134 1448 1134 0 C 1192 1164 t 0 r /Helvetica-Bold findfont 43.0259 sf 0 0 m (120) show NC gr 
 gr  gr 
showpage
end
%%EOF
