%!PS-Adobe-2.0 EPSF-2.0
%%BoundingBox:  0 0 567 613
%%Title: ./signif1200-500mu.eps:  
%%Creator: ROOT Version 5.26/00b
%%CreationDate: Wed Mar 24 23:10:27 2010
%%EndComments
%%BeginProlog
80 dict begin
/s {stroke} def /l {lineto} def /m {moveto} def /t {translate} def
/sw {stringwidth} def /r {rotate} def /rl {roll}  def /R {repeat} def
/d {rlineto} def /rm {rmoveto} def /gr {grestore} def /f {eofill} def
/c {setrgbcolor} def /black {0 setgray} def /sd {setdash} def
/cl {closepath} def /sf {scalefont setfont} def /lw {setlinewidth} def
/box {m dup 0 exch d exch 0 d 0 exch neg d cl} def
/NC{systemdict begin initclip end}def/C{NC box clip newpath}def
/bl {box s} def /bf {box f} def /Y { 0 exch d} def /X { 0 d} def 
/mp {newpath /y exch def /x exch def} def
/side {[w .77 mul w .23 mul] .385 w mul sd w 0 l currentpoint t -144 r} def
/mr {mp x y w2 0 360 arc} def /m24 {mr s} def /m20 {mr f} def
/mb {mp x y w2 add m w2 neg 0 d 0 w neg d w 0 d 0 w d cl} def
/mt {mp x y w2 add m w2 neg w neg d w 0 d cl} def
/m21 {mb f} def /m25 {mb s} def /m22 {mt f} def /m26{mt s} def
/m23 {mp x y w2 sub m w2 w d w neg 0 d cl f} def
/m27 {mp x y w2 add m w3 neg w2 neg d w3 w2 neg d w3 w2 d cl s} def
/m28 {mp x w2 sub y w2 sub w3 add m w3 0 d  0 w3 neg d w3 0 d 0 w3 d w3 0 d  0 w3 d w3 neg 0 d 0 w3 d w3 neg 0 d
 0 w3 neg d w3 neg 0 d cl s } def
/m29 {mp gsave x w2 sub y w2 add w3 sub m currentpoint t
 4 {side} repeat cl fill gr} def
/m30 {mp gsave x w2 sub y w2 add w3 sub m currentpoint t
 4 {side} repeat cl s gr} def
/m31 {mp x y w2 sub m 0 w d x w2 sub y m w 0 d x w2 sub y w2 add m w w neg d x w2 sub y w2
 sub m w w d s} def
/m2 {mp x y w2 sub m 0 w d x w2 sub y m w 0 d s} def
/m5 {mp x w2 sub y w2 sub m w w d x w2 sub y w2 add m w w neg d s} def
/reEncode {exch findfont dup length dict begin {1 index /FID eq  {pop pop} {def} ifelse } forall /Encoding exch def currentdict end dup /FontName get exch definefont pop } def [/Times-Bold /Times-Italic /Times-BoldItalic /Helvetica
 /Helvetica-Oblique /Helvetica-Bold /Helvetica-BoldOblique /Courier /Courier-Oblique /Courier-Bold /Courier-BoldOblique /Times-Roman /AvantGarde-Book /AvantGarde-BookOblique /AvantGarde-Demi /AvantGarde-DemiOblique /Bookman-Demi
 /Bookman-DemiItalic /Bookman-Light /Bookman-LightItalic /Helvetica-Narrow /Helvetica-Narrow-Bold /Helvetica-Narrow-BoldOblique /Helvetica-Narrow-Oblique /NewCenturySchlbk-Roman /NewCenturySchlbk-Bold
 /NewCenturySchlbk-BoldItalic /NewCenturySchlbk-Italic /Palatino-Bold /Palatino-BoldItalic /Palatino-Italic /Palatino-Roman ] {ISOLatin1Encoding reEncode } forall
/oshow {gsave [] 0 sd true charpath stroke gr} def
/stwn { /fs exch def /fn exch def /text exch def fn findfont fs sf
 text sw pop xs add /xs exch def} def
/stwb { /fs exch def /fn exch def /nbas exch def /textf exch deftextf length /tlen exch def nbas tlen gt {/nbas tlendef} iffn findfont fs sf textf dup length nbas sub nbas getinterval sw
pop neg xs add /xs exch def} def
%%EndProlog
%%BeginSetup
%%EndSetup
newpath  gsave  .25 .25 scale  gsave  0 0 t black[  ] 0 sd 3 lw 0.95 0.95 0.95 c 2268 2450 0 0 bf 1 1 1 c 0 0 m 8 8 d 2434 Y 2252 X 8 8 d -2268 X -2450 Y f 0.665 0.665 0.665 c 0 0 m 8 8 d 2252 X 2434 Y 8 8 d -2450 Y -2268 X f black 1 1 1 c 2268 2450
 0 0 bf black 1 1 1 c 1701 1911 340 294 bf 340 294 m 4 4 d 1903 Y 1693 X 4 4 d -1701 X -1911 Y f 1 7.94729e-08 0 c 340 294 m 4 4 d 1693 X 1903 Y 4 4 d -1911 Y -1701 X f black 1701 1911 340 294 bl 1 1 1 c 1701 1911 340 294 bf 340 294 m 4 4 d 1903 Y
 1693 X 4 4 d -1701 X -1911 Y f 1 7.94729e-08 0 c 340 294 m 4 4 d 1693 X 1903 Y 4 4 d -1911 Y -1701 X f black 1701 1911 340 294 bl 1 1 1 c black 489 294 m 11 Y s 489 305 m 10 Y s 468 305 m 21 X s 489 305 m 21 X s /w 2
 def /w2 {w 2 div} def /w3 {w 3 div} def 489 305 m20 531 340 m 29 Y s 531 369 m 28 Y s 510 369 m 21 X s 531 369 m 22 X s 531 369 m20 574 394 m 39 Y s 574 433 m 38 Y s 553 433 m 21 X s 574 433 m 21 X s 574 433 m20 617 604 m 64 Y s 617 668 m 63 Y s
 595 668 m 22 X s 617 668 m 21 X s 617 668 m20 659 842 m 82 Y s 659 924 m 82 Y s 638 924 m 21 X s 659 924 m 21 X s 659 924 m20 702 1478 m 118 Y s 702 1596 m 118 Y s 680 1596 m 22 X s 702 1596 m 21 X s 702 1596 m20 744 1478 m 118 Y s 744 1596 m 118 Y
 s 723 1596 m 21 X s 744 1596 m 21 X s 744 1596 m20 787 1723 m 129 Y s 787 1852 m 129 Y s 765 1852 m 22 X s 787 1852 m 21 X s 787 1852 m20 829 1846 m 134 Y s 829 1980 m 134 Y s 808 1980 m 21 X s 829 1980 m 21 X s 829 1980 m20 872 1611 m 124 Y s 872
 1735 m 124 Y s 850 1735 m 22 X s 872 1735 m 21 X s 872 1735 m20 914 1204 m 104 Y s 914 1308 m 104 Y s 893 1308 m 21 X s 914 1308 m 21 X s 914 1308 m20 957 792 m 78 Y s 957 870 m 79 Y s 935 870 m 22 X s 957 870 m 21 X s 957 870 m20 999 614 m 64 Y s
 999 678 m 64 Y s 978 678 m 21 X s 999 678 m 21 X s 999 678 m20 1042 376 m 35 Y s 1042 411 m 36 Y s 1020 411 m 22 X s 1042 411 m 21 X s 1042 411 m20 1084 308 m 18 Y s 1084 326 m 19 Y s 1063 326 m 21 X s 1084 326 m 22 X s 1084 326 m20 1127 300 m 15 Y
 s 1127 315 m 15 Y s 1106 315 m 21 X s 1127 315 m 21 X s 1127 315 m20 1169 294 m 11 Y s 1169 305 m 10 Y s 1148 305 m 21 X s 1169 305 m 22 X s 1169 305 m20 0.95 0.95 0.95 c 453 392 1769 2046 bf black 1779 2046 m -7 Y 450 X 389 Y -7 X -382 Y f 1769
 2046 m 392 Y 453 X -392 Y -453 X cl s 1 1 1 c black
 gsave  2268 2450 0 0 C 1900 2369 t 0 r /Helvetica-Bold findfont 78.1971 sf 0 0 m (hS_L) show NC gr  1769 2340 m 453 X s
 gsave  2268 2450 0 0 C 1789 2271 t 0 r /Helvetica-Bold findfont 58.6478 sf 0 0 m (Entries ) show NC gr 
 gsave  2268 2450 0 0 C 2053 2271 t 0 r /Helvetica-Bold findfont 58.6478 sf 0 0 m ( 1000) show NC gr 
 gsave  2268 2450 0 0 C 1789 2173 t 0 r /Helvetica-Bold findfont 58.6478 sf 0 0 m (Mean  ) show NC gr 
 gsave  2268 2450 0 0 C 2020 2173 t 0 r /Helvetica-Bold findfont 58.6478 sf 0 0 m (  5.458) show NC gr 
 gsave  2268 2450 0 0 C 1789 2072 t 0 r /Helvetica-Bold findfont 58.6478 sf 0 0 m (RMS   ) show NC gr 
 gsave  2268 2450 0 0 C 2036 2072 t 0 r /Helvetica-Bold findfont 58.6478 sf 0 0 m (   1.24) show NC gr  340 294 m 1701 X s
 gsave  2268 2450 0 0 C 1427 72 t 0 r /Helvetica-Bold findfont 104.263 sf 0 0 m (Significance) show NC gr  340 349 m -55 Y s 383 322 m -28 Y s 425 322 m -28 Y s 468 322 m -28 Y s 510 349 m -55 Y s 553 322 m -28 Y s 595 322 m -28 Y s 638 322 m -28 Y
 s 680 349 m -55 Y s 723 322 m -28 Y s 765 322 m -28 Y s 808 322 m -28 Y s 850 349 m -55 Y s 893 322 m -28 Y s 935 322 m -28 Y s 978 322 m -28 Y s 1020 349 m -55 Y s 1063 322 m -28 Y s 1106 322 m -28 Y s 1148 322 m -28 Y s 1191 349 m -55 Y s 1233
 322 m -28 Y s 1276 322 m -28 Y s 1318 322 m -28 Y s 1361 349 m -55 Y s 1403 322 m -28 Y s 1446 322 m -28 Y s 1488 322 m -28 Y s 1531 349 m -55 Y s 1573 322 m -28 Y s 1616 322 m -28 Y s 1658 322 m -28 Y s 1701 349 m -55 Y s 1743 322 m -28 Y s 1786
 322 m -28 Y s 1828 322 m -28 Y s 1871 349 m -55 Y s 1913 322 m -28 Y s 1956 322 m -28 Y s 1998 322 m -28 Y s 2041 349 m -55 Y s
 gsave  2268 2450 0 0 C 316 205 t 0 r /Helvetica-Bold findfont 84.7136 sf 0 0 m (0) show NC gr 
 gsave  2268 2450 0 0 C 485 205 t 0 r /Helvetica-Bold findfont 84.7136 sf 0 0 m (2) show NC gr 
 gsave  2268 2450 0 0 C 655 205 t 0 r /Helvetica-Bold findfont 84.7136 sf 0 0 m (4) show NC gr 
 gsave  2268 2450 0 0 C 828 205 t 0 r /Helvetica-Bold findfont 84.7136 sf 0 0 m (6) show NC gr 
 gsave  2268 2450 0 0 C 997 205 t 0 r /Helvetica-Bold findfont 84.7136 sf 0 0 m (8) show NC gr 
 gsave  2268 2450 0 0 C 1144 205 t 0 r /Helvetica-Bold findfont 84.7136 sf 0 0 m (10) show NC gr 
 gsave  2268 2450 0 0 C 1313 205 t 0 r /Helvetica-Bold findfont 84.7136 sf 0 0 m (12) show NC gr 
 gsave  2268 2450 0 0 C 1479 205 t 0 r /Helvetica-Bold findfont 84.7136 sf 0 0 m (14) show NC gr 
 gsave  2268 2450 0 0 C 1655 205 t 0 r /Helvetica-Bold findfont 84.7136 sf 0 0 m (16) show NC gr 
 gsave  2268 2450 0 0 C 1825 205 t 0 r /Helvetica-Bold findfont 84.7136 sf 0 0 m (18) show NC gr 
 gsave  2268 2450 0 0 C 1994 205 t 0 r /Helvetica-Bold findfont 84.7136 sf 0 0 m (20) show NC gr  340 294 m 1911 Y s
 gsave  2268 2450 0 0 C 101 1404 t 90 r /Helvetica-Bold findfont 84.7136 sf 0 0 m (Pseudoexperiments) show NC gr  393 294 m -53 X s 367 347 m -27 X s 367 401 m -27 X s 367 454 m -27 X s 393 507 m -53 X s 367 561 m -27 X s 367 614 m -27 X s 367 668 m
 -27 X s 393 721 m -53 X s 367 774 m -27 X s 367 828 m -27 X s 367 881 m -27 X s 393 934 m -53 X s 367 988 m -27 X s 367 1041 m -27 X s 367 1094 m -27 X s 393 1148 m -53 X s 367 1201 m -27 X s 367 1254 m -27 X s 367 1308 m -27 X s 393 1361 m -53 X s
 367 1414 m -27 X s 367 1468 m -27 X s 367 1521 m -27 X s 393 1575 m -53 X s 367 1628 m -27 X s 367 1681 m -27 X s 367 1735 m -27 X s 393 1788 m -53 X s 367 1841 m -27 X s 367 1895 m -27 X s 367 1948 m -27 X s 393 2001 m -53 X s 393 2001 m -53 X s
 367 2055 m -27 X s 367 2108 m -27 X s 367 2161 m -27 X s
 gsave  2268 2450 0 0 C 280 264 t 0 r /Helvetica-Bold findfont 84.7136 sf 0 0 m (0) show NC gr 
 gsave  2268 2450 0 0 C 235 476 t 0 r /Helvetica-Bold findfont 84.7136 sf 0 0 m (20) show NC gr 
 gsave  2268 2450 0 0 C 235 691 t 0 r /Helvetica-Bold findfont 84.7136 sf 0 0 m (40) show NC gr 
 gsave  2268 2450 0 0 C 235 903 t 0 r /Helvetica-Bold findfont 84.7136 sf 0 0 m (60) show NC gr 
 gsave  2268 2450 0 0 C 235 1118 t 0 r /Helvetica-Bold findfont 84.7136 sf 0 0 m (80) show NC gr 
 gsave  2268 2450 0 0 C 186 1329 t 0 r /Helvetica-Bold findfont 84.7136 sf 0 0 m (100) show NC gr 
 gsave  2268 2450 0 0 C 186 1544 t 0 r /Helvetica-Bold findfont 84.7136 sf 0 0 m (120) show NC gr 
 gsave  2268 2450 0 0 C 186 1756 t 0 r /Helvetica-Bold findfont 84.7136 sf 0 0 m (140) show NC gr 
 gsave  2268 2450 0 0 C 186 1971 t 0 r /Helvetica-Bold findfont 84.7136 sf 0 0 m (160) show NC gr  0.95 0.95 0.95 c 453 392 1769 2046 bf black 1779 2046 m -7 Y 450 X 389 Y -7 X -382 Y f 1769 2046 m 392 Y 453 X -392 Y -453 X cl s 1 1 1 c black
 gsave  2268 2450 0 0 C 1900 2369 t 0 r /Helvetica-Bold findfont 78.1971 sf 0 0 m (hS_L) show NC gr  1769 2340 m 453 X s
 gsave  2268 2450 0 0 C 1789 2271 t 0 r /Helvetica-Bold findfont 58.6478 sf 0 0 m (Entries ) show NC gr 
 gsave  2268 2450 0 0 C 2053 2271 t 0 r /Helvetica-Bold findfont 58.6478 sf 0 0 m ( 1000) show NC gr 
 gsave  2268 2450 0 0 C 1789 2173 t 0 r /Helvetica-Bold findfont 58.6478 sf 0 0 m (Mean  ) show NC gr 
 gsave  2268 2450 0 0 C 2020 2173 t 0 r /Helvetica-Bold findfont 58.6478 sf 0 0 m (  5.458) show NC gr 
 gsave  2268 2450 0 0 C 1789 2072 t 0 r /Helvetica-Bold findfont 58.6478 sf 0 0 m (RMS   ) show NC gr 
 gsave  2268 2450 0 0 C 2036 2072 t 0 r /Helvetica-Bold findfont 58.6478 sf 0 0 m (   1.24) show NC gr 
 gr  gr 
showpage
end
%%EOF
