%!PS-Adobe-2.0 EPSF-2.0
%%BoundingBox:  0 0 567 613
%%Title: ./tt.eps:  
%%Creator: ROOT Version 5.26/00b
%%CreationDate: Wed Mar 24 22:42:08 2010
%%EndComments
%%BeginProlog
80 dict begin
/s {stroke} def /l {lineto} def /m {moveto} def /t {translate} def
/sw {stringwidth} def /r {rotate} def /rl {roll}  def /R {repeat} def
/d {rlineto} def /rm {rmoveto} def /gr {grestore} def /f {eofill} def
/c {setrgbcolor} def /black {0 setgray} def /sd {setdash} def
/cl {closepath} def /sf {scalefont setfont} def /lw {setlinewidth} def
/box {m dup 0 exch d exch 0 d 0 exch neg d cl} def
/NC{systemdict begin initclip end}def/C{NC box clip newpath}def
/bl {box s} def /bf {box f} def /Y { 0 exch d} def /X { 0 d} def 
/mp {newpath /y exch def /x exch def} def
/side {[w .77 mul w .23 mul] .385 w mul sd w 0 l currentpoint t -144 r} def
/mr {mp x y w2 0 360 arc} def /m24 {mr s} def /m20 {mr f} def
/mb {mp x y w2 add m w2 neg 0 d 0 w neg d w 0 d 0 w d cl} def
/mt {mp x y w2 add m w2 neg w neg d w 0 d cl} def
/m21 {mb f} def /m25 {mb s} def /m22 {mt f} def /m26{mt s} def
/m23 {mp x y w2 sub m w2 w d w neg 0 d cl f} def
/m27 {mp x y w2 add m w3 neg w2 neg d w3 w2 neg d w3 w2 d cl s} def
/m28 {mp x w2 sub y w2 sub w3 add m w3 0 d  0 w3 neg d w3 0 d 0 w3 d w3 0 d  0 w3 d w3 neg 0 d 0 w3 d w3 neg 0 d
 0 w3 neg d w3 neg 0 d cl s } def
/m29 {mp gsave x w2 sub y w2 add w3 sub m currentpoint t
 4 {side} repeat cl fill gr} def
/m30 {mp gsave x w2 sub y w2 add w3 sub m currentpoint t
 4 {side} repeat cl s gr} def
/m31 {mp x y w2 sub m 0 w d x w2 sub y m w 0 d x w2 sub y w2 add m w w neg d x w2 sub y w2
 sub m w w d s} def
/m2 {mp x y w2 sub m 0 w d x w2 sub y m w 0 d s} def
/m5 {mp x w2 sub y w2 sub m w w d x w2 sub y w2 add m w w neg d s} def
/reEncode {exch findfont dup length dict begin {1 index /FID eq  {pop pop} {def} ifelse } forall /Encoding exch def currentdict end dup /FontName get exch definefont pop } def [/Times-Bold /Times-Italic /Times-BoldItalic /Helvetica
 /Helvetica-Oblique /Helvetica-Bold /Helvetica-BoldOblique /Courier /Courier-Oblique /Courier-Bold /Courier-BoldOblique /Times-Roman /AvantGarde-Book /AvantGarde-BookOblique /AvantGarde-Demi /AvantGarde-DemiOblique /Bookman-Demi
 /Bookman-DemiItalic /Bookman-Light /Bookman-LightItalic /Helvetica-Narrow /Helvetica-Narrow-Bold /Helvetica-Narrow-BoldOblique /Helvetica-Narrow-Oblique /NewCenturySchlbk-Roman /NewCenturySchlbk-Bold
 /NewCenturySchlbk-BoldItalic /NewCenturySchlbk-Italic /Palatino-Bold /Palatino-BoldItalic /Palatino-Italic /Palatino-Roman ] {ISOLatin1Encoding reEncode } forall
/oshow {gsave [] 0 sd true charpath stroke gr} def
/stwn { /fs exch def /fn exch def /text exch def fn findfont fs sf
 text sw pop xs add /xs exch def} def
/stwb { /fs exch def /fn exch def /nbas exch def /textf exch deftextf length /tlen exch def nbas tlen gt {/nbas tlendef} iffn findfont fs sf textf dup length nbas sub nbas getinterval sw
pop neg xs add /xs exch def} def
%%EndProlog
%%BeginSetup
%%EndSetup
newpath  gsave  .25 .25 scale  gsave  0 0 t black[  ] 0 sd 3 lw 0.95 0.95 0.95 c 2268 2450 0 0 bf 1 1 1 c 0 0 m 8 8 d 2434 Y 2252 X 8 8 d -2268 X -2450 Y f 0.665 0.665 0.665 c 0 0 m 8 8 d 2252 X 2434 Y 8 8 d -2450 Y -2268 X f black 1 1 1 c 2268 2450
 0 0 bf black 1 1 1 c 1701 1911 340 294 bf 340 294 m 4 4 d 1903 Y 1693 X 4 4 d -1701 X -1911 Y f 1 7.94729e-08 0 c 340 294 m 4 4 d 1693 X 1903 Y 4 4 d -1911 Y -1701 X f black 1701 1911 340 294 bl 1 1 1 c 1701 1911 340 294 bf 340 294 m 4 4 d 1903 Y
 1693 X 4 4 d -1701 X -1911 Y f 1 7.94729e-08 0 c 340 294 m 4 4 d 1693 X 1903 Y 4 4 d -1911 Y -1701 X f black 1701 1911 340 294 bl 1 1 1 c black 340 294 m 136 X 482 Y 34 X 1261 Y 34 X 77 Y 34 X -102 Y 34 X -718 Y 34 X -78 Y 34 X -60 Y 34 X -182 Y 34
 X -269 Y 34 X 82 Y 34 X -163 Y 34 X 11 Y 34 X -237 Y 34 X 63 Y 34 X -88 Y 34 X 163 Y 34 X -194 Y 34 X 84 Y 35 X -44 Y 34 X -6 Y 34 X -18 Y 34 X -32 Y 34 X 88 Y 34 X 17 Y 34 X -121 Y 34 X 24 Y 34 X -24 Y 68 X 65 Y 34 X -9 Y 34 X -72 Y 34 X 48 Y 34 X
 -32 Y 34 X -16 Y 34 X 56 Y 34 X -24 Y 34 X -32 Y 34 X 18 Y 34 X -18 Y 34 X 16 Y 34 X -16 Y 102 X 32 Y 34 X -32 Y 68 X s 0.95 0.95 0.95 c 453 392 1769 2046 bf black 1779 2046 m -7 Y 450 X 389 Y -7 X -382 Y f 1769 2046 m 392 Y 453 X -392 Y -453 X cl
 s 1 1 1 c black
 gsave  2268 2450 0 0 C 1890 2362 t 0 r /Helvetica-Bold findfont 78.1971 sf 0 0 m (30091) show NC gr  1769 2340 m 453 X s
 gsave  2268 2450 0 0 C 1789 2271 t 0 r /Helvetica-Bold findfont 61.9061 sf 0 0 m (Entries ) show NC gr 
 gsave  2268 2450 0 0 C 2079 2271 t 0 r /Helvetica-Bold findfont 61.9061 sf 0 0 m ( 634) show NC gr 
 gsave  2268 2450 0 0 C 1789 2173 t 0 r /Helvetica-Bold findfont 61.9061 sf 0 0 m (Mean  ) show NC gr 
 gsave  2268 2450 0 0 C 2010 2170 t 0 r /Helvetica-Bold findfont 61.9061 sf 0 0 m (  217.7) show NC gr 
 gsave  2268 2450 0 0 C 1789 2072 t 0 r /Helvetica-Bold findfont 61.9061 sf 0 0 m (RMS   ) show NC gr 
 gsave  2268 2450 0 0 C 2010 2072 t 0 r /Helvetica-Bold findfont 61.9061 sf 0 0 m (  138.9) show NC gr  340 294 m 1701 X s
 gsave  2268 2450 0 0 C 1772 65 t 0 r /Helvetica-Bold findfont 104.263 sf 0 0 m (, GeV) show NC gr 
 gsave  2268 2450 0 0 C 1610 114 t 0 r /Helvetica-Bold findfont 71.6807 sf 0 0 m (cand) show NC gr 
 gsave  2268 2450 0 0 C 1610 36 t 0 r /Helvetica-Bold findfont 71.6807 sf 0 0 m (tt) show NC gr 
 gsave  2268 2450 0 0 C 1528 65 t 0 r /Helvetica-Bold findfont 104.263 sf 0 0 m (M) show NC gr  340 349 m -55 Y s 374 322 m -28 Y s 408 322 m -28 Y s 442 322 m -28 Y s 476 322 m -28 Y s 510 349 m -55 Y s 544 322 m -28 Y s 578 322 m -28 Y s 612 322 m
 -28 Y s 646 322 m -28 Y s 680 349 m -55 Y s 714 322 m -28 Y s 748 322 m -28 Y s 782 322 m -28 Y s 816 322 m -28 Y s 850 349 m -55 Y s 884 322 m -28 Y s 918 322 m -28 Y s 952 322 m -28 Y s 986 322 m -28 Y s 1020 349 m -55 Y s 1054 322 m -28 Y s 1089
 322 m -28 Y s 1123 322 m -28 Y s 1157 322 m -28 Y s 1191 349 m -55 Y s 1225 322 m -28 Y s 1259 322 m -28 Y s 1293 322 m -28 Y s 1327 322 m -28 Y s 1361 349 m -55 Y s 1395 322 m -28 Y s 1429 322 m -28 Y s 1463 322 m -28 Y s 1497 322 m -28 Y s 1531
 349 m -55 Y s 1565 322 m -28 Y s 1599 322 m -28 Y s 1633 322 m -28 Y s 1667 322 m -28 Y s 1701 349 m -55 Y s 1735 322 m -28 Y s 1769 322 m -28 Y s 1803 322 m -28 Y s 1837 322 m -28 Y s 1871 349 m -55 Y s 1905 322 m -28 Y s 1939 322 m -28 Y s 1973
 322 m -28 Y s 2007 322 m -28 Y s 2041 349 m -55 Y s
 gsave  2268 2450 0 0 C 316 205 t 0 r /Helvetica-Bold findfont 84.7136 sf 0 0 m (0) show NC gr 
 gsave  2268 2450 0 0 C 437 205 t 0 r /Helvetica-Bold findfont 84.7136 sf 0 0 m (100) show NC gr 
 gsave  2268 2450 0 0 C 606 205 t 0 r /Helvetica-Bold findfont 84.7136 sf 0 0 m (200) show NC gr 
 gsave  2268 2450 0 0 C 779 205 t 0 r /Helvetica-Bold findfont 84.7136 sf 0 0 m (300) show NC gr 
 gsave  2268 2450 0 0 C 948 205 t 0 r /Helvetica-Bold findfont 84.7136 sf 0 0 m (400) show NC gr 
 gsave  2268 2450 0 0 C 1118 205 t 0 r /Helvetica-Bold findfont 84.7136 sf 0 0 m (500) show NC gr 
 gsave  2268 2450 0 0 C 1287 205 t 0 r /Helvetica-Bold findfont 84.7136 sf 0 0 m (600) show NC gr 
 gsave  2268 2450 0 0 C 1456 205 t 0 r /Helvetica-Bold findfont 84.7136 sf 0 0 m (700) show NC gr 
 gsave  2268 2450 0 0 C 1629 205 t 0 r /Helvetica-Bold findfont 84.7136 sf 0 0 m (800) show NC gr 
 gsave  2268 2450 0 0 C 1799 205 t 0 r /Helvetica-Bold findfont 84.7136 sf 0 0 m (900) show NC gr 
 gsave  2268 2450 0 0 C 1945 205 t 0 r /Helvetica-Bold findfont 84.7136 sf 0 0 m (1000) show NC gr  340 294 m 1911 Y s
 gsave  2268 2450 0 0 C 108 1932 t 90 r /Helvetica-Bold findfont 84.7136 sf 0 0 m (Events) show NC gr  393 294 m -53 X s 367 355 m -27 X s 367 417 m -27 X s 367 478 m -27 X s 367 540 m -27 X s 393 601 m -53 X s 367 663 m -27 X s 367 724 m -27 X s
 367 785 m -27 X s 367 847 m -27 X s 393 908 m -53 X s 367 970 m -27 X s 367 1031 m -27 X s 367 1093 m -27 X s 367 1154 m -27 X s 393 1215 m -53 X s 367 1277 m -27 X s 367 1338 m -27 X s 367 1400 m -27 X s 367 1461 m -27 X s 393 1523 m -53 X s 367
 1584 m -27 X s 367 1645 m -27 X s 367 1707 m -27 X s 367 1768 m -27 X s 393 1830 m -53 X s 367 1891 m -27 X s 367 1953 m -27 X s 367 2014 m -27 X s 367 2075 m -27 X s 393 2137 m -53 X s 393 2137 m -53 X s 367 2198 m -27 X s
 gsave  2268 2450 0 0 C 280 264 t 0 r /Helvetica-Bold findfont 84.7136 sf 0 0 m (0) show NC gr 
 gsave  2268 2450 0 0 C 209 570 t 0 r /Helvetica-Bold findfont 84.7136 sf 0 0 m (0.5) show NC gr 
 gsave  2268 2450 0 0 C 290 876 t 0 r /Helvetica-Bold findfont 84.7136 sf 0 0 m (1) show NC gr 
 gsave  2268 2450 0 0 C 209 1186 t 0 r /Helvetica-Bold findfont 84.7136 sf 0 0 m (1.5) show NC gr 
 gsave  2268 2450 0 0 C 280 1492 t 0 r /Helvetica-Bold findfont 84.7136 sf 0 0 m (2) show NC gr 
 gsave  2268 2450 0 0 C 209 1799 t 0 r /Helvetica-Bold findfont 84.7136 sf 0 0 m (2.5) show NC gr 
 gsave  2268 2450 0 0 C 280 2105 t 0 r /Helvetica-Bold findfont 84.7136 sf 0 0 m (3) show NC gr  0.95 0.95 0.95 c 453 392 1769 2046 bf black 1779 2046 m -7 Y 450 X 389 Y -7 X -382 Y f 1769 2046 m 392 Y 453 X -392 Y -453 X cl s 1 1 1 c black
 gsave  2268 2450 0 0 C 1890 2362 t 0 r /Helvetica-Bold findfont 78.1971 sf 0 0 m (30091) show NC gr  1769 2340 m 453 X s
 gsave  2268 2450 0 0 C 1789 2271 t 0 r /Helvetica-Bold findfont 61.9061 sf 0 0 m (Entries ) show NC gr 
 gsave  2268 2450 0 0 C 2079 2271 t 0 r /Helvetica-Bold findfont 61.9061 sf 0 0 m ( 634) show NC gr 
 gsave  2268 2450 0 0 C 1789 2173 t 0 r /Helvetica-Bold findfont 61.9061 sf 0 0 m (Mean  ) show NC gr 
 gsave  2268 2450 0 0 C 2010 2170 t 0 r /Helvetica-Bold findfont 61.9061 sf 0 0 m (  217.7) show NC gr 
 gsave  2268 2450 0 0 C 1789 2072 t 0 r /Helvetica-Bold findfont 61.9061 sf 0 0 m (RMS   ) show NC gr 
 gsave  2268 2450 0 0 C 2010 2072 t 0 r /Helvetica-Bold findfont 61.9061 sf 0 0 m (  138.9) show NC gr  340 294 m 136 X 164 Y 34 X 769 Y 34 X 141 Y 34 X -150 Y 34 X -703 Y 34 X 34 Y 34 X -29 Y 34 X 120 Y 34 X -221 Y 34 X 18 Y 34 X -19 Y 34 X 43 Y 34
 X -127 Y 68 X -40 Y 34 X 115 Y 34 X -115 Y 34 X 5 Y 35 X 35 Y 34 X 10 Y 34 X -50 Y 68 X 40 Y 34 X 81 Y 34 X -121 Y 34 X 40 Y 34 X -40 Y 68 X 81 Y 34 X -41 Y 34 X -40 Y 136 X 40 Y 34 X -40 Y 68 X 3 Y 34 X -3 Y 272 X f 340 294 m 136 X 164 Y 34 X 769
 Y 34 X 141 Y 34 X -150 Y 34 X -703 Y 34 X 34 Y 34 X -29 Y 34 X 120 Y 34 X -221 Y 34 X 18 Y 34 X -19 Y 34 X 43 Y 34 X -127 Y 68 X -40 Y 34 X 115 Y 34 X -115 Y 34 X 5 Y 35 X 35 Y 34 X 10 Y 34 X -50 Y 68 X 40 Y 34 X 81 Y 34 X -121 Y 34 X 40 Y 34 X -40
 Y 68 X 81 Y 34 X -41 Y 34 X -40 Y 136 X 40 Y 34 X -40 Y 68 X 3 Y 34 X -3 Y 272 X s
 gr  gr 
showpage
end
%%EOF
