%!PS-Adobe-2.0 EPSF-2.0
%%BoundingBox:  0 0 567 613
%%Title: ./twodim1.eps:  
%%Creator: ROOT Version 5.20/00
%%CreationDate: Sat Aug  2 21:04:46 2008
%%EndComments
%%BeginProlog
80 dict begin
/s {stroke} def /l {lineto} def /m {moveto} def /t {translate} def
/sw {stringwidth} def /r {rotate} def /rl {roll}  def /R {repeat} def
/d {rlineto} def /rm {rmoveto} def /gr {grestore} def /f {eofill} def
/c {setrgbcolor} def /black {0 setgray} def /sd {setdash} def
/cl {closepath} def /sf {scalefont setfont} def /lw {setlinewidth} def
/box {m dup 0 exch d exch 0 d 0 exch neg d cl} def
/NC{systemdict begin initclip end}def/C{NC box clip newpath}def
/bl {box s} def /bf {box f} def /Y { 0 exch d} def /X { 0 d} def 
/mp {newpath /y exch def /x exch def} def
/side {[w .77 mul w .23 mul] .385 w mul sd w 0 l currentpoint t -144 r} def
/mr {mp x y w2 0 360 arc} def /m24 {mr s} def /m20 {mr f} def
/mb {mp x y w2 add m w2 neg 0 d 0 w neg d w 0 d 0 w d cl} def
/mt {mp x y w2 add m w2 neg w neg d w 0 d cl} def
/m21 {mb f} def /m25 {mb s} def /m22 {mt f} def /m26{mt s} def
/m23 {mp x y w2 sub m w2 w d w neg 0 d cl f} def
/m27 {mp x y w2 add m w3 neg w2 neg d w3 w2 neg d w3 w2 d cl s} def
/m28 {mp x w2 sub y w2 sub w3 add m w3 0 d  0 w3 neg d w3 0 d 0 w3 d w3 0 d  0 w3 d w3 neg 0 d 0 w3 d w3 neg 0 d
 0 w3 neg d w3 neg 0 d cl s } def
/m29 {mp gsave x w2 sub y w2 add w3 sub m currentpoint t
 4 {side} repeat cl fill gr} def
/m30 {mp gsave x w2 sub y w2 add w3 sub m currentpoint t
 4 {side} repeat cl s gr} def
/m31 {mp x y w2 sub m 0 w d x w2 sub y m w 0 d x w2 sub y w2 add m w w neg d x w2 sub y w2
 sub m w w d s} def
/m2 {mp x y w2 sub m 0 w d x w2 sub y m w 0 d s} def
/m5 {mp x w2 sub y w2 sub m w w d x w2 sub y w2 add m w w neg d s} def
/reEncode {exch findfont dup length dict begin {1 index /FID eq  {pop pop} {def} ifelse } forall /Encoding exch def currentdict end dup /FontName get exch definefont pop } def [/Times-Bold /Times-Italic /Times-BoldItalic /Helvetica
 /Helvetica-Oblique /Helvetica-Bold /Helvetica-BoldOblique /Courier /Courier-Oblique /Courier-Bold /Courier-BoldOblique /Times-Roman /AvantGarde-Book /AvantGarde-BookOblique /AvantGarde-Demi /AvantGarde-DemiOblique /Bookman-Demi
 /Bookman-DemiItalic /Bookman-Light /Bookman-LightItalic /Helvetica-Narrow /Helvetica-Narrow-Bold /Helvetica-Narrow-BoldOblique /Helvetica-Narrow-Oblique /NewCenturySchlbk-Roman /NewCenturySchlbk-Bold
 /NewCenturySchlbk-BoldItalic /NewCenturySchlbk-Italic /Palatino-Bold /Palatino-BoldItalic /Palatino-Italic /Palatino-Roman ] {ISOLatin1Encoding reEncode } forall
/oshow {gsave [] 0 sd true charpath stroke gr} def
/stwn { /fs exch def /fn exch def /text exch def fn findfont fs sf
 text sw pop xs add /xs exch def} def
/stwb { /fs exch def /fn exch def /nbas exch def /textf exch deftextf length /tlen exch def nbas tlen gt {/nbas tlendef} iffn findfont fs sf textf dup length nbas sub nbas getinterval sw
pop neg xs add /xs exch def} def
%%EndProlog
%%BeginSetup
%%EndSetup
newpath  gsave  .25 .25 scale  gsave  0 0 t black[  ] 0 sd 3 lw 0.95 0.95 0.95 c 2268 2450 0 0 bf 1 1 1 c 0 0 m 8 8 d 2434 Y 2252 X 8 8 d -2268 X -2450 Y f 0.665 0.665 0.665 c 0 0 m 8 8 d 2252 X 2434 Y 8 8 d -2450 Y -2268 X f black 1 1 1 c 2261 2444
 0 0 bf black 1 1 1 c 1696 1906 339 293 bf 339 293 m 4 4 d 1898 Y 1688 X 4 4 d -1696 X -1906 Y f 1 7.94729e-08 0 c 339 293 m 4 4 d 1688 X 1898 Y 4 4 d -1906 Y -1696 X f black 1696 1906 339 293 bl 1 1 1 c 1696 1906 339 293 bf 339 293 m 4 4 d 1898 Y
 1688 X 4 4 d -1696 X -1906 Y f 1 7.94729e-08 0 c 339 293 m 4 4 d 1688 X 1898 Y 4 4 d -1906 Y -1696 X f black 1696 1906 339 293 bl 15 21 713 378 bf 8 11 745 383 bf 1 2 834 388 bf 2 2 890 388 bf 5 6 690 424 bf 10 14 716 420 bf 1 2 749 426 bf 7 10 774
 422 bf 2 2 805 426 bf 2 2 918 426 bf 23 32 681 449 bf 12 17 715 456 bf 6 9 746 460 bf 7 10 774 460 bf 2 2 805 464 bf 5 6 831 462 bf 12 17 856 456 bf 7 9 887 460 bf 2 2 918 464 bf 1 2 947 464 bf 19 26 683 490 bf 9 12 716 497 bf 20 26 739 490 bf 2 2
 777 502 bf 9 12 801 497 bf 1 1 834 503 bf 2 1 862 503 bf 2 1 918 503 bf 8 10 943 498 bf 9 12 971 497 bf 8 12 1056 497 bf 1 1 1145 503 bf 1 2 1484 502 bf 23 30 681 526 bf 19 26 711 528 bf 6 8 746 537 bf 7 10 774 536 bf 7 10 802 536 bf 12 16 828 533
 bf 1 1 975 541 bf 7 10 1000 536 bf 2 1 1031 541 bf 1 1 1145 541 bf 27 37 679 561 bf 16 22 713 568 bf 16 20 741 569 bf 9 14 801 572 bf 15 20 826 569 bf 2 2 862 579 bf 2 1 890 579 bf 9 13 914 573 bf 1 2 1060 579 bf 4 5 2019 577 bf 25 34 680 600 bf 21
 29 710 603 bf 18 23 740 606 bf 11 15 772 610 bf 15 20 798 607 bf 7 9 830 613 bf 10 15 857 610 bf 8 11 886 612 bf 12 15 941 610 bf 2 2 975 617 bf 1 2 1145 617 bf 9 12 1253 611 bf 1 1 1286 617 bf 15 19 685 646 bf 24 33 709 639 bf 18 25 740 643 bf 19
 26 768 642 bf 17 23 797 644 bf 11 15 828 648 bf 14 17 855 647 bf 2 2 890 655 bf 9 13 914 649 bf 8 11 1028 650 bf 2 2 1229 655 bf 7 9 689 689 bf 28 39 707 674 bf 22 31 738 678 bf 12 17 771 685 bf 2 2 805 693 bf 7 9 830 689 bf 15 21 855 683 bf 11 15
 885 686 bf 2 2 918 693 bf 18 24 712 720 bf 18 24 740 720 bf 19 25 768 719 bf 13 17 799 723 bf 1 2 834 731 bf 16 21 854 721 bf 2 2 890 731 bf 17 23 910 720 bf 2 2 946 731 bf 9 12 971 726 bf 2 2 1003 731 bf 2 2 1031 731 bf 12 17 1054 723 bf 2 2 1201
 731 bf 12 17 715 761 bf 16 21 741 759 bf 12 16 771 762 bf 23 30 794 755 bf 7 9 830 765 bf 12 16 856 762 bf 2 1 890 770 bf 1 2 947 769 bf 7 10 1000 765 bf 7 10 774 803 bf 13 16 799 800 bf 12 16 828 800 bf 10 14 857 801 bf 11 14 941 801 bf 2 1 975
 808 bf 2 1 1031 808 bf 13 19 1110 798 bf 11 14 1422 801 bf 9 12 801 840 bf 15 20 826 836 bf 10 14 857 839 bf 7 10 887 841 bf 11 16 913 838 bf 6 8 944 842 bf 6 8 972 842 bf 7 10 1085 841 bf 7 10 1141 841 bf 1 1 1258 846 bf 8 10 830 879 bf 12 16 856
 876 bf 21 28 880 870 bf 17 22 910 873 bf 6 8 944 880 bf 15 20 1024 874 bf 1 2 1173 884 bf 2 2 1286 884 bf 6 8 1311 880 bf 1 2 1484 884 bf 7 9 1509 880 bf 7 9 830 918 bf 6 9 859 918 bf 15 21 883 912 bf 7 9 915 918 bf 18 25 938 910 bf 11 15 998 915
 bf 7 9 1141 918 bf 7 10 1198 917 bf 11 15 1337 915 bf 1 2 1597 922 bf 10 14 857 953 bf 11 15 885 953 bf 7 10 915 955 bf 12 17 941 952 bf 2 2 975 960 bf 9 12 1027 954 bf 11 15 1083 953 bf 7 9 915 994 bf 12 17 941 990 bf 2 2 975 998 bf 7 11 1000 993
 bf 13 17 1025 990 bf 7 9 1085 994 bf 2 2 1116 998 bf 11 15 1196 991 bf 2 3 1483 997 bf 11 15 1563 991 bf 6 9 1820 994 bf 11 13 998 1030 bf 1 2 1032 1036 bf 10 15 1055 1029 bf 7 9 1141 1032 bf 2 2 1229 1036 bf 4 7 1284 1033 bf 6 9 972 1070 bf 12 16
 1026 1067 bf 8 10 1056 1070 bf 7 10 1085 1070 bf 6 8 1085 1109 bf 5 8 1114 1109 bf 7 8 1339 1109 bf 11 14 1507 1106 bf 2 1 1399 1151 bf 2 1 1540 1151 bf 2 2 1201 1189 bf 7 10 1226 1184 bf 7 10 1424 1184 bf 5 6 1481 1186 bf 11 15 1111 1220 bf 1 2
 1173 1227 bf 7 9 1311 1223 bf 8 10 1084 1260 bf 7 10 1141 1260 bf 2 2 1286 1265 bf 1 2 1173 1303 bf 2 2 1201 1303 bf 7 11 1339 1298 bf 4 7 1284 1338 bf 12 16 1337 1334 bf 8 10 1395 1337 bf 11 15 1450 1334 bf 2 1 1399 1418 bf 11 15 1365 1448 bf 8 11
 1339 1489 bf 6 8 1509 1490 bf 7 10 1339 1565 bf 11 15 1394 1563 bf 7 9 1424 1566 bf 11 15 1394 1601 bf 7 9 1763 1604 bf 11 15 1422 1639 bf 7 10 1650 1794 bf 7 10 1763 1870 bf 7 9 1989 1909 bf 11 15 1846 1944 bf 7 10 1763 1985 bf 8 10 1904 2137 bf
 339 293 m 1696 X s
 gsave  2261 2444 0 0 C 1766 59 t 0 r /Helvetica-Bold findfont 104.263 sf 0 0 m (, GeV) show NC gr 
 gsave  2261 2444 0 0 C 1603 108 t 0 r /Helvetica-Bold findfont 71.6807 sf 0 0 m (cand) show NC gr 
 gsave  2261 2444 0 0 C 1671 7 t 0 r /Helvetica-Bold findfont 45.615 sf 0 0 m (R) show NC gr 
 gsave  2261 2444 0 0 C 1603 26 t 0 r /Helvetica-Bold findfont 71.6807 sf 0 0 m (W) show NC gr 
 gsave  2261 2444 0 0 C 1522 59 t 0 r /Helvetica-Bold findfont 104.263 sf 0 0 m (M) show NC gr  339 348 m -55 Y s 396 321 m -28 Y s 452 321 m -28 Y s 509 321 m -28 Y s 565 321 m -28 Y s 622 348 m -55 Y s 678 321 m -28 Y s 735 321 m -28 Y s 791 321 m
 -28 Y s 848 321 m -28 Y s 904 348 m -55 Y s 961 321 m -28 Y s 1018 321 m -28 Y s 1074 321 m -28 Y s 1131 321 m -28 Y s 1187 348 m -55 Y s 1244 321 m -28 Y s 1300 321 m -28 Y s 1357 321 m -28 Y s 1413 321 m -28 Y s 1470 348 m -55 Y s 1526 321 m -28
 Y s 1583 321 m -28 Y s 1639 321 m -28 Y s 1696 321 m -28 Y s 1752 348 m -55 Y s 1809 321 m -28 Y s 1865 321 m -28 Y s 1922 321 m -28 Y s 1979 321 m -28 Y s 2035 348 m -55 Y s
 gsave  2261 2444 0 0 C 316 205 t 0 r /Helvetica-Bold findfont 84.7136 sf 0 0 m (0) show NC gr 
 gsave  2261 2444 0 0 C 547 205 t 0 r /Helvetica-Bold findfont 84.7136 sf 0 0 m (500) show NC gr 
 gsave  2261 2444 0 0 C 808 205 t 0 r /Helvetica-Bold findfont 84.7136 sf 0 0 m (1000) show NC gr 
 gsave  2261 2444 0 0 C 1092 205 t 0 r /Helvetica-Bold findfont 84.7136 sf 0 0 m (1500) show NC gr 
 gsave  2261 2444 0 0 C 1375 205 t 0 r /Helvetica-Bold findfont 84.7136 sf 0 0 m (2000) show NC gr 
 gsave  2261 2444 0 0 C 1655 205 t 0 r /Helvetica-Bold findfont 84.7136 sf 0 0 m (2500) show NC gr 
 gsave  2261 2444 0 0 C 1939 205 t 0 r /Helvetica-Bold findfont 84.7136 sf 0 0 m (3000) show NC gr  339 293 m 1906 Y s
 gsave  2261 2444 0 0 C 104 1932 t 90 r /Helvetica-Bold findfont 104.263 sf 0 0 m (, GeV) show NC gr 
 gsave  2261 2444 0 0 C 55 1772 t 90 r /Helvetica-Bold findfont 71.6807 sf 0 0 m (cand) show NC gr 
 gsave  2261 2444 0 0 C 134 1769 t 90 r /Helvetica-Bold findfont 71.6807 sf 0 0 m (N) show NC gr 
 gsave  2261 2444 0 0 C 104 1688 t 90 r /Helvetica-Bold findfont 104.263 sf 0 0 m (M) show NC gr  392 293 m -53 X s 366 369 m -27 X s 366 446 m -27 X s 366 522 m -27 X s 366 598 m -27 X s 392 674 m -53 X s 366 751 m -27 X s 366 827 m -27 X s 366 903
 m -27 X s 366 979 m -27 X s 392 1056 m -53 X s 366 1132 m -27 X s 366 1208 m -27 X s 366 1284 m -27 X s 366 1361 m -27 X s 392 1437 m -53 X s 366 1513 m -27 X s 366 1589 m -27 X s 366 1666 m -27 X s 366 1742 m -27 X s 392 1818 m -53 X s 366 1894 m
 -27 X s 366 1971 m -27 X s 366 2047 m -27 X s 366 2123 m -27 X s 392 2199 m -53 X s
 gsave  2261 2444 0 0 C 280 254 t 0 r /Helvetica-Bold findfont 84.7136 sf 0 0 m (0) show NC gr 
 gsave  2261 2444 0 0 C 186 635 t 0 r /Helvetica-Bold findfont 84.7136 sf 0 0 m (500) show NC gr 
 gsave  2261 2444 0 0 C 140 1017 t 0 r /Helvetica-Bold findfont 84.7136 sf 0 0 m (1000) show NC gr 
 gsave  2261 2444 0 0 C 140 1398 t 0 r /Helvetica-Bold findfont 84.7136 sf 0 0 m (1500) show NC gr 
 gsave  2261 2444 0 0 C 140 1779 t 0 r /Helvetica-Bold findfont 84.7136 sf 0 0 m (2000) show NC gr 
 gsave  2261 2444 0 0 C 140 2160 t 0 r /Helvetica-Bold findfont 84.7136 sf 0 0 m (2500) show NC gr  /w 43 def /w2 {w 2 div} def /w3 {w 3 div} def 1187 751 m28
 gsave  2261 2444 0 0 C 1225 720 t 0 r /Helvetica-Bold findfont 52.1314 sf 0 0 m (LRRP1) show NC gr 
 gr  gr 
showpage
end
%%EOF
