%!PS-Adobe-2.0 EPSF-2.0
%%BoundingBox:  0 0 567 362
%%Title: ./twodim2.eps:  
%%Creator: ROOT Version 5.24/00
%%CreationDate: Mon Mar  1 14:14:04 2010
%%EndComments
%%BeginProlog
80 dict begin
/s {stroke} def /l {lineto} def /m {moveto} def /t {translate} def
/sw {stringwidth} def /r {rotate} def /rl {roll}  def /R {repeat} def
/d {rlineto} def /rm {rmoveto} def /gr {grestore} def /f {eofill} def
/c {setrgbcolor} def /black {0 setgray} def /sd {setdash} def
/cl {closepath} def /sf {scalefont setfont} def /lw {setlinewidth} def
/box {m dup 0 exch d exch 0 d 0 exch neg d cl} def
/NC{systemdict begin initclip end}def/C{NC box clip newpath}def
/bl {box s} def /bf {box f} def /Y { 0 exch d} def /X { 0 d} def 
/mp {newpath /y exch def /x exch def} def
/side {[w .77 mul w .23 mul] .385 w mul sd w 0 l currentpoint t -144 r} def
/mr {mp x y w2 0 360 arc} def /m24 {mr s} def /m20 {mr f} def
/mb {mp x y w2 add m w2 neg 0 d 0 w neg d w 0 d 0 w d cl} def
/mt {mp x y w2 add m w2 neg w neg d w 0 d cl} def
/m21 {mb f} def /m25 {mb s} def /m22 {mt f} def /m26{mt s} def
/m23 {mp x y w2 sub m w2 w d w neg 0 d cl f} def
/m27 {mp x y w2 add m w3 neg w2 neg d w3 w2 neg d w3 w2 d cl s} def
/m28 {mp x w2 sub y w2 sub w3 add m w3 0 d  0 w3 neg d w3 0 d 0 w3 d w3 0 d  0 w3 d w3 neg 0 d 0 w3 d w3 neg 0 d
 0 w3 neg d w3 neg 0 d cl s } def
/m29 {mp gsave x w2 sub y w2 add w3 sub m currentpoint t
 4 {side} repeat cl fill gr} def
/m30 {mp gsave x w2 sub y w2 add w3 sub m currentpoint t
 4 {side} repeat cl s gr} def
/m31 {mp x y w2 sub m 0 w d x w2 sub y m w 0 d x w2 sub y w2 add m w w neg d x w2 sub y w2
 sub m w w d s} def
/m2 {mp x y w2 sub m 0 w d x w2 sub y m w 0 d s} def
/m5 {mp x w2 sub y w2 sub m w w d x w2 sub y w2 add m w w neg d s} def
/reEncode {exch findfont dup length dict begin {1 index /FID eq  {pop pop} {def} ifelse } forall /Encoding exch def currentdict end dup /FontName get exch definefont pop } def [/Times-Bold /Times-Italic /Times-BoldItalic /Helvetica
 /Helvetica-Oblique /Helvetica-Bold /Helvetica-BoldOblique /Courier /Courier-Oblique /Courier-Bold /Courier-BoldOblique /Times-Roman /AvantGarde-Book /AvantGarde-BookOblique /AvantGarde-Demi /AvantGarde-DemiOblique /Bookman-Demi
 /Bookman-DemiItalic /Bookman-Light /Bookman-LightItalic /Helvetica-Narrow /Helvetica-Narrow-Bold /Helvetica-Narrow-BoldOblique /Helvetica-Narrow-Oblique /NewCenturySchlbk-Roman /NewCenturySchlbk-Bold
 /NewCenturySchlbk-BoldItalic /NewCenturySchlbk-Italic /Palatino-Bold /Palatino-BoldItalic /Palatino-Italic /Palatino-Roman ] {ISOLatin1Encoding reEncode } forall
/oshow {gsave [] 0 sd true charpath stroke gr} def
/stwn { /fs exch def /fn exch def /text exch def fn findfont fs sf
 text sw pop xs add /xs exch def} def
/stwb { /fs exch def /fn exch def /nbas exch def /textf exch deftextf length /tlen exch def nbas tlen gt {/nbas tlendef} iffn findfont fs sf textf dup length nbas sub nbas getinterval sw
pop neg xs add /xs exch def} def
%%EndProlog
%%BeginSetup
%%EndSetup
newpath  gsave  .25 .25 scale  gsave  0 0 t black[  ] 0 sd 3 lw 0.95 0.95 0.95 c 2268 1448 0 0 bf 1 1 1 c 0 0 m 8 8 d 1432 Y 2252 X 8 8 d -2268 X -1448 Y f 0.665 0.665 0.665 c 0 0 m 8 8 d 2252 X 1432 Y 8 8 d -1448 Y -2268 X f black 1 1 1 c 2268 1448
 0 0 bf black 963 174 m 43 7 d s 981 194 m 25 -13 d s 938 186 m 43 8 d s 938 186 m 25 -12 d s 1006 181 m 43 7 d s 1024 201 m 25 -13 d s 981 194 m 43 7 d s 1049 188 m 43 8 d s 1067 208 m 25 -12 d s 1024 201 m 43 7 d s 1092 196 m 43 7 d s 1110 216 m
 25 -13 d s 1067 208 m 43 8 d s 1135 203 m 43 7 d s 1153 223 m 25 -13 d s 1110 216 m 43 7 d s 1178 210 m 43 7 d s 1197 230 m 24 -13 d s 1153 223 m 44 7 d s 1221 217 m 44 8 d s 1240 237 m 25 -12 d s 1197 230 m 43 7 d s 1265 225 m 43 7 d s 1283 245 m
 25 -13 d s 1240 237 m 43 8 d s 1308 232 m 43 7 d s 1326 252 m 25 -13 d s 1283 245 m 43 7 d s 1351 239 m 43 8 d s 1369 259 m 25 -12 d s 1326 252 m 43 7 d s 1394 247 m 43 7 d s 1412 267 m 25 -13 d s 1369 259 m 43 8 d s 1437 254 m 43 7 d s 1455 274 m
 25 -13 d s 1412 267 m 43 7 d s 1480 261 m 43 7 d s 1498 281 m 25 -13 d s 1455 274 m 43 7 d s 1523 268 m 44 8 d s 1542 288 m 25 -12 d s 1498 281 m 44 7 d s 1567 276 m 43 7 d s 1585 296 m 25 -13 d s 1542 288 m 43 8 d s 1610 283 m 43 7 d s 1628 303 m
 25 -13 d s 1585 296 m 43 7 d s 1653 290 m 43 8 d s 1671 310 m 25 -12 d s 1628 303 m 43 7 d s 1696 298 m 43 7 d s 1714 318 m 25 -13 d s 1671 310 m 43 8 d s 1739 305 m 43 7 d s 1757 325 m 25 -13 d s 1714 318 m 43 7 d s 1782 312 m 43 8 d s 1800 332 m
 25 -12 d s 1757 325 m 43 7 d s 1825 320 m 43 7 d s 1844 339 m 24 -12 d s 1800 332 m 44 7 d s 1868 327 m 44 7 d s 1887 347 m 25 -13 d s 1844 339 m 43 8 d s 1912 334 m 43 7 d s 1930 354 m 25 -13 d s 1887 347 m 43 7 d s 1955 341 m 43 8 d s 1973 361 m
 25 -12 d s 1930 354 m 43 7 d s 1998 349 m 43 7 d s 2016 369 m 25 -13 d s 1973 361 m 43 8 d s 956 206 m 25 -12 d s 913 199 m 43 7 d s 913 199 m 25 -13 d s 999 214 m 25 -13 d s 956 206 m 43 8 d s 1042 221 m 25 -13 d s 999 214 m 43 7 d s 1085 228 m 25
 -12 d s 1042 221 m 43 7 d s 1129 235 m 24 -12 d s 1085 228 m 44 7 d s 1172 243 m 25 -13 d s 1129 235 m 43 8 d s 1215 250 m 25 -13 d s 1172 243 m 43 7 d s 1258 257 m 25 -12 d s 1215 250 m 43 7 d s 1301 265 m 25 -13 d s 1258 257 m 43 8 d s 1344 272 m
 25 -13 d s 1301 265 m 43 7 d s 1387 279 m 25 -12 d s 1344 272 m 43 7 d s 1430 286 m 25 -12 d s 1387 279 m 43 7 d s 1474 294 m 24 -13 d s 1430 286 m 44 8 d s 1517 301 m 25 -13 d s 1474 294 m 43 7 d s 1560 308 m 25 -12 d s 1517 301 m 43 7 d s 1603
 316 m 25 -13 d s 1560 308 m 43 8 d s 1646 323 m 25 -13 d s 1603 316 m 43 7 d s 1689 330 m 25 -12 d s 1646 323 m 43 7 d s 1732 337 m 25 -12 d s 1689 330 m 43 7 d s 1775 345 m 25 -13 d s 1732 337 m 43 8 d s 1819 352 m 25 -13 d s 1775 345 m 44 7 d s
 1862 359 m 25 -12 d s 1819 352 m 43 7 d s 1905 367 m 25 -13 d s 1862 359 m 43 8 d s 1948 374 m 25 -13 d s 1905 367 m 43 7 d s 1991 381 m 25 -12 d s 1948 374 m 43 7 d s 931 219 m 25 -13 d s 888 212 m 43 7 d s 888 212 m 25 -13 d s 974 226 m 25 -12 d
 s 931 219 m 43 7 d s 1017 233 m 25 -12 d s 974 226 m 43 7 d s 1061 241 m 24 -13 d s 1017 233 m 44 8 d s 1104 248 m 25 -13 d s 1061 241 m 43 7 d s 1147 255 m 25 -12 d s 1104 248 m 43 7 d s 1190 263 m 25 -13 d s 1147 255 m 43 8 d s 1233 270 m 25 -13
 d s 1190 263 m 43 7 d s 1276 277 m 25 -12 d s 1233 270 m 43 7 d s 1319 284 m 25 -12 d s 1276 277 m 43 7 d s 1362 292 m 25 -13 d s 1319 284 m 43 8 d s 1406 299 m 24 -13 d s 1362 292 m 44 7 d s 1449 306 m 25 -12 d s 1406 299 m 43 7 d s 1492 314 m 25
 -13 d s 1449 306 m 43 8 d s 1535 321 m 25 -13 d s 1492 314 m 43 7 d s 1578 328 m 25 -12 d s 1535 321 m 43 7 d s 1621 336 m 25 -13 d s 1578 328 m 43 8 d s 1664 343 m 25 -13 d s 1621 336 m 43 7 d s 1707 350 m 25 -13 d s 1664 343 m 43 7 d s 1751 357 m
 24 -12 d s 1707 350 m 44 7 d s 1794 365 m 25 -13 d s 1751 357 m 43 8 d s 1837 372 m 25 -13 d s 1794 365 m 43 7 d s 1880 379 m 25 -12 d s 1837 372 m 43 7 d s 1923 387 m 25 -13 d s 1880 379 m 43 8 d s 1966 394 m 25 -13 d s 1923 387 m 43 7 d s 906 232
 m 25 -13 d s 863 224 m 43 8 d s 863 224 m 25 -12 d s 949 239 m 25 -13 d s 906 232 m 43 7 d s 992 246 m 25 -13 d s 949 239 m 43 7 d s 1036 253 m 25 -12 d s 992 246 m 44 7 d s 1079 261 m 25 -13 d s 1036 253 m 43 8 d s 1122 268 m 25 -13 d s 1079 261 m
 43 7 d s 1165 275 m 25 -12 d s 1122 268 m 43 7 d s 1208 283 m 25 -13 d s 1165 275 m 43 8 d s 1251 290 m 25 -13 d s 1208 283 m 43 7 d s 1294 297 m 25 -13 d s 1251 290 m 43 7 d s 1338 304 m 24 -12 d s 1294 297 m 44 7 d s 1381 312 m 25 -13 d s 1338
 304 m 43 8 d s 1424 319 m 25 -13 d s 1381 312 m 43 7 d s 1467 326 m 25 -12 d s 1424 319 m 43 7 d s 1510 334 m 25 -13 d s 1467 326 m 43 8 d s 1553 341 m 25 -13 d s 1510 334 m 43 7 d s 1596 348 m 25 -12 d s 1553 341 m 43 7 d s 1639 355 m 25 -12 d s
 1596 348 m 43 7 d s 1683 363 m 24 -13 d s 1639 355 m 44 8 d s 1726 370 m 25 -13 d s 1683 363 m 43 7 d s 1769 377 m 25 -12 d s 1726 370 m 43 7 d s 1812 385 m 25 -13 d s 1769 377 m 43 8 d s 1855 392 m 25 -13 d s 1812 385 m 43 7 d s 1898 399 m 25 -12
 d s 1855 392 m 43 7 d s 1941 406 m 25 -12 d s 1898 399 m 43 7 d s 881 244 m 25 -12 d s 838 237 m 43 7 d s 838 237 m 25 -13 d s 924 251 m 25 -12 d s 881 244 m 43 7 d s 968 259 m 24 -13 d s 924 251 m 44 8 d s 1011 266 m 25 -13 d s 968 259 m 43 7 d s
 1054 273 m 25 -12 d s 1011 266 m 43 7 d s 1097 281 m 25 -13 d s 1054 273 m 43 8 d s 1140 288 m 25 -13 d s 1097 281 m 43 7 d s 1183 295 m 25 -12 d s 1140 288 m 43 7 d s 1226 302 m 25 -12 d s 1183 295 m 43 7 d s 1269 310 m 25 -13 d s 1226 302 m 43 8
 d s 1313 317 m 25 -13 d s 1269 310 m 44 7 d s 1356 324 m 25 -12 d s 1313 317 m 43 7 d s 1399 332 m 25 -13 d s 1356 324 m 43 8 d s 1442 339 m 25 -13 d s 1399 332 m 43 7 d s 1485 346 m 25 -12 d s 1442 339 m 43 7 d s 1528 353 m 25 -12 d s 1485 346 m
 43 7 d s 1571 361 m 25 -13 d s 1528 353 m 43 8 d s 1615 368 m 24 -13 d s 1571 361 m 44 7 d s 1658 375 m 25 -12 d s 1615 368 m 43 7 d s 1701 383 m 25 -13 d s 1658 375 m 43 8 d s 1744 390 m 25 -13 d s 1701 383 m 43 7 d s 1787 397 m 25 -12 d s 1744
 390 m 43 7 d s 1830 405 m 25 -13 d s 1787 397 m 43 8 d s 1873 412 m 25 -13 d s 1830 405 m 43 7 d s 1916 419 m 25 -13 d s 1873 412 m 43 7 d s 856 257 m 25 -13 d s 813 249 m 43 8 d s 813 249 m 25 -12 d s 900 264 m 24 -13 d s 856 257 m 44 7 d s 943
 271 m 25 -12 d s 900 264 m 43 7 d s 1011 266 m 38 Y s 968 297 m 43 7 d s 968 259 m 38 Y s 943 310 m 25 -13 d s 943 271 m 39 Y s 986 317 m 25 -13 d s 943 310 m 43 7 d s 1029 286 m 25 -13 d s 1012 283 m 17 3 d s 1072 293 m 25 -12 d s 1029 286 m 43 7
 d s 1115 301 m 25 -13 d s 1072 293 m 43 8 d s 1158 308 m 25 -13 d s 1115 301 m 43 7 d s 1201 315 m 25 -13 d s 1158 308 m 43 7 d s 1269 310 m 20 Y s 1226 323 m 43 7 d s 1226 302 m 21 Y s 1201 335 m 25 -12 d s 1201 315 m 20 Y s 1245 343 m 24 -13 d s
 1201 335 m 44 8 d s 1313 317 m 18 Y s 1269 328 m 44 7 d s 1288 348 m 25 -13 d s 1248 341 m 40 7 d s 1331 337 m 25 -13 d s 1313 334 m 18 3 d s 1374 344 m 25 -12 d s 1331 337 m 43 7 d s 1417 352 m 25 -13 d s 1374 344 m 43 8 d s 1460 359 m 25 -13 d s
 1417 352 m 43 7 d s 1503 366 m 25 -13 d s 1460 359 m 43 7 d s 1546 373 m 25 -12 d s 1503 366 m 43 7 d s 1590 381 m 25 -13 d s 1546 373 m 44 8 d s 1633 388 m 25 -13 d s 1590 381 m 43 7 d s 1676 395 m 25 -12 d s 1633 388 m 43 7 d s 1719 403 m 25 -13
 d s 1676 395 m 43 8 d s 1762 410 m 25 -13 d s 1719 403 m 43 7 d s 1805 417 m 25 -12 d s 1762 410 m 43 7 d s 1848 424 m 25 -12 d s 1805 417 m 43 7 d s 1892 432 m 24 -13 d s 1848 424 m 44 8 d s 856 257 m 7 Y s 813 256 m 43 8 d s 813 249 m 7 Y s 788
 262 m 25 -13 d s 788 269 m 25 -13 d s 788 262 m 7 Y s 832 276 m 24 -12 d s 788 269 m 44 7 d s 875 277 m 25 -13 d s 842 271 m 33 6 d s 918 284 m 25 -13 d s 875 277 m 43 7 d s 918 284 m 24 4 d s 1012 295 m 17 -9 d s 1047 306 m 25 -13 d s 1011 300 m
 36 6 d s 1090 313 m 25 -12 d s 1047 306 m 43 7 d s 1133 320 m 25 -12 d s 1090 313 m 43 7 d s 1158 315 m 43 7 d s 1158 308 m 7 Y s 1133 327 m 25 -12 d s 1133 320 m 7 Y s 1177 334 m 24 -12 d s 1133 327 m 44 7 d s 1245 343 m 38 Y s 1201 373 m 44 8 d s
 1201 335 m 38 Y s 1177 386 m 24 -13 d s 1177 334 m 52 Y s 1220 393 m 25 -12 d s 1177 386 m 43 7 d s 1263 349 m 8 -4 d s 1244 346 m 19 3 d s 1306 350 m 25 -13 d s 1289 347 m 17 3 d s 1349 357 m 25 -13 d s 1306 350 m 43 7 d s 1392 364 m 25 -12 d s
 1349 357 m 43 7 d s 1435 371 m 25 -12 d s 1392 364 m 43 7 d s 1478 379 m 25 -13 d s 1435 371 m 43 8 d s 1522 386 m 24 -13 d s 1478 379 m 44 7 d s 1565 393 m 25 -12 d s 1522 386 m 43 7 d s 1608 401 m 25 -13 d s 1565 393 m 43 8 d s 1651 408 m 25 -13
 d s 1608 401 m 43 7 d s 1694 415 m 25 -12 d s 1651 408 m 43 7 d s 1737 422 m 25 -12 d s 1694 415 m 43 7 d s 1780 430 m 25 -13 d s 1737 422 m 43 8 d s 1824 437 m 24 -13 d s 1780 430 m 44 7 d s 1867 444 m 25 -12 d s 1824 437 m 43 7 d s 807 282 m 14
 -7 d s 763 275 m 44 7 d s 763 275 m 25 -13 d s 850 289 m 25 -12 d s 807 282 m 43 7 d s 893 297 m 25 -13 d s 850 289 m 43 8 d s 918 295 m 24 4 d s 918 284 m 11 Y s 893 308 m 25 -13 d s 893 297 m 11 Y s 936 315 m 10 -5 d s 893 308 m 43 7 d s 1022 318
 m 25 -12 d s 993 314 m 29 4 d s 1065 326 m 25 -13 d s 1022 318 m 43 8 d s 1109 333 m 24 -13 d s 1065 326 m 44 7 d s 1133 332 m 44 7 d s 1133 327 m 5 Y s 1109 344 m 24 -12 d s 1109 333 m 11 Y s 1152 352 m 25 -13 d s 1109 344 m 43 8 d s 1220 393 m 34
 Y s 1177 419 m 43 8 d s 1177 386 m 33 Y s 1152 432 m 25 -13 d s 1152 352 m 80 Y s 1195 439 m 25 -12 d s 1152 432 m 43 7 d s 1263 349 m 7 Y s 1244 352 m 19 4 d s 1245 365 m 18 -9 d s 1281 362 m 25 -12 d s 1258 358 m 23 4 d s 1324 369 m 25 -12 d s
 1281 362 m 43 7 d s 1367 377 m 25 -13 d s 1324 369 m 43 8 d s 1410 384 m 25 -13 d s 1367 377 m 43 7 d s 1454 391 m 24 -12 d s 1410 384 m 44 7 d s 1497 399 m 25 -13 d s 1454 391 m 43 8 d s 1540 406 m 25 -13 d s 1497 399 m 43 7 d s 1583 413 m 25 -12
 d s 1540 406 m 43 7 d s 1626 421 m 25 -13 d s 1583 413 m 43 8 d s 1669 428 m 25 -13 d s 1626 421 m 43 7 d s 1712 435 m 25 -13 d s 1669 428 m 43 7 d s 1755 442 m 25 -12 d s 1712 435 m 43 7 d s 1799 450 m 25 -13 d s 1755 442 m 44 8 d s 1842 457 m 25
 -13 d s 1799 450 m 43 7 d s 807 282 m 14 Y s 763 288 m 44 8 d s 763 275 m 13 Y s 739 287 m 24 -12 d s 739 301 m 24 -13 d s 739 287 m 14 Y s 782 308 m 25 -12 d s 739 301 m 43 7 d s 850 289 m 111 Y s 807 393 m 43 7 d s 807 296 m 97 Y s 782 406 m 25
 -13 d s 782 308 m 98 Y s 825 413 m 25 -13 d s 782 406 m 43 7 d s 868 309 m 25 -12 d s 850 306 m 18 3 d s 868 321 m 25 -13 d s 868 309 m 12 Y s 911 328 m 25 -13 d s 868 321 m 43 7 d s 979 316 m 38 Y s 936 347 m 43 7 d s 936 315 m 32 Y s 911 359 m 25
 -12 d s 911 328 m 31 Y s 954 367 m 25 -13 d s 911 359 m 43 8 d s 1022 318 m 12 Y s 979 322 m 43 8 d s 997 342 m 25 -12 d s 978 339 m 19 3 d s 1040 338 m 25 -12 d s 1015 334 m 25 4 d s 1109 344 m 32 Y s 1065 368 m 44 8 d s 1065 326 m 42 Y s 1065 368
 m cl s 1040 381 m 25 -13 d s 1040 338 m 43 Y s 1084 388 m 25 -12 d s 1040 381 m 44 7 d s 1109 384 m 43 8 d s 1109 376 m 8 Y s 1084 397 m 25 -13 d s 1084 388 m 9 Y s 1127 404 m 25 -12 d s 1084 397 m 43 7 d s 1127 445 m 25 -13 d s 1127 404 m 41 Y s
 1170 452 m 25 -13 d s 1127 445 m 43 7 d s 1281 362 m 5 Y s 1251 362 m 30 5 d s 1256 379 m 25 -12 d s 1244 377 m 12 2 d s 1299 382 m 25 -13 d s 1263 376 m 36 6 d s 1342 389 m 25 -12 d s 1299 382 m 43 7 d s 1386 397 m 24 -13 d s 1342 389 m 44 8 d s
 1429 404 m 25 -13 d s 1386 397 m 43 7 d s 1472 411 m 25 -12 d s 1429 404 m 43 7 d s 1515 419 m 25 -13 d s 1472 411 m 43 8 d s 1558 426 m 25 -13 d s 1515 419 m 43 7 d s 1601 433 m 25 -12 d s 1558 426 m 43 7 d s 1644 440 m 25 -12 d s 1601 433 m 43 7
 d s 1687 448 m 25 -13 d s 1644 440 m 43 8 d s 1731 455 m 24 -13 d s 1687 448 m 44 7 d s 1774 462 m 25 -12 d s 1731 455 m 43 7 d s 1817 470 m 25 -13 d s 1774 462 m 43 8 d s 757 307 m 4 -2 d s 714 300 m 43 7 d s 714 300 m 25 -13 d s 757 307 m 24 4 d
 s 868 321 m 2 Y s 850 320 m 18 3 d s 850 332 m 18 -9 d s 886 331 m 12 -6 d s 860 327 m 26 4 d s 954 367 m 13 Y s 911 373 m 43 7 d s 911 359 m 14 Y s 886 386 m 25 -13 d s 886 331 m 55 Y s 929 393 m 25 -13 d s 886 386 m 43 7 d s 977 341 m 3 -1 d s
 1016 351 m 24 -13 d s 977 345 m 39 6 d s 1084 397 m 56 Y s 1040 446 m 44 7 d s 1040 381 m 65 Y s 1016 458 m 24 -12 d s 1016 351 m 107 Y s 1059 466 m 25 -13 d s 1016 458 m 43 8 d s 1127 445 m 4 Y s 1084 442 m 43 7 d s 1102 462 m 25 -13 d s 1075 457
 m 27 5 d s 1170 452 m 335 Y s 1127 780 m 43 7 d s 1127 449 m 331 Y s 1102 793 m 25 -13 d s 1102 462 m 331 Y s 1145 800 m 25 -13 d s 1102 793 m 43 7 d s 1213 430 m 248 Y s 1170 671 m 43 7 d s 1188 691 m 25 -13 d s 1171 688 m 17 3 d s 1256 379 m 50 Y
 s 1220 422 m 36 7 d s 1231 441 m 25 -12 d s 1213 438 m 18 3 d s 1274 395 m 25 -13 d s 1255 392 m 19 3 d s 1317 402 m 25 -13 d s 1274 395 m 43 7 d s 1361 409 m 25 -12 d s 1317 402 m 44 7 d s 1404 417 m 25 -13 d s 1361 409 m 43 8 d s 1447 424 m 25
 -13 d s 1404 417 m 43 7 d s 1490 431 m 25 -12 d s 1447 424 m 43 7 d s 1533 438 m 25 -12 d s 1490 431 m 43 7 d s 1576 446 m 25 -13 d s 1533 438 m 43 8 d s 1619 453 m 25 -13 d s 1576 446 m 43 7 d s 1663 460 m 24 -12 d s 1619 453 m 44 7 d s 1706 468 m
 25 -13 d s 1663 460 m 43 8 d s 1749 475 m 25 -13 d s 1706 468 m 43 7 d s 1792 482 m 25 -12 d s 1749 475 m 43 7 d s 757 307 m 12 Y s 714 311 m 43 8 d s 714 300 m 11 Y s 689 313 m 25 -13 d s 689 324 m 25 -13 d s 689 313 m 11 Y s 732 331 m 25 -12 d s
 689 324 m 43 7 d s 757 330 m 24 4 d s 757 319 m 11 Y s 732 343 m 25 -13 d s 732 331 m 12 Y s 775 350 m 7 -4 d s 732 343 m 43 7 d s 775 366 m 7 -4 d s 775 350 m 16 Y s 775 366 m 7 1 d s 861 342 m 22 -11 d s 849 340 m 12 2 d s 861 344 m 25 -13 d s
 861 342 m 2 Y s 861 344 m 24 4 d s 977 351 m 39 7 d s 991 370 m 25 -12 d s 958 365 m 33 5 d s 991 437 m 25 -12 d s 991 370 m 67 Y s 991 437 m 26 5 d s 1059 522 m 43 7 d s 1059 466 m 56 Y s 1059 522 m s 1034 534 m 25 -12 d s 1034 461 m 73 Y s 1077
 541 m 25 -12 d s 1034 534 m 43 7 d s 1145 800 m 38 Y s 1102 831 m 43 7 d s 1102 793 m 38 Y s 1077 843 m 25 -12 d s 1077 541 m 302 Y s 1120 851 m 25 -13 d s 1077 843 m 43 8 d s 1188 691 m 58 Y s 1171 746 m 17 3 d s 1171 758 m 17 -9 d s 1256 404 m 18
 -9 d s 1293 415 m 24 -13 d s 1256 409 m 37 6 d s 1336 422 m 25 -13 d s 1293 415 m 43 7 d s 1379 429 m 25 -12 d s 1336 422 m 43 7 d s 1422 437 m 25 -13 d s 1379 429 m 43 8 d s 1465 444 m 25 -13 d s 1422 437 m 43 7 d s 1508 451 m 25 -13 d s 1465 444
 m 43 7 d s 1551 458 m 25 -12 d s 1508 451 m 43 7 d s 1595 466 m 24 -13 d s 1551 458 m 44 8 d s 1638 473 m 25 -13 d s 1595 466 m 43 7 d s 1681 480 m 25 -12 d s 1638 473 m 43 7 d s 1724 488 m 25 -13 d s 1681 480 m 43 8 d s 1767 495 m 25 -13 d s 1724
 488 m 43 7 d s 689 335 m 43 8 d s 689 324 m 11 Y s 664 325 m 25 -12 d s 664 348 m 25 -13 d s 664 325 m 23 Y s 707 355 m 25 -12 d s 664 348 m 43 7 d s 775 366 m 67 Y s 732 426 m 43 7 d s 732 343 m 83 Y s 707 438 m 25 -12 d s 707 355 m 83 Y s 750 446
 m 25 -13 d s 707 438 m 43 8 d s 775 377 m 7 1 d s 774 394 m 7 1 d s 861 344 m 54 Y s 849 396 m 12 2 d s 836 411 m 25 -13 d s 830 410 m 6 1 d s 880 362 m 6 -4 d s 863 359 m 17 3 d s 880 362 m 6 1 d s 966 379 m 18 -10 d s 954 376 m 12 3 d s 966 410 m
 25 -13 d s 966 379 m 31 Y s 966 410 m 24 4 d s 1293 415 m 38 Y s 1249 446 m 44 7 d s 1249 432 m 14 Y s 1225 458 m 24 -12 d s 1225 440 m 18 Y s 1268 466 m 25 -13 d s 1225 458 m 43 8 d s 1311 435 m 25 -13 d s 1294 432 m 17 3 d s 1354 442 m 25 -13 d s
 1311 435 m 43 7 d s 1397 449 m 25 -12 d s 1354 442 m 43 7 d s 1440 456 m 25 -12 d s 1397 449 m 43 7 d s 1483 464 m 25 -13 d s 1440 456 m 43 8 d s 1526 471 m 25 -13 d s 1483 464 m 43 7 d s 1570 478 m 25 -12 d s 1526 471 m 44 7 d s 1613 486 m 25 -13
 d s 1570 478 m 43 8 d s 1656 493 m 25 -13 d s 1613 486 m 43 7 d s 1699 500 m 25 -12 d s 1656 493 m 43 7 d s 1742 507 m 25 -12 d s 1699 500 m 43 7 d s 707 438 m 7 Y s 664 438 m 43 7 d s 664 348 m 90 Y s 639 338 m 25 -13 d s 639 450 m 25 -12 d s 639
 338 m 112 Y s 682 458 m 25 -13 d s 639 450 m 43 8 d s 880 362 m 77 Y s 836 431 m 44 8 d s 836 411 m 20 Y s 811 444 m 25 -13 d s 811 411 m 33 Y s 855 451 m 25 -12 d s 811 444 m 44 7 d s 880 373 m 6 1 d s 898 393 m 7 -4 d s 879 390 m 19 3 d s 941 389
 m 22 -11 d s 938 388 m 3 1 d s 941 391 m 25 -13 d s 941 389 m 2 Y s 941 391 m 26 5 d s 1293 443 m 18 -8 d s 1329 454 m 25 -12 d s 1293 448 m 36 6 d s 1372 462 m 25 -13 d s 1329 454 m 43 8 d s 1415 469 m 25 -13 d s 1372 462 m 43 7 d s 1458 476 m 25
 -12 d s 1415 469 m 43 7 d s 1502 484 m 24 -13 d s 1458 476 m 44 8 d s 1545 491 m 25 -13 d s 1502 484 m 43 7 d s 1588 498 m 25 -12 d s 1545 491 m 43 7 d s 1631 506 m 25 -13 d s 1588 498 m 43 8 d s 1674 513 m 25 -13 d s 1631 506 m 43 7 d s 1717 520 m
 25 -13 d s 1674 513 m 43 7 d s 682 458 m 59 Y s 639 510 m 43 7 d s 639 450 m 60 Y s 614 350 m 25 -12 d s 614 522 m 25 -12 d s 614 350 m 172 Y s 657 530 m 25 -13 d s 614 522 m 43 8 d s 725 441 m 11 Y s 702 448 m 23 4 d s 700 465 m 25 -13 d s 681 461
 m 19 4 d s 878 403 m 20 -10 d s 916 402 m 25 -13 d s 889 397 m 27 5 d s 959 409 m 8 -4 d s 916 402 m 43 7 d s 959 409 m 31 5 d s 1218 453 m 7 -4 d s 1213 452 m 5 1 d s 1218 453 m 7 1 d s 1304 467 m 25 -13 d s 1276 462 m 28 5 d s 1347 474 m 25 -12 d
 s 1304 467 m 43 7 d s 1390 482 m 25 -13 d s 1347 474 m 43 8 d s 1434 489 m 24 -13 d s 1390 482 m 44 7 d s 1477 496 m 25 -12 d s 1434 489 m 43 7 d s 1520 504 m 25 -13 d s 1477 496 m 43 8 d s 1563 511 m 25 -13 d s 1520 504 m 43 7 d s 1606 518 m 25
 -12 d s 1563 511 m 43 7 d s 1649 525 m 25 -12 d s 1606 518 m 43 7 d s 1692 533 m 25 -13 d s 1649 525 m 43 8 d s 589 363 m 25 -13 d s 589 424 m 25 -12 d s 589 363 m 61 Y s 589 424 m 24 4 d s 787 406 m 2 Y s 775 406 m 12 2 d s 774 415 m 13 -7 d s 805
 411 m 2 -1 d s 786 408 m 19 3 d s 805 435 m 7 -3 d s 805 411 m 24 Y s 805 435 m 7 2 d s 916 402 m 17 Y s 878 413 m 38 6 d s 891 432 m 25 -13 d s 879 430 m 12 2 d s 934 421 m 25 -12 d s 917 419 m 17 2 d s 977 429 m 13 -7 d s 934 421 m 43 8 d s 977
 444 m 14 -6 d s 977 429 m 15 Y s 977 444 m 39 7 d s 1213 455 m 5 -2 d s 1236 472 m 18 -9 d s 1212 468 m 24 4 d s 1304 467 m 16 Y s 1261 475 m 43 8 d s 1261 465 m 10 Y s 1236 488 m 25 -13 d s 1236 472 m 16 Y s 1279 495 m 25 -12 d s 1236 488 m 43 7 d
 s 1347 474 m 29 Y s 1304 496 m 43 7 d s 1304 483 m 13 Y s 1279 509 m 25 -13 d s 1279 495 m 14 Y s 1322 516 m 25 -13 d s 1279 509 m 43 7 d s 1366 494 m 24 -12 d s 1349 491 m 17 3 d s 1409 502 m 25 -13 d s 1366 494 m 43 8 d s 1452 509 m 25 -13 d s
 1409 502 m 43 7 d s 1495 516 m 25 -12 d s 1452 509 m 43 7 d s 1538 523 m 25 -12 d s 1495 516 m 43 7 d s 1581 531 m 25 -13 d s 1538 523 m 43 8 d s 1624 538 m 25 -13 d s 1581 531 m 43 7 d s 1667 545 m 25 -12 d s 1624 538 m 43 7 d s 564 376 m 25 -13 d
 s 564 437 m 25 -13 d s 564 376 m 61 Y s 607 444 m 5 -2 d s 564 437 m 43 7 d s 781 412 m 7 -4 d s 780 414 m 12 -5 d s 780 412 m 2 Y s 780 414 m 25 5 d s 934 421 m 10 Y s 904 425 m 30 6 d s 909 443 m 25 -12 d s 878 438 m 31 5 d s 952 441 m 25 -12 d s
 922 436 m 30 5 d s 952 444 m 25 -13 d s 952 441 m 3 Y s 996 451 m 5 -3 d s 952 444 m 44 7 d s 999 449 m 18 3 d s 1213 484 m 23 -12 d s 1254 492 m 2 -1 d s 1214 485 m 40 7 d s 1254 492 m 25 5 d s 1341 507 m s 1348 503 m 18 -9 d s 1341 507 m s 1384
 514 m 25 -12 d s 1341 507 m 43 7 d s 1427 522 m 25 -13 d s 1384 514 m 43 8 d s 1470 529 m 25 -13 d s 1427 522 m 43 7 d s 1513 536 m 25 -13 d s 1470 529 m 43 7 d s 1556 543 m 25 -12 d s 1513 536 m 43 7 d s 1599 551 m 25 -13 d s 1556 543 m 43 8 d s
 1643 558 m 24 -13 d s 1599 551 m 44 7 d s 539 388 m 25 -12 d s 539 436 m 25 -13 d s 539 388 m 48 Y s 582 443 m 5 -2 d s 539 436 m 43 7 d s 582 448 m 12 -6 d s 582 443 m 5 Y s 582 448 m 32 5 d s 780 414 m 9 Y s 775 423 m 5 X s 775 426 m 5 -3 d s 798
 432 m 7 -3 d s 774 428 m 24 4 d s 798 432 m 7 1 d s 884 447 m 12 -6 d s 869 444 m 15 3 d s 928 454 m 24 -13 d s 884 447 m 44 7 d s 971 461 m 21 -11 d s 928 454 m 43 7 d s 1014 469 m 16 -8 d s 971 461 m 43 8 d s 1014 469 m 19 3 d s 1229 505 m 25 -13
 d s 1213 502 m 16 3 d s 1273 512 m 6 -3 d s 1229 505 m 44 7 d s 1316 520 m 25 -13 d s 1273 512 m 43 8 d s 1359 527 m 25 -13 d s 1316 520 m 43 7 d s 1402 534 m 25 -12 d s 1359 527 m 43 7 d s 1445 541 m 25 -12 d s 1402 534 m 43 7 d s 1488 549 m 25
 -13 d s 1445 541 m 43 8 d s 1531 556 m 25 -13 d s 1488 549 m 43 7 d s 1574 563 m 25 -12 d s 1531 556 m 43 7 d s 1618 571 m 25 -13 d s 1574 563 m 44 8 d s 582 448 m 20 Y s 539 461 m 43 7 d s 539 436 m 25 Y s 514 401 m 25 -13 d s 514 473 m 25 -12 d s
 514 401 m 72 Y s 558 481 m 24 -13 d s 514 473 m 44 8 d s 730 449 m 10 -5 d s 725 448 m 5 1 d s 773 445 m 25 -13 d s 757 442 m 16 3 d s 816 452 m 11 -5 d s 773 445 m 43 7 d s 860 459 m 24 -12 d s 816 452 m 44 7 d s 903 467 m 25 -13 d s 860 459 m 43
 8 d s 971 461 m 9 Y s 928 463 m 43 7 d s 928 454 m 9 Y s 903 476 m 25 -13 d s 903 467 m 9 Y s 946 483 m 25 -13 d s 903 476 m 43 7 d s 1014 469 m 22 Y s 971 484 m 43 7 d s 971 470 m 14 Y s 971 484 m cl s 946 496 m 25 -12 d s 946 483 m 13 Y s 989 504
 m 25 -13 d s 946 496 m 43 8 d s 1014 480 m 19 3 d s 1005 495 m 27 5 d s 1214 513 m 15 -8 d s 1248 525 m 25 -13 d s 1214 519 m 34 6 d s 1291 532 m 25 -12 d s 1248 525 m 43 7 d s 1334 539 m 25 -12 d s 1291 532 m 43 7 d s 1377 547 m 25 -13 d s 1334
 539 m 43 8 d s 1420 554 m 25 -13 d s 1377 547 m 43 7 d s 1463 561 m 25 -12 d s 1420 554 m 43 7 d s 1506 569 m 25 -13 d s 1463 561 m 43 8 d s 1550 576 m 24 -13 d s 1506 569 m 44 7 d s 1593 583 m 25 -12 d s 1550 576 m 43 7 d s 558 481 m 9 Y s 514 482
 m 44 8 d s 514 473 m 9 Y s 490 414 m 24 -13 d s 490 495 m 24 -13 d s 490 414 m 81 Y s 533 502 m 25 -12 d s 490 495 m 43 7 d s 601 451 m 26 Y s 574 472 m 27 5 d s 576 489 m 25 -12 d s 559 486 m 17 3 d s 601 455 m 11 2 d s 730 449 m 11 Y s 715 457 m
 15 3 d s 705 473 m 25 -13 d s 681 469 m 24 4 d s 773 445 m 11 Y s 730 449 m 43 7 d s 748 469 m 25 -13 d s 721 464 m 27 5 d s 791 465 m 25 -13 d s 766 460 m 25 5 d s 835 472 m 25 -13 d s 791 465 m 44 7 d s 878 479 m 25 -12 d s 835 472 m 43 7 d s 921
 487 m 11 -6 d s 878 479 m 43 8 d s 921 487 m 24 4 d s 1007 501 m 8 -4 d s 997 499 m 10 2 d s 1007 501 m 26 5 d s 1223 538 m 25 -13 d s 1213 536 m 10 2 d s 1266 545 m 25 -13 d s 1223 538 m 43 7 d s 1309 552 m 25 -13 d s 1266 545 m 43 7 d s 1352 559
 m 25 -12 d s 1309 552 m 43 7 d s 1395 567 m 25 -13 d s 1352 559 m 43 8 d s 1438 574 m 25 -13 d s 1395 567 m 43 7 d s 1482 581 m 24 -12 d s 1438 574 m 44 7 d s 1525 589 m 25 -13 d s 1482 581 m 43 8 d s 1568 596 m 25 -13 d s 1525 589 m 43 7 d s 465
 426 m 25 -12 d s 465 471 m 25 -12 d s 465 426 m 45 Y s 465 471 m 25 5 d s 576 489 m 34 Y s 533 516 m 43 7 d s 533 502 m 14 Y s 508 529 m 25 -13 d s 508 498 m 31 Y s 551 536 m 25 -13 d s 508 529 m 43 7 d s 601 456 m 1 -1 d s 601 461 m 12 2 d s 705
 473 m 27 Y s 681 496 m 24 4 d s 683 511 m 22 -11 d s 748 469 m 11 Y s 705 473 m 43 7 d s 723 493 m 25 -13 d s 705 490 m 18 3 d s 767 477 m 24 -12 d s 747 474 m 20 3 d s 810 485 m 25 -13 d s 767 477 m 43 8 d s 878 479 m 39 Y s 835 510 m 43 8 d s 835
 472 m 38 Y s 810 523 m 25 -13 d s 810 485 m 38 Y s 853 530 m 25 -12 d s 810 523 m 43 7 d s 896 499 m 25 -12 d s 879 496 m 17 3 d s 939 506 m 17 -8 d s 896 499 m 43 7 d s 982 514 m 25 -13 d s 939 506 m 43 8 d s 1025 521 m 8 -4 d s 982 514 m 43 7 d s
 1025 521 m 8 1 d s 1213 543 m 10 -5 d s 1241 557 m 25 -12 d s 1212 553 m 29 4 d s 1284 565 m 25 -13 d s 1241 557 m 43 8 d s 1327 572 m 25 -13 d s 1284 565 m 43 7 d s 1370 579 m 25 -12 d s 1327 572 m 43 7 d s 1414 587 m 24 -13 d s 1370 579 m 44 8 d
 s 1457 594 m 25 -13 d s 1414 587 m 43 7 d s 1500 601 m 25 -12 d s 1457 594 m 43 7 d s 1543 608 m 25 -12 d s 1500 601 m 43 7 d s 465 476 m 25 4 d s 465 471 m 5 Y s 440 439 m 25 -13 d s 465 476 m cl s 440 489 m 25 -13 d s 440 439 m 50 Y s 483 496 m 7
 -3 d s 440 489 m 43 7 d s 594 493 m 19 4 d s 594 480 m 13 Y s 574 503 m 20 -10 d s 574 507 m 38 6 d s 742 490 m 25 -13 d s 733 488 m 9 2 d s 785 497 m 25 -12 d s 742 490 m 43 7 d s 785 536 m 25 -13 d s 785 497 m 39 Y s 828 543 m 25 -13 d s 785 536
 m 43 7 d s 879 508 m 17 -9 d s 914 519 m 25 -13 d s 878 513 m 36 6 d s 957 526 m 25 -12 d s 914 519 m 43 7 d s 1000 534 m 25 -13 d s 957 526 m 43 8 d s 1044 541 m 7 -4 d s 1000 534 m 44 7 d s 1044 541 m 33 6 d s 1216 570 m 25 -13 d s 1214 570 m 2 X
 s 1259 577 m 25 -12 d s 1216 570 m 43 7 d s 1302 585 m 25 -13 d s 1259 577 m 43 8 d s 1345 592 m 25 -13 d s 1302 585 m 43 7 d s 1389 599 m 25 -12 d s 1345 592 m 44 7 d s 1432 607 m 25 -13 d s 1389 599 m 43 8 d s 1475 614 m 25 -13 d s 1432 607 m 43
 7 d s 1518 621 m 25 -13 d s 1475 614 m 43 7 d s 415 451 m 25 -12 d s 415 490 m 25 -13 d s 415 451 m 39 Y s 458 497 m 8 -4 d s 415 490 m 43 7 d s 717 503 m 25 -13 d s 704 500 m 13 3 d s 760 510 m 25 -13 d s 717 503 m 43 7 d s 760 514 m 25 -12 d s
 760 510 m 4 Y s 760 514 m 24 4 d s 871 521 m 18 Y s 845 534 m 26 5 d s 803 544 m 8 -4 d s 803 539 m 5 Y s 846 551 m 25 -12 d s 803 544 m 43 7 d s 914 519 m 2 Y s 878 515 m 36 6 d s 889 534 m 25 -13 d s 871 531 m 18 3 d s 932 539 m 25 -13 d s 893
 532 m 39 7 d s 976 546 m 24 -12 d s 932 539 m 44 7 d s 1019 554 m 25 -13 d s 976 546 m 43 8 d s 1062 561 m 16 -8 d s 1019 554 m 43 7 d s 1062 561 m 17 3 d s 1214 571 m 2 -1 d s 1234 590 m 25 -13 d s 1213 586 m 21 4 d s 1277 597 m 25 -12 d s 1234
 590 m 43 7 d s 1321 605 m 24 -13 d s 1277 597 m 44 8 d s 1364 612 m 25 -13 d s 1321 605 m 43 7 d s 1407 619 m 25 -12 d s 1364 612 m 43 7 d s 1450 626 m 25 -12 d s 1407 619 m 43 7 d s 1493 634 m 25 -13 d s 1450 626 m 43 8 d s 390 464 m 26 5 d s 390
 464 m 25 -13 d s 692 515 m 25 -12 d s 682 514 m 10 1 d s 735 522 m 25 -12 d s 692 515 m 43 7 d s 778 530 m 5 -3 d s 735 522 m 43 8 d s 778 530 m 5 1 d s 864 547 m 25 -13 d s 857 545 m 7 2 d s 908 552 m 24 -13 d s 868 545 m 40 7 d s 951 559 m 25 -13
 d s 908 552 m 43 7 d s 994 566 m 25 -12 d s 951 559 m 43 7 d s 1037 573 m 25 -12 d s 994 566 m 43 7 d s 1037 573 m 41 7 d s 1214 600 m 20 -10 d s 1253 610 m 24 -13 d s 1214 603 m 39 7 d s 1296 617 m 25 -12 d s 1253 610 m 43 7 d s 1339 624 m 25 -12
 d s 1296 617 m 43 7 d s 1382 632 m 25 -13 d s 1339 624 m 43 8 d s 1425 639 m 25 -13 d s 1382 632 m 43 7 d s 1468 646 m 25 -12 d s 1425 639 m 43 7 d s 408 484 m 8 -4 d s 365 477 m 43 7 d s 365 477 m 25 -13 d s 408 484 m 7 1 d s 494 499 m 5 -2 d s
 465 494 m 29 5 d s 494 499 m 15 2 d s 581 513 m 8 -4 d s 576 512 m 5 1 d s 581 525 m 24 -13 d s 581 513 m 12 Y s 624 532 m 11 -6 d s 581 525 m 43 7 d s 667 528 m 25 -13 d s 663 527 m 4 1 d s 710 535 m 25 -13 d s 667 528 m 43 7 d s 753 542 m 25 -12
 d s 710 535 m 43 7 d s 796 550 m 10 -5 d s 753 542 m 43 8 d s 839 557 m 22 -11 d s 796 550 m 43 7 d s 883 564 m 25 -12 d s 839 557 m 44 7 d s 926 572 m 25 -13 d s 883 564 m 43 8 d s 969 579 m 25 -13 d s 926 572 m 43 7 d s 1012 586 m 25 -13 d s 969
 579 m 43 7 d s 1055 593 m 23 -11 d s 1012 586 m 43 7 d s 1055 593 m 23 4 d s 1228 623 m 25 -13 d s 1213 620 m 15 3 d s 1271 630 m 25 -13 d s 1228 623 m 43 7 d s 1314 637 m 25 -13 d s 1271 630 m 43 7 d s 1357 644 m 25 -12 d s 1314 637 m 43 7 d s
 1400 652 m 25 -13 d s 1357 644 m 43 8 d s 1443 659 m 25 -13 d s 1400 652 m 43 7 d s 383 497 m 25 -13 d s 340 489 m 43 8 d s 340 489 m 25 -12 d s 426 504 m 18 -9 d s 383 497 m 43 7 d s 470 511 m 24 -12 d s 426 504 m 44 7 d s 470 511 m 38 7 d s 576
 516 m 5 -3 d s 599 533 m 8 -4 d s 567 528 m 32 5 d s 642 540 m 25 -12 d s 599 533 m 43 7 d s 685 548 m 25 -13 d s 642 540 m 43 8 d s 728 555 m 25 -13 d s 685 548 m 43 7 d s 771 562 m 25 -12 d s 728 555 m 43 7 d s 815 570 m 24 -13 d s 771 562 m 44 8
 d s 858 577 m 25 -13 d s 815 570 m 43 7 d s 901 584 m 25 -12 d s 858 577 m 43 7 d s 944 591 m 25 -12 d s 901 584 m 43 7 d s 987 599 m 25 -13 d s 944 591 m 43 8 d s 1030 606 m 25 -13 d s 987 599 m 43 7 d s 1073 613 m 5 -2 d s 1030 606 m 43 7 d s
 1073 613 m 5 1 d s 1213 630 m 15 -7 d s 1246 642 m 25 -12 d s 1212 637 m 34 5 d s 1289 650 m 25 -13 d s 1246 642 m 43 8 d s 1332 657 m 25 -13 d s 1289 650 m 43 7 d s 1375 664 m 25 -12 d s 1332 657 m 43 7 d s 1418 672 m 25 -13 d s 1375 664 m 43 8 d
 s[ 4 8] 0 sd 340 565 m 737 124 d s 1186 708 m 232 39 d s 340 640 m 737 124 d s 1170 780 m 248 42 d s 340 715 m 737 124 d s 1126 848 m 292 49 d s 340 790 m 1078 182 d s 340 865 m 1078 182 d s 340 940 m 1078 183 d s 340 1015 m 1078 183 d s 340 1091 m
 1078 182 d s[  ] 0 sd 448 508 m 60 10 d s 718 553 m 53 9 d s 933 590 m 54 9 d s 1418 672 m 631 Y s 340 1121 m 1078 182 d s 340 489 m 632 Y s[ 4 8] 0 sd 1418 747 m 623 -316 d s 1418 822 m 623 -316 d s 1418 897 m 623 -316 d s 1418 972 m 623 -315 d s
 1418 1047 m 623 -315 d s 1418 1123 m 623 -316 d s 1418 1198 m 623 -316 d s 1418 1273 m 623 -316 d s[  ] 0 sd 1418 672 m 48 -25 d s 1470 645 m 44 -22 d s 1522 619 m 40 -20 d s 1574 593 m 36 -19 d s 1626 566 m 32 -16 d s 1678 540 m 28 -14 d s 1730
 514 m 24 -12 d s 1782 487 m 20 -10 d s 1833 461 m 16 -8 d s 1885 435 m 12 -6 d s 1937 409 m 104 -53 d s 2041 356 m 631 Y s 1418 1303 m 623 -316 d s 340 489 m 623 -315 d s 963 174 m 631 Y s 340 1121 m 623 -316 d s 340 489 m 632 Y s 963 174 m 1078
 182 d s 2041 356 m 631 Y s 963 805 m 1078 182 d s 963 174 m 1078 182 d s
 gsave  2268 1448 0 0 C 1939 147 t 10 r /Helvetica-Bold findfont 68.3352 sf 0 0 m (, GeV) show NC gr 
 gsave  2268 1448 0 0 C 1830 162 t 10 r /Helvetica-Bold findfont 45.5568 sf 0 0 m (cand) show NC gr 
 gsave  2268 1448 0 0 C 1883 104 t 10 r /Helvetica-Bold findfont 30.3712 sf 0 0 m (R) show NC gr 
 gsave  2268 1448 0 0 C 1840 109 t 10 r /Helvetica-Bold findfont 45.5568 sf 0 0 m (W) show NC gr 
 gsave  2268 1448 0 0 C 1784 119 t 10 r /Helvetica-Bold findfont 68.3352 sf 0 0 m (M) show NC gr  971 153 m -8 21 d s 1010 171 m -4 10 d s 1053 178 m -4 10 d s 1096 185 m -4 11 d s 1139 193 m -4 10 d s 1187 190 m -9 20 d s 1226 207 m -5 10 d s 1269
 214 m -4 11 d s 1312 222 m -4 10 d s 1355 229 m -4 10 d s 1403 226 m -9 21 d s 1441 244 m -4 10 d s 1485 251 m -5 10 d s 1528 258 m -5 10 d s 1571 265 m -4 11 d s 1618 262 m -8 21 d s 1657 280 m -4 10 d s 1700 287 m -4 11 d s 1743 295 m -4 10 d s
 1786 302 m -4 10 d s 1834 299 m -9 21 d s 1873 316 m -5 11 d s 1916 324 m -4 10 d s 1959 331 m -4 10 d s 2002 338 m -4 11 d s 2050 335 m -9 21 d s
 gsave  2268 1448 0 0 C 939 106 t 0 r /Helvetica-Bold findfont 53.1496 sf 0 0 m (500) show NC gr 
 gsave  2268 1448 0 0 C 1139 142 t 0 r /Helvetica-Bold findfont 53.1496 sf 0 0 m (1000) show NC gr 
 gsave  2268 1448 0 0 C 1354 180 t 0 r /Helvetica-Bold findfont 53.1496 sf 0 0 m (1500) show NC gr 
 gsave  2268 1448 0 0 C 1572 215 t 0 r /Helvetica-Bold findfont 53.1496 sf 0 0 m (2000) show NC gr 
 gsave  2268 1448 0 0 C 1787 251 t 0 r /Helvetica-Bold findfont 53.1496 sf 0 0 m (2500) show NC gr 
 gsave  2268 1448 0 0 C 2002 289 t 0 r /Helvetica-Bold findfont 53.1496 sf 0 0 m (3000) show NC gr  963 174 m -623 315 d s
 gsave  2268 1448 0 0 C 387 266 t -26 r /Helvetica-Bold findfont 45.5568 sf 0 0 m (cand) show NC gr 
 gsave  2268 1448 0 0 C 395 185 t -26 r /Helvetica-Bold findfont 30.3712 sf 0 0 m (R) show NC gr 
 gsave  2268 1448 0 0 C 362 218 t -26 r /Helvetica-Bold findfont 45.5568 sf 0 0 m (W) show NC gr 
 gsave  2268 1448 0 0 C 306 271 t -26 r /Helvetica-Bold findfont 68.3352 sf 0 0 m (/M) show NC gr 
 gsave  2268 1448 0 0 C 228 347 t -26 r /Helvetica-Bold findfont 45.5568 sf 0 0 m (cand) show NC gr 
 gsave  2268 1448 0 0 C 205 301 t -26 r /Helvetica-Bold findfont 45.5568 sf 0 0 m (N) show NC gr 
 gsave  2268 1448 0 0 C 165 342 t -26 r /Helvetica-Bold findfont 68.3352 sf 0 0 m (M) show NC gr  948 162 m 15 12 d s 943 174 m 7 6 d s 930 180 m 8 6 d s 918 187 m 7 6 d s 905 193 m 8 6 d s 886 193 m 14 12 d s 881 206 m 7 6 d s 868 212 m 8 6 d s 856
 218 m 7 6 d s 843 225 m 8 6 d s 823 225 m 15 12 d s 818 237 m 8 6 d s 806 244 m 7 5 d s 793 250 m 8 6 d s 781 256 m 7 6 d s 761 256 m 15 12 d s 756 269 m 7 6 d s 744 275 m 7 6 d s 731 281 m 8 6 d s 719 288 m 7 6 d s 699 288 m 15 12 d s 694 300 m 7
 6 d s 681 307 m 8 6 d s 669 313 m 7 6 d s 656 319 m 8 6 d s 637 320 m 14 12 d s 632 332 m 7 6 d s 619 338 m 8 6 d s 607 345 m 7 5 d s 594 351 m 8 6 d s 574 351 m 15 12 d s 569 363 m 8 6 d s 557 370 m 7 6 d s 544 376 m 8 6 d s 532 382 m 7 6 d s 512
 383 m 15 12 d s 507 395 m 7 6 d s 495 401 m 7 6 d s 482 408 m 8 6 d s 470 414 m 7 6 d s 450 414 m 15 12 d s 445 427 m 7 6 d s 432 433 m 8 6 d s 420 439 m 7 6 d s 407 446 m 8 5 d s 388 446 m 14 12 d s 383 458 m 7 6 d s 370 464 m 8 6 d s 358 471 m 7
 6 d s 345 477 m 8 6 d s 325 477 m 15 12 d s
 gsave  2268 1448 0 0 C 883 114 t 0 r /Helvetica-Bold findfont 53.1496 sf 0 0 m (0) show NC gr 
 gsave  2268 1448 0 0 C 785 147 t 0 r /Helvetica-Bold findfont 53.1496 sf 0 0 m (0.1) show NC gr 
 gsave  2268 1448 0 0 C 714 177 t 0 r /Helvetica-Bold findfont 53.1496 sf 0 0 m (0.2) show NC gr 
 gsave  2268 1448 0 0 C 653 210 t 0 r /Helvetica-Bold findfont 53.1496 sf 0 0 m (0.3) show NC gr 
 gsave  2268 1448 0 0 C 590 240 t 0 r /Helvetica-Bold findfont 53.1496 sf 0 0 m (0.4) show NC gr 
 gsave  2268 1448 0 0 C 526 273 t 0 r /Helvetica-Bold findfont 53.1496 sf 0 0 m (0.5) show NC gr 
 gsave  2268 1448 0 0 C 466 304 t 0 r /Helvetica-Bold findfont 53.1496 sf 0 0 m (0.6) show NC gr 
 gsave  2268 1448 0 0 C 402 337 t 0 r /Helvetica-Bold findfont 53.1496 sf 0 0 m (0.7) show NC gr 
 gsave  2268 1448 0 0 C 342 367 t 0 r /Helvetica-Bold findfont 53.1496 sf 0 0 m (0.8) show NC gr 
 gsave  2268 1448 0 0 C 278 400 t 0 r /Helvetica-Bold findfont 53.1496 sf 0 0 m (0.9) show NC gr 
 gsave  2268 1448 0 0 C 266 428 t 0 r /Helvetica-Bold findfont 53.1496 sf 0 0 m (1) show NC gr  340 489 m 632 Y s 310 489 m 30 X s 325 504 m 15 X s 325 519 m 15 X s 325 534 m 15 X s 325 550 m 15 X s 310 565 m 30 X s 325 580 m 15 X s 325 595 m 15 X s
 325 610 m 15 X s 325 625 m 15 X s 310 640 m 30 X s 325 655 m 15 X s 325 670 m 15 X s 325 685 m 15 X s 325 700 m 15 X s 310 715 m 30 X s 325 730 m 15 X s 325 745 m 15 X s 325 760 m 15 X s 325 775 m 15 X s 310 790 m 30 X s 325 805 m 15 X s 325 820 m
 15 X s 325 835 m 15 X s 325 850 m 15 X s 310 865 m 30 X s 325 880 m 15 X s 325 895 m 15 X s 325 910 m 15 X s 325 925 m 15 X s 310 940 m 30 X s 325 955 m 15 X s 325 970 m 15 X s 325 985 m 15 X s 325 1000 m 15 X s 310 1015 m 30 X s 325 1030 m 15 X s
 325 1046 m 15 X s 325 1061 m 15 X s 325 1076 m 15 X s 310 1091 m 30 X s 310 1091 m 30 X s 325 1106 m 15 X s 325 1121 m 15 X s
 gsave  2268 1448 0 0 C 276 471 t 0 r /Helvetica-Bold findfont 53.1496 sf 0 0 m (0) show NC gr 
 gsave  2268 1448 0 0 C 238 547 t 0 r /Helvetica-Bold findfont 53.1496 sf 0 0 m (0.1) show NC gr 
 gsave  2268 1448 0 0 C 230 620 t 0 r /Helvetica-Bold findfont 53.1496 sf 0 0 m (0.2) show NC gr 
 gsave  2268 1448 0 0 C 230 696 t 0 r /Helvetica-Bold findfont 53.1496 sf 0 0 m (0.3) show NC gr 
 gsave  2268 1448 0 0 C 230 772 t 0 r /Helvetica-Bold findfont 53.1496 sf 0 0 m (0.4) show NC gr 
 gsave  2268 1448 0 0 C 230 845 t 0 r /Helvetica-Bold findfont 53.1496 sf 0 0 m (0.5) show NC gr 
 gsave  2268 1448 0 0 C 230 921 t 0 r /Helvetica-Bold findfont 53.1496 sf 0 0 m (0.6) show NC gr 
 gsave  2268 1448 0 0 C 230 997 t 0 r /Helvetica-Bold findfont 53.1496 sf 0 0 m (0.7) show NC gr 
 gsave  2268 1448 0 0 C 230 1071 t 0 r /Helvetica-Bold findfont 53.1496 sf 0 0 m (0.8) show NC gr 
 gr  gr 
showpage
end
%%EOF
