%!PS-Adobe-2.0 EPSF-2.0
%%BoundingBox:  0 0 567 362
%%Title: ./zsample.eps:  
%%Creator: ROOT Version 5.24/00
%%CreationDate: Sun Feb 28 12:57:01 2010
%%EndComments
%%BeginProlog
80 dict begin
/s {stroke} def /l {lineto} def /m {moveto} def /t {translate} def
/sw {stringwidth} def /r {rotate} def /rl {roll}  def /R {repeat} def
/d {rlineto} def /rm {rmoveto} def /gr {grestore} def /f {eofill} def
/c {setrgbcolor} def /black {0 setgray} def /sd {setdash} def
/cl {closepath} def /sf {scalefont setfont} def /lw {setlinewidth} def
/box {m dup 0 exch d exch 0 d 0 exch neg d cl} def
/NC{systemdict begin initclip end}def/C{NC box clip newpath}def
/bl {box s} def /bf {box f} def /Y { 0 exch d} def /X { 0 d} def 
/mp {newpath /y exch def /x exch def} def
/side {[w .77 mul w .23 mul] .385 w mul sd w 0 l currentpoint t -144 r} def
/mr {mp x y w2 0 360 arc} def /m24 {mr s} def /m20 {mr f} def
/mb {mp x y w2 add m w2 neg 0 d 0 w neg d w 0 d 0 w d cl} def
/mt {mp x y w2 add m w2 neg w neg d w 0 d cl} def
/m21 {mb f} def /m25 {mb s} def /m22 {mt f} def /m26{mt s} def
/m23 {mp x y w2 sub m w2 w d w neg 0 d cl f} def
/m27 {mp x y w2 add m w3 neg w2 neg d w3 w2 neg d w3 w2 d cl s} def
/m28 {mp x w2 sub y w2 sub w3 add m w3 0 d  0 w3 neg d w3 0 d 0 w3 d w3 0 d  0 w3 d w3 neg 0 d 0 w3 d w3 neg 0 d
 0 w3 neg d w3 neg 0 d cl s } def
/m29 {mp gsave x w2 sub y w2 add w3 sub m currentpoint t
 4 {side} repeat cl fill gr} def
/m30 {mp gsave x w2 sub y w2 add w3 sub m currentpoint t
 4 {side} repeat cl s gr} def
/m31 {mp x y w2 sub m 0 w d x w2 sub y m w 0 d x w2 sub y w2 add m w w neg d x w2 sub y w2
 sub m w w d s} def
/m2 {mp x y w2 sub m 0 w d x w2 sub y m w 0 d s} def
/m5 {mp x w2 sub y w2 sub m w w d x w2 sub y w2 add m w w neg d s} def
/reEncode {exch findfont dup length dict begin {1 index /FID eq  {pop pop} {def} ifelse } forall /Encoding exch def currentdict end dup /FontName get exch definefont pop } def [/Times-Bold /Times-Italic /Times-BoldItalic /Helvetica
 /Helvetica-Oblique /Helvetica-Bold /Helvetica-BoldOblique /Courier /Courier-Oblique /Courier-Bold /Courier-BoldOblique /Times-Roman /AvantGarde-Book /AvantGarde-BookOblique /AvantGarde-Demi /AvantGarde-DemiOblique /Bookman-Demi
 /Bookman-DemiItalic /Bookman-Light /Bookman-LightItalic /Helvetica-Narrow /Helvetica-Narrow-Bold /Helvetica-Narrow-BoldOblique /Helvetica-Narrow-Oblique /NewCenturySchlbk-Roman /NewCenturySchlbk-Bold
 /NewCenturySchlbk-BoldItalic /NewCenturySchlbk-Italic /Palatino-Bold /Palatino-BoldItalic /Palatino-Italic /Palatino-Roman ] {ISOLatin1Encoding reEncode } forall
/oshow {gsave [] 0 sd true charpath stroke gr} def
/stwn { /fs exch def /fn exch def /text exch def fn findfont fs sf
 text sw pop xs add /xs exch def} def
/stwb { /fs exch def /fn exch def /nbas exch def /textf exch deftextf length /tlen exch def nbas tlen gt {/nbas tlendef} iffn findfont fs sf textf dup length nbas sub nbas getinterval sw
pop neg xs add /xs exch def} def
%%EndProlog
%%BeginSetup
%%EndSetup
newpath  gsave  .25 .25 scale  gsave  0 0 t black[  ] 0 sd 3 lw 0.95 0.95 0.95 c 2268 1448 0 0 bf 1 1 1 c 0 0 m 8 8 d 1432 Y 2252 X 8 8 d -2268 X -1448 Y f 0.665 0.665 0.665 c 0 0 m 8 8 d 2252 X 1432 Y 8 8 d -1448 Y -2268 X f black 1 1 1 c 1134 1448
 0 0 bf black 1 1 1 c 884 1129 136 174 bf 136 174 m 4 4 d 1121 Y 876 X 4 4 d -884 X -1129 Y f 1 7.94729e-08 0 c 136 174 m 4 4 d 876 X 1121 Y 4 4 d -1129 Y -884 X f black 884 1129 136 174 bl 1 1 1 c 884 1129 136 174 bf 136 174 m 4 4 d 1121 Y 876 X 4
 4 d -884 X -1129 Y f 1 7.94729e-08 0 c 136 174 m 4 4 d 876 X 1121 Y 4 4 d -1129 Y -884 X f black 884 1129 136 174 bl 1 1 1 c black 136 174 m 71 X 473 Y 9 X 602 Y 9 X -260 Y 8 X -277 Y 9 X -219 Y 9 X -143 Y 9 X -79 Y 9 X -37 Y 9 X -20 Y 8 X -12 Y 9
 X -6 Y 9 X -7 Y 9 X -2 Y 9 X -4 Y 9 X -2 Y 8 X -1 Y 9 X -2 Y 18 X -1 Y 9 X -1 Y 26 X -1 Y 62 X -1 Y 557 X s 136 174 m 884 X s
 gsave  1134 1448 0 0 C 883 35 t 0 r /Helvetica-Bold findfont 53.1496 sf 0 0 m (, GeV) show NC gr 
 gsave  1134 1448 0 0 C 820 68 t 0 r /Helvetica-Bold findfont 35.4331 sf 0 0 m (lept) show NC gr 
 gsave  1134 1448 0 0 C 820 20 t 0 r /Helvetica-Bold findfont 35.4331 sf 0 0 m (t) show NC gr 
 gsave  1134 1448 0 0 C 785 35 t 0 r /Helvetica-Bold findfont 53.1496 sf 0 0 m (P) show NC gr  136 208 m -34 Y s 154 191 m -17 Y s 171 191 m -17 Y s 189 191 m -17 Y s 207 191 m -17 Y s 225 208 m -34 Y s 242 191 m -17 Y s 260 191 m -17 Y s 278 191 m
 -17 Y s 295 191 m -17 Y s 313 208 m -34 Y s 331 191 m -17 Y s 348 191 m -17 Y s 366 191 m -17 Y s 384 191 m -17 Y s 401 208 m -34 Y s 419 191 m -17 Y s 437 191 m -17 Y s 454 191 m -17 Y s 472 191 m -17 Y s 490 208 m -34 Y s 508 191 m -17 Y s 525
 191 m -17 Y s 543 191 m -17 Y s 561 191 m -17 Y s 578 208 m -34 Y s 596 191 m -17 Y s 614 191 m -17 Y s 631 191 m -17 Y s 649 191 m -17 Y s 667 208 m -34 Y s 684 191 m -17 Y s 702 191 m -17 Y s 720 191 m -17 Y s 737 191 m -17 Y s 755 208 m -34 Y s
 773 191 m -17 Y s 791 191 m -17 Y s 808 191 m -17 Y s 826 191 m -17 Y s 844 208 m -34 Y s 861 191 m -17 Y s 879 191 m -17 Y s 897 191 m -17 Y s 914 191 m -17 Y s 932 208 m -34 Y s 950 191 m -17 Y s 967 191 m -17 Y s 985 191 m -17 Y s 1003 191 m -17
 Y s 1020 208 m -34 Y s
 gsave  1134 1448 0 0 C 121 121 t 0 r /Helvetica-Bold findfont 43.0259 sf 0 0 m (0) show NC gr 
 gsave  1134 1448 0 0 C 197 121 t 0 r /Helvetica-Bold findfont 43.0259 sf 0 0 m (50) show NC gr 
 gsave  1134 1448 0 0 C 276 121 t 0 r /Helvetica-Bold findfont 43.0259 sf 0 0 m (100) show NC gr 
 gsave  1134 1448 0 0 C 364 121 t 0 r /Helvetica-Bold findfont 43.0259 sf 0 0 m (150) show NC gr 
 gsave  1134 1448 0 0 C 453 121 t 0 r /Helvetica-Bold findfont 43.0259 sf 0 0 m (200) show NC gr 
 gsave  1134 1448 0 0 C 542 121 t 0 r /Helvetica-Bold findfont 43.0259 sf 0 0 m (250) show NC gr 
 gsave  1134 1448 0 0 C 630 121 t 0 r /Helvetica-Bold findfont 43.0259 sf 0 0 m (300) show NC gr 
 gsave  1134 1448 0 0 C 719 121 t 0 r /Helvetica-Bold findfont 43.0259 sf 0 0 m (350) show NC gr 
 gsave  1134 1448 0 0 C 807 121 t 0 r /Helvetica-Bold findfont 43.0259 sf 0 0 m (400) show NC gr 
 gsave  1134 1448 0 0 C 896 121 t 0 r /Helvetica-Bold findfont 43.0259 sf 0 0 m (450) show NC gr 
 gsave  1134 1448 0 0 C 985 121 t 0 r /Helvetica-Bold findfont 43.0259 sf 0 0 m (500) show NC gr  136 174 m 1129 Y s
 gsave  1134 1448 0 0 C 48 1040 t 90 r /Helvetica-Bold findfont 43.0259 sf 0 0 m (Events/5GeV) show NC gr  163 174 m -27 X s 149 230 m -13 X s 149 286 m -13 X s 149 342 m -13 X s 163 398 m -27 X s 149 454 m -13 X s 149 510 m -13 X s 149 566 m -13 X
 s 163 622 m -27 X s 149 678 m -13 X s 149 734 m -13 X s 149 790 m -13 X s 163 846 m -27 X s 149 902 m -13 X s 149 958 m -13 X s 149 1014 m -13 X s 163 1070 m -27 X s 149 1126 m -13 X s 149 1182 m -13 X s 149 1238 m -13 X s 163 1294 m -27 X s 163
 1294 m -27 X s
 gsave  1134 1448 0 0 C 106 157 t 0 r /Helvetica-Bold findfont 43.0259 sf 0 0 m (0) show NC gr 
 gsave  1134 1448 0 0 C 58 382 t 0 r /Helvetica-Bold findfont 43.0259 sf 0 0 m (200) show NC gr 
 gsave  1134 1448 0 0 C 58 605 t 0 r /Helvetica-Bold findfont 43.0259 sf 0 0 m (400) show NC gr 
 gsave  1134 1448 0 0 C 58 830 t 0 r /Helvetica-Bold findfont 43.0259 sf 0 0 m (600) show NC gr 
 gsave  1134 1448 0 0 C 58 1053 t 0 r /Helvetica-Bold findfont 43.0259 sf 0 0 m (800) show NC gr 
 gsave  1134 1448 0 0 C 35 1278 t 0 r /Helvetica-Bold findfont 43.0259 sf 0 0 m (1000) show NC gr  1 1 1 c 1134 1448 1134 0 bf black 1 1 1 c 884 1129 1270 174 bf 1270 174 m 4 4 d 1121 Y 876 X 4 4 d -884 X -1129 Y f 1 7.94729e-08 0 c 1270 174 m 4 4 d
 876 X 1121 Y 4 4 d -1129 Y -884 X f black 884 1129 1270 174 bl 1 1 1 c 884 1129 1270 174 bf 1270 174 m 4 4 d 1121 Y 876 X 4 4 d -884 X -1129 Y f 1 7.94729e-08 0 c 1270 174 m 4 4 d 876 X 1121 Y 4 4 d -1129 Y -884 X f black 884 1129 1270 174 bl 1 1 1
 c black 1270 225 m 13 X 185 Y 14 X 130 Y 13 X 79 Y 14 X 64 Y 13 X 62 Y 13 X 29 Y 14 X 77 Y 13 X 53 Y 14 X 67 Y 13 X 87 Y 13 X 58 Y 14 X 75 Y 13 X 1 Y 14 X 23 Y 13 X 34 Y 13 X -41 Y 14 X -13 Y 13 X -117 Y 14 X 25 Y 13 X -17 Y 13 X -84 Y 14 X -46 Y
 13 X -112 Y 14 X -86 Y 13 X -94 Y 13 X -98 Y 14 X -50 Y 13 X -84 Y 14 X -73 Y 13 X -32 Y 13 X -28 Y 14 X -14 Y 13 X -12 Y 14 X -24 Y 13 X -8 Y 13 X -25 Y 14 X 3 Y 13 X -12 Y 14 X 1 Y 13 X -11 Y 13 X -2 Y 14 X -4 Y 13 X -2 Y 14 X -5 Y 40 X -4 Y 13 X
 2 Y 27 X -4 Y 13 X 1 Y 14 X -1 Y 13 X -1 Y 14 X -3 Y 26 X 1 Y 14 X -1 Y 120 X s 1270 174 m 884 X s
 gsave  1134 1448 1134 0 C 1888 43 t 0 r /Helvetica-Bold findfont 53.1496 sf 0 0 m ( dist. to jet) show NC gr 
 gsave  1134 1448 1134 0 C 1860 43 t 0 r /Symbol findfont 53.1496 sf 0 0 m (f) show NC gr 
 gsave  1134 1448 1134 0 C 1815 43 t 0 r /Helvetica-Bold findfont 53.1496 sf 0 0 m ( \255 ) show NC gr 
 gsave  1134 1448 1134 0 C 1784 43 t 0 r /Symbol findfont 53.1496 sf 0 0 m (h) show NC gr 
 gsave  1134 1448 1134 0 C 1681 43 t 0 r /Helvetica-Bold findfont 53.1496 sf 0 0 m (min ) show NC gr  1337 208 m -34 Y s 1364 191 m -17 Y s 1391 191 m -17 Y s 1417 191 m -17 Y s 1444 191 m -17 Y s 1471 208 m -34 Y s 1498 191 m -17 Y s 1525 191 m -17
 Y s 1551 191 m -17 Y s 1578 191 m -17 Y s 1605 208 m -34 Y s 1632 191 m -17 Y s 1659 191 m -17 Y s 1685 191 m -17 Y s 1712 191 m -17 Y s 1739 208 m -34 Y s 1766 191 m -17 Y s 1793 191 m -17 Y s 1819 191 m -17 Y s 1846 191 m -17 Y s 1873 208 m -34 Y
 s 1900 191 m -17 Y s 1927 191 m -17 Y s 1953 191 m -17 Y s 1980 191 m -17 Y s 2007 208 m -34 Y s 2034 191 m -17 Y s 2061 191 m -17 Y s 2087 191 m -17 Y s 2114 191 m -17 Y s 2141 208 m -34 Y s 1337 208 m -34 Y s 1310 191 m -17 Y s 1283 191 m -17 Y s
 2141 208 m -34 Y s
 gsave  1134 1448 1134 0 C 1326 121 t 0 r /Helvetica-Bold findfont 43.0259 sf 0 0 m (1) show NC gr 
 gsave  1134 1448 1134 0 C 1458 121 t 0 r /Helvetica-Bold findfont 43.0259 sf 0 0 m (2) show NC gr 
 gsave  1134 1448 1134 0 C 1592 121 t 0 r /Helvetica-Bold findfont 43.0259 sf 0 0 m (3) show NC gr 
 gsave  1134 1448 1134 0 C 1726 121 t 0 r /Helvetica-Bold findfont 43.0259 sf 0 0 m (4) show NC gr 
 gsave  1134 1448 1134 0 C 1860 121 t 0 r /Helvetica-Bold findfont 43.0259 sf 0 0 m (5) show NC gr 
 gsave  1134 1448 1134 0 C 1992 121 t 0 r /Helvetica-Bold findfont 43.0259 sf 0 0 m (6) show NC gr 
 gsave  1134 1448 1134 0 C 2126 121 t 0 r /Helvetica-Bold findfont 43.0259 sf 0 0 m (7) show NC gr  1270 174 m 1129 Y s
 gsave  1134 1448 1134 0 C 1182 1096 t 90 r /Helvetica-Bold findfont 43.0259 sf 0 0 m (Events/0.1) show NC gr  1296 174 m -26 X s 1283 230 m -13 X s 1283 286 m -13 X s 1283 343 m -13 X s 1296 399 m -26 X s 1283 455 m -13 X s 1283 511 m -13 X s 1283
 568 m -13 X s 1296 624 m -26 X s 1283 680 m -13 X s 1283 736 m -13 X s 1283 793 m -13 X s 1296 849 m -26 X s 1283 905 m -13 X s 1283 961 m -13 X s 1283 1018 m -13 X s 1296 1074 m -26 X s 1283 1130 m -13 X s 1283 1186 m -13 X s 1283 1243 m -13 X s
 1296 1299 m -26 X s 1296 1299 m -26 X s
 gsave  1134 1448 1134 0 C 1240 157 t 0 r /Helvetica-Bold findfont 43.0259 sf 0 0 m (0) show NC gr 
 gsave  1134 1448 1134 0 C 1215 382 t 0 r /Helvetica-Bold findfont 43.0259 sf 0 0 m (20) show NC gr 
 gsave  1134 1448 1134 0 C 1215 607 t 0 r /Helvetica-Bold findfont 43.0259 sf 0 0 m (40) show NC gr 
 gsave  1134 1448 1134 0 C 1215 833 t 0 r /Helvetica-Bold findfont 43.0259 sf 0 0 m (60) show NC gr 
 gsave  1134 1448 1134 0 C 1215 1058 t 0 r /Helvetica-Bold findfont 43.0259 sf 0 0 m (80) show NC gr 
 gsave  1134 1448 1134 0 C 1192 1283 t 0 r /Helvetica-Bold findfont 43.0259 sf 0 0 m (100) show NC gr 
 gr  gr 
showpage
end
%%EOF
